1530864176.000000, IBI
77.956693,0.687531
125.115102,0.875040
126.037019,0.921917
126.943311,0.906291
127.787099,0.843789
128.646514,0.859414
129.490302,0.843789
130.318465,0.828163
131.115377,0.796911
131.943540,0.828163
132.771703,0.828163
133.584240,0.812537
134.443654,0.859414
135.334320,0.890666
136.209360,0.875040
137.068774,0.859414
137.975066,0.906291
138.928234,0.953169
139.850152,0.921917
140.803320,0.953169
153.163261,0.828163
153.975798,0.812537
154.803961,0.828163
155.632124,0.828163
156.429035,0.796911
157.241573,0.812537
158.085361,0.843789
158.913524,0.828163
159.741687,0.828163
160.601101,0.859414
161.460516,0.859414
162.273053,0.812537
163.132467,0.859414
163.976256,0.843789
164.820045,0.843789
165.835716,1.015671
166.617002,0.781286
167.429539,0.812537
168.257702,0.828163
169.101490,0.843789
169.960905,0.859414
170.804693,0.843789
171.664108,0.859414
172.539148,0.875040
173.398562,0.859414
174.242351,0.843789
175.117391,0.875040
176.023682,0.906291
176.898722,0.875040
177.789388,0.890666
178.664428,0.875040
179.523843,0.859414
180.367631,0.843789
181.227046,0.859414
182.102086,0.875040
182.961500,0.859414
183.867791,0.906291
184.789709,0.921917
192.821326,0.890666
193.774495,0.953169
194.696412,0.921917
195.649581,0.953169
196.571498,0.921917
197.477789,0.906291
198.352829,0.875040
247.620710,0.750034
248.370744,0.750034
292.747775,0.953169
293.638441,0.890666
294.607235,0.968794
295.497901,0.890666
303.467016,0.906291
304.451436,0.984420
305.435856,0.984420
306.357773,0.921917
307.373445,1.015671
316.873880,1.015671
317.873925,1.000046
318.780217,0.906291
319.717760,0.937543
320.686554,0.968794
321.577220,0.890666
322.530389,0.953169
323.530434,1.000046
324.577357,1.046923
325.655532,1.078174
326.749332,1.093800
327.796255,1.046923
328.765049,0.968794
329.765095,1.000046
330.702638,0.937543
331.624555,0.921917
332.624601,1.000046
333.593395,0.968794
334.437184,0.843789
335.405978,0.968794
336.359147,0.953169
344.906413,0.953169
345.812704,0.906291
346.734622,0.921917
347.703416,0.968794
374.407763,0.953169
378.923595,0.890666
457.833457,1.078174
458.645994,0.812537
459.614789,0.968794
460.583583,0.968794
479.240687,1.046923
480.193856,0.953169
481.178276,0.984420
482.147070,0.968794
483.022110,0.875040
484.006530,0.984420
484.990950,0.984420
485.959744,0.968794
486.975416,1.015671
487.991087,1.015671
488.991133,1.000046
490.006805,1.015671
491.084979,1.078174
492.022522,0.937543
492.975691,0.953169
493.944485,0.968794
494.850776,0.906291
495.819571,0.968794
496.803991,0.984420
497.663405,0.859414
504.866860,0.875040
505.741900,0.875040
506.601314,0.859414
507.460729,0.859414
514.914195,0.890666
515.851738,0.937543
516.773655,0.921917
517.648695,0.875040
518.539361,0.890666
519.476904,0.937543
520.367569,0.890666
521.351990,0.984420
522.273907,0.921917
523.227075,0.953169
524.180244,0.953169
525.117787,0.937543
526.070956,0.953169
526.977247,0.906291
527.914790,0.937543
528.836707,0.921917
529.774250,0.937543
530.758670,0.984420
531.727464,0.968794
532.680633,0.953169
533.649427,0.968794
534.602596,0.953169
535.524513,0.921917
536.462056,0.937543
537.477728,1.015671
538.430896,0.953169
539.399691,0.968794
540.384111,0.984420
541.306028,0.921917
542.243571,0.937543
543.165488,0.921917
544.118657,0.953169
545.056200,0.937543
545.978117,0.921917
546.884408,0.906291
547.806325,0.921917
548.712617,0.906291
549.634534,0.921917
550.556451,0.921917
551.447117,0.890666
552.384660,0.937543
553.197197,0.812537
563.588298,0.921917
564.494589,0.906291
565.385255,0.890666
566.229044,0.843789
567.119709,0.890666
568.088504,0.968794
568.994795,0.906291
569.963590,0.968794
570.885507,0.921917
571.791798,0.906291
572.666838,0.875040
573.573130,0.906291
574.463796,0.890666
575.323210,0.859414
576.229501,0.906291
577.182670,0.953169
578.073336,0.890666
579.026505,0.953169
579.932796,0.906291
580.792210,0.859414
581.635999,0.843789
582.526665,0.890666
583.432956,0.906291
584.370499,0.937543
585.323668,0.953169
586.229959,0.906291
587.120625,0.890666
588.011291,0.890666
588.886331,0.875040
589.776997,0.890666
590.698914,0.921917
591.573954,0.875040
592.448994,0.875040
593.324034,0.875040
594.183448,0.859414
595.074114,0.890666
595.996031,0.921917
596.902323,0.906291
597.761737,0.859414
598.668029,0.906291
599.558694,0.890666
600.402483,0.843789
601.293149,0.890666
602.183815,0.890666
602.996352,0.812537
603.871392,0.875040
613.871850,0.859414
614.731264,0.859414
615.637555,0.906291
616.481344,0.843789
625.669265,0.828163
626.606807,0.937543
627.419345,0.812537
628.294385,0.875040
629.153799,0.859414
636.216622,0.890666
637.154165,0.937543
638.013580,0.859414
642.810674,0.765660
643.607586,0.796911
644.467000,0.859414
657.748858,0.890666
658.608272,0.859414
659.545815,0.937543
660.592738,1.046923
661.577158,0.984420
662.577204,1.000046
663.592875,1.015671
664.514793,0.921917
665.421084,0.906291
666.296124,0.875040
667.139913,0.843789
713.423281,0.890666
714.423327,1.000046
715.642133,1.218806
738.643186,1.031297
758.909739,0.875040
759.878533,0.968794
760.831702,0.953169
761.816122,0.984420
762.691162,0.875040
763.628705,0.937543
764.628750,1.000046
810.677733,1.000046
811.615276,0.937543
812.584070,0.968794
813.505988,0.921917
814.459156,0.953169
960.418963,1.062549
1040.422625,1.031297
1041.360168,0.937543
1042.328962,0.968794
1043.313382,0.984420
1044.282176,0.968794
1051.110614,0.953169
1052.141911,1.031297
1053.204460,1.062549
1054.188880,0.984420
1055.251428,1.062549
1056.235848,0.984420
1057.126514,0.890666
1058.048431,0.921917
1059.001600,0.953169
1059.892266,0.890666
1060.892312,1.000046
1061.939234,1.046923
1062.908029,0.968794
1063.954952,1.046923
1065.017500,1.062549
1065.970669,0.953169
1066.970715,1.000046
1067.986386,1.015671
1068.908303,0.921917
1069.892724,0.984420
1070.955272,1.062549
1071.970944,1.015671
1072.986615,1.015671
1074.002287,1.015671
1074.986707,0.984420
1075.939875,0.953169
1076.986798,1.046923
1078.002470,1.015671
1078.940013,0.937543
1079.955684,1.015671
1080.971356,1.015671
1253.369872,0.843789
1254.323041,0.953169
1325.857565,0.984420
1326.904488,1.046923
1327.982662,1.078174
1328.920205,0.937543
1329.935877,1.015671
1330.967174,1.031297
1331.904717,0.937543
1332.951640,1.046923
1333.998563,1.046923
1334.951731,0.953169
1335.998654,1.046923
1337.045577,1.046923
1338.014372,0.968794
1339.045669,1.031297
1340.108217,1.062549
1341.061386,0.953169
1342.045806,0.984420
1343.108355,1.062549
1344.155278,1.046923
1345.124072,0.968794
1346.139744,1.015671
1383.297694,1.093800
1384.360243,1.062549
1394.829472,1.046923
1395.829518,1.000046
1473.676831,0.984420
1474.692503,1.015671
1475.723800,1.031297
1476.676969,0.953169
1477.598886,0.921917
1478.583306,0.984420
1479.567726,0.984420
1480.630275,1.062549
1481.677198,1.046923
1539.148578,0.984420
1540.117373,0.968794
1541.164296,1.046923
1542.101839,0.937543
1543.101884,1.000046
1544.133182,1.031297
1545.070724,0.937543
1546.117647,1.046923
1547.164570,1.046923
1548.102113,0.937543
1549.117785,1.015671
1550.102205,0.984420
1551.149128,1.046923
1552.071045,0.921917
1553.008588,0.937543
1598.807559,1.062549
1599.916985,1.109426
1601.010785,1.093800
1602.057708,1.046923
1603.073380,1.015671
1604.104677,1.031297
1605.104722,1.000046
1606.089143,0.984420
1607.104814,1.015671
1608.151737,1.046923
1609.198660,1.046923
1616.042723,1.093800
1617.105272,1.062549
1623.246178,0.937543
1624.261849,1.015671
1625.246269,0.984420
1626.261941,1.015671
1633.340390,0.906291
1634.324810,0.984420
1635.262353,0.937543
1636.199896,0.937543
1637.059310,0.859414
1637.981227,0.921917
1639.012525,1.031297
1640.043822,1.031297
1649.075485,1.046923
1650.044280,0.968794
1650.981822,0.937543
1651.950617,0.968794
1652.841283,0.890666
1653.810077,0.968794
1654.841374,1.031297
1655.794543,0.953169
1656.778963,0.984420
1657.810260,1.031297
1658.888434,1.078174
1659.919732,1.031297
1661.060409,1.140677
1662.216712,1.156303
1663.263635,1.046923
1664.326183,1.062549
1665.404358,1.078174
1666.357526,0.953169
1667.420075,1.062549
1668.513875,1.093800
1669.498295,0.984420
1670.513967,1.015671
1671.529638,1.015671
1672.498432,0.968794
1673.576607,1.078174
1674.623530,1.046923
1675.498570,0.875040
1676.389235,0.890666
1677.311153,0.921917
1678.233070,0.921917
1679.092484,0.859414
1680.014401,0.921917
1680.967570,0.953169
1681.889487,0.921917
1682.795779,0.906291
1683.764573,0.968794
1684.748993,0.984420
1685.670910,0.921917
1686.639705,0.968794
1687.639750,1.000046
1688.639796,1.000046
1693.390014,1.015671
1694.390059,1.000046
1695.296351,0.906291
1696.233894,0.937543
1697.155811,0.921917
1698.062103,0.906291
1698.937143,0.875040
1699.843434,0.906291
1700.827854,0.984420
1701.718520,0.890666
1702.702940,0.984420
1703.734237,1.031297
1704.703032,0.968794
1705.687452,0.984420
1706.656246,0.968794
1707.625040,0.968794
1708.562583,0.937543
1709.515752,0.953169
1710.562675,1.046923
1711.531469,0.968794
1764.596398,1.015671
1770.502918,1.062549
1771.534216,1.031297
1772.471759,0.937543
1773.424927,0.953169
1774.393722,0.968794
1775.300013,0.906291
1776.268807,0.968794
1777.253227,0.984420
1785.706739,0.984420
1786.706785,1.000046
1795.191549,1.046923
1796.254097,1.062549
1797.394774,1.140677
1798.551077,1.156303
1799.629252,1.078174
1800.754303,1.125051
1812.864233,1.000046
1813.911155,1.046923
1814.926827,1.015671
1815.895621,0.968794
1816.958170,1.062549
1818.098847,1.140677
1819.098893,1.000046
1820.192693,1.093800
1821.270867,1.078174
1822.208410,0.937543
1823.286585,1.078174
1824.396010,1.109426
1825.364805,0.968794
1826.380476,1.015671
1827.380522,1.000046
1866.960459,0.859414
1935.776109,0.875040
1936.744903,0.968794
1937.744949,1.000046
1938.698117,0.953169
2090.845707,1.031297
2092.095764,1.250057
2093.267693,1.171929
2094.345867,1.078174
2095.502170,1.156303
2096.689724,1.187554
2097.736647,1.046923
2098.830447,1.093800
2099.892996,1.062549
2100.924293,1.031297
2102.174351,1.250057
2103.283776,1.109426
2104.236945,0.953169
2110.924751,1.234432
2165.052229,1.078174
2185.068770,1.140677
2186.162570,1.093800
2187.162616,1.000046
2188.272042,1.109426
2189.412719,1.140677
2190.444016,1.031297
2191.537816,1.093800
2192.678493,1.140677
2193.709790,1.031297
2194.834842,1.125051
2196.006771,1.171929
2197.038068,1.031297
2198.147494,1.109426
2201.882040,0.750034
2202.819582,0.937543
2207.226034,1.046923
2208.210454,0.984420
2209.210500,1.000046
2210.210546,1.000046
2211.148089,0.937543
2212.163760,1.015671
2213.163806,1.000046
2214.132600,0.968794
2215.242026,1.109426
2216.429580,1.187554
2217.507755,1.078174
2218.617181,1.109426
2219.742232,1.125051
2270.853947,0.968794
2271.932121,1.078174
2272.885290,0.953169
2273.869710,0.984420
2274.869756,1.000046
2275.682293,0.812537
2276.432327,0.750034
2284.120179,1.078174
2285.182728,1.062549
2286.292153,1.109426
2287.448456,1.156303
2288.573508,1.125051
2297.183277,1.015671
2298.198948,1.015671
2299.183368,0.984420
2300.074034,0.890666
2300.995951,0.921917
2312.355846,0.937543
2313.246512,0.890666
2314.230932,0.984420
2315.230978,1.000046
2316.152895,0.921917
2317.137315,0.984420
2318.121735,0.984420
2319.090530,0.968794
2320.028073,0.937543
2321.074996,1.046923
2322.137544,1.062549
2323.121964,0.984420
2324.153261,1.031297
2325.137681,0.984420
2325.981470,0.843789
2326.887762,0.906291
2327.856556,0.968794
2328.778473,0.921917
2329.747267,0.968794
2337.575751,1.046923
2338.560171,0.984420
2339.591468,1.031297
2340.638391,1.046923
2341.763443,1.125051
2342.763488,1.000046
2343.779160,1.015671
2344.841708,1.062549
2345.779251,0.937543
2346.841800,1.062549
2347.966851,1.125051
2348.998149,1.031297
2350.138826,1.140677
2351.279503,1.140677
2352.310800,1.031297
2353.404600,1.093800
2354.467149,1.062549
2355.420318,0.953169
2356.482866,1.062549
2357.545415,1.062549
2358.561086,1.015671
2359.701764,1.140677
2360.811189,1.109426
2361.811235,1.000046
2362.842532,1.031297
2363.858204,1.015671
2364.733244,0.875040
2365.670787,0.937543
2366.655207,0.984420
2367.545873,0.890666
2368.530293,0.984420
2369.545964,1.015671
2370.514759,0.968794
2371.436676,0.921917
2372.374219,0.937543
2373.296136,0.921917
2374.139925,0.843789
2375.046216,0.906291
2376.015010,0.968794
2377.046308,1.031297
2377.968225,0.921917
2379.046399,1.078174
2380.187076,1.140677
2381.265251,1.078174
2382.421554,1.156303
2383.655985,1.234432
2384.781037,1.125051
2385.921714,1.140677
2386.968637,1.046923
2387.921805,0.953169
2388.937477,1.015671
2390.125031,1.187554
2391.156328,1.031297
2392.203251,1.046923
2393.265800,1.062549
2394.265846,1.000046
2395.281517,1.015671
2396.297189,1.015671
2397.187855,0.890666
2398.109772,0.921917
2399.125443,1.015671
2400.156740,1.031297
2401.063032,0.906291
2402.078703,1.015671
2403.110001,1.031297
2404.000666,0.890666
2412.219793,1.093800
2413.251090,1.031297
2414.282387,1.031297
2415.298059,1.015671
2416.219976,0.921917
2417.235647,1.015671
2471.191242,1.093800
2494.020412,0.890666
2509.177356,1.015671
2510.099273,0.921917
2650.636956,1.031297
2651.590125,0.953169
2688.513690,0.937543
2689.544987,1.031297
2690.670038,1.125051
2714.014857,1.046923
2714.936774,0.921917
2715.952446,1.015671
2717.014994,1.062549
2717.952537,0.937543
2718.921332,0.968794
2719.843249,0.921917
2720.812043,0.968794
2721.702709,0.890666
2722.671503,0.968794
2723.765303,1.093800
2724.859103,1.093800
2725.890401,1.031297
2726.921698,1.031297
2727.937369,1.015671
2728.890538,0.953169
2729.828081,0.937543
2730.890630,1.062549
2732.046932,1.156303
2733.109481,1.062549
2734.156404,1.046923
2735.203327,1.046923
2736.469010,1.265683
2737.578436,1.109426
2738.531604,0.953169
2739.562901,1.031297
2740.625450,1.062549
2741.594244,0.968794
2742.719296,1.125051
2743.859973,1.140677
2744.875645,1.015671
2745.891316,1.015671
2746.922613,1.031297
2747.844531,0.921917
2748.891454,1.046923
2749.954002,1.062549
2750.969674,1.015671
2751.985345,1.015671
2752.938514,0.953169
2753.891682,0.953169
2850.630486,0.734409
2851.380520,0.750034
2852.099303,0.718783
3229.491578,0.875040
3286.916081,1.000046
3287.822373,0.906291
3289.025553,1.203180
3290.181856,1.156303
3291.213153,1.031297
3292.291327,1.078174
3703.216387,1.062549
3704.138304,0.921917
3705.325859,1.187554
3706.497787,1.171929
3745.452696,1.203180
3750.874819,1.250057
3794.470564,1.046923
3812.596394,0.875040
3870.552172,1.000046
3875.208635,1.078174
3876.364938,1.156303
3877.443112,1.078174
3878.583790,1.140677
3879.661964,1.078174
3880.771390,1.109426
3881.974570,1.203180
3883.052744,1.078174
3884.193421,1.140677
3885.318473,1.125051
3886.302893,0.984420
3887.365442,1.062549
3888.443616,1.078174
3889.459287,1.015671
3890.428082,0.968794
3891.490630,1.062549
3892.428173,0.937543
3893.256336,0.828163
3894.162628,0.906291
3895.115796,0.953169
4042.356911,1.218806
4043.388208,1.031297
4044.575763,1.187554
4045.872697,1.296934
4047.122754,1.250057
4048.294683,1.171929
4049.419734,1.125051
4050.560412,1.140677
4051.794843,1.234432
4052.810515,1.015671
4053.935566,1.125051
4055.232501,1.296934
4056.295049,1.062549
4057.560732,1.265683
4058.748286,1.187554
4059.951467,1.203180
4061.295278,1.343812
4062.420330,1.125051
4063.498504,1.078174
4064.654807,1.156303
4065.686104,1.031297
4066.842407,1.156303
4067.998710,1.156303
4069.030007,1.031297
4070.092556,1.062549
4071.155104,1.062549
4072.092647,0.937543
4073.170822,1.078174
4074.327125,1.156303
4075.389673,1.062549
4076.467848,1.078174
4077.483519,1.015671
4078.467939,0.984420
4079.592991,1.125051
4080.577411,0.984420
4081.624334,1.046923
4082.780637,1.156303
4083.843185,1.062549
4084.874482,1.031297
4085.983908,1.109426
4086.983954,1.000046
4088.155883,1.171929
4089.390314,1.234432
4090.484114,1.093800
4091.593540,1.109426
4092.734217,1.140677
4093.734263,1.000046
4156.737147,1.078174
4157.830947,1.093800
4158.830993,1.000046
4159.768536,0.937543
4160.752956,0.984420
4161.737376,0.984420
4162.690544,0.953169
4163.784344,1.093800
4164.909396,1.125051
4165.971945,1.062549
4167.050119,1.078174
4168.018913,0.968794
4168.940830,0.921917
4169.815871,0.875040
4170.737788,0.921917
4171.706582,0.968794
4172.800382,1.093800
4173.925434,1.125051
4174.972357,1.046923
4176.003654,1.031297
4177.066202,1.062549
4178.097500,1.031297
4178.972540,0.875040
4180.019463,1.046923
4186.191620,1.171929
4187.410426,1.218806
4188.535477,1.125051
4189.598026,1.062549
4190.707452,1.109426
4191.863755,1.156303
4193.051309,1.187554
4194.066981,1.015671
4195.020149,0.953169
4195.910815,0.890666
4196.957738,1.046923
4197.895281,0.937543
4209.677070,0.812537
4257.898028,1.156303
4258.944951,1.046923
4260.163756,1.218806
4261.523194,1.359437
4269.039163,1.046923
4270.179840,1.140677
4274.820677,1.281309
4297.962362,1.093800
4298.899904,0.937543
4299.884325,0.984420
4300.868745,0.984420
4301.759410,0.890666
4302.681328,0.921917
4303.634496,0.953169
4304.556413,0.921917
4305.540833,0.984420
4520.628804,0.968794
4587.741251,0.859414
4588.866303,1.125051
4590.038231,1.171929
4591.147657,1.109426
4592.319586,1.171929
4737.248095,1.000046
4738.295018,1.046923
4749.920550,1.078174
5014.370155,1.109426
5015.588961,1.218806
5081.654485,1.187554
5082.717034,1.062549
5083.857711,1.140677
5195.503447,1.062549
5196.550370,1.046923
5197.519164,0.968794
5198.612964,1.093800
5199.722390,1.109426
5200.738061,1.015671
5201.800610,1.062549
5202.878784,1.078174
5428.498487,0.921917
5462.359412,1.140677
5463.421961,1.062549
5642.977055,0.828163
5643.758341,0.781286
5644.524001,0.765660
5645.289661,0.765660
5646.039695,0.750034
5646.992864,0.953169
5797.484127,1.015671
5798.484173,1.000046
5970.226409,1.015671
5992.102411,1.296934
5993.055579,0.953169
6039.667088,1.234432
6040.948397,1.281309
6042.245331,1.296934
6057.433527,1.218806
6058.652332,1.218806
6059.886764,1.234432
6061.089944,1.203180
6062.168118,1.078174
6071.434167,1.359437
6072.715476,1.281309
6073.949908,1.234432
6075.043708,1.093800
6076.168759,1.125051
6077.325062,1.156303
6078.309482,0.984420
6079.387656,1.078174
6080.528334,1.140677
6081.528379,1.000046
6082.653431,1.125051
6083.840985,1.187554
6084.919160,1.078174
6086.028585,1.109426
6087.169263,1.140677
6093.575806,1.140677
6094.560226,0.984420
6095.575897,1.015671
6096.810329,1.234432
6097.919755,1.109426
6099.185438,1.265683
6100.404243,1.218806
6101.482418,1.078174
6102.669972,1.187554
6111.748513,1.046923
6112.920441,1.171929
6113.982990,1.062549
6115.045539,1.062549
6116.154964,1.109426
6117.248765,1.093800
6118.295687,1.046923
6119.545745,1.250057
6120.639545,1.093800
6121.608339,0.968794
6122.686513,1.078174
6130.811885,1.250057
6131.952563,1.140677
6138.343480,1.078174
6149.562744,1.187554
6150.625292,1.062549
6151.797221,1.171929
6152.891021,1.093800
6153.906693,1.015671
6155.078621,1.171929
6156.250550,1.171929
6157.438104,1.187554
6158.656910,1.218806
6159.813213,1.156303
6160.922639,1.109426
6162.094567,1.171929
6163.203993,1.109426
6164.204039,1.000046
6165.188459,0.984420
6166.188505,1.000046
6178.829708,1.234432
6180.079766,1.250057
6181.298571,1.218806
6329.758492,1.171929
6330.852292,1.093800
6331.992969,1.140677
6341.696538,1.000046
6342.899719,1.203180
6344.149776,1.250057
6345.352956,1.203180
6346.493633,1.140677
6347.524930,1.031297
6348.649982,1.125051
6349.806285,1.156303
6350.993839,1.187554
6352.243896,1.250057
6353.462702,1.218806
6354.587754,1.125051
6355.744056,1.156303
6356.962862,1.218806
6358.056662,1.093800
