,EDA,rise_time,max_deriv,amp,decay_time,SCR_width,AUC
2018-07-01 05:53:00.875000,4.163514000000001,4.0,0.81549438889623,2.307455500000001,,,
2018-07-01 05:53:05.375000,4.105864,1.0,0.09339391888698145,0.029465000000000074,,,
2018-07-01 05:53:09.625000,4.187214,4.0,0.015830325885190177,0.04419750000000011,,,
2018-07-01 05:53:12.250000,4.262799,4.0,0.02583533995394305,0.06789800000000046,,,
2018-07-01 05:53:14,4.343508,1.25,0.0700200144243901,0.0691790000000001,0.5,1.625,0.11241587500000016
2018-07-01 05:53:17.125000,4.3832225000000005,1.75,0.024523006591294916,0.060211500000000306,1.0,2.375,0.14300231250000073
2018-07-01 05:53:31.375000,4.5591835,1.125,0.08246339797189961,0.055086499999999816,0.25,1.25,0.06885812499999977
2018-07-01 05:53:33.625000,4.6046625,1.375,0.024344023449991425,0.026262499999999633,0.375,1.5,0.03939374999999945
2018-07-01 05:53:42.500000,4.817966,4.0,0.09607412658563064,0.2562199999999999,,,
2018-07-01 05:53:44.250000,4.8666480000000005,1.25,0.040237892907018846,0.030747000000000746,0.5,1.625,0.04996387500000121
2018-07-01 05:54:01.250000,4.756473000000001,4.0,0.015011804442352172,0.05124400000000051,0.875,2.5,0.12811000000000128
2018-07-01 05:54:16.750000,4.668076999999999,4.0,0.01994535667805053,0.0538059999999998,1.125,2.5,0.1345149999999995
2018-07-01 05:54:40.500000,4.551497,4.0,0.026511279554512157,0.096082,1.5,3.125,0.30025625
2018-07-01 05:54:47.875000,4.4618205,1.625,0.06970790165673435,0.03971450000000054,0.125,1.625,0.06453606250000088
2018-07-01 05:54:56.375000,4.64822,4.0,0.023846131494103417,0.06469549999999913,,,
2018-07-01 05:55:11.375000,4.5559804999999995,1.75,0.04283981201675857,0.047399999999999665,0.625,1.75,0.08294999999999941
2018-07-01 05:55:21.875000,4.570073000000001,1.875,0.048420570462692325,0.11209600000000108,0.75,2.25,0.25221600000000244
2018-07-01 05:55:38.875000,4.3984055,1.125,0.07492262389606097,0.04547850000000064,,,
2018-07-01 05:55:40.750000,4.4618199999999995,1.125,0.05452935006571735,0.035230499999999054,0.75,1.75,0.061653374999998345
2018-07-01 05:56:02.250000,4.269655,1.625,0.036851897522609534,0.06789799999999957,,,
2018-07-01 05:56:17.250000,3.9886440000000003,0.875,0.10171487000421564,0.029465500000000144,1.125,2.0,0.05893100000000029
2018-07-01 05:56:32,3.923308,1.75,0.02146412417675414,0.037152000000000296,0.5,2.125,0.07894800000000063
2018-07-01 05:58:20,3.173885,1.75,0.20118537513968882,0.2959339999999999,,,
2018-07-01 05:58:21,3.232816,0.625,0.09362225287584636,0.02049800000000035,0.25,0.625,0.012811250000000218
2018-07-01 05:58:37.625000,3.0406505,1.875,0.01675652328743915,0.030746499999999788,0.5,1.875,0.0576496874999996
2018-07-01 05:58:49.750000,3.021434,4.0,0.018131188215935623,0.030746000000000162,0.75,2.125,0.06533525000000034
2018-07-01 05:59:12.250000,2.884356,4.0,0.018398437980584603,0.047399999999999665,1.625,3.125,0.14812499999999895
2018-07-01 05:59:22,2.884356,4.0,0.021380799178825072,0.047399999999999665,,,
2018-07-01 05:59:31.875000,3.0419315,4.0,0.09400500291865832,0.1389990000000001,,,
2018-07-01 05:59:41.125000,3.2911054999999996,4.0,0.04225435021281854,0.10889349999999975,,,
2018-07-01 05:59:49.375000,3.344271,4.0,0.020457885404324472,0.052524500000000085,,,
2018-07-01 05:59:59.500000,3.496075,1.25,0.12525310827809477,0.132587,,,
2018-07-01 06:00:03.750000,3.572941,4.0,0.02283357883163184,0.04483900000000052,,,
2018-07-01 06:00:06.125000,3.7087375,1.75,0.043493475476442,0.08647449999999957,1.375,2.875,0.24861418749999875
2018-07-01 06:00:10.125000,3.8009765,4.0,0.044631501747922186,0.12426650000000006,1.0,2.5,0.31066625000000014
2018-07-01 06:00:16.875000,3.9290725,4.0,0.03894871925262322,0.17677750000000003,0.625,2.25,0.39774937500000007
2018-07-01 06:00:25.625000,4.118035000000001,4.0,0.08971728950062285,0.27223350000000046,,,
2018-07-01 06:00:29,4.356319,1.5,0.145761887488554,0.20369400000000049,,,
2018-07-01 06:00:33.750000,4.747505,4.0,0.04087748364961641,0.16654299999999989,,,
2018-07-01 06:00:40.875000,4.8685695,1.875,0.09216744739336846,0.2555795000000005,,,
2018-07-01 06:00:46.125000,4.837182,1.625,0.1442341868001975,0.19472700000000032,1.0,2.25,0.4381357500000007
2018-07-01 06:00:55.750000,4.7885,4.0,0.04080714380994621,0.16141800000000028,1.75,3.375,0.544785750000001
2018-07-01 06:01:08.375000,4.548294,1.75,0.026348838572147315,0.04099500000000056,,,
2018-07-01 06:01:10.625000,4.642455,1.5,0.05966968281961371,0.08070949999999932,0.75,2.0,0.16141899999999865
2018-07-01 06:01:57.250000,2.831831,4.0,0.00786478052795303,0.028183999999999987,1.75,3.5,0.09864399999999995
2018-07-01 06:02:28,2.9612220000000002,4.0,0.01758116219549244,0.07569400000000037,0.25,2.0,0.15138800000000074
2018-07-01 06:02:32.250000,3.000937,4.0,0.020678558456232565,0.05124400000000007,,,
2018-07-01 06:02:34.500000,3.13289,1.5,0.14912409882373545,0.1281100000000004,1.5,2.5,0.320275000000001
2018-07-01 06:02:46.375000,3.2616405,4.0,0.1359419548148768,0.24789299999999992,,,
2018-07-01 06:02:52.250000,3.2436979999999997,0.5,0.09703676351095503,0.043556999999999846,0.25,0.625,0.027223124999999904
2018-07-01 06:02:58.250000,3.2731630000000003,4.0,0.09428399526545839,0.06277400000000011,0.125,1.75,0.10985450000000019
2018-07-01 06:03:07.250000,2.692081,0.75,0.15003353333330516,0.03843299999999994,,,
2018-07-01 06:03:14.875000,3.0291205000000003,1.125,1.1909887907989933,0.44578950000000006,,,
2018-07-01 06:03:20.500000,3.0509,4.0,0.026735514599456778,0.4675689999999997,,,
2018-07-01 06:03:26.375000,3.1354525,1.75,0.03637581407567225,0.10505049999999994,1.125,2.875,0.3020201874999998
2018-07-01 06:03:38.375000,2.7421545,1.0,1.285707139359527,0.40297249999999973,,,
2018-07-01 06:03:44.750000,3.136733,4.0,0.04898452802613562,0.11529899999999982,0.875,2.625,0.3026598749999995
2018-07-01 06:04:05.750000,2.238572,1.75,1.495496554375519,1.762948,1.0,2.375,4.1870015
2018-07-01 06:04:37.500000,0.816496,1.375,1.0035512778398514,0.26599700000000004,0.125,1.5,0.39899550000000006
2018-07-01 06:04:57.125000,1.0977965,1.875,1.1895844221028256,0.7375405,0.25,1.5,1.10631075
2018-07-01 06:05:09,2.546036,4.0,0.8500296739181907,2.085785,,,
2018-07-01 06:05:16.500000,2.476857,4.0,0.8212872797801376,1.9820859999999998,1.375,2.75,5.4507365
2018-07-01 06:05:23.375000,1.398314,1.125,1.5036851815150536,0.895787,,,
2018-07-01 06:05:27.625000,2.3014894999999997,0.75,1.2754275976266198,0.1134769999999996,,,
2018-07-01 06:06:09.750000,2.004274,1.75,0.791675871408664,1.613272,,,
2018-07-01 06:07:00.375000,2.240637,0.75,0.8935591101827498,0.06991949999999969,,,
2018-07-01 06:07:02.500000,2.234872,0.625,0.7611468042635323,0.07184100000000004,0.125,0.25,0.01796025000000001
2018-07-01 06:07:20.375000,1.8913384999999998,1.25,1.1817389291221154,1.0923059999999998,,,
2018-07-01 06:07:23.625000,1.9972284999999999,1.875,0.03856691014436198,0.07898749999999977,,,
2018-07-01 06:07:29,2.17466,4.0,0.054483316658611614,0.09223899999999974,,,
2018-07-01 06:07:36,2.261775,0.625,0.6474468203452259,0.04419800000000018,,,
2018-07-01 06:07:46.125000,2.2162965,1.875,0.7446909640560317,2.1304624999999997,,,
2018-07-01 06:07:50.625000,2.38348,4.0,0.04126939915382266,0.14412400000000014,,,
2018-07-01 06:08:01.125000,1.971606,0.75,1.2318062628610207,0.11554749999999991,,,
2018-07-01 06:08:06.625000,2.1394305,1.625,1.4689753789281754,1.9521235,,,
2018-07-01 06:08:08.875000,2.083062,0.75,0.1345083423703457,0.02498149999999999,0.75,1.5,0.037472249999999985
2018-07-01 06:08:18.125000,2.1041999999999996,4.0,0.017426773919028804,0.0653359999999994,,,
2018-07-01 06:08:32,1.972247,0.625,0.39450191074579877,0.020497500000000057,0.375,1.0,0.020497500000000057
2018-07-01 06:08:47.375000,1.9079924999999998,0.75,0.9949546319072926,0.14609499999999986,,,
2018-07-01 06:08:54.125000,0.277358,1.125,0.33899344390602737,0.247893,,,
2018-07-01 06:08:59.625000,1.751698,4.0,0.9356607725537813,1.6274315,,,
2018-07-01 06:09:02,1.776039,1.0,0.19437653648897513,0.025622000000000034,,,
2018-07-01 06:09:09.750000,0.34110799999999997,1.0,0.9047922727664319,0.31804799999999994,0.125,1.125,0.35780399999999996
2018-07-01 06:09:12.750000,1.3673680000000001,1.375,1.1755491215914935,1.0125035000000002,,,
2018-07-01 06:09:19,2.063205,4.0,0.03635336992081761,0.117861,0.625,2.25,0.26518725
2018-07-01 06:09:22.750000,1.9530299999999998,1.375,0.23370063544485298,0.27489549999999974,,,
2018-07-01 06:09:28.375000,1.1880145,4.0,0.8325640576857252,1.1534245,0.25,1.75,2.018492875
2018-07-01 06:09:32.625000,2.2188585000000005,0.75,1.109176621625875,0.08144950000000062,,,
2018-07-01 06:09:38.125000,2.746528,4.0,0.13683615591206433,0.29963399999999973,,,
2018-07-01 06:09:51.375000,2.742044,4.0,0.051093520105577994,0.11081500000000011,,,
2018-07-01 06:09:56.500000,2.890762,4.0,0.02884218831366958,0.08594400000000002,0.375,2.0,0.17188800000000004
2018-07-01 06:10:02.375000,2.9689094999999996,4.0,0.02019089642232963,0.09095849999999928,0.625,2.375,0.21602643749999828
2018-07-01 06:10:19.875000,2.6588830000000003,1.75,0.03519443238895903,0.028824500000000697,0.5,1.625,0.04683981250000113
2018-07-01 06:10:40.375000,2.379493,4.0,0.9198842002108449,2.123273,0.625,2.0,4.246546
2018-07-01 06:10:43.750000,2.8254259999999998,4.0,0.5630535832048711,1.3233429999999997,,,
2018-07-01 06:10:53.250000,2.844642,1.625,0.029211312635775144,0.054445999999999994,0.375,2.0,0.10889199999999999
2018-07-01 06:11:01.625000,2.727312,4.0,0.871744793582705,2.30583,,,
2018-07-01 06:11:07.250000,2.699768,1.375,0.026078849953540484,0.029465000000000074,0.375,1.5,0.04419750000000011
2018-07-01 06:11:12,2.762542,4.0,0.01862624109969957,0.0269029999999999,,,
2018-07-01 06:11:18.125000,3.3596445,4.0,0.06475194305112808,0.13515599999999983,,,
2018-07-01 06:11:21.250000,3.4537980000000004,4.0,0.026177067842272805,0.08262400000000047,0.125,1.75,0.14459200000000083
2018-07-01 06:11:22.875000,3.4691715,0.625,0.3479755328939955,0.06917950000000017,,,
2018-07-01 06:11:34,3.452517,0.5,0.11314522619348288,0.032026999999999806,,,
2018-07-01 06:11:36.250000,3.4858260000000003,0.75,0.30242217682823025,0.024341000000000612,,,
2018-07-01 06:11:52.125000,3.350029,0.5,0.16050517889127391,0.049962500000000354,,,
2018-07-01 06:12:14.750000,3.610093,0.75,1.1852089249917626,0.06212699999999982,,,
2018-07-01 06:12:15.750000,3.861188,0.625,0.3733071748782333,0.14284249999999998,,,
2018-07-01 06:12:28.750000,4.330698,0.875,1.7350172713014391,0.4845594999999996,,,
2018-07-01 06:12:33.750000,4.340946,1.375,0.1777161687358806,0.1812750000000003,0.5,1.75,0.3172312500000005
2018-07-01 06:12:41,4.224366000000001,1.625,0.10664777475533427,0.1863999999999999,0.875,2.25,0.4193999999999998
2018-07-01 06:12:50.250000,4.1654349999999996,1.5,0.061111397795308164,0.07942799999999917,0.625,1.875,0.14892749999999844
2018-07-01 06:12:56.125000,4.3102,4.0,0.09593791402419072,0.19857049999999976,1.0,2.375,0.47160493749999943
2018-07-01 06:13:02.875000,4.319167500000001,1.875,0.050818458807039946,0.17551050000000057,0.75,2.375,0.41683743750000135
2018-07-01 06:13:11.250000,4.130846,1.875,0.043709027027528435,0.0717414999999999,1.625,3.0,0.2152244999999997
2018-07-01 06:13:24.250000,4.228209,4.0,0.01256238712649349,0.11401699999999959,0.625,2.375,0.27079037499999903
2018-07-01 06:13:33.750000,4.242301,4.0,0.03850597955537438,0.25878200000000007,1.0,2.75,0.7116505000000002
2018-07-01 06:13:46.250000,4.396033,0.875,1.6620173199918042,0.5595024999999998,0.125,0.875,0.4895646874999998
2018-07-01 06:14:02.875000,3.726032,4.0,0.0737663871674652,0.26390650000000004,1.0,2.625,0.6927545625000001
2018-07-01 06:14:09.750000,3.6677419999999996,1.5,0.0774036328058969,0.10248799999999969,0.75,2.0,0.20497599999999938
2018-07-01 06:14:21.125000,3.765746,4.0,0.07074220872052983,0.2510954999999999,,,
2018-07-01 06:14:35.125000,3.4448309999999998,4.0,0.040870467435061286,0.1889624999999997,,,
2018-07-01 06:14:42.750000,3.470453,1.5,0.05387916862549069,0.09864499999999987,,,
2018-07-01 06:14:46.750000,3.703613,4.0,0.13375662618287798,0.22803600000000035,0.75,2.0,0.4560720000000007
2018-07-01 06:15:01.500000,3.192454,1.5,0.026278470457741676,0.04483799999999993,0.75,2.0,0.08967599999999987
2018-07-01 06:15:11.875000,3.150818,4.0,0.059995557605521554,0.11593900000000001,0.75,2.125,0.24637037500000003
2018-07-01 06:15:21.750000,3.082927,1.625,0.061901151772676855,0.10505050000000038,0.5,1.875,0.1969696875000007
2018-07-01 06:15:27.125000,2.986204,4.0,0.05403908067557239,0.12042350000000024,0.375,1.875,0.22579406250000045
2018-07-01 06:15:35.750000,3.066273,4.0,0.03360108557905761,0.12170499999999995,1.25,2.875,0.34990187499999986
2018-07-01 06:15:45.375000,3.0899729999999996,4.0,0.04446347522997307,0.1351559999999994,0.5,2.125,0.2872064999999987
2018-07-01 06:15:56,3.3429900000000004,4.0,0.09635988355960379,0.23187900000000017,1.25,2.75,0.6376672500000005
2018-07-01 06:16:03.750000,3.341709,1.875,0.06735527695586363,0.14796699999999996,,,
2018-07-01 06:16:07.500000,3.385267,1.375,0.10495532008315145,0.10312900000000003,,,
2018-07-01 06:16:14.875000,3.9809574999999997,4.0,0.09693870520458425,0.2555659999999995,,,
2018-07-01 06:16:20.375000,4.2864995,0.75,0.7776602462326903,0.13546899999999962,0.625,1.25,0.16933624999999952
2018-07-01 06:16:23.250000,4.301232,1.25,0.13379642865343655,0.12170400000000026,,,
2018-07-01 06:16:30.125000,4.3287759999999995,1.75,0.15417042113024237,0.2972155000000001,0.75,2.125,0.6315829375000002
2018-07-01 06:16:34.750000,4.996658,1.25,0.6402429623411585,0.8978400000000004,0.5,1.625,1.4589900000000007
2018-07-01 06:16:41.125000,4.607225,4.0,0.05094897878537452,0.10376899999999978,0.75,2.5,0.25942249999999945
2018-07-01 06:16:44.750000,4.628362999999999,1.375,0.16211653289172645,0.1550129999999994,0.375,1.625,0.251896124999999
2018-07-01 06:16:53.500000,4.504097,1.625,0.1358955194098712,0.20177400000000034,,,
2018-07-01 06:17:18.375000,3.107908,1.125,0.06758994975220389,0.03779200000000005,0.375,1.375,0.051964000000000066
2018-07-01 06:17:25.625000,3.045775,1.75,0.01723633179154227,0.043557499999999916,0.375,1.875,0.08167031249999984
2018-07-01 06:17:28.375000,3.184127,1.75,0.26353871776028726,0.11657300000000026,0.25,1.75,0.20400275000000045
2018-07-01 06:17:29.875000,3.6818340000000003,0.75,0.6736284582650782,0.062133000000000216,,,
2018-07-01 06:17:31.500000,3.802258,1.25,0.08021706770597348,0.04740100000000025,0.25,1.5,0.07110150000000037
2018-07-01 06:17:43.875000,3.634433,1.5,0.09805100927528798,0.12362550000000061,0.625,1.875,0.23179781250000114
2018-07-01 06:17:46.250000,3.6254660000000003,1.0,0.07857107500614369,0.025622000000000256,0.125,1.125,0.028824750000000288
2018-07-01 06:17:50.875000,3.7683079999999998,4.0,0.032825358956595,0.1133769999999994,,,
2018-07-01 06:17:56.125000,3.852861,1.5,0.10093357831710037,0.14412350000000007,,,
2018-07-01 06:17:58.625000,3.9213859999999996,1.875,0.00860260771092669,0.04098199999999963,0.5,2.25,0.09220949999999917
2018-07-01 06:18:01.875000,3.8791100000000003,1.125,0.09414917604938289,0.05444700000000058,0.375,1.375,0.0748646250000008
2018-07-01 06:18:06.750000,4.590761,1.75,0.7521846517531721,1.5156309999999995,,,
2018-07-01 06:18:07.875000,5.293457,0.75,1.333627499504967,0.04729399999999995,0.125,0.875,0.041382249999999954
2018-07-01 06:18:17.875000,5.4843405,4.0,0.25440843967037097,0.5094605000000003,,,
2018-07-01 06:18:26.125000,5.9901105,4.0,0.11041836164279673,0.17012150000000048,0.75,2.0,0.34024300000000096
2018-07-01 06:18:33.750000,5.974097,1.375,0.21308617558976195,0.2094605000000005,0.5,1.625,0.3403733125000008
2018-07-01 06:18:39.875000,6.0541655,1.875,0.11041830926912866,0.09800450000000005,0.875,2.5,0.24501125000000012
2018-07-01 06:18:47.375000,7.122284,4.0,0.07726255995425646,0.43226299999999984,,,
2018-07-01 06:18:50.875000,7.241426000000001,1.375,0.11391420368272875,0.12682900000000075,,,
2018-07-01 06:18:54.750000,7.37466,1.125,0.07902836223330922,0.043557000000000734,0.25,1.25,0.05444625000000092
2018-07-01 06:18:59.250000,7.597003999999999,1.125,0.35536175195687747,0.25757349999999857,1.25,2.25,0.5795403749999968
2018-07-01 06:19:03.250000,7.796856,1.625,0.17081055407969714,0.3004180000000005,,,
2018-07-01 06:19:09.125000,8.051748,4.0,0.10244770103244605,0.16201249999999945,,,
2018-07-01 06:19:11.125000,8.104273,1.125,0.054840251190427125,0.04099499999999878,0.5,1.5,0.061492499999998174
2018-07-01 06:19:16.625000,8.315013500000001,4.0,0.003356212065803277,0.07750549999999912,,,
2018-07-01 06:19:18.500000,8.383553,1.0,0.0816361038256943,0.04868199999999767,0.25,1.125,0.05476724999999738
2018-07-01 06:19:23.250000,8.532994,1.75,0.1312358784454304,0.19812299999999894,,,
2018-07-01 06:19:25.750000,8.694413,1.75,0.05797651637519152,0.13323500000000088,,,
2018-07-01 06:19:28.750000,9.004078,4.0,0.07265014627094502,0.20717699999999972,,,
2018-07-01 06:19:36.375000,10.0079735,4.0,0.485965900940009,0.5901010000000007,0.625,1.75,1.0326767500000011
2018-07-01 06:19:40.250000,10.781416,0.625,0.5572360771080298,0.1351565000000008,0.25,0.625,0.0844728125000005
2018-07-01 06:19:50.750000,10.552099,4.0,0.9096401717039555,2.470839,1.125,2.625,6.485952374999999
2018-07-01 06:19:56.875000,9.780625,4.0,0.9134342733594494,2.447972,0.875,2.375,5.8139335
2018-07-01 06:20:03.250000,10.72761,1.625,1.2277804811226716,1.797015,,,
2018-07-01 06:20:04.500000,10.883904,0.625,0.19608082777820357,0.06725799999999893,0.125,0.375,0.0252217499999996
2018-07-01 06:20:08.625000,11.0623185,0.875,0.4710408268284567,0.14126249999999985,,,
2018-07-01 06:20:17,11.358253,4.0,0.08719724465098722,0.14220199999999927,,,
2018-07-01 06:20:20.625000,11.608284000000001,1.625,0.1339140767602487,0.24234500000000203,,,
2018-07-01 06:20:26.875000,11.8433655,4.0,0.08914524380418953,0.14732650000000191,,,
2018-07-01 06:20:30.250000,11.966333,4.0,0.0385986587392253,0.07364500000000085,,,
2018-07-01 06:20:35,12.239208,4.0,0.11072712394381767,0.26006399999999985,,,
2018-07-01 06:20:45.875000,13.8053855,4.0,0.22731297450949484,0.6164079999999998,,,
2018-07-01 06:20:47.750000,14.049369,1.25,0.14450682016553884,0.15943099999999966,,,
2018-07-01 06:20:54.500000,14.331210999999998,4.0,0.16437382975973236,0.31643199999999716,,,
2018-07-01 06:21:00.375000,14.6175675,4.0,0.2947688179892154,0.34913049999999757,,,
2018-07-01 06:21:10.125000,17.433073,1.875,0.39402332041524346,1.3118760000000016,,,
2018-07-01 06:21:16.375000,18.266471000000003,4.0,0.03757265289664247,0.10569100000000375,,,
2018-07-01 06:21:24.625000,19.969715,1.0,0.6773467936497326,0.16952799999999968,,,
2018-07-01 06:21:27.250000,20.2791,1.5,0.2548298562661273,0.3177120000000002,,,
2018-07-01 06:21:38.750000,21.26314,4.0,0.06416149070679467,0.17807200000000023,,,
2018-07-01 06:21:40.375000,22.206066999999997,1.25,0.8556293412375453,0.7488399999999942,,,
2018-07-01 06:21:46.750000,23.314722,1.5,0.09765323217555988,0.09480100000000036,0.25,1.5,0.14220150000000054
2018-07-01 06:21:50.750000,23.296787,1.25,0.30549421410462685,0.3049029999999995,,,
2018-07-01 06:21:57.750000,23.957462,1.25,0.09637225875937361,0.09351900000000057,,,
2018-07-01 06:22:06.375000,24.750433,1.5,0.11708354017639522,0.2831229999999998,,,
2018-07-01 06:22:19.625000,26.234825,1.625,0.22099328837160215,0.2561150000000012,,,
2018-07-01 06:22:23.250000,27.631984999999997,4.0,0.8569891127960005,1.269689999999997,,,
2018-07-01 06:22:35.625000,27.4065115,1.625,0.06337413814678428,0.09736450000000474,,,
2018-07-01 06:22:42.500000,27.3937,4.0,0.0428966212007964,0.08839599999999947,,,
2018-07-01 06:22:47.250000,27.822868,4.0,0.03513957033780457,0.07814799999999877,0.25,2.125,0.1660644999999974
2018-07-01 06:22:49.375000,27.920872000000003,1.25,0.10301489850832013,0.08519300000000385,,,
2018-07-01 06:22:52.250000,28.846360999999998,4.0,0.2882696960701736,0.8210789999999974,,,
2018-07-01 06:22:58.125000,29.177619,4.0,0.15346203119213442,0.1903359999999985,,,
2018-07-01 06:23:01.500000,29.403093,1.5,0.09066011362159543,0.14092199999999622,,,
2018-07-01 06:23:03.375000,29.473553000000003,1.5,0.0098841511940293,0.02306000000000097,0.25,1.625,0.037472500000001574
2018-07-01 06:23:06.375000,29.6644675,1.75,0.08695170715718348,0.1896330000000006,1.375,2.5,0.4740825000000015
2018-07-01 06:23:10,29.743256,1.375,0.13057556182656072,0.15821699999999694,0.875,2.0,0.3164339999999939
2018-07-01 06:23:14.125000,29.703540999999998,1.875,0.03611827895906572,0.0999259999999964,,,
2018-07-01 06:23:16.750000,29.864959999999996,4.0,0.01339535024105487,0.09095799999999343,0.25,2.125,0.19328574999998605
2018-07-01 06:23:20,29.929014000000002,1.875,0.06335329427598424,0.1518105000000034,,,
2018-07-01 06:23:22.750000,30.060862,1.75,0.14318245572147248,0.11647500000000122,0.25,1.625,0.18927187500000198
2018-07-01 06:23:25.500000,30.01346,1.625,0.05017159362152768,0.0249814999999991,0.125,1.625,0.04059493749999854
2018-07-01 06:23:28.250000,30.273522999999997,1.875,0.1533088889828207,0.2824819999999981,,,
2018-07-01 06:23:35.375000,29.924529999999997,1.625,0.6230248044673345,1.0115510000000008,,,
2018-07-01 06:23:37,30.324768,1.25,0.5137882416254058,0.6135409999999979,,,
2018-07-01 06:23:43.250000,26.057394,1.5,0.11878849832254446,0.0499629999999982,0.125,1.375,0.06869912499999753
2018-07-01 06:23:55.375000,24.9070385,1.125,0.08569599128672678,0.03394949999999852,0.25,1.375,0.04668056249999797
2018-07-01 06:23:59.375000,24.512788999999998,1.25,0.12070106239400502,0.06469549999999913,0.25,1.375,0.0889563124999988
2018-07-01 06:24:09.625000,23.922231500000002,0.75,0.541668908963203,0.08455150000000344,,,
2018-07-01 06:24:20.875000,25.307383,1.75,0.639042898326295,1.146644000000002,,,
2018-07-01 06:24:32.375000,24.287956,4.0,0.02689693938175708,0.04163549999999816,0.25,2.25,0.09367987499999586
2018-07-01 06:24:56.875000,17.8750955,0.875,0.10434338347546657,0.02434149999999846,,,
2018-07-01 06:25:18.250000,14.502269,1.375,0.3040752077618052,0.35105249999999977,,,
2018-07-01 06:25:26.125000,15.282456,0.75,0.767985247784523,0.12906949999999995,0.5,1.25,0.16133687499999994
2018-07-01 06:25:30.250000,14.622692,1.0,0.2839736076830661,0.15244999999999997,0.25,1.125,0.17150624999999997
2018-07-01 06:25:37.125000,13.237858500000002,0.875,0.23708036085261597,0.05380650000000209,,,
2018-07-01 06:25:39.125000,13.515217,1.375,0.2625747484168457,0.22099000000000046,,,
2018-07-01 06:25:46.500000,13.378779000000002,1.875,0.1735001832872598,0.1812755000000017,1.0,2.0,0.3625510000000034
2018-07-01 06:25:53.125000,12.202056,4.0,0.18540787799783942,0.2671095000000019,0.75,2.5,0.6677737500000047
2018-07-01 06:26:11.125000,12.855232,4.0,0.07181846225541477,0.23700350000000014,,,
2018-07-01 06:26:13.250000,12.987205,1.5,0.11376758793095121,0.08393199999999901,,,
2018-07-01 06:26:20.750000,14.197976999999998,4.0,0.18334778173188226,0.4015589999999989,1.0,2.375,0.9537026249999974
2018-07-01 06:26:28.750000,15.488332999999999,4.0,0.1975120714022438,0.33462699999999934,1.125,2.875,0.9620526249999981
2018-07-01 06:26:35.750000,17.453968,0.75,1.4488481926284464,0.38837799999999945,0.75,1.0,0.38837799999999945
2018-07-01 06:26:47.750000,18.453526999999998,1.5,1.015798080998735,0.8820529999999991,,,
2018-07-01 06:26:49.125000,20.058972499999996,0.875,1.267392538080287,0.453736499999998,,,
2018-07-01 06:26:51.875000,20.419613499999997,4.0,0.11866521537361052,0.058522999999993885,0.125,2.125,0.124361374999987
2018-07-01 06:26:58.750000,20.404804000000002,4.0,0.4198450897112451,0.7547300000000021,0.25,2.125,1.6038012500000045
2018-07-01 06:27:03,17.876451,1.0,1.4259220635614582,0.23968299999999942,0.625,1.625,0.38948487499999906
2018-07-01 06:27:11.125000,22.0087775,4.0,0.23466549963463024,0.5521905000000018,,,
2018-07-01 06:27:15.625000,23.111667500000003,4.0,0.10388238793153448,0.2350940000000037,,,
2018-07-01 06:27:17.875000,23.15971,1.875,0.08883844070766145,0.04612000000000194,0.125,1.875,0.08647500000000363
2018-07-01 06:27:19.500000,23.881878,1.0,0.6477267915298768,0.2520050000000005,,,
2018-07-01 06:27:22.375000,24.2119835,1.125,0.24547362424287655,0.20583949999999973,0.625,1.625,0.33448918749999956
2018-07-01 06:27:27.750000,24.547379,4.0,0.07082780604189054,0.43404100000000057,,,
2018-07-01 06:27:31,24.564034,1.375,0.042169621208685726,0.032668999999998505,,,
2018-07-01 06:27:39.375000,24.900322000000003,1.125,0.3697013432605445,0.30785200000000046,,,
2018-07-01 06:27:44.375000,25.439975500000003,4.0,0.04321551690485137,0.23123700000000014,1.375,3.125,0.7226156250000004
2018-07-01 06:27:49.125000,25.206847,1.625,0.7089858076054583,0.5185479999999991,0.125,1.5,0.7778219999999987
2018-07-01 06:27:54.375000,25.025541500000003,1.25,0.6055225461572746,0.32955500000000626,,,
2018-07-01 06:27:56.750000,26.249557,0.75,0.889623094649707,0.1222399999999979,0.75,1.5,0.18335999999999686
2018-07-01 06:28:12.500000,25.294570999999998,4.0,0.0920182335821238,0.15245099999999567,,,
2018-07-01 06:28:19.250000,23.657684,1.0,1.338586180652129,0.5441070000000003,,,
2018-07-01 06:28:21.125000,25.830102000000004,1.5,0.8927610926094758,1.423182500000003,,,
2018-07-01 06:28:28.125000,31.1094,4.0,0.9607115642795208,2.1640675000000016,,,
2018-07-01 06:28:31.250000,32.152393,4.0,0.4200995269769976,1.0472449999999967,,,
2018-07-01 06:28:36.250000,36.716564,4.0,0.14071720099579466,0.6638369999999938,0.25,1.875,1.2446943749999884
2018-07-01 06:28:39.125000,36.738985,0.75,0.08838533264355419,0.024343500000000518,,,
2018-07-01 06:28:40.875000,36.8837475,1.375,0.06074705040811068,0.06725749999999664,,,
2018-07-01 06:28:42.250000,37.29818,1.0,0.39530448000454044,0.1691020000000023,,,
2018-07-01 06:28:47.875000,37.345579,1.625,0.20737648354645444,0.27928,,,
2018-07-01 06:28:51.375000,37.496750000000006,4.0,0.011433837210887532,0.05829100000000409,,,
2018-07-01 06:29:01.250000,43.256313,4.0,0.5471238548161921,1.6697799999999958,0.375,1.75,2.9221149999999927
2018-07-01 06:29:10.750000,37.237869,1.125,0.11154651489275125,0.021778000000004738,0.375,1.375,0.029944750000006515
2018-07-01 06:29:24.250000,36.020107,1.875,0.16561831995096554,0.16718250000000268,0.5,2.25,0.376160625000006
2018-07-01 06:29:26,36.111065,0.875,0.18543633971833628,0.060211500000001195,0.125,1.0,0.060211500000001195
2018-07-01 06:29:32.750000,36.027794,1.375,0.1563388138186781,0.1498874999999984,,,
2018-07-01 06:29:40.750000,35.128440999999995,1.0,0.25752718155635534,0.06405699999999115,0.125,1.125,0.07206412499999004
2018-07-01 06:29:55.125000,31.896127,0.875,0.8967767468476922,0.22236199999999684,0.125,1.0,0.22236199999999684
2018-07-01 06:29:59.500000,31.574438,1.375,0.7643646289136541,0.6243985000000016,0.25,1.5,0.9365977500000024
2018-07-01 06:30:10.375000,22.824061,1.0,0.28244969541437115,0.16718350000000015,,,
2018-07-01 06:30:12.125000,22.909253999999997,1.25,0.05495447315443869,0.04611999999999483,0.5,1.625,0.0749449999999916
2018-07-01 06:30:19.500000,22.503773000000002,4.0,0.2570984783308887,0.8498980000000032,,,
2018-07-01 06:30:20.875000,22.9707345,0.75,0.4363671675461802,0.09672349999999952,0.25,0.875,0.08463306249999958
2018-07-01 06:30:24.625000,25.0556775,4.0,0.4100879733031775,1.720463500000001,,,
2018-07-01 06:30:27.750000,25.265106,4.0,0.16978501295278647,0.4676019999999994,0.25,1.875,0.8767537499999989
2018-07-01 06:30:35.750000,21.794203,1.75,0.6846170540279246,1.7503840000000004,,,
2018-07-01 06:31:04.625000,16.565962,0.875,0.30956953704607315,0.03330799999999812,0.5,1.375,0.04579849999999741
2018-07-01 06:31:12.875000,19.2529335,4.0,0.8247951299591847,1.0810870000000001,,,
2018-07-01 06:31:14.125000,19.354781,0.75,0.17017068239991318,0.04227599999999754,,,
2018-07-01 06:31:19.375000,19.912506,4.0,0.02807173885699399,0.18191600000000108,,,
2018-07-01 06:31:23.375000,21.291323499999997,1.5,0.801862190751848,1.2961854999999964,,,
2018-07-01 06:31:24.750000,21.406624,0.875,0.1292200998496611,0.033950000000004366,1.0,1.875,0.06365625000000819
2018-07-01 06:31:29.125000,21.9146175,4.0,0.14820998631610394,0.167174499999998,0.125,2.0,0.334348999999996
2018-07-01 06:32:02,15.047375,1.875,0.011236413561917402,0.054447000000001466,0.375,2.125,0.11569987500000312
2018-07-01 06:32:19.500000,12.910338000000001,1.75,0.9017768582125711,0.9478480000000022,,,
2018-07-01 06:32:21.625000,13.370893500000001,1.625,0.16264448520730213,0.20433550000000267,,,
2018-07-01 06:32:33.500000,13.675995,1.0,0.11251792506659797,0.07686599999999899,0.625,1.5,0.11529899999999849
2018-07-01 06:32:56.125000,14.593227,4.0,0.25332516810533434,0.17938500000000168,,,
2018-07-01 06:32:59.125000,15.909142500000002,4.0,0.23567881190015783,0.581526000000002,0.125,2.0,1.163052000000004
2018-07-01 06:33:01,16.548026999999998,1.0,0.6070008746792439,0.21419899999999714,,,
2018-07-01 06:33:20.375000,15.765049999999999,4.0,0.0815067069345119,0.28722599999999865,0.25,2.0,0.5744519999999973
2018-07-01 06:33:23.625000,15.064029000000001,1.0,0.1409195130852794,0.05957100000000182,0.375,1.375,0.0819101250000025
2018-07-01 06:33:34,13.971222000000001,1.0,0.1080856295840178,0.040995000000002335,0.875,1.875,0.07686562500000438
2018-07-01 06:33:39.250000,13.920685,1.25,0.16976877241045685,0.18063600000000157,,,
2018-07-01 06:33:42.125000,13.9021085,1.5,0.06789935463267227,0.04547900000000027,,,
2018-07-01 06:33:44.125000,14.132,1.375,0.17206198575229337,0.17800700000000091,0.875,2.0,0.35601400000000183
2018-07-01 06:33:55.375000,13.631731,1.0,0.09719794300315954,0.03395000000000081,0.75,1.75,0.05941250000000142
2018-07-01 06:33:58.375000,13.5600545,1.0,0.08846380394255249,0.037151500000000226,0.5,1.5,0.05572725000000034
2018-07-01 06:34:09,12.932957,1.875,0.6402939183688616,0.20583500000000043,0.125,1.5,0.30875250000000065
2018-07-01 06:34:18.750000,14.196695000000002,4.0,0.18401934922962226,0.34519000000000233,,,
2018-07-01 06:34:22.875000,14.6207705,4.0,0.11485080781532986,0.23319100000000148,,,
2018-07-01 06:34:27.750000,15.161392000000001,4.0,0.15317327888433852,0.30169700000000077,,,
2018-07-01 06:34:33.125000,15.627332500000001,4.0,0.1444108909509012,0.20075250000000366,,,
2018-07-01 06:34:48,16.904173,4.0,0.01479310728710459,0.020497999999999905,0.25,1.875,0.03843374999999982
2018-07-01 06:34:50.375000,17.137140000000002,1.5,0.16489768523263137,0.2105495000000026,,,
2018-07-01 06:34:55.625000,17.6314,4.0,0.2142851717764529,0.2053724999999993,0.375,1.5,0.30805874999999894
2018-07-01 06:34:58.250000,19.299053,1.75,1.3454703793849347,1.5952720000000014,,,
2018-07-01 06:35:05.500000,22.16123,0.75,1.049653165452142,0.17229799999999784,,,
2018-07-01 06:35:12.875000,24.7251385,4.0,0.4494095464438601,1.4699869999999997,,,
2018-07-01 06:35:14.375000,25.6654805,0.75,1.2826306638194467,0.22950250000000239,,,
2018-07-01 06:35:18.375000,28.355700499999998,1.5,0.7927115931931752,1.4147804999999956,0.875,2.125,3.0064085624999906
2018-07-01 06:35:23.750000,30.883518,1.875,0.8271751287185509,1.9381854999999995,,,
2018-07-01 06:35:41,41.464828000000004,4.0,0.30780738800004315,0.8006550000000061,,,
2018-07-01 06:35:49.875000,43.4324645,4.0,0.27045616308456033,0.956367500000006,,,
2018-07-01 06:35:56.625000,44.860292,4.0,0.5155377585682572,1.4345564999999993,,,
2018-07-01 06:36:04.125000,46.955333499999995,4.0,0.35133958608949456,0.4664629999999903,0.375,1.5,0.6996944999999855
2018-07-01 06:36:16.125000,50.001051,1.75,1.0997650125124778,1.7211454999999987,0.625,1.875,3.2271478124999975
2018-07-01 06:36:23.875000,48.2614785,1.5,1.137959544869858,1.4502699999999962,,,
2018-07-01 06:36:25.250000,48.735485,0.625,0.5886597341894344,0.07302299999999207,0.375,0.625,0.04563937499999504
2018-07-01 06:36:34.625000,49.62636,4.0,0.48779500268307174,0.7548315000000017,,,
2018-07-01 06:36:36.375000,49.833180999999996,1.25,0.2237370133939578,0.1722314999999952,0.25,1.375,0.2368183124999934
2018-07-01 06:36:40.750000,50.0625,4.0,0.7074602852915461,1.4269409999999993,,,
2018-07-01 06:36:50.625000,48.352289,4.0,0.23594287977670092,0.2714059999999989,0.5,1.625,0.44103474999999825
2018-07-01 06:36:54.750000,47.077782,1.875,1.0695259730524356,0.6363130000000012,0.25,1.5,0.9544695000000019
2018-07-01 06:36:58.375000,47.932276,4.0,0.37721082078371637,0.9064830000000015,,,
2018-07-01 06:37:04.250000,48.560466999999996,4.0,0.3280469530695598,0.4936749999999961,0.75,2.0,0.9873499999999922
2018-07-01 06:37:07.875000,48.4394035,1.625,0.27037997061754027,0.38926649999999796,0.875,2.0,0.7785329999999959
2018-07-01 06:37:13.625000,47.171343,1.5,0.24478842350788454,0.06277449999999618,0.125,1.5,0.09416174999999427
2018-07-01 06:37:20.375000,47.429485,4.0,0.2959906794992264,0.515788999999998,,,
2018-07-01 06:37:24.875000,48.374708,4.0,0.36329320741285187,0.3963125000000005,0.5,1.75,0.6935468750000009
2018-07-01 06:37:34.625000,46.624168499999996,1.375,0.44495547685554016,0.3747214999999997,,,
2018-07-01 06:37:36.500000,46.878468,1.25,0.16522791621193278,0.14989099999999667,0.625,1.75,0.26230924999999417
2018-07-01 06:37:44.125000,47.610081,4.0,0.6633656549564364,1.0775130000000033,0.375,1.75,1.8856477500000057
2018-07-01 06:37:47.250000,46.372292,1.375,0.8064313340222782,0.6729035000000039,,,
2018-07-01 06:37:51.500000,45.800919,0.5,0.03522641941998472,0.02690199999999976,,,
2018-07-01 06:37:55.875000,46.2999075,0.875,0.22321523597560144,0.0890345000000039,0.25,0.625,0.05564656250000244
2018-07-01 06:38:00.375000,46.3780555,0.875,0.3132332736529122,0.08391149999999925,0.75,1.5,0.12586724999999888
2018-07-01 06:38:07.500000,47.081024,1.5,0.3310442335334187,0.3538700000000006,1.125,2.375,0.8404412500000014
2018-07-01 06:38:27.500000,39.304443,1.125,0.3399030388970914,0.16784449999999396,0.125,1.125,0.1888250624999932
2018-07-01 06:38:39.750000,35.010578,1.125,0.28458453604642386,0.06021100000000246,0.125,1.25,0.07526375000000307
2018-07-01 06:38:46.750000,34.387691,1.25,0.19931508586969926,0.19600599999999702,0.25,1.25,0.24500749999999627
2018-07-01 06:38:50.875000,34.1777535,4.0,0.06534675658204492,0.057649500000003684,,,
2018-07-01 06:38:55.625000,34.307784999999996,1.75,0.12037629018342955,0.1562939999999955,,,
2018-07-01 06:39:02.250000,35.188652000000005,4.0,0.1322092258437806,0.18475000000000108,,,
2018-07-01 06:39:07.125000,37.0310745,4.0,1.1022278893387636,1.4946045000000012,,,
2018-07-01 06:39:09.125000,37.3282855,1.5,0.2187410742946838,0.26838550000000083,,,
2018-07-01 06:39:12.500000,37.387756,0.625,0.4969682737636276,0.07494300000000464,,,
2018-07-01 06:39:24,39.258587,1.25,0.35756669705131117,0.17451099999999542,0.125,1.125,0.19632487499999485
2018-07-01 06:39:28.750000,39.464581,4.0,0.08814627921384499,0.151169000000003,,,
2018-07-01 06:39:34,39.532478000000005,0.625,0.13264343508404863,0.023059500000009336,0.25,0.5,0.011529750000004668
2018-07-01 06:39:39.375000,39.465862,4.0,0.049435154363919764,0.08199100000000215,,,
2018-07-01 06:39:42.375000,39.863268,4.0,0.29526397781540936,0.3487244999999959,,,
2018-07-01 06:39:52.250000,37.756714,1.125,1.2215458376173842,0.8445510000000027,,,
2018-07-01 06:39:58.500000,37.711876000000004,1.5,0.18728952067846194,0.19472500000000537,0.25,1.375,0.2677468750000074
2018-07-01 06:40:04.500000,38.190746000000004,4.0,0.31053407544487754,0.6427530000000061,,,
2018-07-01 06:40:06.875000,38.934187,0.75,1.1097065180740344,0.07514400000000165,,,
2018-07-01 06:40:14.500000,39.369778000000004,4.0,0.2631288669830667,0.34975800000000135,,,
2018-07-01 06:40:17,39.513264,4.0,0.06512868538385419,0.12298599999999738,0.25,1.875,0.23059874999999508
2018-07-01 06:40:20.125000,39.0648575,0.875,1.4215769312258715,0.40010449999999764,,,
2018-07-01 06:40:25,40.059277,0.75,0.5729342798433663,0.12811299999999903,,,
2018-07-01 06:40:30.250000,38.541767,0.875,0.9340911307960198,0.2516039999999933,0.5,1.375,0.34595549999999076
2018-07-01 06:40:44.250000,30.394136,1.375,0.14667506734360813,0.1473249999999986,,,
2018-07-01 06:40:46.625000,30.7058945,1.875,0.21319161802009035,0.17083549999999548,0.125,2.0,0.34167099999999095
2018-07-01 06:40:48.625000,32.815582500000005,1.375,0.8322870844144177,1.1149145000000047,,,
2018-07-01 06:40:50.500000,35.009296,1.5,0.7722274814476862,1.2781519999999986,0.75,2.0,2.5563039999999972
2018-07-01 06:40:53.625000,35.155342000000005,1.875,0.3101795506372298,0.42047099999999915,,,
2018-07-01 06:40:56.250000,36.422375,1.75,0.6048091596304062,1.3195570000000032,,,
2018-07-01 06:40:59.125000,36.699909,4.0,0.1859969083479882,0.19618549999999857,,,
2018-07-01 06:41:03.375000,35.9079625,1.5,0.2968379982478382,0.3189944999999952,,,
2018-07-01 06:41:12.750000,35.742699,4.0,0.1889061248700159,0.2798920000000038,,,
2018-07-01 06:41:23.500000,36.858765000000005,4.0,0.25209312751633206,0.29162600000000083,,,
2018-07-01 06:41:28.125000,37.2719155,4.0,0.1759180090974155,0.2613369999999975,,,
2018-07-01 06:41:35,37.454475,4.0,0.034454128463892175,0.04355999999999938,1.0,2.25,0.0980099999999986
2018-07-01 06:41:40.125000,37.4660035,4.0,0.06501736991685902,0.09223949999999803,,,
2018-07-01 06:41:42.375000,38.7875195,1.75,0.9518680408283444,1.167145000000005,,,
2018-07-01 06:41:49.875000,38.516788500000004,1.5,0.14671776823252003,0.2004930000000087,,,
2018-07-01 06:42:07.250000,38.297077,4.0,0.035581519063583755,0.07430200000000298,0.5,2.125,0.15789175000000633
2018-07-01 06:42:10.750000,40.252941,4.0,0.6152294342967366,1.624057999999998,1.375,2.875,4.669166749999994
2018-07-01 06:42:17.500000,38.567791,1.5,0.41632551576077503,0.7803310000000039,0.25,1.625,1.2680378750000063
2018-07-01 06:42:46.750000,14.250502,0.875,0.5204730755586127,0.3337269999999979,0.125,0.375,0.1251476249999992
2018-07-01 06:42:51.125000,13.55429,1.25,1.0985321172640212,0.7804079999999995,,,
2018-07-01 06:42:53.375000,16.573456,1.875,1.0850896124722595,1.9552790000000009,0.625,2.125,4.154967875000002
2018-07-01 06:43:00.500000,13.024356,1.875,0.3796267930230002,0.5238039999999984,,,
2018-07-01 06:43:04.375000,12.8578125,0.875,0.15779530376750017,0.028183500000000805,0.5,1.375,0.03875231250000111
2018-07-01 06:43:17.250000,9.719773,1.125,0.7786822016929449,0.4312915000000004,0.5,1.625,0.7008486875000006
2018-07-01 06:43:34.875000,7.052464,1.25,0.11939556497546633,0.08391199999999976,0.25,1.375,0.11537899999999968
2018-07-01 06:43:36.625000,7.196588,0.75,0.5579432510434224,0.08647399999999994,0.125,0.625,0.05404624999999996
2018-07-01 06:43:49.750000,7.513733,0.875,1.0762014577544612,0.21502900000000036,,,
2018-07-01 06:43:51.375000,7.9302375000000005,1.25,0.29450187968266306,0.036041500000000504,0.125,1.25,0.04505187500000063
2018-07-01 06:43:56.625000,8.325457,1.0,0.9821746823971438,0.48440300000000036,0.25,1.125,0.5449533750000004
2018-07-01 06:43:59.875000,7.493235499999999,0.625,0.9357560288678641,0.05708249999999904,0.125,0.5,0.02854124999999952
2018-07-01 06:44:18.250000,7.807105,1.25,0.04925459981459923,0.026904000000000927,0.125,1.25,0.03363000000000116
2018-07-01 06:44:21.375000,8.07673,1.375,0.171033055530053,0.21838200000000008,0.625,1.75,0.38216850000000013
2018-07-01 06:44:24.875000,9.377718999999999,1.25,0.9206489482785116,0.5652209999999993,,,
2018-07-01 06:44:27,11.504515,1.625,0.8418640261380759,1.550942000000001,,,
2018-07-01 06:44:44.375000,8.650856000000001,4.0,0.8640243462733537,2.3156775000000014,,,
2018-07-01 06:44:47.250000,8.796901,4.0,0.037624670002962546,0.16526200000000024,0.125,1.625,0.2685507500000004
2018-07-01 06:44:50.875000,8.70274,0.75,0.5682461058464554,0.06277399999999922,,,
2018-07-01 06:45:06.375000,8.9348985,1.0,0.7026496324111591,0.2609829999999995,,,
2018-07-01 06:45:09.500000,12.318636,4.0,0.15792659288013056,1.2143829999999998,0.25,2.0,2.4287659999999995
2018-07-01 06:45:11.375000,12.237926999999999,0.75,0.8848689027543415,0.18927399999999928,,,
2018-07-01 06:45:15.125000,13.813712500000001,4.0,0.6254043002402199,1.2700160000000018,,,
2018-07-01 06:45:19.125000,15.0832455,1.0,0.5895923502216505,0.11081300000000027,,,
2018-07-01 06:45:25.750000,11.249576,0.5,0.17939087774254858,0.08839599999999947,0.25,0.625,0.05524749999999967
2018-07-01 06:45:31.375000,11.564086,1.75,0.06753296135419617,0.09608300000000014,1.0,2.25,0.21618675000000032
2018-07-01 06:45:38.875000,10.790085,1.25,0.054970336931347674,0.028184500000000057,0.125,1.25,0.03523062500000007
2018-07-01 06:45:50.500000,15.941842000000001,4.0,0.3405670339353506,1.3249450000000014,,,
2018-07-01 06:45:56.375000,17.8680485,1.625,0.49956861713566525,1.2472545000000004,,,
2018-07-01 06:46:01.250000,18.614365,4.0,0.10781342048420584,0.6953589999999998,1.375,3.125,2.1729968749999995
2018-07-01 06:46:04.250000,18.683544,0.875,0.5507178449086041,0.18583450000000212,0.875,1.625,0.30198106250000345
2018-07-01 06:46:09.250000,18.678419,1.625,0.7693278619482271,1.0617510000000046,,,
2018-07-01 06:46:11.875000,20.467655999999998,4.0,0.39248588352451463,0.6328800000000001,1.375,2.75,1.7404200000000003
2018-07-01 06:46:14.750000,19.337933,0.5,0.28845590993648784,0.0448379999999986,,,
2018-07-01 06:46:25,22.122797,4.0,0.13830755884718826,0.5393829999999973,,,
2018-07-01 06:46:28.375000,22.775366499999997,4.0,0.3075715386485456,0.6102939999999961,,,
2018-07-01 06:46:34.750000,24.078749,4.0,0.7011690555892471,0.8703579999999995,,,
2018-07-01 06:46:40.250000,24.105652,4.0,0.14567457258027616,0.15116899999999944,0.25,1.625,0.2456496249999991
2018-07-01 06:46:47,24.976547,4.0,0.06290156573375327,0.22547300000000092,,,
2018-07-01 06:46:55,28.433846999999997,4.0,0.22497387307666372,1.2960699999999932,,,
2018-07-01 06:47:01.750000,31.657711,4.0,0.4347964148103358,0.9588619999999999,0.25,2.125,2.0375817499999997
2018-07-01 06:47:03.250000,32.289474,0.75,1.3472694363539688,0.06167599999999851,,,
2018-07-01 06:47:09.875000,35.155344,1.875,0.593518904043691,1.9255429999999976,,,
2018-07-01 06:47:13.250000,37.470768,1.75,0.9295852195711802,1.2322849999999974,0.375,1.875,2.310534374999995
2018-07-01 06:47:32.125000,34.8225635,4.0,0.9353311610885839,1.843563500000002,1.125,2.75,5.069799625000005
2018-07-01 06:47:43.875000,34.9757175,1.625,0.06784613814491536,0.11786049999999904,,,
2018-07-01 06:47:48.625000,35.292421000000004,1.875,0.2876810411660813,0.33207900000000734,,,
2018-07-01 06:47:51.875000,35.402595500000004,1.625,0.12596283530720598,0.17551050000000856,,,
2018-07-01 06:47:57.625000,35.466009,4.0,0.05259296106686406,0.12362450000000536,,,
2018-07-01 06:48:04.125000,35.4801025,1.125,0.1112852924351273,0.06469750000000118,0.5,1.5,0.09704625000000178
2018-07-01 06:48:06.375000,35.562092,0.875,0.12655661068723134,0.04547900000000027,0.625,1.375,0.06253362500000037
2018-07-01 06:48:10.375000,35.7868975,1.25,0.23308961220288893,0.210712000000008,,,
2018-07-01 06:48:15.750000,35.923336,4.0,0.06661269123588909,0.07814799999999877,,,
2018-07-01 06:48:21.375000,36.4076405,1.5,0.3306717014170317,0.40103349999999693,,,
2018-07-01 06:48:28.375000,36.707596,4.0,0.17365710936164191,0.15903500000000292,0.875,2.0,0.31807000000000585
2018-07-01 06:48:33.375000,36.8587665,4.0,0.04998060563650597,0.12618799999999908,,,
2018-07-01 06:48:35.125000,36.94075599999999,1.0,0.07808361734535652,0.03074649999999224,0.25,1.125,0.03458981249999127
2018-07-01 06:48:39,36.995846,4.0,0.029077269272818285,0.08583500000000299,,,
2018-07-01 06:48:42.500000,37.500591,1.25,0.17735133220386956,0.144763999999995,0.875,2.0,0.28952799999999
2018-07-01 06:48:45.500000,37.558243,1.25,0.12090396475818466,0.13579599999999914,0.625,1.75,0.2376429999999985
2018-07-01 06:48:49.125000,37.526855499999996,4.0,0.02468874059795212,0.040353499999994824,,,
2018-07-01 06:48:55.375000,38.341916999999995,1.75,0.2590680105637091,0.30335999999999785,,,
2018-07-01 06:48:59.375000,38.4565755,1.75,0.04333692527259814,0.06982049999999873,,,
2018-07-01 06:49:03.375000,38.647859499999996,1.875,0.1344153097088565,0.14068049999999488,,,
2018-07-01 06:49:08,39.036674,4.0,0.058193937795806505,0.09095699999999596,,,
2018-07-01 06:49:13.500000,39.579879999999996,4.0,0.029227988790808013,0.05380699999999905,,,
2018-07-01 06:49:14.875000,39.831239999999994,1.0,0.23248834951988329,0.12375849999999389,0.5,1.5,0.18563774999999083
2018-07-01 06:49:17.500000,39.956787,1.25,0.1512252927862221,0.12426699999999613,,,
2018-07-01 06:49:21.625000,40.071445499999996,1.875,0.05927825457993663,0.1236264999999932,,,
2018-07-01 06:49:25,40.433575,4.0,0.2590965460366874,0.3486789999999971,,,
2018-07-01 06:49:27.125000,40.550796500000004,1.625,0.036533048404749024,0.07238350000000082,,,
2018-07-01 06:49:30.125000,40.5949935,1.25,0.05102548532161677,0.04739899999999864,,,
2018-07-01 06:49:32.875000,40.807028,1.0,0.1803969167581272,0.1239530000000002,,,
2018-07-01 06:49:35.375000,41.0984785,4.0,0.12581073206780502,0.29209149999999795,,,
2018-07-01 06:49:41,41.217575,1.5,0.16291996971824574,0.13895399999999114,,,
2018-07-01 06:49:45.500000,42.104496000000005,4.0,0.08605506044713707,0.42572400000000954,,,
2018-07-01 06:49:51.250000,42.50436,1.5,0.3359585249231145,0.38833199999999835,,,
2018-07-01 06:49:53.750000,42.60685,1.0,0.12689483691679015,0.04612000000000194,,,
2018-07-01 06:49:55.500000,42.675331,1.0,0.12951569167506705,0.04670299999999372,0.25,1.25,0.05837874999999215
2018-07-01 06:49:58,42.731697,1.5,0.08313462365208579,0.09864399999999307,0.25,1.5,0.1479659999999896
2018-07-01 06:50:03,42.985355,1.375,0.16609517625298054,0.1780715000000015,,,
2018-07-01 06:50:07.750000,43.107059,1.125,0.26491718337365455,0.17935349999999772,,,
2018-07-01 06:50:13.875000,43.3331775,1.125,0.21581833204854206,0.21330849999999657,,,
2018-07-01 06:50:20.250000,43.915348,4.0,0.2948031175418464,0.3554150000000007,,,
2018-07-01 06:50:28.750000,44.222286,4.0,0.18686865862193258,0.2287899999999965,,,
2018-07-01 06:50:32,44.374736999999996,4.0,0.08363813021358624,0.1345139999999958,1.125,2.5,0.3362849999999895
2018-07-01 06:50:36.375000,44.399719000000005,4.0,0.05801418524995938,0.10248950000000434,,,
2018-07-01 06:50:39.125000,44.5540905,1.75,0.1351158420299612,0.15629200000000054,,,
2018-07-01 06:50:44.375000,44.600851,1.125,0.12494482161730502,0.09672299999999723,,,
2018-07-01 06:50:47.125000,44.79944,1.375,0.19762730532008277,0.20179100000000005,1.25,2.375,0.4792536250000001
2018-07-01 06:50:50.500000,45.544701,1.375,0.8286744171295481,0.3731030000000004,0.125,1.375,0.5130166250000006
2018-07-01 06:50:53.500000,45.706749,4.0,0.17285021511986542,0.5268209999999982,,,
2018-07-01 06:51:04.125000,46.26852,1.0,0.16251626354579685,0.050927500000000236,0.25,1.25,0.0636593750000003
2018-07-01 06:51:08.375000,46.1090145,0.75,0.414808160224851,0.09031850000000219,,,
2018-07-01 06:51:10,46.290298,1.25,0.19856470704468165,0.16591199999999873,,,
2018-07-01 06:51:15.250000,46.340263,1.25,0.07910214503985458,0.12426699999999613,,,
2018-07-01 06:51:24.750000,46.428658,0.625,0.247199994240475,0.0877555000000001,,,
2018-07-01 06:51:26.750000,46.560612,0.625,0.13396504748493498,0.037151500000000226,,,
2018-07-01 06:51:37.750000,46.596481,1.375,0.04447233713329979,0.059569999999993684,,,
2018-07-01 06:51:39.500000,46.82338,1.125,0.2455210812829023,0.19679299999999955,,,
2018-07-01 06:51:51.375000,47.237959000000004,1.25,0.7939990962771901,0.6853600000000029,1.25,2.375,1.6277300000000068
2018-07-01 06:51:56.375000,47.404503000000005,1.75,0.2876332059498452,1.362972500000005,,,
2018-07-01 06:52:02,47.569126000000004,1.375,0.07379488216957952,0.071743000000005,0.625,1.875,0.13451812500000937
2018-07-01 06:52:06.250000,47.743953999999995,1.625,0.18121586286511615,0.21518349999999486,0.875,2.125,0.4572649374999891
2018-07-01 06:52:19.125000,47.4288045,1.375,0.09860951861722356,0.05764949999999658,0.25,1.625,0.09368043749999444
2018-07-01 06:52:28.125000,46.853485000000006,1.25,0.27305200791943207,0.23330300000000648,0.625,1.75,0.40828025000001134
2018-07-01 06:52:34.625000,46.5068055,1.125,1.2431148313779943,0.7249224999999981,,,
2018-07-01 06:52:37,46.81057,1.375,0.2602610212518641,0.24803749999999525,0.75,1.75,0.4340656249999917
2018-07-01 06:52:42.500000,46.650433,1.375,0.10523673167131165,0.10249199999999803,0.25,1.375,0.1409264999999973
2018-07-01 06:52:47.125000,46.5562705,4.0,0.24131180911228967,0.3202739999999977,0.75,2.0,0.6405479999999955
2018-07-01 06:52:56.625000,46.843878000000004,4.0,0.23991350690036484,0.3229795000000024,1.375,2.5,0.807448750000006
2018-07-01 06:53:01.250000,46.670929,1.625,0.0258227067456005,0.021780000000006794,0.25,1.75,0.03811500000001189
2018-07-01 06:53:04.375000,46.6907845,1.0,0.11585017804816289,0.051883999999994046,0.375,1.25,0.06485499999999256
2018-07-01 06:53:06.750000,46.745232,1.0,0.1443004355808455,0.055087999999997805,0.25,1.25,0.06885999999999726
2018-07-01 06:53:09.750000,46.886154,1.25,0.18072655948077454,0.16270000000000095,,,
2018-07-01 06:53:18.500000,47.103939000000004,4.0,0.310619106840619,0.5124400000000051,1.125,2.375,1.2170450000000121
2018-07-01 06:53:24.125000,46.845158,4.0,0.08570882195706986,0.15116950000000173,1.75,3.25,0.49130087500000563
2018-07-01 06:53:35.500000,39.50478,1.0,0.4110804682858884,0.27949899999999417,0.125,1.125,0.31443637499999344
2018-07-01 06:53:42.375000,44.135813,4.0,0.7625804676992232,1.6251259999999945,,,
2018-07-01 06:53:44.750000,45.565376,0.625,0.2736364234042128,0.12234250000000202,,,
2018-07-01 06:53:46.500000,45.670246,1.375,0.4242762035812859,0.07412149999999684,0.625,1.875,0.13897781249999408
2018-07-01 06:53:49,46.440331,1.125,0.5581569207712676,0.38192049999999966,,,
2018-07-01 06:53:51.875000,48.1442985,1.375,1.2353662606030582,1.897415499999994,,,
2018-07-01 06:53:59.500000,52.713260999999996,4.0,0.13480112387512122,1.3938909999999964,,,
2018-07-01 06:54:20,54.439388,4.0,0.9885356450895983,2.1193310000000025,,,
2018-07-01 06:54:24.625000,50.9493255,0.5,0.3267331985061048,0.04528450000000106,0.125,0.5,0.02264225000000053
2018-07-01 06:54:39.375000,38.89385,1.0,0.10449021295150374,0.08967750000000052,0.625,1.5,0.13451625000000078
2018-07-01 06:55:03.875000,37.617075,4.0,0.1395437797959005,0.15757599999999883,,,
2018-07-01 06:55:08.750000,37.663193,1.375,0.09358495573894743,0.08198949999999883,0.25,1.375,0.11273556249999839
2018-07-01 06:55:13.500000,37.267334000000005,0.875,0.06022543262920976,0.024340000000009354,0.375,0.625,0.015212500000005846
2018-07-01 06:55:20.375000,36.765882,1.625,0.8087984500088226,1.557003999999992,,,
2018-07-01 06:55:22.625000,36.3418425,0.75,0.1366856333919486,0.030746000000000606,0.375,1.0,0.030746000000000606
2018-07-01 06:55:26.875000,36.7998375,1.5,0.7666118213801667,1.1749725000000026,0.625,1.875,2.203073437500005
2018-07-01 06:55:32.125000,37.3377955,4.0,0.8052290828233879,0.8754139999999992,0.25,2.0,1.7508279999999985
2018-07-01 06:55:37.500000,32.251041,1.75,0.580394401481584,0.555498,0.75,2.375,1.3193077500000001
2018-07-01 06:55:42.875000,28.957269500000002,0.875,0.9692263748648315,0.26270650000000373,0.125,0.5,0.13135325000000186
2018-07-01 06:55:49.875000,31.382273499999997,4.0,0.1639531808655761,0.8307509999999958,,,
2018-07-01 06:55:51.125000,32.650743500000004,0.75,1.2975373264543606,0.23167399999999816,,,
2018-07-01 06:55:52.625000,33.789123499999995,1.125,1.0732488240781493,0.5964734999999948,0.375,1.375,0.8201510624999928
2018-07-01 06:55:55.750000,33.113655,0.875,0.5494107486491941,0.0531675000000007,0.125,1.0,0.0531675000000007
2018-07-01 06:56:04.375000,32.0337125,1.5,0.279634633370037,0.3426934999999993,,,
2018-07-01 06:56:07.750000,33.603363,4.0,0.4123581135360155,1.0391430000000028,1.5,2.875,2.987536125000008
2018-07-01 06:56:13.125000,32.0633105,1.625,0.6542851945315675,1.0606514999999987,,,
2018-07-01 06:56:16.500000,31.942885999999998,1.0,0.5108905446866459,0.09351900000000057,0.875,1.875,0.17534812500000108
2018-07-01 06:56:19.875000,32.121599,1.0,1.1939769693820637,0.24512100000000459,0.25,1.25,0.30640125000000573
2018-07-01 06:56:23.625000,30.548959999999997,1.125,0.9698807552842652,0.390628999999997,,,
2018-07-01 06:56:31.375000,31.3893615,0.75,0.5680674926080513,0.042916999999999206,0.125,0.75,0.032187749999999404
2018-07-01 06:56:34.875000,32.122930499999995,1.625,0.353638778153595,0.4863164999999938,,,
2018-07-01 06:56:50.625000,32.7653595,1.25,0.621870513410272,0.09988350000000423,0.125,1.375,0.13733981250000582
2018-07-01 06:57:02,31.147234,0.75,0.8932614242655319,0.5020009999999999,0.25,1.0,0.5020009999999999
2018-07-01 06:57:09.500000,30.281209999999998,1.75,0.2868553542130883,0.798688999999996,,,
2018-07-01 06:57:37.250000,23.794764,1.375,0.5804204512944153,0.8957580000000007,,,
2018-07-01 06:57:43.125000,24.051594,4.0,0.19867248312914398,0.14409450000000135,0.125,2.0,0.2881890000000027
2018-07-01 06:57:44.750000,24.704954,0.875,1.0606372589281534,0.149636000000001,0.5,1.375,0.20574950000000136
2018-07-01 06:58:00.625000,19.41115,1.0,0.9959196772618384,0.5136994999999978,1.375,2.25,1.155823874999995
2018-07-01 06:58:04.750000,19.591591,0.75,0.6790030019216431,0.21823300000000145,,,
2018-07-01 06:58:13,20.182610999999998,4.0,0.10853494787228612,0.31045899999999804,,,
2018-07-01 06:58:18,20.247948,4.0,0.2994226575385426,0.1507630000000013,0.5,2.25,0.33921675000000295
2018-07-01 06:58:21,20.882092,0.875,0.5521580648719038,0.07046100000000166,,,
2018-07-01 06:58:36.250000,19.148582,1.375,0.47022571082781894,0.8595140000000008,,,
2018-07-01 06:58:37.250000,19.416079999999997,0.625,0.797876218850476,0.04698349999999962,0.125,0.625,0.029364687499999764
2018-07-01 06:58:47.375000,18.262701999999997,4.0,0.4160406781756478,1.3919659999999965,,,
2018-07-01 06:58:51.125000,19.565748999999997,1.125,1.0691172403206508,0.4171669999999956,,,
2018-07-01 06:58:55.750000,19.368233,1.25,0.2998295516144509,0.3151510000000002,,,
2018-07-01 06:58:59.125000,18.093597499999998,0.875,0.7520387509542701,0.12590749999999673,,,
2018-07-01 06:59:11,18.461914,1.125,1.175460041898532,0.7837540000000018,,,
2018-07-01 06:59:21.625000,17.526991,1.5,0.2495086309237422,0.3578234999999985,0.25,1.625,0.5814631874999976
2018-07-01 06:59:31,17.155075,1.75,0.689733496361356,0.7328529999999986,0.75,1.875,1.3740993749999975
2018-07-01 06:59:32.875000,17.4087325,0.75,0.49359445736838836,0.12618799999999908,0.25,0.375,0.047320499999999655
2018-07-01 06:59:36.625000,16.6562795,0.875,0.9041241532084854,0.10850849999999923,,,
2018-07-01 06:59:39.250000,16.996218,1.375,0.15642362942372756,0.1951744999999967,0.625,1.75,0.3415553749999942
2018-07-01 06:59:48.250000,17.395922,0.75,1.0347392951682508,0.27524399999999716,,,
2018-07-01 06:59:53.875000,15.9251565,1.125,1.1464048923187562,0.854079500000001,,,
2018-07-01 06:59:56,17.240025,1.625,0.39636430414573454,0.8895429999999998,,,
2018-07-01 07:00:01,17.626520000000003,0.625,0.7820174737176018,0.22034900000000235,0.125,0.25,0.05508725000000059
2018-07-01 07:00:02.375000,17.621150999999998,1.0,0.40336283757443425,0.14476399999999856,0.75,1.75,0.2533369999999975
2018-07-01 07:00:07.250000,17.140984,1.5,0.2378848389659538,0.1703879999999991,0.375,1.5,0.25558199999999864
2018-07-01 07:00:18.625000,17.3572445,4.0,0.20015626280844856,0.2591795000000019,0.5,1.875,0.48596156250000355
2018-07-01 07:00:22.875000,16.7459565,1.375,0.2994580828323734,0.3196355000000004,0.375,1.5,0.4794532500000006
2018-07-01 07:00:29.250000,16.117321,4.0,0.1342238553758648,0.28440399999999855,0.75,2.375,0.6754594999999965
2018-07-01 07:00:39.500000,16.004585000000002,0.75,0.20821331802869736,0.042277000000003895,0.125,0.875,0.03699237500000341
2018-07-01 07:00:45.750000,15.98665,1.0,0.4415029602036782,0.13195400000000035,1.125,2.125,0.28040225000000074
2018-07-01 07:00:51.125000,15.8476505,1.75,0.22710762140249585,0.062134000000000356,0.125,1.875,0.11650125000000067
2018-07-01 07:00:52.750000,15.940529999999999,0.75,0.7572607550643582,0.0384019999999996,,,
2018-07-01 07:00:55.750000,16.485252,1.375,0.1857633948188493,0.18088949999999926,0.375,1.625,0.2939454374999988
2018-07-01 07:00:59.625000,16.384686000000002,0.875,0.3489563511859757,0.08903600000000367,0.625,1.375,0.12242450000000504
2018-07-01 07:01:07.250000,16.322554,1.625,0.10335800673435358,0.1133790000000019,0.25,1.5,0.17006850000000284
2018-07-01 07:01:11.125000,16.792716,1.25,0.5173123905713766,0.5015494999999994,,,
2018-07-01 07:01:24.375000,16.744035,1.25,0.5358287054550175,0.5107745000000001,0.75,1.75,0.8938553750000002
2018-07-01 07:01:36.375000,15.671499,1.75,0.11851371459698612,0.13771850000000008,0.625,1.75,0.24100737500000013
