,EDA,rise_time,max_deriv,amp,decay_time,SCR_width,AUC
2018-07-01 06:18:54.375000,3.4408779999999997,4.0,1.0308218947494971,2.4344404999999996,,,
2018-07-01 06:18:57.250000,3.388353,1.25,0.08227790072263552,0.02049799999999946,0.125,1.375,0.02818474999999926
2018-07-01 06:18:59.375000,3.4235830000000003,1.0,0.23507415097912698,0.10504950000000024,0.25,1.125,0.11818068750000027
2018-07-01 06:19:09.625000,3.4959654999999996,4.0,0.096031657447325,0.12707999999999942,0.25,1.5,0.19061999999999912
2018-07-01 06:19:13.375000,3.3144389999999997,1.75,0.19561625392661064,0.38240849999999993,0.625,2.0,0.7648169999999999
2018-07-01 06:19:23.625000,3.6137175000000004,1.5,0.7095640911782422,0.44916750000000016,0.125,1.5,0.6737512500000002
2018-07-01 06:19:28.125000,2.9858365,1.25,0.1808632617276551,0.1319009999999996,,,
2018-07-01 06:19:33.750000,3.340061,1.875,0.22850929642716977,0.2754365000000001,,,
2018-07-01 06:19:38.125000,3.3746505,1.625,0.07688146451103073,0.11273650000000002,0.625,1.875,0.21138093750000003
2018-07-01 06:19:47.625000,2.809045,1.75,0.03566331012370405,0.05508749999999951,,,
2018-07-01 06:19:49.625000,2.9172979999999997,1.375,0.07970462841398174,0.07942799999999961,0.5,1.625,0.12907049999999937
2018-07-01 06:20:02.875000,2.7059165,1.875,0.0760182463066279,0.18575950000000008,1.0,2.5,0.4643987500000002
2018-07-01 06:20:09.125000,2.60348,4.0,0.06749590850203901,0.13963949999999992,0.875,2.25,0.3141888749999998
2018-07-01 06:20:20.125000,2.3965825,1.875,0.035998623479207126,0.10633150000000002,,,
2018-07-01 06:20:26.750000,2.298927,0.625,0.2960283474990444,0.04099499999999967,,,
2018-07-01 06:20:29.375000,2.3693875,1.0,0.08837011233425152,0.04355700000000029,0.375,1.25,0.05444625000000036
2018-07-01 06:20:35.375000,2.1669739999999997,4.0,0.06553700219209446,0.12811050000000002,,,
2018-07-01 06:20:37,2.2669,1.25,0.07550874138260255,0.06661800000000007,0.375,1.5,0.0999270000000001
2018-07-01 06:20:44.375000,2.1900334999999997,4.0,0.03169589375780468,0.13067199999999968,1.125,2.75,0.3593479999999991
2018-07-01 06:21:00.625000,2.7379955000000002,4.0,0.056571494810032874,0.3455485000000005,,,
2018-07-01 06:21:05.875000,2.768742,1.5,0.18278296469890343,0.22483299999999984,1.25,2.5,0.5620824999999996
2018-07-01 06:21:20.375000,2.5061169999999997,0.625,0.2083178116457205,0.04419799999999974,,,
2018-07-01 06:21:21.625000,2.6560050000000004,0.875,0.16618995785226254,0.028824000000000183,0.25,1.125,0.032427000000000206
2018-07-01 06:21:31.625000,2.0420670000000003,1.125,0.0583409751829258,0.027544000000000235,0.25,1.25,0.034430000000000294
2018-07-01 06:21:37.875000,1.8876940000000002,1.5,0.030976761186043866,0.03971400000000025,0.625,1.875,0.07446375000000047
2018-07-01 06:21:43.375000,2.525333,4.0,0.09396257368732286,0.3320970000000001,1.125,2.75,0.9132667500000002
2018-07-01 06:21:53.750000,1.9197220000000002,1.375,0.04082782433981169,0.046760500000000205,0.625,1.75,0.08183087500000036
2018-07-01 06:22:00.125000,1.856948,1.875,0.017673704156348613,0.05893100000000029,,,
2018-07-01 06:22:02.500000,2.2797110000000003,1.75,0.22349642552864957,0.3535840000000001,,,
2018-07-01 06:22:08.625000,2.324549,1.625,0.19152745683301475,0.23828400000000016,0.375,1.625,0.38721150000000026
2018-07-01 06:22:23,2.052956,4.0,0.09184570613925125,0.21394400000000013,1.125,2.5,0.5348600000000003
2018-07-01 06:22:27.625000,2.1464765,1.875,0.09128127030980693,0.20241449999999994,1.25,2.625,0.5313380624999998
2018-07-01 06:22:31.375000,2.0593615,1.25,0.03879694889969443,0.028183999999999987,0.375,1.5,0.04227599999999998
2018-07-01 06:22:34.250000,2.261775,1.75,0.09239821507184942,0.1960080000000004,0.875,2.25,0.4410180000000009
2018-07-01 06:22:38.875000,2.165052,1.375,0.08517861268287952,0.09544200000000025,0.625,1.75,0.16702350000000044
2018-07-01 06:22:46.500000,1.9927439999999998,1.75,0.04835278429472556,0.096082,0.875,2.25,0.2161845
2018-07-01 06:22:49.625000,2.0324584999999997,1.5,0.049676650695424485,0.06277399999999966,0.375,1.75,0.10985449999999941
2018-07-01 06:22:56.750000,1.940219,1.25,0.03768616865872687,0.03458899999999998,0.375,1.5,0.05188349999999997
2018-07-01 06:23:06.375000,1.8358095000000003,1.125,0.05242076100153081,0.027543500000000387,,,
2018-07-01 06:23:08.625000,1.8902565,1.375,0.042925530712930815,0.04227650000000005,0.375,1.5,0.06341475000000008
2018-07-01 06:23:11.875000,2.0913890000000004,1.5,0.14950034494346287,0.2139435000000005,0.875,2.125,0.4546299375000011
2018-07-01 06:23:26.375000,1.9472649999999998,4.0,0.04753779019599591,0.1825565,,,
2018-07-01 06:23:28.500000,1.9914630000000002,1.25,0.03902303401674345,0.026903000000000343,0.375,1.5,0.040354500000000515
2018-07-01 06:23:32.625000,2.0651265,1.75,0.052424477750459886,0.12554799999999977,,,
2018-07-01 06:23:35.500000,2.201564,1.625,0.07019887828927729,0.12875099999999984,0.625,2.0,0.2575019999999997
2018-07-01 06:23:46.875000,2.0824215,1.625,0.05034243007640704,0.08839650000000021,0.75,2.125,0.18784256250000045
2018-07-01 06:23:54.875000,2.13943,1.875,0.0872446828692528,0.2145840000000001,1.25,2.75,0.5901060000000002
2018-07-01 06:24:02.250000,2.3066139999999997,1.125,0.06315914214597562,0.023700499999999458,0.25,1.375,0.032588187499999255
2018-07-01 06:24:08,2.401707,1.5,0.1596165693056637,0.22320299999999982,,,
2018-07-01 06:24:12.750000,2.5823419999999997,1.625,0.16532502913255342,0.26838999999999924,0.75,2.125,0.5703287499999984
2018-07-01 06:24:20.125000,2.431813,4.0,0.08136988478176299,0.15885649999999973,0.875,2.375,0.37728418749999937
2018-07-01 06:24:27.750000,2.689955,4.0,0.14174976293129582,0.3318049999999997,0.875,2.25,0.7465612499999993
2018-07-01 06:24:32,2.710452,1.625,0.16422253374251738,0.2555794999999996,1.125,2.375,0.6070013124999991
2018-07-01 06:24:36.750000,2.5503150000000003,1.5,0.02974411021698664,0.04483900000000052,0.375,1.75,0.0784682500000009
2018-07-01 06:24:42.125000,2.6162910000000004,1.75,0.09053682530216278,0.1659025000000005,,,
2018-07-01 06:24:44.625000,2.8737925,1.5,0.1703411647714912,0.24084700000000003,0.875,2.125,0.5117998750000001
2018-07-01 06:25:03.750000,2.490103,4.0,0.0154566654010857,0.09480099999999991,,,
2018-07-01 06:25:06.875000,2.6361485,1.875,0.044101822788986667,0.1498885000000003,,,
2018-07-01 06:25:13,2.830875,1.125,0.05138013560078036,0.021777999999999853,0.25,1.375,0.029944749999999798
2018-07-01 06:25:16,3.2939410000000002,1.5,0.31406127330498634,0.44000600000000034,0.875,2.125,0.9350127500000007
2018-07-01 06:25:26.625000,2.9224224999999997,4.0,0.15204685837532494,0.32091599999999953,1.25,2.625,0.8424044999999988
2018-07-01 06:25:30.625000,2.914095,1.625,0.07151292342164695,0.15693500000000027,0.625,2.0,0.31387000000000054
2018-07-01 06:25:43.125000,2.7456305,4.0,0.0778597935191847,0.22739499999999957,1.125,2.625,0.5969118749999989
2018-07-01 06:25:52.875000,2.8570865,4.0,0.10916986446803634,0.3202750000000001,1.125,2.625,0.8407218750000003
2018-07-01 06:26:05.125000,2.7559310000000004,4.0,0.0976570021899299,0.28824750000000066,,,
2018-07-01 06:26:08.250000,2.805254,1.375,0.07808479265082724,0.08006950000000002,0.375,1.625,0.13011293750000003
2018-07-01 06:26:10.875000,3.0537349999999996,1.625,0.1544991682850334,0.2484809999999995,,,
2018-07-01 06:26:13.500000,3.0530939999999998,1.25,0.10779947062053097,0.07174099999999983,0.25,1.375,0.09864387499999977
2018-07-01 06:26:20.750000,2.846837,1.625,0.08669874484433926,0.12426650000000006,0.5,1.875,0.2329996875000001
2018-07-01 06:26:27.125000,2.6348155,1.5,0.05267832564133457,0.06341450000000037,,,
2018-07-01 06:26:31,3.08256,4.0,0.16430855167063285,0.42660600000000004,1.125,2.625,1.11984075
2018-07-01 06:26:39.500000,2.809685,1.75,0.03305116598320623,0.09351999999999983,1.375,2.875,0.2688699999999995
2018-07-01 06:26:44.875000,2.906409,1.5,0.09491885111025411,0.11914300000000022,1.875,3.125,0.3723218750000007
2018-07-01 06:26:51,3.159426,4.0,0.11880298710226178,0.18447899999999962,,,
2018-07-01 06:26:53.250000,3.3374989999999998,1.125,0.17986484000050496,0.11658049999999998,0.375,1.375,0.16029818749999997
2018-07-01 06:26:59.500000,3.744499,1.875,0.31275450679663663,0.6869204999999998,1.0,2.5,1.7173012499999996
2018-07-01 06:27:04.875000,3.735531,1.75,0.3235241322313591,0.5463889999999996,1.0,2.375,1.297673874999999
2018-07-01 06:27:11.125000,3.6272779999999996,4.0,0.16364594346845251,0.41187349999999956,0.875,2.375,0.978199562499999
2018-07-01 06:27:15.875000,3.918619,1.875,0.46156730858889716,0.764707,,,
2018-07-01 06:27:23.625000,3.5574579999999996,4.0,0.12111314188408961,0.18191599999999974,0.875,2.125,0.38657149999999946
2018-07-01 06:27:30.375000,3.778448,4.0,0.23592181151330216,0.35742699999999994,0.625,2.0,0.7148539999999999
2018-07-01 06:27:37.750000,3.807272,1.5,0.3756855980800804,0.4855360000000002,1.0,2.125,1.0317640000000003
2018-07-01 06:27:44.875000,3.568988,4.0,0.10309327921258316,0.21266249999999998,0.875,2.375,0.5050734374999999
2018-07-01 06:27:59.500000,3.567707,4.0,0.10703906492869208,0.24340899999999976,0.875,2.375,0.5780963749999994
2018-07-01 06:28:08.875000,3.806632,1.625,0.34650185018147717,0.5604810000000002,1.0,2.25,1.2610822500000005
2018-07-01 06:28:14,3.663789,1.5,0.2407101308549393,0.3241179999999999,0.75,2.0,0.6482359999999998
2018-07-01 06:28:20.375000,3.24487,1.375,0.07234628986317482,0.06661700000000037,0.375,1.5,0.09992550000000056
2018-07-01 06:28:24.500000,3.235902,1.625,0.08782806167430657,0.12490749999999995,0.5,1.75,0.2185881249999999
2018-07-01 06:28:28.125000,3.4908409999999996,1.875,0.14871083000814345,0.37792499999999984,,,
2018-07-01 06:28:44,3.399883,1.75,0.1365656466278633,0.2844039999999999,,,
2018-07-01 06:28:46.250000,3.433192,1.125,0.0940713862686291,0.06469600000000009,0.375,1.375,0.08895700000000012
2018-07-01 06:28:51.625000,3.2243725000000003,1.375,0.06719623043168177,0.06533650000000035,0.5,1.75,0.11433887500000062
2018-07-01 06:29:03,3.174409,1.75,0.09691221606884604,0.18447799999999948,0.875,2.25,0.4150754999999988
2018-07-01 06:29:14.500000,3.516463,4.0,0.23507456427940276,0.5927600000000002,1.5,3.0,1.7782800000000005
2018-07-01 06:29:20.875000,3.2000315,1.375,0.09535343530569307,0.10761250000000011,0.625,1.75,0.1883218750000002
2018-07-01 06:29:27.875000,3.6099829999999997,4.0,0.22306630545690176,0.5828999999999995,1.375,2.875,1.6758374999999988
2018-07-01 06:29:38,3.130852,1.625,0.033602252926092646,0.06469550000000002,0.5,1.875,0.12130406250000003
2018-07-01 06:29:42.875000,3.879546,4.0,0.24669436804246025,0.4674925000000001,0.875,2.375,1.1102946875000002
2018-07-01 06:29:48,3.7714019999999997,1.5,0.20125581149141247,0.27287399999999984,0.625,1.875,0.5116387499999997
2018-07-01 06:30:03.500000,3.607421,4.0,0.07284681663284864,0.07045999999999975,0.375,1.625,0.11449749999999959
2018-07-01 06:30:08,3.612545,1.875,0.15205285983500083,0.2536575000000001,0.875,2.125,0.5390221875000002
2018-07-01 06:30:13.375000,3.439597,1.5,0.05723906364746689,0.0717414999999999,,,
2018-07-01 06:30:15.500000,3.852111,1.5,0.24718045769332697,0.32796199999999986,0.75,2.0,0.6559239999999997
2018-07-01 06:30:18.875000,3.762434,1.375,0.12421820155681296,0.14092100000000007,0.625,1.75,0.24661175000000013
2018-07-01 06:30:21.250000,3.917447,1.125,0.18329451093582882,0.13707750000000019,0.625,1.625,0.2227509375000003
2018-07-01 06:30:26.750000,3.8738900000000003,1.375,0.19585546624753647,0.21074150000000014,0.625,1.75,0.36879762500000024
2018-07-01 06:30:33.875000,3.6490564999999995,1.25,0.2985620521652841,0.2831224999999993,1.0,2.0,0.5662449999999986
2018-07-01 06:30:50,3.299957,1.25,0.1357609965071518,0.08711500000000028,0.25,1.375,0.11978312500000038
2018-07-01 06:30:54.625000,3.1101035,1.625,0.08554772697997493,0.1249075000000004,0.375,1.75,0.2185881250000007
2018-07-01 06:31:25.750000,2.537504,4.0,0.06249164913706373,0.22291200000000044,0.875,2.5,0.5572800000000011
2018-07-01 06:31:32.250000,2.329966,1.375,0.05020413661583589,0.049963000000000424,0.5,1.75,0.08743525000000074
2018-07-01 06:31:51.375000,2.2972975,1.875,0.1058768087496258,0.27735850000000006,1.125,2.625,0.7280660625000002
2018-07-01 06:32:19.875000,1.9299705,4.0,0.050771682130303475,0.18511900000000003,,,
2018-07-01 06:32:40.625000,1.676953,1.75,0.041107238027209725,0.08711449999999998,0.875,2.25,0.19600762499999996
2018-07-01 06:32:48,1.748054,4.0,0.06268149997681949,0.15117000000000003,1.125,2.625,0.39682125000000007
2018-07-01 06:32:53.625000,1.7807225,1.875,0.06792523940705042,0.17487049999999993,1.125,2.625,0.4590350624999998
2018-07-01 06:33:04.250000,1.593041,1.625,0.03930452744312252,0.05188449999999989,0.75,1.875,0.09728343749999979
2018-07-01 06:33:18,1.503364,1.375,0.02497958848472681,0.02305950000000001,0.5,1.75,0.04035412500000002
2018-07-01 06:33:37.375000,1.389147,4.0,0.013302562123154615,0.03266799999999992,0.625,2.125,0.06941949999999983
2018-07-01 06:34:05.500000,1.280254,1.75,0.06080351236775172,0.119143,1.25,2.5,0.2978575
2018-07-01 06:34:23.125000,1.2937055000000002,1.875,0.06601706487058667,0.1594975000000003,1.25,2.75,0.4386181250000008
2018-07-01 06:34:27.375000,1.270645,1.375,0.062419944687398754,0.07110100000000008,1.25,2.375,0.1688648750000002
2018-07-01 06:34:33.750000,1.189296,1.75,0.016198390953539032,0.025622000000000034,,,
2018-07-01 06:34:40.875000,1.9043485000000002,4.0,0.19344631872174212,0.3806860000000003,1.625,3.125,1.189643750000001
2018-07-01 06:34:47.375000,2.031177,1.875,0.14699119135160732,0.33692900000000003,1.125,2.625,0.884438625
2018-07-01 06:34:54,1.961998,1.625,0.1327865314069916,0.22739549999999964,0.875,2.25,0.5116398749999992
2018-07-01 06:35:47.875000,1.3788985,4.0,0.024174730269572287,0.089677,,,
2018-07-01 06:36:05.625000,1.4339855,1.875,0.07037368467138361,0.17807250000000008,1.75,3.25,0.5787356250000002
2018-07-01 06:36:13.875000,1.3673685,1.625,0.04532368568567691,0.08455250000000003,0.875,2.25,0.19024312500000007
2018-07-01 06:36:34.375000,1.2668019999999998,1.375,0.02055924203144155,0.02113799999999988,0.375,1.625,0.034349249999999804
2018-07-01 06:37:51.875000,0.8913409999999999,4.0,0.024490064063754424,0.07046099999999988,,,
2018-07-01 06:37:55.250000,0.904792,1.75,0.007738916124763406,0.02305900000000005,,,
2018-07-01 06:38:02.625000,3.2868950000000003,1.5,0.09354444237840553,0.16077800000000053,0.25,1.75,0.28136150000000093
2018-07-01 06:38:09.250000,2.353025,1.5,0.06286264088562987,0.09864400000000018,1.0,2.375,0.23427950000000042
2018-07-01 06:38:15.500000,2.647678,4.0,0.045054772710683366,0.6933669999999998,,,
2018-07-01 06:38:18.625000,2.770664,1.625,0.24599420358002888,0.3164319999999998,0.625,1.875,0.5933099999999997
2018-07-01 06:38:23.375000,2.7565720000000002,4.0,0.035626581044812866,0.07558500000000024,0.375,2.25,0.17006625000000053
2018-07-01 06:38:41.375000,3.608702,1.5,0.36806910807746007,0.526437,1.0,2.25,1.18448325
2018-07-01 06:38:48.125000,3.276257,1.5,0.12755682484012887,0.17102700000000048,0.5,1.75,0.29929725000000085
2018-07-01 06:38:51.375000,3.1910635000000003,1.25,0.0824427026992467,0.03587050000000058,0.25,1.5,0.053805750000000874
2018-07-01 06:39:02.500000,3.6919730000000004,4.0,0.37795768091134363,0.6452840000000006,1.0,2.25,1.4518890000000013
2018-07-01 06:39:15,3.320844,1.625,0.16795765762714154,0.29977699999999974,0.875,2.25,0.6744982499999994
2018-07-01 06:39:19.500000,3.434473,1.5,0.2569211305610004,0.35831899999999983,0.875,2.125,0.7614278749999996
2018-07-01 06:39:24.625000,3.5670665,1.625,0.3072371599315993,0.4964265000000001,1.125,2.5,1.2410662500000003
2018-07-01 06:39:33.625000,2.9916015,1.5,0.03004345872456682,0.033948999999999785,0.25,1.5,0.05092349999999968
2018-07-01 06:39:52.500000,2.591898,1.625,0.016448454632644882,0.027543000000000095,0.5,1.75,0.04820025000000017
2018-07-01 06:39:55.625000,2.775736,4.0,0.036281830917021196,0.14476350000000027,,,
2018-07-01 06:39:58.625000,3.3704175,1.875,0.2624441225917913,0.5761055000000002,1.125,2.625,1.5122769375000005
2018-07-01 06:40:05.875000,3.1382874999999997,1.5,0.15696736138731637,0.22419249999999957,0.875,2.125,0.4764090624999991
2018-07-01 06:40:40.875000,2.8808385000000003,4.0,0.1340100694285482,0.4823340000000007,,,
2018-07-01 06:40:43,2.9518880000000003,1.25,0.07747588851776221,0.056958000000000286,0.375,1.5,0.08543700000000043
2018-07-01 06:40:49.250000,3.274725,1.875,0.22580128595566684,0.5470294999999998,1.125,2.625,1.4359524374999997
2018-07-01 06:41:02.125000,3.8021485000000004,4.0,0.3741507416150398,1.0027115000000002,1.5,3.0,3.0081345000000006
2018-07-01 06:41:09.250000,3.86236,4.0,0.3239076392222877,0.8006879999999996,1.375,2.875,2.3019779999999987
2018-07-01 06:41:18,3.7880559999999996,4.0,0.22631557989637052,0.6162089999999996,1.25,2.75,1.6945747499999988
2018-07-01 06:41:24.500000,3.9500059999999997,1.875,0.3081463771203037,0.6711874999999998,1.0,2.375,1.5940703124999995
2018-07-01 06:41:28.125000,3.7611529999999997,1.375,0.19958724459953814,0.22291099999999986,0.875,2.0,0.4458219999999997
2018-07-01 06:41:30.875000,3.7220795000000004,1.125,0.10689519539622161,0.044198500000000696,0.25,1.375,0.060772937500000956
2018-07-01 06:41:35.875000,3.9051679999999998,1.75,0.20088193107773478,0.41368649999999985,0.75,2.25,0.9307946249999997
2018-07-01 06:41:42.125000,3.4524079999999997,1.0,0.1847482733873207,0.07046049999999981,0.25,1.25,0.08807562499999977
2018-07-01 06:41:45.875000,3.592048,1.375,0.10933331729435913,0.14860799999999985,0.875,2.0,0.2972159999999997
2018-07-01 06:42:01.625000,3.2941920000000002,4.0,0.07593560107723718,0.16974550000000033,1.75,3.125,0.530454687500001
2018-07-01 06:42:28,2.937795,1.75,0.08460094145729258,0.1498879999999998,0.625,2.0,0.2997759999999996
2018-07-01 06:42:34.250000,3.1017759999999996,1.875,0.16592845659404354,0.3625509999999994,1.0,2.5,0.9063774999999985
2018-07-01 06:42:57,2.309468,1.375,0.0330116606949975,0.02562199999999981,,,
2018-07-01 06:42:58.875000,2.4362965,1.5,0.038225988302333036,0.02241900000000019,0.25,1.75,0.03923325000000033
2018-07-01 06:43:08.375000,3.3710579999999997,1.75,0.3949789417566816,0.4453814999999999,0.375,1.625,0.7237449374999998
2018-07-01 06:43:10.625000,3.192985,1.0,0.2444566777803736,0.10889300000000013,,,
2018-07-01 06:43:14.750000,3.4434400000000003,1.75,0.16997009662280682,0.2280350000000002,,,
2018-07-01 06:43:27.500000,3.823927,4.0,0.130384965650169,0.3587079999999996,0.375,1.875,0.6725774999999992
2018-07-01 06:43:31.750000,3.712471,1.0,0.6140730702057127,0.2664690000000003,0.875,1.75,0.4663207500000005
2018-07-01 06:43:51.500000,3.4434400000000003,4.0,0.07778386592833719,0.22764600000000046,1.0,2.625,0.5975707500000011
2018-07-01 06:44:14.625000,2.991212,1.375,0.02207723042960552,0.02306000000000008,0.375,1.625,0.03747250000000013
2018-07-01 06:44:27.250000,2.899363,4.0,0.01010362208115545,0.02562299999999995,0.5,2.125,0.0544488749999999
2018-07-01 06:44:33.375000,3.479952,4.0,0.04081309531745703,0.3243695,,,
2018-07-01 06:44:36.500000,3.8444239999999996,1.5,0.22897234426849877,0.3625509999999994,0.5,1.75,0.634464249999999
2018-07-01 06:44:45.375000,3.6746784999999997,1.25,0.31509383919055445,0.28632549999999934,0.625,1.75,0.5010696249999989
2018-07-01 06:44:50.500000,3.5613010000000003,1.375,0.1775107193968708,0.2011320000000003,,,
2018-07-01 06:44:52.500000,3.9948449999999998,1.25,0.25173624517364246,0.27212499999999995,0.625,1.625,0.4422031249999999
2018-07-01 06:44:58.625000,3.7771669999999995,4.0,0.17323123447455302,0.3913759999999993,0.875,2.375,0.9295179999999983
2018-07-01 06:45:04.625000,3.7592315000000003,1.625,0.21432140221754103,0.3311645000000003,,,
2018-07-01 06:45:07.125000,3.985877,1.25,0.2919813256057182,0.2311295000000002,0.5,1.625,0.37558543750000034
2018-07-01 06:45:15.750000,4.290779,1.75,0.2419631401679183,0.4771009999999998,1.0,2.375,1.1331148749999995
2018-07-01 06:45:33.250000,3.903887,1.75,0.08913089647733763,0.21138199999999996,1.0,2.5,0.5284549999999999
2018-07-01 06:45:38,3.759122,1.75,0.08376633552768808,0.052525000000000155,,,
2018-07-01 06:45:50.500000,4.548953,4.0,0.5311619091027033,0.9530619999999996,1.5,2.75,2.620920499999999
2018-07-01 06:46:05.750000,3.717596,1.75,0.09640811859133969,0.179354,1.0,2.5,0.44838500000000003
2018-07-01 06:46:12.500000,3.683006,4.0,0.07135917951975479,0.2280359999999999,1.125,2.875,0.6556034999999998
2018-07-01 06:46:21.625000,3.9090109999999996,1.875,0.21345009435170148,0.3477099999999993,1.125,2.375,0.8258112499999983
2018-07-01 06:46:28.875000,3.6740380000000004,1.625,0.2439053785224079,0.35319400000000023,,,
2018-07-01 06:46:31.500000,3.759872,1.875,0.10183570770151107,0.07942850000000012,1.0,2.375,0.1886426875000003
2018-07-01 06:46:37.875000,3.7496229999999997,1.25,0.14356353905303187,0.06213349999999984,0.125,1.375,0.08543356249999978
2018-07-01 06:47:00.375000,3.5798775000000003,1.875,0.1614683582417058,0.2901695000000002,1.625,2.875,0.8342373125000005
2018-07-01 06:47:08.500000,3.375542,1.75,0.0736808925422654,0.06789799999999957,,,
2018-07-01 06:47:20.250000,3.725282,1.875,0.10560631182163505,0.23700350000000014,0.375,2.0,0.4740070000000003
2018-07-01 06:47:23.625000,4.270281,1.875,0.051297001754264215,0.525782,0.625,2.25,1.1830094999999998
2018-07-01 06:47:38.375000,3.388353,1.625,0.09550822504479761,0.07430400000000015,,,
2018-07-01 06:47:42.625000,3.568988,1.625,0.06114715101738355,0.09992599999999996,0.25,1.625,0.16237974999999993
2018-07-01 06:47:50.625000,3.891825,4.0,0.2243680843496687,0.5470294999999998,,,
2018-07-01 06:47:57.500000,3.8021480000000003,1.875,0.1527090936167621,0.2389250000000005,1.375,2.625,0.6271781250000013
2018-07-01 06:48:12,3.6394480000000002,1.75,0.17009606144730327,0.21906800000000004,0.75,2.0,0.4381360000000001
2018-07-01 06:48:15.875000,4.030715,1.75,0.259761986704266,0.5392334999999999,0.875,2.25,1.2132753749999998
2018-07-01 06:48:22.500000,4.51052,4.0,0.31720732179164557,0.9402509999999995,,,
2018-07-01 06:48:28.375000,4.825934,1.625,0.4078421201479898,0.7138369999999998,0.875,2.25,1.6061332499999996
2018-07-01 06:48:33.500000,4.5233300000000005,1.75,0.32436315843864705,0.5720430000000003,0.75,2.125,1.2155913750000007
2018-07-01 06:48:39.875000,4.340133,1.875,0.4016193567601647,0.4682740000000001,,,
2018-07-01 06:48:45,4.513082,4.0,0.12488461075271218,0.14220199999999927,,,
2018-07-01 06:48:47,4.630943,1.125,0.09322024536952256,0.05572749999999971,0.125,1.125,0.06269343749999967
2018-07-01 06:48:51.250000,4.9713389999999995,1.75,0.4778376616239548,0.6568279999999991,1.75,3.0,1.9704839999999972
2018-07-01 06:48:57.625000,4.4541505,1.5,0.24504675600625703,0.14668550000000025,,,
2018-07-01 06:48:59.125000,4.9028,0.875,0.4898030592122815,0.04638399999999976,0.125,1.0,0.04638399999999976
2018-07-01 06:49:02.625000,4.420202,1.0,0.20053989348603452,0.09928500000000007,,,
2018-07-01 06:49:04.500000,4.659127,1.5,0.17021249676604455,0.17807299999999948,0.25,1.625,0.28936862499999916
2018-07-01 06:49:10.250000,4.423405000000001,1.5,0.25720327531923104,0.33888300000000093,1.5,2.75,0.9319282500000026
2018-07-01 06:49:15,4.057619,0.875,0.26612610877611687,0.02562249999999988,0.875,1.75,0.04483937499999979
2018-07-01 06:49:25.875000,3.658556,1.75,0.06854073325306587,0.1249075000000004,0.875,2.375,0.29665531250000093
2018-07-01 06:49:33.375000,3.8386595000000003,4.0,0.16510280025273438,0.4067495000000001,0.875,2.375,0.9660300625000002
2018-07-01 06:49:40.500000,3.6445730000000003,0.875,0.9101080747327508,0.20907050000000016,0.75,1.625,0.33973956250000026
2018-07-01 06:50:03.375000,3.327501,4.0,0.09223514446205527,0.23508200000000024,1.25,2.75,0.6464755000000006
2018-07-01 06:50:24.875000,3.6298405000000002,4.0,0.14692866059792742,0.38048700000000046,,,
2018-07-01 06:50:31.125000,3.6733979999999997,4.0,0.04029373680789483,0.07174199999999953,0.5,2.375,0.17038724999999888
2018-07-01 06:50:34.875000,3.5638635,1.375,0.07813567427899137,0.09736350000000016,,,
2018-07-01 06:50:37,3.7240010000000003,1.25,0.1532223220348019,0.11273700000000053,0.5,1.625,0.18319762500000086
2018-07-01 06:50:49.625000,3.95449,1.875,0.10081609455914453,0.2842950000000002,0.75,2.375,0.6752006250000004
2018-07-01 06:51:15.875000,3.4665,1.625,0.01324904009041461,0.021778999999999993,0.5,1.75,0.03811324999999999
2018-07-01 06:51:21.375000,3.6502290000000004,4.0,0.21610279489349082,0.18821300000000019,,,
2018-07-01 06:51:23.125000,3.6009065,0.875,0.07256964211899763,0.021138499999999727,0.125,1.0,0.021138499999999727
2018-07-01 06:51:32.500000,3.7752449999999995,1.625,0.4409058531037182,0.3971409999999995,0.125,1.25,0.4964262499999994
2018-07-01 06:51:34.500000,3.620232,0.875,0.6923764359973408,0.12964200000000003,0.75,1.625,0.21066825000000006
2018-07-01 06:51:37.375000,4.0018905,1.625,0.14881662380130578,0.3445065000000005,0.25,1.75,0.6028863750000009
2018-07-01 06:51:42.375000,3.4504865,1.0,0.16148252224485482,0.02241950000000026,0.125,1.125,0.02522193750000029
2018-07-01 06:51:50.125000,3.5978130000000004,1.5,0.03929561943397353,0.09159900000000043,,,
2018-07-01 06:51:59.125000,3.7758855000000002,0.875,0.3184521449115518,0.04676050000000043,0.375,1.25,0.05845062500000053
2018-07-01 06:52:04.750000,3.179923,1.375,0.1068326224584375,0.18511850000000019,0.25,1.375,0.25453793750000026
2018-07-01 06:52:10.875000,3.2365425,1.625,0.1738073279827379,0.16423150000000009,0.125,1.625,0.26687618750000014
2018-07-01 06:52:17.625000,3.109463,1.625,0.2420852207200621,0.23187899999999972,0.875,2.125,0.4927428749999994
2018-07-01 06:52:24.375000,2.8897545,0.875,0.3905660083211089,0.06144149999999993,0.25,0.375,0.023040562499999973
2018-07-01 06:52:28.125000,3.045408,1.5,0.07493093249024341,0.17930250000000036,,,
2018-07-01 06:52:32.250000,3.708628,4.0,0.1865130557179846,0.35063200000000005,0.875,2.0,0.7012640000000001
2018-07-01 06:52:36.750000,3.435754,1.0,0.19467270881173881,0.111456,0.75,1.75,0.195048
2018-07-01 06:52:43.125000,3.1453335,0.75,0.23562712446942058,0.037152000000000296,,,
2018-07-01 06:52:45.500000,3.590767,1.875,0.2111200521301484,0.36088049999999994,1.375,2.625,0.9473113124999999
2018-07-01 06:52:51.375000,3.358247,1.625,0.11625277194872652,0.2286760000000001,1.0,2.375,0.5431055000000002
2018-07-01 06:52:58.625000,3.1844075,1.0,0.5158621999034452,0.22034949999999975,,,
2018-07-01 06:53:01,3.6394480000000002,4.0,0.2456685168490349,0.4018750000000004,,,
2018-07-01 06:53:13.250000,3.393477,1.75,0.10198705333300673,0.16013699999999975,1.0,2.375,0.3803253749999994
2018-07-01 06:53:18.750000,3.508776,1.75,0.06145275545433293,0.18447799999999992,,,
2018-07-01 06:53:20.250000,3.884139,1.125,0.2744877482513619,0.18447900000000006,0.5,1.5,0.2767185000000001
2018-07-01 06:53:28.500000,3.2986760000000004,0.625,0.26531923467632623,0.028825000000000323,0.5,1.125,0.03242812500000036
2018-07-01 06:53:33.125000,3.520306,0.75,0.5494934698352782,0.03868349999999987,0.25,0.5,0.019341749999999935
2018-07-01 06:53:39.875000,3.5939695,1.5,0.11416654893596068,0.13067199999999968,,,
2018-07-01 06:53:42.375000,3.6561025,1.0,0.10508953523488174,0.03522999999999987,0.25,1.25,0.04403749999999984
2018-07-01 06:53:48.500000,3.022348,0.875,0.20673260322740816,0.0211380000000001,0.125,0.875,0.01849575000000009
2018-07-01 06:53:55,2.754598,0.5,0.2773676770586917,0.06149300000000002,,,
2018-07-01 06:53:56,2.872459,0.625,0.19425803277016485,0.06021099999999979,,,
2018-07-01 06:54:01.625000,3.334296,4.0,0.07337600531663746,0.14028099999999988,,,
2018-07-01 06:54:07.125000,3.6452134999999997,1.5,0.15187033578388665,0.23661399999999988,1.25,2.375,0.5619582499999998
2018-07-01 06:54:14,3.8726089999999997,4.0,0.27629739081150717,0.40226599999999957,1.125,2.25,0.905098499999999
2018-07-01 06:54:19,3.5817989999999997,1.125,0.14211272349261606,0.0461194999999992,0.75,1.875,0.0864740624999985
2018-07-01 06:54:26.750000,3.597172,4.0,0.06826099986294487,0.09223899999999974,0.625,2.0,0.18447799999999948
2018-07-01 06:54:31.750000,3.650978,1.25,0.12551936512907247,0.056367999999999974,0.875,1.875,0.10568999999999995
2018-07-01 06:54:41.125000,3.6208725,1.75,0.02749444680202373,0.11914200000000008,0.5,2.125,0.2531767500000002
2018-07-01 06:54:48,3.6573839999999995,1.5,0.06094661861101969,0.09608299999999925,0.5,1.75,0.1681452499999987
2018-07-01 06:54:58.750000,3.4869980000000003,1.75,0.11235859056224662,0.11145600000000044,,,
2018-07-01 06:55:04.500000,3.752185,1.875,0.21438224762951918,0.2844039999999999,1.0,2.0,0.5688079999999998
2018-07-01 06:55:11,3.803429,1.375,0.20065872388285477,0.2184269999999997,0.75,2.0,0.4368539999999994
2018-07-01 06:55:18.625000,3.6913329999999998,4.0,0.037248365910960146,0.0506034999999998,0.875,2.5,0.1265087499999995
2018-07-01 06:55:25.250000,3.7983050000000005,1.75,0.15379717315538421,0.1486080000000003,0.875,2.0,0.2972160000000006
2018-07-01 06:55:37.250000,3.160707,4.0,0.17534865253817244,0.2446900000000003,,,
2018-07-01 06:55:44,3.558739,4.0,0.1420478256181834,0.16743399999999964,0.375,1.625,0.2720802499999994
2018-07-01 06:55:46.625000,3.3515905000000004,0.75,0.4240232813271181,0.10953400000000002,,,
2018-07-01 06:55:56,3.609983,1.125,0.07923963647477095,0.0634140000000003,0.125,1.125,0.07134075000000034
2018-07-01 06:56:07.625000,3.110744,1.625,0.05582218558672558,0.06533599999999984,0.125,1.75,0.11433799999999972
2018-07-01 06:56:10.875000,3.3195629999999996,4.0,0.08654685347347346,0.32027499999999964,,,
2018-07-01 06:56:17.750000,3.405007,4.0,0.19818528879210717,0.29426299999999994,,,
2018-07-01 06:56:20.375000,4.014701499999999,4.0,0.15058315230611896,0.449556499999999,1.125,2.75,1.2362803749999973
2018-07-01 06:56:25,3.900043,1.25,0.15586184470447506,0.0909580000000001,0.25,1.375,0.12506725000000013
2018-07-01 06:56:39.125000,4.1203925,1.75,0.10921068863859418,0.25493900000000025,1.0,2.375,0.6054801250000006
2018-07-01 06:56:47.125000,3.4440809999999997,1.375,0.05199163240843596,0.06981999999999955,,,
2018-07-01 06:56:55.500000,3.1363659999999998,0.75,0.2061607082772028,0.024340999999999724,,,
2018-07-01 06:56:59.625000,3.2247614999999996,1.75,0.15286439077892844,0.20241349999999958,1.5,2.75,0.5566371249999988
2018-07-01 06:57:20,2.81481,1.125,0.06523362686817968,0.03330849999999996,1.25,2.375,0.07910768749999991
2018-07-01 06:57:51.250000,2.809685,1.75,0.05244406357487996,0.1293899999999999,1.0,2.5,0.32347499999999973
2018-07-01 06:57:58.500000,2.621364,4.0,0.023764056066054806,0.07302299999999962,,,
2018-07-01 06:58:07.625000,2.7353815,4.0,0.10009258882861793,0.22547300000000003,1.125,2.5,0.5636825000000001
2018-07-01 06:58:11.625000,2.6988705,1.875,0.028540646817717175,0.07110150000000015,0.375,2.0,0.1422030000000003
2018-07-01 06:58:21,2.7405060000000003,4.0,0.07244985404819992,0.09095800000000054,0.375,1.625,0.14780675000000087
2018-07-01 06:58:24.750000,2.589336,1.125,0.05406858948870408,0.03651099999999996,1.375,2.375,0.0867136249999999
2018-07-01 06:58:37.250000,2.2466939999999997,1.125,0.05747757452827962,0.04163599999999956,,,
2018-07-01 06:58:46.125000,2.2947355,4.0,0.006484979669675539,0.10248799999999969,,,
2018-07-01 06:58:50.500000,2.468324,4.0,0.06215157230812096,0.08711400000000014,,,
2018-07-01 06:59:03.500000,2.752728,4.0,0.08842983060276488,0.25237599999999993,,,
2018-07-01 06:59:10,2.7732259999999997,1.875,0.07602831101838525,0.14796699999999996,1.125,2.375,0.3514216249999999
2018-07-01 06:59:13.500000,3.056938,1.875,0.1455572199129911,0.32086400000000026,1.125,2.5,0.8021600000000007
2018-07-01 06:59:19.375000,2.8923164999999997,1.0,0.13971027344797982,0.04291699999999965,0.625,1.625,0.06974012499999943
2018-07-01 06:59:24,2.846837,1.5,0.0967406186821389,0.058929999999999705,0.25,1.5,0.08839499999999956
2018-07-01 06:59:27.625000,3.018505,4.0,0.08702687965905298,0.23828450000000023,,,
2018-07-01 06:59:34.250000,3.2555080000000003,4.0,0.17479997227375677,0.3202750000000001,,,
2018-07-01 06:59:40.500000,3.449846,4.0,0.062066563473965886,0.2635169999999998,1.125,2.75,0.7246717499999994
2018-07-01 06:59:55.750000,3.1449439999999997,1.625,0.03275019063285178,0.059570999999999596,0.875,2.25,0.1340347499999991
2018-07-01 07:00:08.750000,3.282022,1.5,0.0876174902882152,0.11914299999999978,0.625,1.875,0.22339312499999958
2018-07-01 07:00:17.500000,3.32686,4.0,0.07475333602363143,0.2626249999999999,1.125,2.75,0.7222187499999997
2018-07-01 07:00:22.250000,4.061462000000001,4.0,0.2189193810236283,0.7986570000000008,1.25,2.875,2.2961388750000022
2018-07-01 07:00:31.375000,3.663149,1.25,0.13575148943424864,0.10312900000000047,0.375,1.5,0.1546935000000007
2018-07-01 07:00:36.875000,3.8258484999999998,4.0,0.18404804203386682,0.4016250000000001,1.5,2.875,1.1546718750000005
2018-07-01 07:00:43.250000,2.944893,1.25,0.36330675120088607,0.521407,,,
2018-07-01 07:00:47.125000,3.8891540000000004,1.625,0.22531296820494795,0.497849,1.25,2.625,1.306853625
2018-07-01 07:00:50.375000,3.567598,1.0,0.0963831573538787,0.03587050000000014,0.125,1.125,0.040354312500000156
2018-07-01 07:00:52.750000,4.6501589999999995,1.875,0.2822162082842645,0.8218569999999996,,,
2018-07-01 07:00:59.250000,4.8509150000000005,1.75,0.33902995232475064,0.5171870000000007,,,
