1530518526.000000, IBI
69.846947,0.656280
184.633451,0.812537
185.477240,0.843789
186.289777,0.812537
187.102314,0.812537
187.899226,0.796911
188.649260,0.750034
189.368043,0.718783
190.133703,0.765660
190.993118,0.859414
191.852532,0.859414
192.711946,0.859414
193.602612,0.890666
194.477652,0.875040
204.462484,0.828163
205.275021,0.812537
209.853356,0.671906
210.634642,0.781286
211.353425,0.718783
212.150336,0.796911
212.884745,0.734409
213.744159,0.859414
214.509819,0.765660
215.353608,0.843789
216.150519,0.796911
320.452168,0.843789
443.348419,0.828163
444.176582,0.828163
445.020370,0.843789
1094.925119,0.906291
1253.979275,0.671906
1265.401673,0.890666
1305.903527,0.750034
1306.825444,0.921917
1307.762987,0.937543
1354.780764,0.796911
1363.421784,0.828163
1364.296824,0.875040
1365.140613,0.843789
1365.921899,0.781286
1366.843816,0.921917
1367.718856,0.875040
1368.468890,0.750034
1369.234550,0.765660
1652.138125,0.781286
1656.435197,0.750034
1666.685666,0.906291
1788.925637,0.734409
1798.910469,0.968794
1808.832798,0.406269
1809.348446,0.515649
1814.192418,0.781286
1815.004955,0.812537
1815.864370,0.859414
1816.630030,0.765660
1817.426941,0.796911
1884.773774,0.687531
2001.857258,1.015671
2013.764053,0.921917
2014.685971,0.921917
2015.561011,0.875040
2016.404799,0.843789
2017.248588,0.843789
2018.029874,0.781286
2018.826785,0.796911
2019.654948,0.828163
2028.530354,0.781286
2029.342891,0.812537
2030.171054,0.828163
2031.030469,0.859414
2031.811754,0.781286
2032.624292,0.812537
2033.452455,0.828163
2034.327495,0.875040
2144.426284,0.765660
2145.207570,0.781286
2145.988856,0.781286
2146.754516,0.765660
2147.535801,0.781286
2153.442322,0.671906
2154.145479,0.703157
2154.770508,0.625029
2158.130036,0.781286
2176.302743,0.750034
2177.021526,0.718783
2177.740309,0.718783
2178.443466,0.703157
2179.146623,0.703157
2179.787278,0.640654
2180.490435,0.703157
2181.209218,0.718783
2181.865498,0.656280
2182.506152,0.640654
2183.209309,0.703157
2184.053098,0.843789
2184.990641,0.937543
2185.896932,0.906291
2186.771972,0.875040
2187.568884,0.796911
2188.272041,0.703157
2422.829653,0.640654
2423.470307,0.640654
2424.189090,0.718783
2424.845370,0.656280
2425.595405,0.750034
2426.407942,0.812537
2448.408949,0.937543
2452.893529,0.906291
2453.862324,0.968794
2538.053677,0.609403
2589.446655,0.703157
2590.227941,0.781286
2600.431533,0.906291
2601.369076,0.937543
2602.337870,0.968794
2609.088179,0.890666
2609.947593,0.859414
2610.744505,0.796911
2611.619545,0.875040
2612.478959,0.859414
2613.322748,0.843789
2614.229039,0.906291
2615.057202,0.828163
2615.900991,0.843789
2616.807282,0.906291
2617.572942,0.765660
2618.338602,0.765660
2619.151139,0.812537
2620.166811,1.015671
2621.151231,0.984420
2641.511538,0.750034
2642.308450,0.796911
2643.152238,0.843789
2643.808518,0.656280
2644.464798,0.656280
2645.183581,0.718783
2646.011744,0.828163
2646.839907,0.828163
2663.918814,0.796911
2664.778228,0.859414
2665.653268,0.875040
2676.544392,0.812537
2684.107238,0.812537
2684.810395,0.703157
2704.983193,0.906291
2705.889485,0.906291
2706.717648,0.828163
2707.670816,0.953169
2708.577108,0.906291
2709.420897,0.843789
