,EDA,rise_time,max_deriv,amp,decay_time,SCR_width,AUC
2018-07-02 08:02:07.250000,0.034592000000000005,1.0,0.33463026129509377,0.034592000000000005,,,
2018-07-02 08:02:26.125000,0.28890499999999997,1.0,0.4273316128319862,0.24790749999999998,,,
2018-07-02 08:02:40.250000,0.206269,1.75,0.15730333000864094,0.183208,0.5,1.0,0.183208
2018-07-02 08:02:49.125000,0.1537415,1.875,0.08217785863504778,0.1306805,,,
2018-07-02 08:04:04,0.707476,1.625,0.5029424869657853,0.610747,0.75,1.875,1.145150625
2018-07-02 08:04:06,0.8791540000000001,0.875,0.5684626387926661,0.07110550000000015,,,
2018-07-02 08:04:11.625000,0.6792905,1.5,0.24254936861358445,0.14669500000000002,0.5,1.625,0.23837937500000003
2018-07-02 08:04:13.625000,0.7196475,0.875,0.19420863697668844,0.055731500000000045,,,
2018-07-02 08:04:23.750000,0.713882,1.375,0.02642792862344434,0.03074800000000011,1.0,2.125,0.06533950000000023
2018-07-02 08:04:32.375000,0.6171535,0.75,0.39972149644684674,0.0589345,0.25,1.0,0.0589345
2018-07-02 08:04:52,0.902215,0.625,0.14977425961810908,0.023060999999999998,,,
2018-07-02 08:05:20.375000,0.846484,4.0,0.025298323128430056,0.0813545,,,
2018-07-02 08:05:36,0.9201520000000001,4.0,0.022540688547333154,0.10761900000000013,,,
2018-07-02 08:06:28.750000,0.16682,1.0,0.5950667068643085,0.143759,,,
2018-07-02 08:06:35.500000,1.0278399999999999,4.0,0.08835087307428413,1.0022159999999998,0.25,2.125,2.1297089999999996
2018-07-02 08:06:42.250000,0.5252829999999999,1.75,0.1591234386293059,0.26904799999999995,,,
2018-07-02 08:06:46.125000,0.6466205,4.0,0.06919071599288884,0.07457550000000013,,,
2018-07-02 08:07:06.750000,0.338567,1.375,0.7465839895412627,0.2745085,0.125,1.375,0.3774491875
2018-07-02 08:07:10.750000,1.246921,1.75,0.0487979497180282,0.2165189999999999,,,
2018-07-02 08:07:28.875000,0.0713725,1.375,0.5650845821138142,0.023968500000000004,0.125,1.5,0.035952750000000006
2018-07-02 08:07:31.250000,0.815095,0.625,0.4289960221453768,0.06854250000000006,0.125,0.5,0.03427125000000003
2018-07-02 08:07:36.750000,1.437915,4.0,0.08383928497987192,0.2383980000000001,,,
2018-07-02 08:07:48.500000,1.130334,0.875,0.8721140378880632,0.21979099999999985,1.0,1.75,0.38463424999999973
2018-07-02 08:07:52.250000,1.076524,0.75,0.5871625403364829,0.035871999999999904,0.125,0.75,0.026903999999999928
2018-07-02 08:07:55,1.336702,4.0,0.07510753435162165,0.11156100000000002,,,
2018-07-02 08:07:56.500000,1.624967,0.875,0.2635858950628762,0.07622949999999995,0.625,1.5,0.11434424999999993
2018-07-02 08:08:04.750000,1.932649,4.0,0.13028258450990826,0.057852000000000015,,,
2018-07-02 08:08:07,2.229882,1.5,0.15830150239152374,0.2395799999999999,,,
2018-07-02 08:08:13.500000,2.396435,0.875,0.7607509978383051,0.286343,,,
2018-07-02 08:08:16.125000,2.600772,0.75,0.17228960123594916,0.020499000000000045,,,
2018-07-02 08:08:17.375000,2.8044785,0.875,0.20537216242642664,0.061496500000000065,0.625,1.0,0.061496500000000065
2018-07-02 08:08:27.375000,2.8691785000000003,1.5,0.3276454386215235,0.41894500000000034,0.5,1.625,0.6807856250000006
2018-07-02 08:08:38.625000,2.8404115,0.875,0.07365935300760995,0.02562350000000002,0.375,0.5,0.01281175000000001
2018-07-02 08:09:01.750000,0.917758,1.5,0.9657146314997753,0.894697,0.25,1.625,1.4538826249999999
2018-07-02 08:09:04.375000,1.6403415,1.625,0.6192960430585792,0.9715674999999999,,,
2018-07-02 08:09:11.375000,1.9505854999999999,4.0,0.19338919495829732,0.47167249999999994,,,
2018-07-02 08:09:40.375000,0.764558,1.125,0.52005674390288,0.05060699999999996,0.125,1.25,0.06325874999999995
2018-07-02 08:09:43.500000,0.485566,1.125,0.27419548595459164,0.19537899999999997,,,
2018-07-02 08:10:09.875000,0.496456,1.125,0.48949242614739263,0.469551,,,
2018-07-02 08:10:33.500000,0.567561,1.25,0.327019951041265,0.530407,,,
2018-07-02 08:10:36.625000,0.599591,0.875,0.09337293510725786,0.02562399999999998,,,
2018-07-02 08:10:38.375000,0.6844155000000001,1.375,0.0784519854696164,0.07970050000000006,,,
2018-07-02 08:10:51.125000,0.5069725,1.125,0.2369393648221263,0.04163850000000002,0.125,1.25,0.05204812500000003
2018-07-02 08:10:55.375000,0.6546814999999999,1.875,0.5240462783942421,0.6354635,,,
2018-07-02 08:11:03.625000,0.606904,1.875,0.26208806621093816,0.437789,,,
2018-07-02 08:11:17.125000,0.34874700000000003,1.25,0.5456768728371943,0.27379850000000006,,,
2018-07-02 08:11:24.250000,0.607545,1.125,0.5626154122990341,0.376293,0.75,1.75,0.65851275
2018-07-02 08:11:31.500000,0.5153,0.875,0.0689604757702178,0.02562399999999998,,,
2018-07-02 08:11:40.125000,0.033311,1.25,0.06984566740682513,0.031389,,,
2018-07-02 08:11:41.625000,0.5153000000000001,1.0,0.5760648848704064,0.2609865000000001,0.875,1.875,0.48934968750000024
2018-07-02 08:11:51.125000,0.5351585,1.5,0.5890633823527307,0.5120975,0.25,1.25,0.640121875
2018-07-02 08:11:54.375000,0.0832765,1.0,0.052322133282850486,0.0627775,0.625,0.75,0.047083125
2018-07-02 08:12:03.875000,0.79844,0.875,0.7629469374326772,0.20653600000000005,,,
2018-07-02 08:12:21.750000,0.8112520000000001,1.375,0.04000782642150824,0.02178000000000002,0.375,1.625,0.035392500000000035
2018-07-02 08:12:24.500000,0.720288,1.125,0.20513013878772135,0.11402450000000008,,,
2018-07-02 08:12:29.250000,0.794596,1.0,0.02838974268376937,0.020498000000000016,,,
2018-07-02 08:12:47.250000,0.8112520000000001,1.125,0.6213508073561067,0.5806400000000002,,,
2018-07-02 08:12:53.125000,0.5031289999999999,0.75,0.1885042257478562,0.05060699999999996,,,
2018-07-02 08:12:58.875000,0.49864450000000005,1.875,0.018011858202667597,0.02818550000000003,,,
2018-07-02 08:13:05.375000,0.6485425,1.625,0.019032437590152718,0.026904499999999998,0.75,2.125,0.057172062499999995
2018-07-02 08:13:11.625000,0.6120285,1.0,0.03534306614312488,0.020498499999999975,,,
2018-07-02 08:13:23.750000,0.8407190000000001,4.0,0.046086780675539174,0.1947390000000001,,,
2018-07-02 08:13:26,1.10471,1.625,0.1308441288938127,0.18135500000000015,,,
2018-07-02 08:13:30.625000,1.2270625,4.0,0.06910140610946502,0.12555499999999986,1.75,3.125,0.39235937499999957
2018-07-02 08:13:36.125000,1.5974215,4.0,0.10222517643787032,0.1813849999999999,0.625,2.0,0.3627699999999998
2018-07-02 08:13:46,1.004779,0.875,0.24396503241067924,0.03715500000000005,,,
2018-07-02 08:13:59,1.396819,4.0,0.004535035643482566,0.03203,,,
2018-07-02 08:14:10.250000,1.2752059999999998,1.5,0.12010548361414308,0.10249399999999986,,,
2018-07-02 08:14:23.750000,1.2187350000000001,0.75,0.4077076551149137,0.02562299999999995,0.125,0.875,0.022420124999999957
2018-07-02 08:14:28.250000,1.4057870000000001,0.875,0.06700965813417437,0.028826500000000088,0.125,0.75,0.021619875000000066
2018-07-02 08:14:36.875000,1.599344,1.125,0.2415075478073625,0.07687100000000013,0.875,1.875,0.14413312500000025
2018-07-02 08:14:41.750000,1.6224049999999999,0.875,0.2830441489522517,0.032670499999999825,0.25,1.125,0.0367543124999998
2018-07-02 08:14:49.250000,1.510942,4.0,0.07490958205344,0.07174500000000017,,,
2018-07-02 08:14:52.750000,1.5955,4.0,0.02456993269083707,0.0679019999999999,0.625,2.25,0.1527794999999998
2018-07-02 08:14:58.125000,2.0575635,0.75,0.9900882566878328,0.13984750000000012,,,
2018-07-02 08:14:59.375000,2.2113050000000003,0.875,0.40095637308660415,0.045482000000000244,0.125,1.0,0.045482000000000244
2018-07-02 08:15:03.500000,2.823697,4.0,0.11213496921942934,0.4740359999999999,,,
2018-07-02 08:15:13.750000,3.259356,4.0,0.12584910898663182,0.385694,,,
2018-07-02 08:15:18.875000,3.5676099999999997,1.875,0.09890340210964688,0.3210649999999995,,,
2018-07-02 08:15:25.125000,4.09016,4.0,0.17669409815192338,0.593655,1.625,3.25,1.9293787500000001
2018-07-02 08:15:31.375000,3.7410395000000003,1.75,0.14876708826442098,0.14861650000000015,0.75,2.0,0.2972330000000003
2018-07-02 08:15:38,3.242832,1.5,0.15779953289512072,0.13708600000000004,0.75,2.0,0.2741720000000001
2018-07-02 08:15:52.500000,1.894843,1.75,0.9322698366444833,1.871782,0.5,1.875,3.50959125
2018-07-02 08:15:57.125000,1.8717929999999998,4.0,0.7850767675902093,1.6821789999999999,,,
2018-07-02 08:15:58.875000,2.569383,1.0,0.8575150151667081,0.37345200000000034,,,
2018-07-02 08:16:03.375000,2.9114575,4.0,0.014663389086793543,0.024342499999999934,,,
2018-07-02 08:16:06.875000,2.9608425,1.375,0.03241614915255653,0.03721450000000015,,,
2018-07-02 08:16:23.750000,2.58796,1.75,0.0215226954474943,0.056371999999999645,,,
2018-07-02 08:16:37.125000,2.06461,1.375,0.9039682192672016,1.130296,,,
2018-07-02 08:17:05.500000,1.294325,0.625,0.26530960975733997,0.03779500000000002,0.25,0.625,0.023621875000000014
2018-07-02 08:17:09,1.546815,1.0,0.28382017338777477,0.09874899999999998,0.25,1.125,0.11109262499999997
2018-07-02 08:17:37.375000,0.39166650000000003,0.875,0.5219049883572725,0.3698865,,,
2018-07-02 08:18:00,0.30748200000000003,4.0,0.1109389849836695,0.26007800000000003,,,
2018-07-02 08:18:06,0.343355,0.75,0.28600987871079997,0.03331000000000006,,,
2018-07-02 08:18:10.375000,0.47211349999999996,0.5,0.10976395601575861,0.024342499999999934,,,
2018-07-02 08:18:28.500000,0.11941600000000001,4.0,0.023337647156551844,0.025623000000000007,1.0,2.125,0.054448875000000015
2018-07-02 08:18:41.375000,0.11850849999999999,4.0,0.14712289339831508,0.092885,0.125,2.0,0.18577
2018-07-02 08:19:11.500000,0.14221099999999998,4.0,0.07996921977736265,0.11914999999999998,,,
2018-07-02 08:19:46.625000,0.22997099999999998,1.125,0.29613956542833053,0.19665999999999997,,,
2018-07-02 08:19:49.375000,0.39844599999999997,1.0,0.17559455799945822,0.04355999999999999,,,
2018-07-02 08:20:12.375000,0.2078175,1.0,0.5675581741897591,0.06048199999999998,,,
2018-07-02 08:20:50.125000,0.2155045,1.375,0.131727507810107,0.13324249999999999,,,
2018-07-02 08:20:58.875000,0.339779,4.0,0.025200252115994637,0.05957499999999999,,,
2018-07-02 08:21:17.625000,0.821501,4.0,0.06556235172791247,0.16847449999999997,,,
2018-07-02 08:21:24.375000,0.9675549999999999,4.0,0.008562673618284666,0.034591499999999886,,,
2018-07-02 08:21:32.875000,1.2245005,4.0,0.024084455659069803,0.049965999999999955,,,
2018-07-02 08:21:52.375000,1.5493775,4.0,0.03082238165993889,0.0813545,1.125,2.75,0.223724875
2018-07-02 08:22:00.750000,2.226038,4.0,0.019824405207652163,0.08199500000000004,0.625,2.5,0.2049875000000001
2018-07-02 08:22:07.500000,2.7019849999999996,4.0,0.09619177393766698,0.38882599999999945,,,
2018-07-02 08:22:14.625000,2.997356,4.0,0.07900979333507152,0.24668650000000003,0.75,2.5,0.6167162500000001
2018-07-02 08:22:18.625000,3.4913805,4.0,0.061756683874147456,0.3537355,1.125,2.875,1.0169895625
2018-07-02 08:22:24.125000,3.6015610000000002,0.875,0.6669920330677108,0.04612200000000044,0.125,1.0,0.04612200000000044
2018-07-02 08:22:27.250000,3.2761419999999997,1.625,0.07227381069155214,0.06726099999999935,0.375,1.75,0.11770674999999886
2018-07-02 08:22:31.875000,3.6803535,4.0,0.20361533656153696,0.5541084999999999,1.75,3.25,1.8008526249999997
2018-07-02 08:22:37.875000,4.2464635,4.0,0.3768118420964832,0.8069709999999999,,,
2018-07-02 08:22:43.250000,5.061155,4.0,0.5238647784089814,0.8646570000000002,,,
2018-07-02 08:23:14.125000,4.1366315,1.625,0.05471678992176976,0.10121249999999993,0.75,2.125,0.21507656249999985
2018-07-02 08:23:32.875000,4.424256,4.0,0.07041902754840734,0.4577294999999997,1.25,3.0,1.373188499999999
2018-07-02 08:23:43.375000,3.9210450000000003,1.75,0.05081787949745653,0.08583900000000044,0.625,2.0,0.17167800000000089
2018-07-02 08:23:47.625000,4.8861205,4.0,0.0924544215643408,0.22292499999999915,0.5,2.0,0.4458499999999983
2018-07-02 08:23:55,4.4658940000000005,1.625,0.10795828855194145,0.1691155000000002,0.5,1.875,0.31709156250000037
2018-07-02 08:24:05.500000,4.770814,4.0,0.2317785046236871,0.6495569999999997,1.625,3.125,2.0298656249999993
2018-07-02 08:24:15.375000,4.246464,1.5,0.2656796050022052,0.40292999999999957,1.0,2.25,0.906592499999999
2018-07-02 08:24:22.875000,4.042757,1.375,0.6820208572692952,0.667964,0.875,2.125,1.4194235
2018-07-02 08:24:30.250000,4.223403,1.625,0.38801134690006833,1.0953970000000002,,,
2018-07-02 08:24:33.500000,5.281518,4.0,0.22182743983801956,0.7877870000000007,,,
2018-07-02 08:24:35,5.603411,1.125,0.2522142427853211,0.19249400000000083,0.625,1.625,0.31280275000000135
2018-07-02 08:24:56.375000,4.995175,1.875,0.2485385549047443,0.6023079999999998,,,
2018-07-02 08:25:02,4.351869000000001,0.5,0.29582459847966547,0.15886600000000062,0.25,0.375,0.05957475000000023
2018-07-02 08:25:07.375000,4.6625545,1.25,0.6569874259622708,0.7101204999999995,,,
2018-07-02 08:25:11.750000,5.231552,4.0,0.3106363965528942,0.6644449999999997,,,
2018-07-02 08:25:15.500000,5.676438,1.625,0.3304906150146536,0.6011894999999994,0.875,2.25,1.3526763749999986
2018-07-02 08:25:21.750000,6.169265,4.0,0.3440183799954575,0.38777099999999987,0.875,2.125,0.8240133749999997
2018-07-02 08:25:32.875000,4.756721499999999,0.625,0.36268061518717687,0.06021549999999998,,,
2018-07-02 08:25:34.375000,4.986207,1.125,0.1977785175096045,0.08215000000000039,0.375,1.25,0.10268750000000049
2018-07-02 08:25:38,5.850678,4.0,0.3332269698374972,0.8458940000000004,1.5,2.875,2.431945250000001
2018-07-02 08:25:43,5.436858,1.875,0.04822673876692818,0.08904200000000007,0.375,1.875,0.16695375000000012
2018-07-02 08:25:46.250000,6.1718269999999995,1.5,0.441962402850713,0.6798789999999988,1.0,2.25,1.5297277499999973
2018-07-02 08:25:54.250000,6.425007,4.0,0.1594358357829968,0.6669999999999998,1.375,3.0,2.0009999999999994
2018-07-02 08:26:11.750000,6.139798000000001,0.75,1.1216896077097616,0.09950600000000076,,,
2018-07-02 08:26:33.125000,5.5194935,1.875,0.09753322193878944,0.24278250000000057,1.125,2.625,0.6373040625000015
2018-07-02 08:26:40.500000,5.590599,1.875,0.1499062862025795,0.34399599999999975,1.125,2.625,0.9029894999999993
2018-07-02 08:26:50.500000,5.498354,1.875,0.16938196759739554,0.3753845,1.0,2.375,0.8915381875
2018-07-02 08:26:54.875000,5.646971000000001,1.75,0.17317845541415267,0.3830725000000008,,,
2018-07-02 08:26:56.875000,6.296101500000001,1.5,0.3353122090004561,0.4787340000000002,0.625,1.875,0.8976262500000004
2018-07-02 08:27:10.500000,5.151155,1.5,0.030724951515804122,0.03715400000000013,0.5,1.875,0.06966375000000025
2018-07-02 08:27:15.125000,5.925841,4.0,0.27970855139980344,0.7426565000000007,1.75,3.375,2.506465687500002
2018-07-02 08:27:20.250000,5.919436,1.5,0.17994302366583526,0.28783899999999996,1.0,2.25,0.6476377499999999
2018-07-02 08:27:28.750000,7.10089,4.0,0.5523438627066497,1.2327019999999997,1.625,3.0,3.6981059999999992
2018-07-02 08:27:33.500000,6.894621000000001,1.25,0.6488201544359811,0.5618580000000009,,,
2018-07-02 08:27:36,6.804938000000001,1.375,0.1881690274597645,0.05765250000000055,0.125,1.125,0.06485906250000062
2018-07-02 08:27:38,6.962523,1.25,0.16680175253543794,0.12299300000000013,0.375,1.5,0.1844895000000002
2018-07-02 08:27:48,7.130357000000001,4.0,0.17994958579732057,0.7079120000000012,,,
2018-07-02 08:28:05.500000,6.845936,1.875,0.1996567114567931,0.45231700000000075,1.375,2.875,1.3004113750000021
2018-07-02 08:28:14.875000,7.373780999999999,4.0,0.3100177673971345,0.5496874999999992,0.875,2.25,1.2367968749999982
2018-07-02 08:28:26.375000,6.5166735,1.625,0.028486956466789337,0.04355949999999975,,,
2018-07-02 08:28:28.500000,7.000958,1.625,0.23935167805566593,0.40549199999999974,1.0,2.25,0.9123569999999994
2018-07-02 08:28:36.125000,6.5634365,1.25,0.03159067701131235,0.02113950000000031,0.25,1.375,0.029066812500000427
2018-07-02 08:28:49.750000,6.537751,4.0,0.05653658593219646,0.263922,0.625,2.25,0.5938245
2018-07-02 08:28:53.500000,6.727365,1.875,0.33006237821099305,0.5502649999999996,,,
2018-07-02 08:29:09.625000,7.2251639999999995,4.0,0.21188861311277307,0.8110464999999998,,,
2018-07-02 08:29:16,7.070142,1.125,0.22059043703874792,0.08647950000000026,0.25,1.375,0.11890931250000036
2018-07-02 08:29:24.125000,5.053145000000001,1.0,1.0609242544602537,0.29723900000000114,0.125,1.125,0.3343938750000013
2018-07-02 08:29:25.375000,5.538071,0.625,0.5614776011193285,0.08712000000000053,,,
2018-07-02 08:29:34.125000,5.3798449999999995,4.0,0.056139506561219576,0.13452350000000024,1.625,3.0,0.4035705000000007
2018-07-02 08:29:59.375000,5.0992675,1.75,0.031140924957025362,0.06598099999999896,0.875,2.25,0.14845724999999765
2018-07-02 08:30:14.750000,4.963786,1.625,0.07231120226371246,0.10121299999999955,,,
2018-07-02 08:30:16.875000,5.457997,1.0,0.4086869027257549,0.3315014999999999,0.125,0.5,0.16575074999999995
2018-07-02 08:30:27,0.8191069999999999,1.5,1.170875623188937,0.8024519999999999,,,
2018-07-02 08:30:29.875000,5.242442,4.0,0.8305629313503857,2.4043264999999994,,,
2018-07-02 08:30:38.375000,5.618785,4.0,0.7403471397915986,2.2723384999999996,,,
2018-07-02 08:30:40.375000,5.869255,1.625,0.10723953329602764,0.19922299999999993,1.25,2.5,0.4980574999999998
2018-07-02 08:30:46.625000,6.5351885,4.0,0.14842646635763757,0.6377480000000002,,,
2018-07-02 08:30:54.625000,6.710709499999999,4.0,0.08142584659994867,0.3017169999999991,,,
2018-07-02 08:30:59.875000,6.6184650000000005,1.125,0.13964190699011425,0.06405900000000031,0.75,1.875,0.12011062500000058
2018-07-02 08:31:05.875000,6.7901425,1.75,0.7709981995313946,1.1636705000000003,,,
2018-07-02 08:31:08.875000,7.7704450000000005,4.0,0.5582018980175292,0.6442830000000015,1.5,2.625,1.691242875000004
2018-07-02 08:31:11.875000,7.6199069999999995,0.75,0.5696209759899062,0.06021499999999946,,,
2018-07-02 08:31:21.625000,0.171205,1.25,0.8681241716533172,0.0584615,0.125,1.375,0.0803845625
2018-07-02 08:31:28.750000,4.0581309999999995,4.0,0.9345370968953421,2.4435119999999992,,,
2018-07-02 08:31:34.375000,4.224683499999999,4.0,0.03580222926907339,0.08583849999999948,1.875,3.375,0.28970493749999826
2018-07-02 08:31:47.625000,2.6539405,4.0,0.9180702128557687,1.9774795,,,
2018-07-02 08:32:16.625000,2.4777785000000003,4.0,0.042929989542882296,0.11274350000000055,1.0,2.625,0.29595168750000145
2018-07-02 08:32:21.625000,2.3567074999999997,1.375,0.020179987477128236,0.021139499999999867,0.375,1.625,0.03435168749999978
2018-07-02 08:32:29.375000,2.385534,4.0,0.04120849347726008,0.15566299999999966,1.625,3.25,0.5059047499999989
2018-07-02 08:33:01.875000,3.3003545,4.0,0.07982396142490344,0.22805000000000009,,,
2018-07-02 08:33:05.500000,3.63231,4.0,0.09331045319944486,0.2294619999999994,,,
2018-07-02 08:33:10.750000,3.883891,4.0,0.2039375842800233,0.6615579999999999,0.875,2.375,1.5712002499999997
2018-07-02 08:33:18.500000,3.4361589999999995,1.5,0.6599353383260382,1.3435619999999995,0.625,1.875,2.519178749999999
2018-07-02 08:33:24.375000,1.5186294999999999,4.0,0.43888690477571224,1.463539,,,
2018-07-02 08:33:32.875000,1.742195,4.0,0.08075895565667857,0.12171199999999982,,,
2018-07-02 08:33:39.375000,1.8594225,4.0,0.04919731547074324,0.13388299999999997,,,
2018-07-02 08:33:43.375000,1.942898,1.75,0.04363769237334569,0.09820899999999999,,,
2018-07-02 08:33:46.125000,1.9890210000000002,1.875,0.0034854008718445684,0.02562400000000009,0.25,2.0,0.05124800000000018
2018-07-02 08:33:58.250000,0.46661499999999995,1.125,0.6836037240434403,0.3103109999999999,,,
2018-07-02 08:34:22.625000,0.7347549999999999,1.125,0.5726042801197355,0.709131,0.375,1.375,0.9750551249999999
2018-07-02 08:34:28.375000,1.887167,1.125,0.23547329672545736,0.16463099999999997,,,
2018-07-02 08:34:37.625000,1.4900025000000001,4.0,0.3909625411674078,1.3253715000000001,0.625,2.25,2.982085875
2018-07-02 08:35:06,2.056923,4.0,0.424848372512578,1.3356199999999998,,,
2018-07-02 08:35:07.125000,2.16262,0.625,0.14585743897743342,0.02754499999999993,,,
2018-07-02 08:35:09,2.199134,1.5,0.016891902270089076,0.024343000000000004,,,
2018-07-02 08:35:35.500000,1.99927,1.125,0.32631775542501096,0.22420550000000006,,,
2018-07-02 08:36:05.250000,1.120184,1.25,0.17512543775424483,0.1332430000000001,0.625,1.625,0.2165198750000002
2018-07-02 08:36:09.125000,1.3737575,0.875,0.5159113088450606,0.10761850000000006,,,
2018-07-02 08:36:14.250000,1.157239,1.75,0.10407409803291134,0.17295899999999997,,,
2018-07-02 08:36:20.375000,0.9086905000000001,1.875,0.042549587130799704,0.035873500000000114,0.5,1.75,0.0627786250000002
2018-07-02 08:36:23.125000,1.0342455,1.125,0.3024705715749314,0.10633749999999997,0.25,1.25,0.13292187499999997
2018-07-02 08:36:33.500000,0.716445,1.25,0.7062477094521018,0.694665,,,
2018-07-02 08:36:41.750000,0.606263,1.375,0.10418031592326216,0.142851,,,
2018-07-02 08:36:48.250000,0.897091,4.0,0.051174454213471776,0.04484200000000005,,,
2018-07-02 08:37:26.625000,0.6316200000000001,1.0,0.5497792542192331,0.2523915000000001,,,
2018-07-02 08:37:41.750000,0.581921,0.875,0.3565180793164484,0.04356000000000004,0.25,1.125,0.04900500000000005
2018-07-02 08:38:11.875000,0.7824255,0.75,0.595900266405933,0.10212050000000006,,,
2018-07-02 08:38:16.875000,0.8554525,4.0,0.008590991408043092,0.03138899999999989,,,
2018-07-02 08:38:19.250000,0.8804350000000001,1.5,0.016272988485321882,0.021780000000000133,1.0,2.25,0.0490050000000003
2018-07-02 08:38:23.625000,0.932323,4.0,0.003673401070859228,0.0506065,1.375,3.125,0.1581453125
2018-07-02 08:38:40.375000,0.83111,0.75,0.540692306972729,0.02946699999999991,0.125,0.75,0.022100249999999932
2018-07-02 08:38:45.250000,0.848406,0.875,0.13822845500945302,0.03395099999999995,,,
2018-07-02 08:39:00.375000,0.890754,1.125,0.1464619541821266,0.04484100000000013,0.125,1.25,0.05605125000000016
2018-07-02 08:39:15.875000,0.884348,0.875,0.7186432769717364,0.03466099999999994,,,
2018-07-02 08:39:20,1.141864,1.0,0.9535535911722999,0.22939900000000002,,,
2018-07-02 08:39:31.375000,2.56618,4.0,0.033328853503308054,0.06854300000000002,1.5,3.0,0.20562900000000006
2018-07-02 08:39:41.625000,1.1008665,0.75,1.1407076123592605,0.09821250000000004,0.375,1.125,0.11048906250000004
2018-07-02 08:39:46,1.5480969999999998,1.125,0.5870647157198139,0.4920709999999999,,,
2018-07-02 08:40:02.125000,1.4078075,1.625,0.048931084140924064,0.045481500000000175,,,
2018-07-02 08:40:05.500000,1.651872,4.0,0.060931269216419004,0.18449000000000004,,,
2018-07-02 08:40:07.875000,1.7678185,1.625,0.08491048525528822,0.09288549999999973,0.125,1.625,0.15093893749999956
2018-07-02 08:40:22.625000,0.652119,1.375,0.5002155522344267,0.626495,,,
2018-07-02 08:40:34.750000,1.259733,0.625,0.41474622062788047,0.040357500000000046,,,
2018-07-02 08:40:39,1.7082439999999999,0.875,1.2311148092730342,0.39409549999999993,,,
2018-07-02 08:40:44.250000,1.575001,1.625,0.030233284521593795,0.04932500000000006,0.625,1.875,0.09248437500000012
2018-07-02 08:40:52,1.93245,0.75,0.8354576102606392,0.08071500000000009,0.375,1.0,0.08071500000000009
2018-07-02 08:41:05.375000,1.1207250000000002,1.875,0.3062044927277068,1.096383,,,
2018-07-02 08:41:13.625000,0.06534000000000001,0.625,0.13332229531572565,0.029467000000000007,,,
2018-07-02 08:41:15.875000,2.0870309999999996,1.875,0.7367152310441707,1.7872359999999996,,,
2018-07-02 08:41:26.625000,1.9499445,4.0,0.1472280867529614,0.23637700000000006,,,
2018-07-02 08:41:38.500000,1.994145,4.0,0.009056871224283114,0.05016500000000024,1.25,3.125,0.15676562500000074
2018-07-02 08:41:49.250000,1.611073,1.75,0.17885514077597175,0.1140239999999999,0.125,1.5,0.17103599999999985
2018-07-02 08:41:51.125000,1.5436125,0.875,0.21595843806477433,0.0736675,,,
2018-07-02 08:41:53.500000,1.879921,1.75,0.06287510476469205,0.21011299999999977,,,
2018-07-02 08:41:59.125000,1.9736465,1.625,0.07995023239203825,0.06405850000000002,0.5,1.875,0.12010968750000003
2018-07-02 08:42:03.125000,1.946742,0.875,0.3662527858783893,0.06662100000000004,,,
2018-07-02 08:42:17.250000,1.7300240000000002,0.75,0.5245274770983688,0.06021600000000005,0.125,0.875,0.05268900000000004
2018-07-02 08:42:23.875000,1.2149904999999999,4.0,0.009382221163811266,0.03971649999999971,,,
2018-07-02 08:42:33.875000,1.5500184999999997,4.0,0.0954400727827478,0.26840699999999984,,,
2018-07-02 08:42:36.875000,1.754366,4.0,0.05763187209170706,0.17808350000000006,,,
2018-07-02 08:42:41.375000,1.787036,1.5,0.048664210171494915,0.06277750000000015,1.0,2.25,0.14124937500000034
2018-07-02 08:42:49.875000,1.9061854999999999,4.0,0.042871885059150294,0.1812864999999999,,,
2018-07-02 08:42:54.500000,1.877359,4.0,0.011098247476125422,0.023060999999999998,0.5,2.125,0.049004624999999996
2018-07-02 08:42:58.375000,2.1824785,1.875,0.12399569779621977,0.29487050000000004,,,
2018-07-02 08:43:03.875000,2.3317354999999997,4.0,0.06545910475703387,0.2427830000000002,,,
2018-07-02 08:43:06.125000,2.582835,1.75,0.07071189871009409,0.1838375000000001,,,
2018-07-02 08:43:40.875000,2.007598,4.0,1.1259837795561571,1.5320145000000003,,,
2018-07-02 08:43:47.375000,0.443554,1.25,0.6134232247604294,0.424977,,,
2018-07-02 08:43:51.250000,0.8420690000000001,1.75,0.42274287531009413,0.24989800000000006,0.25,1.75,0.43732150000000014
2018-07-02 08:43:52.875000,1.4372745,0.875,0.939861870083246,0.11220150000000007,0.125,1.0,0.11220150000000007
2018-07-02 08:43:57.375000,1.5134555,0.875,0.9264995830369642,0.3370685,0.25,1.0,0.3370685
2018-07-02 08:44:02.625000,2.921256,1.875,0.6156331396847943,1.060552,,,
2018-07-02 08:44:13.875000,2.442546,1.625,0.031980777511464,0.04291899999999993,0.375,1.5,0.0643784999999999
2018-07-02 08:44:21.250000,2.303539,4.0,0.036655707735569365,0.08071399999999995,0.875,2.375,0.1916957499999999
2018-07-02 08:44:24.875000,2.4643265,1.875,0.07594538032675402,0.1889734999999999,,,
2018-07-02 08:44:34.750000,2.5969279999999997,4.0,0.14951695263599163,0.29851399999999995,,,
2018-07-02 08:44:36.750000,2.726327,1.5,0.08993703870712011,0.07174599999999964,0.625,2.0,0.1434919999999993
2018-07-02 08:44:43.750000,2.662268,1.625,0.1064264067176719,0.16655299999999995,1.375,2.625,0.43720162499999987
2018-07-02 08:44:51.750000,2.7352950000000003,4.0,0.04841306262554568,0.1973010000000004,1.375,3.125,0.6165656250000012
2018-07-02 08:44:57.125000,3.0863975,4.0,0.07133425109303992,0.35878900000000025,,,
2018-07-02 08:45:36.125000,2.2189810000000003,4.0,0.021651758779443142,0.06982400000000055,1.0,2.625,0.18328800000000145
2018-07-02 08:45:50.750000,1.976209,1.25,0.02188584724930731,0.020499000000000267,0.375,1.5,0.0307485000000004
2018-07-02 08:45:58.750000,1.985177,4.0,0.045596246462202394,0.12171199999999982,1.0,2.5,0.30427999999999955
2018-07-02 08:46:20.625000,2.7942295,4.0,0.10589838133104656,0.3516725000000003,1.5,3.125,1.0989765625000008
2018-07-02 08:46:25.500000,3.3016360000000002,4.0,0.17062446828148836,0.4779390000000001,1.75,3.375,1.6130441250000005
2018-07-02 08:46:29.625000,3.1594249999999997,1.375,0.08181810328858141,0.07559000000000005,0.375,1.625,0.12283375000000007
2018-07-02 08:46:35.750000,3.4298839999999995,4.0,0.16026260546461657,0.46391699999999947,1.5,3.0,1.3917509999999984
2018-07-02 08:46:43.625000,3.3152179999999998,1.875,0.06625657126814843,0.16975600000000002,0.625,2.125,0.36073150000000004
2018-07-02 08:46:47.375000,4.197138499999999,4.0,0.2740524826247608,0.9325264999999998,,,
2018-07-02 08:46:51,4.215715,1.5,0.2286710925701101,0.31004400000000043,,,
2018-07-02 08:46:56.500000,4.413366000000001,1.0,0.08694353193595106,0.02818600000000071,0.25,1.25,0.03523250000000089
2018-07-02 08:47:00.875000,4.88612,1.625,0.3330886235171313,0.5406570000000004,,,
2018-07-02 08:47:17.625000,4.274358,1.625,0.026149234033372437,0.048043999999999976,0.625,2.0,0.09608799999999995
2018-07-02 08:47:35.750000,4.094353,1.875,0.023369900491655216,0.07623049999999942,0.75,2.375,0.18104743749999863
2018-07-02 08:47:39.375000,4.084744,1.375,0.08527162818169032,0.0506069999999994,0.25,1.5,0.0759104999999991
2018-07-02 08:47:44.625000,4.880355,4.0,0.4052548857985663,0.917672,1.5,2.875,2.638307
2018-07-02 08:47:51.875000,4.4172095,1.5,0.07376275497066231,0.15566350000000018,0.5,1.75,0.2724111250000003
2018-07-02 08:47:54.875000,4.313434,1.5,0.06845466086811314,0.06982399999999966,0.25,1.5,0.1047359999999995
2018-07-02 08:48:09.875000,4.3310215,4.0,0.07167927372196914,0.29595199999999977,1.375,3.0,0.8878559999999993
