mean,std,peak,strong_peak,perc20,perc80,quartDev,session,label_subjective,startTimestamp,endTimeStamp
0.262666879003,0.514985571548,4.58333333333,0.0,-0.0402468090875,0.713066954807,0.580554605511,A020B9_D2_3,3,1533111635.0,1533111875.0
0.587965945668,0.407850534785,4.58333333333,0.0,0.265344257721,0.863269835941,0.383432349371,A020B9_D2_3,3,1533111755.0,1533111995.0
0.713398172508,0.353369266765,2.5,0.0,0.643612948102,0.904338255102,0.18851700937,A020B9_D2_3,3,1533111875.0,1533112115.0
0.176771575965,1.01170896905,4.16666666667,0.0,-0.394833710515,0.887857610988,0.939249165063,A020B9_D2_3,3,1533111995.0,1533112235.0
0.33474264996,1.03261390054,4.58333333333,0.0,0.0451164392256,0.87219490765,0.455684866501,A020B9_D2_3,3,1533112115.0,1533112355.0
0.631189128838,0.552393973349,6.25,0.0,0.505721921506,1.05329924947,0.437247146718,A020B9_D2_4,4,1533112535.0,1533112775.0
0.050056449466,1.40704819291,4.58333333333,0.0,-0.906124944254,1.08399140761,1.44896150344,A020B9_D2_4,4,1533112655.0,1533112895.0
1.04254710685,1.75685497927,7.91666666667,0.0,0.197212985394,2.38668286954,1.67445152238,A020B9_D2_4,4,1533112775.0,1533113015.0
0.387809695,0.307259792052,5.41666666667,0.0,0.197791206783,0.580266812996,0.197546256359,A020B9_D2_1,2,1533108072.5,1533108312.5
0.315414095,0.218291302297,3.75,0.0,0.214390088871,0.447476987762,0.155091358104,A020B9_D2_1,2,1533108192.5,1533108432.5
0.222784415145,0.223291486245,2.91666666667,0.0,0.042727183237,0.417072895586,0.312002431936,A020B9_D2_1,2,1533108312.5,1533108552.5
0.324496002027,0.164163726358,2.91666666667,0.0,0.209362289108,0.486691380067,0.217281491443,A020B9_D2_1,2,1533108432.5,1533108672.5
0.304000777727,0.410714887738,5.0,0.0,0.261168191532,0.518000326138,0.198212340739,A020B9_D2_1,2,1533108552.5,1533108792.5
0.325403513898,0.442935405518,7.08333333333,0.0,0.171489992528,0.591397198191,0.349350115615,A020B9_D2_1,2,1533108672.5,1533108912.5
0.787616984232,0.407091787113,8.75,0.0,0.349469822485,1.21210062609,0.827643878275,A020B9_D2_1,2,1533108792.5,1533109032.5
0.865905652232,0.368430915731,5.0,0.0,0.574522961258,1.21665044615,0.574249453219,A020B9_D2_1,2,1533108912.5,1533109152.5
0.375230233345,0.329408164965,4.58333333333,0.0,0.0246363524223,0.630806056386,0.54033361188,A020B9_D2_1,2,1533109032.5,1533109272.5
0.196361581342,0.261119047511,6.25,0.0,-0.0364107009606,0.448526529649,0.417983992068,A020B9_D2_1,2,1533109152.5,1533109392.5
0.32164848385,0.300295514682,7.5,0.0,0.0349759681766,0.512530264143,0.333337066163,A020B9_D2_1,2,1533109272.5,1533109512.5
0.372207424646,0.482911745519,7.5,0.0,0.155358239194,0.80444273634,0.497223948404,A020B9_D2_1,2,1533109392.5,1533109632.5
0.614200486868,0.550474911389,5.83333333333,0.0,0.355096748867,0.94958456788,0.45952944153,A020B9_D2_1,2,1533109512.5,1533109752.5
0.742691708809,0.239977048449,4.58333333333,0.0,0.530954004007,0.951118820842,0.392529193859,A020B9_D2_1,2,1533109632.5,1533109872.5
0.872505999723,0.346087967321,2.08333333333,0.0,0.532499196323,1.24946316887,0.673247277573,A020B9_D2_1,2,1533109752.5,1533109992.5
0.264007181563,0.241473717701,4.58333333333,0.0,0.088588179738,0.466304035764,0.301804118822,A020B9_D2_2,1,1533110435.0,1533110675.0
0.382693688677,0.19556437394,5.41666666667,0.0,0.267827665915,0.533692577445,0.223892962898,A020B9_D2_2,1,1533110555.0,1533110795.0
0.371014543095,0.170664452852,5.83333333333,0.0,0.239684930712,0.527927195051,0.221735852332,A020B9_D2_2,1,1533110675.0,1533110915.0
0.202330089165,0.696471600983,4.58333333333,0.0,0.0242734164069,0.743888212569,0.567014495212,A020B9_D2_2,1,1533110795.0,1533111035.0
0.354597551111,0.733432872934,5.0,0.0,0.125951253289,0.808502938595,0.646428324975,A020B9_D2_2,1,1533110915.0,1533111155.0
0.206277521301,0.0269971737399,0.416666666667,0.0,0.185926044471,0.221347526667,0.0282307807034,A021AD_D2_3,3,1533111508.0,1533111748.0
0.180584926449,0.0100440229645,0.0,0.0,0.170438201764,0.18995157647,0.0152883042917,A021AD_D2_3,3,1533111628.0,1533111868.0
0.164704405262,0.0110521276498,0.0,0.0,0.153077348111,0.175945137884,0.0184948812827,A021AD_D2_3,3,1533111748.0,1533111988.0
0.149915223593,0.0110534025687,0.0,0.0,0.142677156251,0.156295115616,0.010415525697,A021AD_D2_3,3,1533111868.0,1533112108.0
0.138154791231,0.00865278781196,0.0,0.0,0.130565074013,0.146953952728,0.01344582989,A021AD_D2_3,3,1533111988.0,1533112228.0
0.116363953469,0.0136648903866,0.833333333333,0.0,0.10931119276,0.126712360217,0.0126354397188,A021AD_D2_4,4,1533112408.0,1533112648.0
0.117120109534,0.0135207645939,0.416666666667,0.0,0.112314102312,0.127495003521,0.0126693661722,A021AD_D2_4,4,1533112528.0,1533112768.0
0.113783164414,0.00759120528792,0.0,0.0,0.105970827037,0.119723303023,0.0106835004728,A021AD_D2_4,4,1533112648.0,1533112888.0
1.00477048629,0.519639153781,12.5,0.0,0.395245317651,1.57472084243,0.969261543516,A021AD_D2_1,2,1533107921.0,1533108161.0
1.22644689874,0.351210653755,7.5,0.0,0.840676826428,1.56037633759,0.554757720385,A021AD_D2_1,2,1533108041.0,1533108281.0
0.789769825231,0.281618025133,1.25,0.0,0.576483260148,0.993403116848,0.346271051947,A021AD_D2_1,2,1533108161.0,1533108401.0
0.71178794566,0.198459002,3.33333333333,0.0,0.570650738065,0.750997971137,0.117001325082,A021AD_D2_1,2,1533108281.0,1533108521.0
1.45286230254,0.679128334073,10.8333333333,0.0,0.680434994773,2.27238545961,1.53239067642,A021AD_D2_1,2,1533108401.0,1533108641.0
2.21350215928,0.314814310221,11.25,0.0,1.95171756342,2.46908951422,0.37304535413,A021AD_D2_1,2,1533108521.0,1533108761.0
1.79163809447,0.619950872351,5.41666666667,0.0,1.06137683443,2.47436737693,1.28201204962,A021AD_D2_1,2,1533108641.0,1533108881.0
1.07438505608,0.241470792861,2.08333333333,0.0,0.893494954613,1.2663649553,0.26430995145,A021AD_D2_1,2,1533108761.0,1533109001.0
0.757380449323,0.214692473152,0.416666666667,0.0,0.547708600038,0.956759511529,0.355531534756,A021AD_D2_1,2,1533108881.0,1533109121.0
0.520586105819,0.0804536200663,0.416666666667,0.0,0.449376790753,0.599926617311,0.108807247336,A021AD_D2_1,2,1533109001.0,1533109241.0
0.431256523399,0.0494487144553,0.0,0.0,0.390168650792,0.474500163067,0.0641929269863,A021AD_D2_1,2,1533109121.0,1533109361.0
0.462528471453,0.0794829708228,1.25,0.0,0.390177307707,0.556771549038,0.149907204933,A021AD_D2_1,2,1533109241.0,1533109481.0
0.596620803173,0.100472738738,2.91666666667,0.0,0.522343937498,0.716005198941,0.163013369349,A021AD_D2_1,2,1533109361.0,1533109601.0
0.63516230466,0.0775433126815,2.91666666667,0.0,0.568523414078,0.72404703165,0.126681766559,A021AD_D2_1,2,1533109481.0,1533109721.0
0.592024161617,0.04562073443,1.25,0.0,0.552661812122,0.626310892852,0.0637351384387,A021AD_D2_1,2,1533109601.0,1533109841.0
0.254361094038,0.0232297195794,0.0,0.0,0.226364810956,0.280895713222,0.0479107623329,A021AD_D2_2,1,1533110308.0,1533110548.0
0.248635185897,0.0324316258471,0.416666666667,0.0,0.226032185635,0.27344136102,0.0283451945659,A021AD_D2_2,1,1533110428.0,1533110668.0
0.296041720709,0.044411352569,0.416666666667,0.0,0.233718473146,0.339479376862,0.0894282459593,A021AD_D2_2,1,1533110548.0,1533110788.0
0.302881648463,0.0300189267583,0.416666666667,0.0,0.275213147075,0.337441350777,0.0571281427192,A021AD_D2_2,1,1533110668.0,1533110908.0
0.267762682898,0.0142420890688,0.416666666667,0.0,0.254871169641,0.279785046237,0.0198854234796,A021AD_D2_2,1,1533110788.0,1533111028.0
1.20620044789,0.102633465572,2.91666666667,0.0,1.0981019947,1.32852990165,0.20352710212,A019A8_D2_3,3,1533111654.0,1533111894.0
1.34720602398,0.123948822976,3.75,0.0,1.23430222057,1.46664278213,0.17014990013,A019A8_D2_3,3,1533111774.0,1533112014.0
1.31199258202,0.17385378315,2.5,0.0,1.14569112053,1.48089586816,0.281675109242,A019A8_D2_3,3,1533111894.0,1533112134.0
1.04363143811,0.217090096744,0.833333333333,0.0,0.845399718778,1.24990742067,0.333032514599,A019A8_D2_3,3,1533112014.0,1533112254.0
0.77083667501,0.122129234368,0.833333333333,0.0,0.648615589732,0.874512407448,0.181809323959,A019A8_D2_3,3,1533112134.0,1533112374.0
0.405059386725,0.0365608054787,0.833333333333,0.0,0.368330616899,0.435566886604,0.0567181069971,A019A8_D2_4,4,1533112554.0,1533112794.0
0.387477190858,0.0630055940073,1.25,0.0,0.352202996612,0.408544563486,0.0499536059015,A019A8_D2_4,4,1533112674.0,1533112914.0
1.08170001016,0.756275652837,2.5,0.0,0.355686178591,1.58897983362,1.176752605,A019A8_D2_4,4,1533112794.0,1533113034.0
2.32659238367,0.405814340381,5.0,0.0,1.93680567998,2.679770051,0.593326656097,A019A8_D2_1,2,1533108133.25,1533108373.25
1.67932565734,0.401334264458,5.83333333333,0.0,1.3188114315,2.11535427079,0.662967875482,A019A8_D2_1,2,1533108253.25,1533108493.25
1.42678056204,0.162208575411,7.91666666667,0.0,1.23492418711,1.57933279798,0.282020261828,A019A8_D2_1,2,1533108373.25,1533108613.25
1.60364819105,0.234041139367,9.58333333333,0.0,1.44518850855,1.72985818244,0.215713761763,A019A8_D2_1,2,1533108493.25,1533108733.25
1.97165620832,0.390842652524,7.91666666667,0.0,1.52897357225,2.43346679127,0.661848858196,A019A8_D2_1,2,1533108613.25,1533108853.25
1.84928560312,0.471118111185,3.33333333333,0.0,1.3438106404,2.43433621328,0.829226361337,A019A8_D2_1,2,1533108733.25,1533108973.25
1.182263094,0.32627403759,1.25,0.0,0.863000525221,1.53063820109,0.439998053379,A019A8_D2_1,2,1533108853.25,1533109093.25
0.725081038158,0.209762542108,2.08333333333,0.0,0.511454553319,0.948017939717,0.403902976585,A019A8_D2_1,2,1533108973.25,1533109213.25
0.832412730621,0.554264100386,9.16666666667,0.0,0.508027851351,0.923557821064,0.367581313497,A019A8_D2_1,2,1533109093.25,1533109333.25
1.88793554439,0.909603917153,14.1666666667,0.0,0.691716980436,2.71821831441,1.78292321487,A019A8_D2_1,2,1533109213.25,1533109453.25
2.72483288435,0.176487594847,10.4166666667,0.0,2.59389056255,2.90000408365,0.252473757746,A019A8_D2_1,2,1533109333.25,1533109573.25
2.49146195552,0.355670833689,7.08333333333,0.0,2.05976098515,2.86073970939,0.692120754415,A019A8_D2_1,2,1533109453.25,1533109693.25
2.42514132707,0.349819620074,6.25,0.0,2.06021099611,2.83928110564,0.619449030938,A019A8_D2_1,2,1533109573.25,1533109813.25
2.31206425501,0.427998824668,4.16666666667,0.0,1.86002820687,2.83763855798,0.591830656761,A019A8_D2_1,2,1533109693.25,1533109933.25
1.74199834937,0.29584637966,1.66666666667,0.0,1.44877578114,2.04226472546,0.521596228696,A019A8_D2_1,2,1533109813.25,1533110053.25
2.37828471414,0.865415464322,14.5833333333,0.416666666667,1.50680492915,3.20519704331,1.41234111752,A019A8_D2_2,1,1533110454.0,1533110694.0
2.93176208212,0.549058480126,11.25,0.416666666667,2.74116116465,3.3420921727,0.429730128958,A019A8_D2_2,1,1533110574.0,1533110814.0
2.42448507484,0.548996725463,3.33333333333,0.0,1.91652217978,2.93256651244,0.917443355489,A019A8_D2_2,1,1533110694.0,1533110934.0
2.43153233352,0.461388723976,7.08333333333,0.0,1.97603768561,2.86525246814,0.698273177282,A019A8_D2_2,1,1533110814.0,1533111054.0
2.67793849613,0.319420008836,9.58333333333,0.0,2.42654917039,2.98444213932,0.460041735426,A019A8_D2_2,1,1533110934.0,1533111174.0
15.7759340099,3.63432187496,12.9166666667,3.33333333333,12.4795460036,18.8687038581,5.80012616003,A01B22_D2_3,3,1533111493.0,1533111733.0
13.3768305881,3.37190758614,12.5,3.33333333333,10.6636868554,17.365884825,3.68030343593,A01B22_D2_3,3,1533111613.0,1533111853.0
13.5780122461,2.7262266643,8.33333333333,1.25,11.6135334103,15.6615695981,3.55472286226,A01B22_D2_3,3,1533111733.0,1533111973.0
14.269812272,2.59713001729,3.75,0.833333333333,13.7441713081,15.6039640694,0.839328651873,A01B22_D2_3,3,1533111853.0,1533112093.0
12.6544889652,2.65680030756,7.5,0.833333333333,9.57148559452,15.0758929135,4.80026877505,A01B22_D2_3,3,1533111973.0,1533112213.0
1.769544654,4.02002967103,6.25,0.416666666667,-0.096909847106,1.25210977196,0.310411373213,A01B22_D2_4,4,1533112393.0,1533112633.0
4.12225586543,4.05501019529,9.16666666667,0.833333333333,1.12985569389,7.48373187881,6.08163828876,A01B22_D2_4,4,1533112513.0,1533112753.0
7.62659205113,3.23476924276,9.16666666667,0.833333333333,4.52263310218,10.819519062,4.34744562714,A01B22_D2_4,4,1533112633.0,1533112873.0
10.0913422308,2.07230027756,14.5833333333,0.0,7.84060166675,12.1941559851,3.8257106606,A01B22_D2_1,2,1533108041.5,1533108281.5
11.6556969112,0.652543976295,7.5,0.0,11.2012926165,12.2180973144,0.845910613833,A01B22_D2_1,2,1533108161.5,1533108401.5
11.2197640009,1.37754524893,9.58333333333,0.0,10.3355921331,12.113440503,1.19593563348,A01B22_D2_1,2,1533108281.5,1533108521.5
12.2459776411,1.74265013254,15.4166666667,0.0,11.0898691834,13.4086955666,1.63386037121,A01B22_D2_1,2,1533108401.5,1533108641.5
14.0153881649,1.00552219484,15.4166666667,0.0,13.1087615335,15.2438637539,1.96538452918,A01B22_D2_1,2,1533108521.5,1533108761.5
14.2359500098,1.42204938893,13.75,0.0,13.3289792652,15.2700123769,1.68137139782,A01B22_D2_1,2,1533108641.5,1533108881.5
13.3858168312,1.59787917804,10.8333333333,0.0,11.7123171879,14.799878008,2.58825529085,A01B22_D2_1,2,1533108761.5,1533109001.5
12.4654211606,1.55270017298,6.66666666667,0.0,11.4932327381,14.1283206706,1.43895695948,A01B22_D2_1,2,1533108881.5,1533109121.5
10.6037862103,2.61795638637,5.41666666667,0.0,8.46992880251,12.554686137,2.79095807969,A01B22_D2_1,2,1533109001.5,1533109241.5
10.5261565603,2.28778466899,9.58333333333,0.0,10.128870473,11.8874522822,1.35164614685,A01B22_D2_1,2,1533109121.5,1533109361.5
12.2320358171,1.06794126204,12.9166666667,0.0,11.1397698006,13.1752321283,1.89774346155,A01B22_D2_1,2,1533109241.5,1533109481.5
13.3597417859,1.07168673974,12.5,0.833333333333,12.3343436627,14.2506228374,1.26559668597,A01B22_D2_1,2,1533109361.5,1533109601.5
14.6594482841,1.31646944214,12.0833333333,1.66666666667,14.0701565193,15.6315135114,1.40569177215,A01B22_D2_1,2,1533109481.5,1533109721.5
15.8873590243,0.509514089387,8.75,0.833333333333,15.4210219613,16.4270041216,0.903103214705,A01B22_D2_1,2,1533109601.5,1533109841.5
14.659587126,1.58670673204,3.33333333333,0.0,12.840276921,16.2286577642,3.21018600675,A01B22_D2_1,2,1533109721.5,1533109961.5
14.4342851016,1.58150259961,8.75,1.66666666667,13.7832540126,15.6733616714,1.47834233595,A01B22_D2_2,1,1533110293.0,1533110533.0
14.1961310065,1.81289443458,12.5,2.5,12.566215584,15.7446743732,2.37652974107,A01B22_D2_2,1,1533110413.0,1533110653.0
15.9713979786,2.21778920454,15.8333333333,3.33333333333,14.4124728505,17.8570691233,2.78758203378,A01B22_D2_2,1,1533110533.0,1533110773.0
18.5376889612,1.61814297424,12.9166666667,2.08333333333,17.2560891727,20.3422169815,2.5375386379,A01B22_D2_2,1,1533110653.0,1533110893.0
18.1751344381,2.11695060891,12.0833333333,0.833333333333,16.5120031859,20.2827786023,2.23697910496,A01B22_D2_2,1,1533110773.0,1533111013.0
0.366821904093,0.0834901056052,4.16666666667,0.0,0.286991118449,0.447451120109,0.128775719474,A020B9_D1_3,3,1533022656.0,1533022896.0
0.286363321163,0.0392030804826,1.66666666667,0.0,0.254216104136,0.32095644625,0.0572401869156,A020B9_D1_3,3,1533022776.0,1533023016.0
0.289462824782,0.0363493858036,2.08333333333,0.0,0.254518321623,0.327961360256,0.0577342947704,A020B9_D1_3,3,1533022896.0,1533023136.0
0.311745745099,0.0190080716545,1.66666666667,0.0,0.296156906377,0.33184738481,0.0307731356861,A020B9_D1_3,3,1533023016.0,1533023256.0
0.300653237069,0.0166832553052,1.25,0.0,0.284912089708,0.313681753236,0.0225675859255,A020B9_D1_3,3,1533023136.0,1533023376.0
0.29813310103,0.0264248812611,2.5,0.0,0.2804912978,0.314711253746,0.0291956045015,A020B9_D1_3,3,1533023256.0,1533023496.0
0.277915804859,0.0792253606563,4.58333333333,0.0,0.234373696829,0.331560726102,0.0793500315036,A020B9_D1_3,3,1533023376.0,1533023616.0
0.201294294142,0.0938849853499,0.833333333333,0.0,0.110544644201,0.302441888938,0.167398216114,A020B9_D1_2,1,1533021156.0,1533021396.0
0.0994089869415,0.0343801057459,1.25,0.0,0.0683478588505,0.128347520323,0.0462762542638,A020B9_D1_2,1,1533021276.0,1533021516.0
0.0988458644578,0.0658807821602,3.33333333333,0.0,0.0551906575524,0.182275123596,0.0991065894892,A020B9_D1_2,1,1533021396.0,1533021636.0
0.161642472954,0.0695477216468,2.91666666667,0.0,0.129541069551,0.201026411356,0.0373311340164,A020B9_D1_2,1,1533021516.0,1533021756.0
0.198984041907,0.012140719309,1.25,0.0,0.188679021371,0.206234503901,0.0145671756594,A020B9_D1_2,1,1533021636.0,1533021876.0
0.146841868895,0.0499060588187,1.66666666667,0.0,0.0946869541748,0.196340935533,0.0970765373823,A020B9_D1_1,2,1533018768.75,1533019008.75
0.210960206611,0.0302896574744,2.08333333333,0.0,0.191163456898,0.226848494114,0.0273340407704,A020B9_D1_1,2,1533018888.75,1533019128.75
0.219701014845,0.0308004084727,1.25,0.0,0.194070607785,0.255406246127,0.0562298954017,A020B9_D1_1,2,1533019008.75,1533019248.75
0.193597346142,0.0288819946138,0.0,0.0,0.167304196063,0.213590675657,0.0408179909932,A020B9_D1_1,2,1533019128.75,1533019368.75
0.215085244202,0.0453927582193,0.416666666667,0.0,0.167158621595,0.254407024721,0.0828097410966,A020B9_D1_1,2,1533019248.75,1533019488.75
0.225910203525,0.0477489261212,0.416666666667,0.0,0.166538694628,0.279930740489,0.101876588679,A020B9_D1_1,2,1533019368.75,1533019608.75
0.166924701731,0.0459243696761,0.0,0.0,0.132132856579,0.185195474156,0.0348118417153,A020B9_D1_1,2,1533019488.75,1533019728.75
0.220944952059,0.137882759163,4.16666666667,0.0,0.129942298926,0.387358174298,0.220946578824,A020B9_D1_1,2,1533019608.75,1533019848.75
0.262213436897,0.133405815274,5.83333333333,0.0,0.140437341809,0.396108625736,0.222266339662,A020B9_D1_1,2,1533019728.75,1533019968.75
0.204849094038,0.0815040669846,1.66666666667,0.0,0.134335694436,0.26444684583,0.113587662078,A020B9_D1_1,2,1533019848.75,1533020088.75
0.12848109058,0.0747938119657,0.0,0.0,0.0510845490672,0.205660763751,0.118500072963,A020B9_D1_1,2,1533019968.75,1533020208.75
0.102961661636,0.0572611711354,0.416666666667,0.0,0.0483580448725,0.180015376735,0.124606204347,A020B9_D1_1,2,1533020088.75,1533020328.75
0.178416310872,0.0609712376859,0.833333333333,0.0,0.158950630337,0.218308161653,0.0476926892973,A020B9_D1_1,2,1533020208.75,1533020448.75
0.211717505724,0.0222564425994,0.833333333333,0.0,0.199045048595,0.226541733493,0.0169776083922,A020B9_D1_1,2,1533020328.75,1533020568.75
0.180974495496,0.0270464296652,0.833333333333,0.0,0.147787521976,0.205638836042,0.053184037208,A020B9_D1_1,2,1533020448.75,1533020688.75
0.151334560283,0.0147410583504,0.416666666667,0.0,0.141744857447,0.160924237685,0.00910419459194,A020B9_D1_1,2,1533020568.75,1533020808.75
0.138080790214,0.00784247836385,0.0,0.0,0.133777458586,0.144065949758,0.00829607455978,A020B9_D1_1,2,1533020688.75,1533020928.75
0.481534276515,0.175305797299,8.33333333333,0.0,0.36877888627,0.645186220165,0.252809285432,A020B9_D1_4,4,1533023856.0,1533024096.0
0.787549207376,0.24103771636,8.33333333333,0.0,0.608636420222,1.05383227601,0.399473786838,A020B9_D1_4,4,1533023976.0,1533024216.0
1.02074824623,0.105420156398,5.41666666667,0.0,0.910477952136,1.09673931713,0.147552237126,A020B9_D1_4,4,1533024096.0,1533024336.0
0.128601554074,0.0149437175151,0.833333333333,0.0,0.11734335528,0.131389584833,0.0115315223463,A021AD_D1_3,3,1533022795.0,1533023035.0
0.138388950087,0.0125738856608,0.833333333333,0.0,0.128074166959,0.150178806658,0.0180684332627,A021AD_D1_3,3,1533022915.0,1533023155.0
0.13574002674,0.0086022313021,1.25,0.0,0.127165572196,0.143435617264,0.0124982895398,A021AD_D1_3,3,1533023035.0,1533023275.0
0.134348732676,0.00626179988219,0.833333333333,0.0,0.127344259046,0.140803564665,0.00917266729404,A021AD_D1_3,3,1533023155.0,1533023395.0
0.139071044872,0.00371425703293,0.0,0.0,0.13520760697,0.142617689254,0.00694027988083,A021AD_D1_3,3,1533023275.0,1533023515.0
0.13849062369,0.00531604745782,0.0,0.0,0.134913506183,0.142570546475,0.00695526218922,A021AD_D1_3,3,1533023395.0,1533023635.0
0.141478084773,0.00974686572201,0.0,0.0,0.135174650897,0.142121152617,0.00599212605304,A021AD_D1_3,3,1533023515.0,1533023755.0
0.101991765761,0.00362463286554,0.416666666667,0.0,0.097580575503,0.105407360438,0.00660243284213,A021AD_D1_2,1,1533021295.0,1533021535.0
0.096550757026,0.00440439295218,0.416666666667,0.0,0.0921327342045,0.100172833582,0.00652353003719,A021AD_D1_2,1,1533021415.0,1533021655.0
0.0985594956275,0.00596451666542,0.0,0.0,0.0920905064258,0.104972637235,0.0118588540865,A021AD_D1_2,1,1533021535.0,1533021775.0
0.108322917603,0.0191665834294,1.25,0.0,0.103288813149,0.115702391536,0.00603442397746,A021AD_D1_2,1,1533021655.0,1533021895.0
0.120424863186,0.0206904636775,1.66666666667,0.0,0.106243127867,0.133970190102,0.0236505804705,A021AD_D1_2,1,1533021775.0,1533022015.0
0.0850350937441,0.0217965343939,0.0,0.0,0.0656929075912,0.102270556005,0.0325306319557,A021AD_D1_1,2,1533018948.5,1533019188.5
0.073450053949,0.0076263943527,0.0,0.0,0.0656919261873,0.0809754294015,0.0122443075067,A021AD_D1_1,2,1533019068.5,1533019308.5
0.0788954159409,0.00756490154186,0.0,0.0,0.0711275405852,0.0877790448963,0.0133223780602,A021AD_D1_1,2,1533019188.5,1533019428.5
0.0758374612744,0.00780442930301,0.416666666667,0.0,0.0693073878011,0.081423367938,0.00802037995065,A021AD_D1_1,2,1533019308.5,1533019548.5
0.0794564286838,0.00728527785288,0.416666666667,0.0,0.0729873027172,0.0861660968982,0.0123999637223,A021AD_D1_1,2,1533019428.5,1533019668.5
0.0742595838529,0.0129004354281,0.0,0.0,0.0576171682292,0.0861929718227,0.0257030661688,A021AD_D1_1,2,1533019548.5,1533019788.5
0.0643485579935,0.00638354466648,0.0,0.0,0.0572280057713,0.0710019272235,0.010740849731,A021AD_D1_1,2,1533019668.5,1533019908.5
0.0675347361247,0.00262143706907,0.0,0.0,0.0654781625674,0.0696367449677,0.0031031704744,A021AD_D1_1,2,1533019788.5,1533020028.5
0.0638230823627,0.00881322706297,0.0,0.0,0.0504839340542,0.0711701580586,0.0199698768981,A021AD_D1_1,2,1533019908.5,1533020148.5
0.0603337706147,0.0092378559696,0.0,0.0,0.0503235486809,0.0710637174783,0.019687526747,A021AD_D1_1,2,1533020028.5,1533020268.5
0.0655426381872,0.00750974731961,0.0,0.0,0.0616031228396,0.0728247152303,0.00941043835178,A021AD_D1_1,2,1533020148.5,1533020388.5
0.0689650067462,0.00575330354277,0.0,0.0,0.0640216630433,0.074235810629,0.00913883110158,A021AD_D1_1,2,1533020268.5,1533020508.5
0.0721323052559,0.00799734311633,0.0,0.0,0.064272594551,0.0797024406871,0.0143920443403,A021AD_D1_1,2,1533020388.5,1533020628.5
0.0783766745906,0.00790268430046,0.416666666667,0.0,0.0738586424349,0.0850281732425,0.00821509424701,A021AD_D1_1,2,1533020508.5,1533020748.5
0.0901026460583,0.0114665299501,0.416666666667,0.0,0.0812867487049,0.0985612545328,0.0141194220244,A021AD_D1_1,2,1533020628.5,1533020868.5
0.0977220840163,0.0137994438445,0.0,0.0,0.084474733922,0.112814230679,0.0220174906444,A021AD_D1_1,2,1533020748.5,1533020988.5
0.0995755321574,0.0133159549308,0.0,0.0,0.0844336777612,0.110915269587,0.0150985499828,A021AD_D1_1,2,1533020868.5,1533021108.5
0.153203430951,0.00591720261064,0.416666666667,0.0,0.146564680336,0.158380017273,0.0103608285227,A021AD_D1_4,4,1533023995.0,1533024235.0
0.132963214107,0.023732486339,0.416666666667,0.0,0.102877429181,0.14866943869,0.0253693477412,A021AD_D1_4,4,1533024115.0,1533024355.0
0.104865608308,0.0221124674481,0.416666666667,0.0,0.0908213738075,0.13907714939,0.0297338681094,A021AD_D1_4,4,1533024235.0,1533024475.0
1.65759062352,1.09143469366,10.0,0.416666666667,0.696401706465,3.17205280182,2.19621887912,A019A8_D1_3,3,1533022626.0,1533022866.0
2.78650684171,0.632641547243,14.1666666667,0.416666666667,2.20565496475,3.25118660001,0.809078966865,A019A8_D1_3,3,1533022746.0,1533022986.0
3.20025989076,0.452747528175,11.25,0.0,2.90212943537,3.58706095832,0.489889597557,A019A8_D1_3,3,1533022866.0,1533023106.0
3.73231267801,0.422182842062,11.25,0.0,3.45748073321,4.14535104175,0.544008182051,A019A8_D1_3,3,1533022986.0,1533023226.0
3.9341440043,0.253111661381,13.3333333333,0.416666666667,3.71156647411,4.19941079055,0.426010530849,A019A8_D1_3,3,1533023106.0,1533023346.0
3.95526341985,0.364059142095,17.5,0.416666666667,3.70487213946,4.10953568128,0.332488466416,A019A8_D1_3,3,1533023226.0,1533023466.0
4.72417231451,0.722605500383,20.0,0.0,3.95759162038,5.41455189374,1.2944810536,A019A8_D1_3,3,1533023346.0,1533023586.0
2.39207064933,0.298570829987,3.33333333333,0.0,2.05413975867,2.6808437212,0.587879042273,A019A8_D1_2,1,1533021126.0,1533021366.0
1.99437646724,0.174105815688,2.5,0.0,1.83936238447,2.15283761162,0.23176496764,A019A8_D1_2,1,1533021246.0,1533021486.0
1.57814117696,0.702457221973,4.58333333333,0.0,1.13575939779,1.97302389548,0.594454669075,A019A8_D1_2,1,1533021366.0,1533021606.0
1.94327431189,0.953878533296,7.91666666667,0.0,1.09014290749,2.75561683768,1.435666021,A019A8_D1_2,1,1533021486.0,1533021726.0
2.45715390133,0.310710004154,6.25,0.0,2.23136858797,2.73694420135,0.459292835653,A019A8_D1_2,1,1533021606.0,1533021846.0
3.20179747489,0.594499428389,17.5,0.416666666667,2.51953163697,3.7199272175,1.13743844154,A019A8_D1_1,2,1533018739.0,1533018979.0
4.01503258148,0.343665033566,18.3333333333,1.25,3.6602231084,4.41410825617,0.677628982845,A019A8_D1_1,2,1533018859.0,1533019099.0
4.36992424282,0.197144510225,15.0,0.833333333333,4.19793549819,4.49402852334,0.247742001409,A019A8_D1_1,2,1533018979.0,1533019219.0
4.41408137617,0.187525493699,12.5,0.0,4.29584860068,4.54955911465,0.213583925879,A019A8_D1_1,2,1533019099.0,1533019339.0
4.36048870481,0.12419454894,13.3333333333,0.833333333333,4.26438231447,4.46478720967,0.156490441401,A019A8_D1_1,2,1533019219.0,1533019459.0
4.07004707804,0.33578290675,11.25,1.25,3.73577120551,4.39031550833,0.454306950161,A019A8_D1_1,2,1533019339.0,1533019579.0
3.85786489267,0.349199515437,11.6666666667,1.66666666667,3.53850142491,4.125477402,0.467835087049,A019A8_D1_1,2,1533019459.0,1533019699.0
4.02187582947,0.386265659674,12.0833333333,2.08333333333,3.67606867523,4.30207376973,0.550507094424,A019A8_D1_1,2,1533019579.0,1533019819.0
3.68242535633,0.787224243789,7.5,0.833333333333,2.99408464073,4.28221438343,1.09750819291,A019A8_D1_1,2,1533019699.0,1533019939.0
3.1923177881,0.448168550247,8.75,0.416666666667,2.85980578443,3.43006115658,0.365157353864,A019A8_D1_1,2,1533019819.0,1533020059.0
3.73431761395,0.649091357533,12.9166666667,1.66666666667,2.87687050361,4.33939992925,1.32483347256,A019A8_D1_1,2,1533019939.0,1533020179.0
4.22877129261,0.248622512533,10.8333333333,2.91666666667,4.02036978739,4.38088581493,0.293543327493,A019A8_D1_1,2,1533020059.0,1533020299.0
4.20031596861,0.21160561177,10.0,2.08333333333,4.05291854963,4.31891099481,0.222875751374,A019A8_D1_1,2,1533020179.0,1533020419.0
4.28037322458,0.281341805879,14.5833333333,2.5,4.05963766833,4.49607505129,0.352473856339,A019A8_D1_1,2,1533020299.0,1533020539.0
4.79110267244,0.490695602234,16.6666666667,2.5,4.27206069701,5.27223227738,0.810997410695,A019A8_D1_1,2,1533020419.0,1533020659.0
5.11017168619,0.233403045544,11.6666666667,0.833333333333,4.86880809089,5.35558360279,0.435290896385,A019A8_D1_1,2,1533020539.0,1533020779.0
4.79884641609,0.322566697392,8.33333333333,0.833333333333,4.48451327967,5.13897967528,0.516342881558,A019A8_D1_1,2,1533020659.0,1533020899.0
4.70248527849,0.455875795877,10.0,0.833333333333,4.34689959073,5.09968644885,0.579467996846,A019A8_D1_4,4,1533023826.0,1533024066.0
4.63519727533,0.451291487556,7.91666666667,0.833333333333,4.26247962217,5.08509697183,0.646331418226,A019A8_D1_4,4,1533023946.0,1533024186.0
4.11018001088,0.650936885106,9.16666666667,0.0,3.83949055233,4.50428813291,0.562739491524,A019A8_D1_4,4,1533024066.0,1533024306.0
-0.175276441882,2.47280091334,5.41666666667,0.416666666667,-2.42783493976,2.52102178141,4.35265408068,A01B22_D1_3,3,1533022695.0,1533022935.0
-0.213123992688,2.69810470585,5.41666666667,0.833333333333,-3.01253051669,2.42193913119,4.70435482189,A01B22_D1_3,3,1533022815.0,1533023055.0
2.14840347309,3.69178041038,7.5,1.66666666667,-2.1421500477,5.60809042456,6.65466705159,A01B22_D1_3,3,1533022935.0,1533023175.0
10.0956476205,4.80669746588,12.9166666667,2.91666666667,5.82595855894,15.0065112819,7.41676384737,A01B22_D1_3,3,1533023055.0,1533023295.0
15.3245478688,2.72323303199,10.4166666667,3.75,12.8130335868,17.8423388414,4.16205074067,A01B22_D1_3,3,1533023175.0,1533023415.0
16.1988873877,3.18440369458,12.9166666667,3.33333333333,13.151275643,19.6415639636,5.36499045737,A01B22_D1_3,3,1533023295.0,1533023535.0
17.6108901129,2.60465901423,12.5,1.25,15.3516573711,20.0963275711,4.19553853227,A01B22_D1_3,3,1533023415.0,1533023655.0
1.71548080102,2.20459639581,5.83333333333,0.833333333333,-0.287849566159,3.44881348209,3.5008980559,A01B22_D1_2,1,1533021195.0,1533021435.0
1.29986605248,2.44180634116,6.25,0.416666666667,-1.52017226479,3.3566840239,3.90227364424,A01B22_D1_2,1,1533021315.0,1533021555.0
1.43468693715,2.23109305461,5.41666666667,0.0,-1.02548460497,3.41875044388,3.50799688704,A01B22_D1_2,1,1533021435.0,1533021675.0
3.20277246896,1.53182879967,7.91666666667,0.0,2.10897214221,4.54725787969,2.08011956975,A01B22_D1_2,1,1533021555.0,1533021795.0
3.56652653167,1.71482239411,7.91666666667,0.0,2.58271176153,4.61165967933,1.07013318014,A01B22_D1_2,1,1533021675.0,1533021915.0
3.7461512765,1.54140023203,7.5,0.416666666667,2.25801984584,5.25963430819,2.32474501366,A01B22_D1_1,2,1533018821.25,1533019061.25
3.47914493899,1.93876824557,2.08333333333,0.0,2.35596038607,5.32850588492,2.47657801157,A01B22_D1_1,2,1533018941.25,1533019181.25
1.78088517026,1.09615393966,1.25,0.0,1.32418506456,2.53893598874,1.08693949125,A01B22_D1_1,2,1533019061.25,1533019301.25
0.609288799645,1.52190737103,0.0,0.0,0.283707305789,1.6556188524,0.841183464267,A01B22_D1_1,2,1533019181.25,1533019421.25
-0.0371730387195,1.41466088597,0.416666666667,0.0,-0.940460768617,0.825112056102,0.884423651111,A01B22_D1_1,2,1533019301.25,1533019541.25
0.19921036867,0.658740019652,1.25,0.0,-0.407861291575,0.800686972828,0.92953393476,A01B22_D1_1,2,1533019421.25,1533019661.25
1.2251633793,1.58300871922,6.25,0.0,-0.165095284311,3.38114903447,2.79177478708,A01B22_D1_1,2,1533019541.25,1533019781.25
2.66103334437,1.19872542618,8.75,0.0,1.24871293495,3.73290163261,2.37851959777,A01B22_D1_1,2,1533019661.25,1533019901.25
2.67749609705,1.1753001936,5.83333333333,0.0,1.74786856712,3.7223709715,1.80590570296,A01B22_D1_1,2,1533019781.25,1533020021.25
1.56876180428,1.77721253833,4.58333333333,0.416666666667,0.122699153131,2.92466029952,2.14971280398,A01B22_D1_1,2,1533019901.25,1533020141.25
0.731033150508,1.70845919604,2.08333333333,0.416666666667,-1.28098026521,2.23226907588,2.963516835,A01B22_D1_1,2,1533020021.25,1533020261.25
-0.0748399591745,2.12202822822,0.416666666667,0.0,-1.98325045613,1.96421870194,3.67671768371,A01B22_D1_1,2,1533020141.25,1533020381.25
0.240681731245,1.97057571437,1.25,0.0,-1.65165735196,1.61293785921,2.55666322064,A01B22_D1_1,2,1533020261.25,1533020501.25
0.756132110468,1.14205492162,0.833333333333,0.0,0.203787919845,1.52526503447,0.94511220191,A01B22_D1_1,2,1533020381.25,1533020621.25
0.465342880044,0.837264653428,0.833333333333,0.0,0.159846787439,0.983240629242,0.547114158846,A01B22_D1_1,2,1533020501.25,1533020741.25
0.786370252374,0.32610302068,2.5,0.0,0.654155114111,1.01454830288,0.307363533959,A01B22_D1_1,2,1533020621.25,1533020861.25
1.4393307954,0.746531462485,6.25,0.0,0.931330622877,1.36982833384,0.340471295255,A01B22_D1_1,2,1533020741.25,1533020981.25
15.9181943726,3.00925476485,6.25,1.66666666667,13.3554499003,18.9857419311,4.36736690918,A01B22_D1_4,4,1533023895.0,1533024135.0
16.3578835225,2.14306897645,2.5,0.416666666667,14.6737082258,17.8372956708,2.78819325265,A01B22_D1_4,4,1533024015.0,1533024255.0
13.5877041288,2.82869996534,5.83333333333,0.833333333333,11.187651663,15.7957531566,3.32267522882,A01B22_D1_4,4,1533024135.0,1533024375.0
