,Binary,Multiclass
2018-06-29 06:59:23,-1.0,0.0
2018-06-29 06:59:28,1.0,1.0
2018-06-29 06:59:33,1.0,1.0
2018-06-29 06:59:38,1.0,1.0
2018-06-29 06:59:43,1.0,1.0
2018-06-29 06:59:48,1.0,1.0
2018-06-29 06:59:53,1.0,1.0
2018-06-29 06:59:58,1.0,1.0
2018-06-29 07:00:03,1.0,1.0
2018-06-29 07:00:08,1.0,1.0
2018-06-29 07:00:13,1.0,1.0
2018-06-29 07:00:18,1.0,1.0
2018-06-29 07:00:23,1.0,1.0
2018-06-29 07:00:28,1.0,1.0
2018-06-29 07:00:33,1.0,1.0
2018-06-29 07:00:38,1.0,1.0
2018-06-29 07:00:43,1.0,1.0
2018-06-29 07:00:48,-1.0,1.0
2018-06-29 07:00:53,-1.0,1.0
2018-06-29 07:00:58,1.0,1.0
2018-06-29 07:01:03,1.0,1.0
2018-06-29 07:01:08,1.0,1.0
2018-06-29 07:01:13,1.0,1.0
2018-06-29 07:01:18,1.0,1.0
2018-06-29 07:01:23,-1.0,1.0
2018-06-29 07:01:28,1.0,1.0
2018-06-29 07:01:33,-1.0,-1.0
2018-06-29 07:01:38,-1.0,-1.0
2018-06-29 07:01:43,-1.0,1.0
2018-06-29 07:01:48,1.0,1.0
2018-06-29 07:01:53,1.0,1.0
2018-06-29 07:01:58,1.0,1.0
2018-06-29 07:02:03,1.0,1.0
2018-06-29 07:02:08,-1.0,-1.0
2018-06-29 07:02:13,1.0,1.0
2018-06-29 07:02:18,1.0,1.0
2018-06-29 07:02:23,1.0,1.0
2018-06-29 07:02:28,1.0,1.0
2018-06-29 07:02:33,1.0,1.0
2018-06-29 07:02:38,1.0,1.0
2018-06-29 07:02:43,1.0,1.0
2018-06-29 07:02:48,1.0,1.0
2018-06-29 07:02:53,1.0,1.0
2018-06-29 07:02:58,1.0,1.0
2018-06-29 07:03:03,1.0,1.0
2018-06-29 07:03:08,1.0,1.0
2018-06-29 07:03:13,1.0,1.0
2018-06-29 07:03:18,1.0,1.0
2018-06-29 07:03:23,-1.0,1.0
2018-06-29 07:03:28,1.0,1.0
2018-06-29 07:03:33,1.0,1.0
2018-06-29 07:03:38,1.0,1.0
2018-06-29 07:03:43,1.0,1.0
2018-06-29 07:03:48,1.0,1.0
2018-06-29 07:03:53,1.0,1.0
2018-06-29 07:03:58,1.0,1.0
2018-06-29 07:04:03,-1.0,-1.0
2018-06-29 07:04:08,1.0,1.0
2018-06-29 07:04:13,1.0,1.0
2018-06-29 07:04:18,1.0,1.0
2018-06-29 07:04:23,1.0,1.0
2018-06-29 07:04:28,1.0,1.0
2018-06-29 07:04:33,1.0,1.0
2018-06-29 07:04:38,1.0,1.0
2018-06-29 07:04:43,1.0,1.0
2018-06-29 07:04:48,1.0,1.0
2018-06-29 07:04:53,1.0,1.0
2018-06-29 07:04:58,1.0,1.0
2018-06-29 07:05:03,1.0,1.0
2018-06-29 07:05:08,1.0,1.0
2018-06-29 07:05:13,1.0,1.0
2018-06-29 07:05:18,1.0,1.0
2018-06-29 07:05:23,1.0,1.0
2018-06-29 07:05:28,1.0,1.0
2018-06-29 07:05:33,-1.0,1.0
2018-06-29 07:05:38,1.0,1.0
2018-06-29 07:05:43,1.0,1.0
2018-06-29 07:05:48,1.0,1.0
2018-06-29 07:05:53,1.0,1.0
2018-06-29 07:05:58,1.0,1.0
2018-06-29 07:06:03,1.0,1.0
2018-06-29 07:06:08,-1.0,1.0
2018-06-29 07:06:13,1.0,1.0
2018-06-29 07:06:18,1.0,1.0
2018-06-29 07:06:23,1.0,1.0
2018-06-29 07:06:28,1.0,1.0
2018-06-29 07:06:33,-1.0,1.0
2018-06-29 07:06:38,1.0,1.0
2018-06-29 07:06:43,1.0,-1.0
2018-06-29 07:06:48,1.0,1.0
2018-06-29 07:06:53,1.0,1.0
2018-06-29 07:06:58,1.0,1.0
2018-06-29 07:07:03,1.0,1.0
2018-06-29 07:07:08,-1.0,0.0
2018-06-29 07:07:13,1.0,1.0
2018-06-29 07:07:18,-1.0,1.0
2018-06-29 07:07:23,1.0,1.0
2018-06-29 07:07:28,1.0,1.0
2018-06-29 07:07:33,1.0,1.0
2018-06-29 07:07:38,1.0,1.0
2018-06-29 07:07:43,-1.0,-1.0
2018-06-29 07:07:48,1.0,1.0
2018-06-29 07:07:53,-1.0,1.0
2018-06-29 07:07:58,1.0,1.0
2018-06-29 07:08:03,1.0,1.0
2018-06-29 07:08:08,1.0,1.0
2018-06-29 07:08:13,1.0,1.0
2018-06-29 07:08:18,1.0,1.0
2018-06-29 07:08:23,1.0,1.0
2018-06-29 07:08:28,1.0,1.0
2018-06-29 07:08:33,1.0,1.0
2018-06-29 07:08:38,1.0,1.0
2018-06-29 07:08:43,1.0,1.0
2018-06-29 07:08:48,1.0,1.0
2018-06-29 07:08:53,1.0,1.0
2018-06-29 07:08:58,1.0,1.0
2018-06-29 07:09:03,1.0,1.0
2018-06-29 07:09:08,1.0,1.0
2018-06-29 07:09:13,1.0,1.0
2018-06-29 07:09:18,-1.0,1.0
2018-06-29 07:09:23,1.0,1.0
2018-06-29 07:09:28,1.0,1.0
2018-06-29 07:09:33,1.0,1.0
2018-06-29 07:09:38,1.0,1.0
2018-06-29 07:09:43,1.0,1.0
2018-06-29 07:09:48,1.0,1.0
2018-06-29 07:09:53,1.0,1.0
2018-06-29 07:09:58,1.0,1.0
2018-06-29 07:10:03,1.0,1.0
2018-06-29 07:10:08,1.0,1.0
2018-06-29 07:10:13,1.0,1.0
2018-06-29 07:10:18,1.0,1.0
2018-06-29 07:10:23,1.0,1.0
2018-06-29 07:10:28,1.0,1.0
2018-06-29 07:10:33,1.0,1.0
2018-06-29 07:10:38,1.0,1.0
2018-06-29 07:10:43,1.0,1.0
2018-06-29 07:10:48,1.0,1.0
2018-06-29 07:10:53,1.0,1.0
2018-06-29 07:10:58,1.0,1.0
2018-06-29 07:11:03,1.0,1.0
2018-06-29 07:11:08,1.0,1.0
2018-06-29 07:11:13,1.0,1.0
2018-06-29 07:11:18,1.0,1.0
2018-06-29 07:11:23,1.0,1.0
2018-06-29 07:11:28,1.0,1.0
2018-06-29 07:11:33,1.0,1.0
2018-06-29 07:11:38,1.0,1.0
2018-06-29 07:11:43,1.0,1.0
2018-06-29 07:11:48,1.0,1.0
2018-06-29 07:11:53,1.0,1.0
2018-06-29 07:11:58,1.0,1.0
2018-06-29 07:12:03,1.0,1.0
2018-06-29 07:12:08,1.0,1.0
2018-06-29 07:12:13,1.0,1.0
2018-06-29 07:12:18,1.0,1.0
2018-06-29 07:12:23,1.0,1.0
2018-06-29 07:12:28,1.0,1.0
2018-06-29 07:12:33,1.0,1.0
2018-06-29 07:12:38,1.0,1.0
2018-06-29 07:12:43,1.0,1.0
2018-06-29 07:12:48,1.0,1.0
2018-06-29 07:12:53,1.0,1.0
2018-06-29 07:12:58,1.0,1.0
2018-06-29 07:13:03,1.0,1.0
2018-06-29 07:13:08,1.0,1.0
2018-06-29 07:13:13,1.0,1.0
2018-06-29 07:13:18,1.0,1.0
2018-06-29 07:13:23,1.0,1.0
2018-06-29 07:13:28,1.0,1.0
2018-06-29 07:13:33,-1.0,-1.0
2018-06-29 07:13:38,1.0,1.0
2018-06-29 07:13:43,1.0,1.0
2018-06-29 07:13:48,1.0,1.0
2018-06-29 07:13:53,1.0,1.0
2018-06-29 07:13:58,1.0,1.0
2018-06-29 07:14:03,1.0,1.0
2018-06-29 07:14:08,1.0,1.0
2018-06-29 07:14:13,1.0,1.0
2018-06-29 07:14:18,1.0,1.0
2018-06-29 07:14:23,1.0,1.0
2018-06-29 07:14:28,1.0,1.0
2018-06-29 07:14:33,1.0,1.0
2018-06-29 07:14:38,1.0,1.0
2018-06-29 07:14:43,1.0,1.0
2018-06-29 07:14:48,1.0,1.0
2018-06-29 07:14:53,1.0,1.0
2018-06-29 07:14:58,1.0,1.0
2018-06-29 07:15:03,1.0,1.0
2018-06-29 07:15:08,-1.0,0.0
2018-06-29 07:15:13,1.0,1.0
2018-06-29 07:15:18,1.0,1.0
2018-06-29 07:15:23,1.0,1.0
2018-06-29 07:15:28,1.0,1.0
2018-06-29 07:15:33,1.0,1.0
2018-06-29 07:15:38,1.0,1.0
2018-06-29 07:15:43,1.0,1.0
2018-06-29 07:15:48,1.0,1.0
2018-06-29 07:15:53,1.0,1.0
2018-06-29 07:15:58,-1.0,-1.0
2018-06-29 07:16:03,-1.0,-1.0
2018-06-29 07:16:08,-1.0,-1.0
2018-06-29 07:16:13,1.0,1.0
2018-06-29 07:16:18,-1.0,-1.0
2018-06-29 07:16:23,-1.0,-1.0
2018-06-29 07:16:28,-1.0,-1.0
2018-06-29 07:16:33,-1.0,-1.0
2018-06-29 07:16:38,1.0,1.0
2018-06-29 07:16:43,1.0,1.0
2018-06-29 07:16:48,1.0,1.0
2018-06-29 07:16:53,1.0,1.0
2018-06-29 07:16:58,1.0,1.0
2018-06-29 07:17:03,1.0,1.0
2018-06-29 07:17:08,1.0,1.0
2018-06-29 07:17:13,1.0,1.0
2018-06-29 07:17:18,1.0,1.0
2018-06-29 07:17:23,1.0,1.0
2018-06-29 07:17:28,1.0,1.0
2018-06-29 07:17:33,1.0,1.0
2018-06-29 07:17:38,1.0,1.0
2018-06-29 07:17:43,1.0,1.0
2018-06-29 07:17:48,1.0,1.0
2018-06-29 07:17:53,1.0,1.0
2018-06-29 07:17:58,1.0,1.0
2018-06-29 07:18:03,1.0,1.0
2018-06-29 07:18:08,1.0,1.0
2018-06-29 07:18:13,1.0,1.0
2018-06-29 07:18:18,1.0,1.0
2018-06-29 07:18:23,1.0,1.0
2018-06-29 07:18:28,1.0,1.0
2018-06-29 07:18:33,1.0,1.0
2018-06-29 07:18:38,1.0,1.0
2018-06-29 07:18:43,1.0,1.0
2018-06-29 07:18:48,1.0,1.0
2018-06-29 07:18:53,1.0,1.0
2018-06-29 07:18:58,1.0,1.0
2018-06-29 07:19:03,1.0,1.0
2018-06-29 07:19:08,1.0,1.0
2018-06-29 07:19:13,1.0,1.0
2018-06-29 07:19:18,1.0,1.0
2018-06-29 07:19:23,1.0,1.0
2018-06-29 07:19:28,1.0,1.0
2018-06-29 07:19:33,1.0,1.0
2018-06-29 07:19:38,1.0,1.0
2018-06-29 07:19:43,1.0,1.0
2018-06-29 07:19:48,1.0,1.0
2018-06-29 07:19:53,1.0,1.0
2018-06-29 07:19:58,1.0,1.0
2018-06-29 07:20:03,1.0,1.0
2018-06-29 07:20:08,1.0,1.0
2018-06-29 07:20:13,1.0,1.0
2018-06-29 07:20:18,1.0,1.0
2018-06-29 07:20:23,1.0,1.0
2018-06-29 07:20:28,1.0,1.0
2018-06-29 07:20:33,1.0,1.0
2018-06-29 07:20:38,1.0,1.0
2018-06-29 07:20:43,1.0,1.0
2018-06-29 07:20:48,1.0,1.0
2018-06-29 07:20:53,1.0,1.0
2018-06-29 07:20:58,1.0,1.0
2018-06-29 07:21:03,1.0,1.0
2018-06-29 07:21:08,1.0,1.0
2018-06-29 07:21:13,1.0,1.0
2018-06-29 07:21:18,1.0,1.0
2018-06-29 07:21:23,1.0,1.0
2018-06-29 07:21:28,1.0,1.0
2018-06-29 07:21:33,1.0,1.0
2018-06-29 07:21:38,1.0,1.0
2018-06-29 07:21:43,1.0,1.0
2018-06-29 07:21:48,1.0,1.0
2018-06-29 07:21:53,1.0,1.0
2018-06-29 07:21:58,1.0,1.0
2018-06-29 07:22:03,1.0,1.0
2018-06-29 07:22:08,1.0,1.0
2018-06-29 07:22:13,1.0,1.0
2018-06-29 07:22:18,1.0,1.0
2018-06-29 07:22:23,1.0,1.0
2018-06-29 07:22:28,1.0,1.0
2018-06-29 07:22:33,1.0,1.0
2018-06-29 07:22:38,1.0,1.0
2018-06-29 07:22:43,1.0,1.0
2018-06-29 07:22:48,1.0,1.0
2018-06-29 07:22:53,1.0,1.0
2018-06-29 07:22:58,1.0,1.0
2018-06-29 07:23:03,1.0,1.0
2018-06-29 07:23:08,-1.0,-1.0
2018-06-29 07:23:13,-1.0,-1.0
2018-06-29 07:23:18,-1.0,1.0
2018-06-29 07:23:23,1.0,1.0
2018-06-29 07:23:28,1.0,1.0
2018-06-29 07:23:33,-1.0,1.0
2018-06-29 07:23:38,1.0,1.0
2018-06-29 07:23:43,1.0,1.0
2018-06-29 07:23:48,1.0,1.0
2018-06-29 07:23:53,1.0,1.0
2018-06-29 07:23:58,-1.0,1.0
2018-06-29 07:24:03,-1.0,1.0
2018-06-29 07:24:08,-1.0,1.0
2018-06-29 07:24:13,-1.0,1.0
2018-06-29 07:24:18,1.0,1.0
2018-06-29 07:24:23,1.0,1.0
2018-06-29 07:24:28,1.0,1.0
2018-06-29 07:24:33,1.0,1.0
2018-06-29 07:24:38,1.0,1.0
2018-06-29 07:24:43,-1.0,0.0
2018-06-29 07:24:48,1.0,1.0
2018-06-29 07:24:53,1.0,1.0
2018-06-29 07:24:58,1.0,1.0
2018-06-29 07:25:03,1.0,1.0
2018-06-29 07:25:08,1.0,1.0
2018-06-29 07:25:13,-1.0,1.0
2018-06-29 07:25:18,-1.0,1.0
2018-06-29 07:25:23,1.0,1.0
2018-06-29 07:25:28,1.0,1.0
2018-06-29 07:25:33,1.0,1.0
2018-06-29 07:25:38,1.0,1.0
2018-06-29 07:25:43,1.0,1.0
2018-06-29 07:25:48,1.0,1.0
2018-06-29 07:25:53,1.0,1.0
2018-06-29 07:25:58,1.0,1.0
2018-06-29 07:26:03,1.0,1.0
2018-06-29 07:26:08,1.0,1.0
2018-06-29 07:26:13,1.0,1.0
2018-06-29 07:26:18,1.0,0.0
2018-06-29 07:26:23,1.0,0.0
2018-06-29 07:26:28,1.0,1.0
2018-06-29 07:26:33,1.0,1.0
2018-06-29 07:26:38,-1.0,0.0
2018-06-29 07:26:43,1.0,0.0
2018-06-29 07:26:48,1.0,0.0
2018-06-29 07:26:53,1.0,0.0
2018-06-29 07:26:58,1.0,0.0
2018-06-29 07:27:03,1.0,0.0
2018-06-29 07:27:08,1.0,0.0
2018-06-29 07:27:13,1.0,0.0
2018-06-29 07:27:18,1.0,0.0
2018-06-29 07:27:23,1.0,0.0
2018-06-29 07:27:28,1.0,0.0
2018-06-29 07:27:33,1.0,0.0
2018-06-29 07:27:38,1.0,0.0
2018-06-29 07:27:43,1.0,0.0
2018-06-29 07:27:48,1.0,0.0
2018-06-29 07:27:53,1.0,0.0
2018-06-29 07:27:58,1.0,0.0
2018-06-29 07:28:03,1.0,0.0
2018-06-29 07:28:08,1.0,0.0
2018-06-29 07:28:13,1.0,0.0
2018-06-29 07:28:18,1.0,0.0
2018-06-29 07:28:23,1.0,1.0
2018-06-29 07:28:28,1.0,1.0
2018-06-29 07:28:33,1.0,1.0
2018-06-29 07:28:38,1.0,1.0
2018-06-29 07:28:43,1.0,1.0
2018-06-29 07:28:48,1.0,1.0
2018-06-29 07:28:53,1.0,1.0
2018-06-29 07:28:58,1.0,1.0
2018-06-29 07:29:03,1.0,0.0
2018-06-29 07:29:08,1.0,0.0
2018-06-29 07:29:13,-1.0,0.0
2018-06-29 07:29:18,1.0,1.0
2018-06-29 07:29:23,1.0,1.0
2018-06-29 07:29:28,1.0,0.0
2018-06-29 07:29:33,1.0,0.0
2018-06-29 07:29:38,1.0,0.0
2018-06-29 07:29:43,1.0,0.0
2018-06-29 07:29:48,1.0,0.0
2018-06-29 07:29:53,-1.0,0.0
2018-06-29 07:29:58,-1.0,-1.0
2018-06-29 07:30:03,1.0,1.0
2018-06-29 07:30:08,1.0,1.0
2018-06-29 07:30:13,1.0,1.0
2018-06-29 07:30:18,-1.0,-1.0
2018-06-29 07:30:23,-1.0,-1.0
2018-06-29 07:30:28,-1.0,0.0
2018-06-29 07:30:33,-1.0,0.0
2018-06-29 07:30:38,-1.0,-1.0
2018-06-29 07:30:43,1.0,1.0
2018-06-29 07:30:48,1.0,1.0
2018-06-29 07:30:53,-1.0,0.0
2018-06-29 07:30:58,1.0,1.0
2018-06-29 07:31:03,1.0,1.0
2018-06-29 07:31:08,1.0,1.0
2018-06-29 07:31:13,1.0,1.0
2018-06-29 07:31:18,1.0,1.0
2018-06-29 07:31:23,1.0,0.0
2018-06-29 07:31:28,1.0,1.0
2018-06-29 07:31:33,1.0,1.0
2018-06-29 07:31:38,1.0,0.0
2018-06-29 07:31:43,1.0,0.0
2018-06-29 07:31:48,1.0,1.0
2018-06-29 07:31:53,1.0,1.0
2018-06-29 07:31:58,1.0,1.0
2018-06-29 07:32:03,-1.0,0.0
2018-06-29 07:32:08,-1.0,1.0
2018-06-29 07:32:13,1.0,-1.0
2018-06-29 07:32:18,-1.0,-1.0
2018-06-29 07:32:23,-1.0,-1.0
2018-06-29 07:32:28,1.0,0.0
2018-06-29 07:32:33,1.0,1.0
2018-06-29 07:32:38,1.0,1.0
2018-06-29 07:32:43,1.0,1.0
2018-06-29 07:32:48,1.0,1.0
2018-06-29 07:32:53,1.0,1.0
2018-06-29 07:32:58,1.0,0.0
2018-06-29 07:33:03,1.0,0.0
2018-06-29 07:33:08,1.0,0.0
2018-06-29 07:33:13,1.0,0.0
2018-06-29 07:33:18,1.0,0.0
2018-06-29 07:33:23,1.0,0.0
2018-06-29 07:33:28,1.0,0.0
2018-06-29 07:33:33,-1.0,0.0
2018-06-29 07:33:38,1.0,0.0
2018-06-29 07:33:43,1.0,0.0
2018-06-29 07:33:48,1.0,0.0
2018-06-29 07:33:53,-1.0,0.0
2018-06-29 07:33:58,1.0,0.0
2018-06-29 07:34:03,1.0,0.0
2018-06-29 07:34:08,-1.0,0.0
2018-06-29 07:34:13,1.0,0.0
2018-06-29 07:34:18,1.0,0.0
2018-06-29 07:34:23,1.0,0.0
2018-06-29 07:34:28,1.0,0.0
2018-06-29 07:34:33,1.0,0.0
2018-06-29 07:34:38,1.0,0.0
2018-06-29 07:34:43,1.0,0.0
2018-06-29 07:34:48,1.0,0.0
2018-06-29 07:34:53,-1.0,1.0
2018-06-29 07:34:58,1.0,1.0
2018-06-29 07:35:03,1.0,1.0
2018-06-29 07:35:08,1.0,1.0
2018-06-29 07:35:13,1.0,1.0
2018-06-29 07:35:18,1.0,1.0
2018-06-29 07:35:23,1.0,1.0
2018-06-29 07:35:28,1.0,1.0
2018-06-29 07:35:33,1.0,1.0
2018-06-29 07:35:38,1.0,1.0
2018-06-29 07:35:43,1.0,1.0
2018-06-29 07:35:48,1.0,0.0
2018-06-29 07:35:53,-1.0,0.0
2018-06-29 07:35:58,-1.0,0.0
2018-06-29 07:36:03,-1.0,0.0
2018-06-29 07:36:08,1.0,0.0
2018-06-29 07:36:13,1.0,0.0
2018-06-29 07:36:18,1.0,0.0
2018-06-29 07:36:23,1.0,0.0
2018-06-29 07:36:28,1.0,0.0
2018-06-29 07:36:33,1.0,0.0
2018-06-29 07:36:38,1.0,0.0
2018-06-29 07:36:43,1.0,0.0
2018-06-29 07:36:48,1.0,0.0
2018-06-29 07:36:53,1.0,0.0
2018-06-29 07:36:58,1.0,0.0
2018-06-29 07:37:03,1.0,0.0
2018-06-29 07:37:08,1.0,0.0
2018-06-29 07:37:13,1.0,0.0
2018-06-29 07:37:18,1.0,0.0
2018-06-29 07:37:23,1.0,0.0
2018-06-29 07:37:28,1.0,0.0
2018-06-29 07:37:33,1.0,0.0
2018-06-29 07:37:38,1.0,0.0
2018-06-29 07:37:43,-1.0,0.0
2018-06-29 07:37:48,1.0,0.0
2018-06-29 07:37:53,1.0,0.0
2018-06-29 07:37:58,1.0,0.0
2018-06-29 07:38:03,1.0,0.0
2018-06-29 07:38:08,1.0,0.0
2018-06-29 07:38:13,1.0,0.0
2018-06-29 07:38:18,1.0,0.0
2018-06-29 07:38:23,1.0,0.0
2018-06-29 07:38:28,1.0,0.0
2018-06-29 07:38:33,1.0,0.0
2018-06-29 07:38:38,1.0,0.0
2018-06-29 07:38:43,-1.0,0.0
2018-06-29 07:38:48,1.0,0.0
2018-06-29 07:38:53,-1.0,0.0
2018-06-29 07:38:58,1.0,0.0
2018-06-29 07:39:03,-1.0,0.0
2018-06-29 07:39:08,1.0,0.0
2018-06-29 07:39:13,1.0,0.0
2018-06-29 07:39:18,-1.0,0.0
2018-06-29 07:39:23,1.0,0.0
2018-06-29 07:39:28,1.0,0.0
2018-06-29 07:39:33,1.0,0.0
2018-06-29 07:39:38,1.0,0.0
2018-06-29 07:39:43,1.0,1.0
2018-06-29 07:39:48,1.0,1.0
2018-06-29 07:39:53,-1.0,0.0
2018-06-29 07:39:58,1.0,0.0
2018-06-29 07:40:03,1.0,0.0
2018-06-29 07:40:08,1.0,0.0
2018-06-29 07:40:13,1.0,0.0
2018-06-29 07:40:18,1.0,0.0
2018-06-29 07:40:23,1.0,0.0
2018-06-29 07:40:28,1.0,0.0
2018-06-29 07:40:33,1.0,0.0
2018-06-29 07:40:38,1.0,0.0
2018-06-29 07:40:43,1.0,0.0
2018-06-29 07:40:48,1.0,0.0
2018-06-29 07:40:53,1.0,0.0
2018-06-29 07:40:58,-1.0,0.0
2018-06-29 07:41:03,-1.0,0.0
2018-06-29 07:41:08,1.0,0.0
2018-06-29 07:41:13,-1.0,1.0
2018-06-29 07:41:18,1.0,1.0
2018-06-29 07:41:23,1.0,1.0
2018-06-29 07:41:28,1.0,1.0
2018-06-29 07:41:33,1.0,1.0
2018-06-29 07:41:38,1.0,1.0
2018-06-29 07:41:43,1.0,1.0
2018-06-29 07:41:48,1.0,1.0
2018-06-29 07:41:53,1.0,1.0
2018-06-29 07:41:58,1.0,0.0
2018-06-29 07:42:03,1.0,0.0
2018-06-29 07:42:08,1.0,0.0
2018-06-29 07:42:13,1.0,0.0
2018-06-29 07:42:18,1.0,0.0
2018-06-29 07:42:23,1.0,1.0
2018-06-29 07:42:28,1.0,1.0
2018-06-29 07:42:33,1.0,1.0
2018-06-29 07:42:38,-1.0,0.0
2018-06-29 07:42:43,1.0,1.0
2018-06-29 07:42:48,1.0,1.0
2018-06-29 07:42:53,1.0,1.0
2018-06-29 07:42:58,1.0,1.0
2018-06-29 07:43:03,1.0,1.0
2018-06-29 07:43:08,1.0,0.0
2018-06-29 07:43:13,-1.0,1.0
2018-06-29 07:43:18,1.0,1.0
2018-06-29 07:43:23,1.0,1.0
2018-06-29 07:43:28,1.0,0.0
2018-06-29 07:43:33,1.0,0.0
2018-06-29 07:43:38,1.0,0.0
2018-06-29 07:43:43,-1.0,0.0
2018-06-29 07:43:48,1.0,0.0
2018-06-29 07:43:53,1.0,0.0
2018-06-29 07:43:58,1.0,0.0
2018-06-29 07:44:03,1.0,0.0
2018-06-29 07:44:08,1.0,0.0
2018-06-29 07:44:13,-1.0,0.0
2018-06-29 07:44:18,-1.0,0.0
2018-06-29 07:44:23,1.0,0.0
2018-06-29 07:44:28,1.0,0.0
2018-06-29 07:44:33,1.0,0.0
2018-06-29 07:44:38,1.0,0.0
2018-06-29 07:44:43,1.0,0.0
2018-06-29 07:44:48,1.0,0.0
2018-06-29 07:44:53,1.0,0.0
2018-06-29 07:44:58,1.0,0.0
2018-06-29 07:45:03,1.0,0.0
2018-06-29 07:45:08,-1.0,0.0
2018-06-29 07:45:13,1.0,0.0
2018-06-29 07:45:18,1.0,0.0
2018-06-29 07:45:23,1.0,0.0
2018-06-29 07:45:28,1.0,0.0
2018-06-29 07:45:33,1.0,0.0
2018-06-29 07:45:38,1.0,0.0
2018-06-29 07:45:43,1.0,0.0
2018-06-29 07:45:48,1.0,0.0
2018-06-29 07:45:53,1.0,0.0
2018-06-29 07:45:58,1.0,0.0
2018-06-29 07:46:03,1.0,0.0
2018-06-29 07:46:08,-1.0,0.0
2018-06-29 07:46:13,1.0,0.0
2018-06-29 07:46:18,1.0,1.0
2018-06-29 07:46:23,1.0,1.0
2018-06-29 07:46:28,1.0,0.0
2018-06-29 07:46:33,1.0,0.0
2018-06-29 07:46:38,1.0,0.0
2018-06-29 07:46:43,1.0,1.0
2018-06-29 07:46:48,1.0,0.0
2018-06-29 07:46:53,1.0,1.0
2018-06-29 07:46:58,1.0,1.0
2018-06-29 07:47:03,-1.0,0.0
2018-06-29 07:47:08,-1.0,0.0
2018-06-29 07:47:13,-1.0,0.0
2018-06-29 07:47:18,1.0,0.0
2018-06-29 07:47:23,1.0,0.0
2018-06-29 07:47:28,1.0,0.0
2018-06-29 07:47:33,1.0,0.0
2018-06-29 07:47:38,-1.0,-1.0
2018-06-29 07:47:43,1.0,0.0
2018-06-29 07:47:48,1.0,0.0
2018-06-29 07:47:53,1.0,0.0
2018-06-29 07:47:58,1.0,0.0
2018-06-29 07:48:03,-1.0,0.0
2018-06-29 07:48:08,1.0,0.0
2018-06-29 07:48:13,1.0,0.0
2018-06-29 07:48:18,-1.0,0.0
2018-06-29 07:48:23,1.0,0.0
2018-06-29 07:48:28,1.0,0.0
2018-06-29 07:48:33,-1.0,0.0
2018-06-29 07:48:38,1.0,0.0
2018-06-29 07:48:43,1.0,0.0
2018-06-29 07:48:48,1.0,0.0
2018-06-29 07:48:53,1.0,0.0
2018-06-29 07:48:58,1.0,0.0
2018-06-29 07:49:03,1.0,0.0
2018-06-29 07:49:08,1.0,0.0
2018-06-29 07:49:13,1.0,0.0
2018-06-29 07:49:18,1.0,0.0
2018-06-29 07:49:23,1.0,0.0
2018-06-29 07:49:28,1.0,0.0
2018-06-29 07:49:33,1.0,0.0
2018-06-29 07:49:38,1.0,0.0
2018-06-29 07:49:43,1.0,0.0
2018-06-29 07:49:48,1.0,0.0
2018-06-29 07:49:53,1.0,0.0
2018-06-29 07:49:58,1.0,0.0
2018-06-29 07:50:03,1.0,0.0
2018-06-29 07:50:08,-1.0,-1.0
2018-06-29 07:50:13,-1.0,0.0
2018-06-29 07:50:18,-1.0,0.0
2018-06-29 07:50:23,1.0,0.0
2018-06-29 07:50:28,1.0,0.0
2018-06-29 07:50:33,1.0,0.0
2018-06-29 07:50:38,1.0,0.0
2018-06-29 07:50:43,1.0,0.0
2018-06-29 07:50:48,1.0,0.0
2018-06-29 07:50:53,1.0,0.0
2018-06-29 07:50:58,1.0,0.0
2018-06-29 07:51:03,1.0,0.0
2018-06-29 07:51:08,1.0,0.0
2018-06-29 07:51:13,1.0,0.0
2018-06-29 07:51:18,1.0,0.0
2018-06-29 07:51:23,1.0,0.0
2018-06-29 07:51:28,1.0,0.0
2018-06-29 07:51:33,1.0,0.0
2018-06-29 07:51:38,1.0,0.0
2018-06-29 07:51:43,1.0,0.0
2018-06-29 07:51:48,1.0,0.0
2018-06-29 07:51:53,1.0,1.0
2018-06-29 07:51:58,1.0,0.0
2018-06-29 07:52:03,1.0,0.0
2018-06-29 07:52:08,1.0,0.0
2018-06-29 07:52:13,1.0,0.0
2018-06-29 07:52:18,1.0,0.0
2018-06-29 07:52:23,1.0,0.0
2018-06-29 07:52:28,1.0,0.0
2018-06-29 07:52:33,1.0,0.0
2018-06-29 07:52:38,-1.0,0.0
2018-06-29 07:52:43,1.0,0.0
2018-06-29 07:52:48,1.0,0.0
2018-06-29 07:52:53,1.0,0.0
2018-06-29 07:52:58,1.0,0.0
2018-06-29 07:53:03,1.0,0.0
2018-06-29 07:53:08,-1.0,0.0
2018-06-29 07:53:13,-1.0,0.0
2018-06-29 07:53:18,1.0,0.0
2018-06-29 07:53:23,1.0,0.0
2018-06-29 07:53:28,1.0,0.0
2018-06-29 07:53:33,1.0,0.0
2018-06-29 07:53:38,1.0,0.0
2018-06-29 07:53:43,1.0,0.0
2018-06-29 07:53:48,1.0,0.0
2018-06-29 07:53:53,1.0,0.0
2018-06-29 07:53:58,1.0,0.0
2018-06-29 07:54:03,1.0,0.0
2018-06-29 07:54:08,1.0,0.0
2018-06-29 07:54:13,1.0,0.0
2018-06-29 07:54:18,1.0,0.0
2018-06-29 07:54:23,-1.0,0.0
2018-06-29 07:54:28,1.0,0.0
2018-06-29 07:54:33,1.0,1.0
2018-06-29 07:54:38,1.0,1.0
2018-06-29 07:54:43,1.0,1.0
2018-06-29 07:54:48,1.0,0.0
2018-06-29 07:54:53,1.0,0.0
2018-06-29 07:54:58,1.0,0.0
2018-06-29 07:55:03,1.0,1.0
2018-06-29 07:55:08,1.0,1.0
2018-06-29 07:55:13,1.0,0.0
2018-06-29 07:55:18,1.0,1.0
2018-06-29 07:55:23,1.0,1.0
2018-06-29 07:55:28,1.0,1.0
2018-06-29 07:55:33,1.0,0.0
2018-06-29 07:55:38,1.0,0.0
2018-06-29 07:55:43,1.0,0.0
2018-06-29 07:55:48,1.0,0.0
2018-06-29 07:55:53,1.0,0.0
2018-06-29 07:55:58,1.0,0.0
2018-06-29 07:56:03,1.0,1.0
2018-06-29 07:56:08,1.0,1.0
2018-06-29 07:56:13,1.0,1.0
2018-06-29 07:56:18,1.0,1.0
2018-06-29 07:56:23,1.0,1.0
2018-06-29 07:56:28,1.0,1.0
2018-06-29 07:56:33,1.0,1.0
2018-06-29 07:56:38,1.0,1.0
2018-06-29 07:56:43,1.0,1.0
2018-06-29 07:56:48,1.0,1.0
2018-06-29 07:56:53,1.0,1.0
2018-06-29 07:56:58,1.0,1.0
2018-06-29 07:57:03,1.0,1.0
2018-06-29 07:57:08,1.0,1.0
2018-06-29 07:57:13,1.0,0.0
2018-06-29 07:57:18,1.0,0.0
2018-06-29 07:57:23,-1.0,-1.0
2018-06-29 07:57:28,-1.0,-1.0
2018-06-29 07:57:33,1.0,0.0
2018-06-29 07:57:38,-1.0,0.0
2018-06-29 07:57:43,-1.0,0.0
2018-06-29 07:57:48,1.0,0.0
2018-06-29 07:57:53,-1.0,0.0
2018-06-29 07:57:58,1.0,0.0
2018-06-29 07:58:03,1.0,0.0
2018-06-29 07:58:08,1.0,0.0
2018-06-29 07:58:13,1.0,0.0
2018-06-29 07:58:18,1.0,0.0
2018-06-29 07:58:23,1.0,0.0
2018-06-29 07:58:28,1.0,0.0
2018-06-29 07:58:33,1.0,0.0
2018-06-29 07:58:38,1.0,0.0
2018-06-29 07:58:43,1.0,0.0
2018-06-29 07:58:48,1.0,0.0
2018-06-29 07:58:53,1.0,0.0
2018-06-29 07:58:58,1.0,0.0
2018-06-29 07:59:03,1.0,0.0
2018-06-29 07:59:08,1.0,0.0
2018-06-29 07:59:13,1.0,0.0
2018-06-29 07:59:18,-1.0,1.0
2018-06-29 07:59:23,1.0,0.0
2018-06-29 07:59:28,1.0,0.0
2018-06-29 07:59:33,1.0,0.0
2018-06-29 07:59:38,-1.0,0.0
2018-06-29 07:59:43,-1.0,-1.0
2018-06-29 07:59:48,-1.0,0.0
2018-06-29 07:59:53,1.0,0.0
2018-06-29 07:59:58,-1.0,0.0
2018-06-29 08:00:03,-1.0,0.0
2018-06-29 08:00:08,1.0,0.0
2018-06-29 08:00:13,1.0,0.0
2018-06-29 08:00:18,1.0,0.0
2018-06-29 08:00:23,1.0,0.0
2018-06-29 08:00:28,1.0,0.0
2018-06-29 08:00:33,1.0,0.0
2018-06-29 08:00:38,1.0,0.0
2018-06-29 08:00:43,1.0,0.0
2018-06-29 08:00:48,1.0,0.0
2018-06-29 08:00:53,1.0,0.0
2018-06-29 08:00:58,1.0,0.0
2018-06-29 08:01:03,1.0,0.0
2018-06-29 08:01:08,1.0,0.0
2018-06-29 08:01:13,1.0,0.0
2018-06-29 08:01:18,1.0,1.0
2018-06-29 08:01:23,1.0,0.0
2018-06-29 08:01:28,1.0,0.0
2018-06-29 08:01:33,1.0,0.0
2018-06-29 08:01:38,1.0,0.0
2018-06-29 08:01:43,1.0,0.0
2018-06-29 08:01:48,1.0,0.0
2018-06-29 08:01:53,1.0,0.0
2018-06-29 08:01:58,-1.0,0.0
2018-06-29 08:02:03,-1.0,-1.0
2018-06-29 08:02:08,-1.0,-1.0
2018-06-29 08:02:13,-1.0,1.0
2018-06-29 08:02:18,1.0,1.0
2018-06-29 08:02:23,-1.0,1.0
2018-06-29 08:02:28,-1.0,-1.0
2018-06-29 08:02:33,-1.0,-1.0
2018-06-29 08:02:38,1.0,1.0
2018-06-29 08:02:43,1.0,1.0
2018-06-29 08:02:48,-1.0,-1.0
2018-06-29 08:02:53,-1.0,-1.0
2018-06-29 08:02:58,-1.0,1.0
2018-06-29 08:03:03,-1.0,1.0
2018-06-29 08:03:08,-1.0,-1.0
2018-06-29 08:03:13,1.0,1.0
2018-06-29 08:03:18,1.0,1.0
2018-06-29 08:03:23,1.0,1.0
2018-06-29 08:03:28,1.0,1.0
2018-06-29 08:03:33,1.0,1.0
2018-06-29 08:03:38,-1.0,1.0
2018-06-29 08:03:43,-1.0,0.0
2018-06-29 08:03:48,1.0,1.0
2018-06-29 08:03:53,1.0,1.0
2018-06-29 08:03:58,1.0,0.0
2018-06-29 08:04:03,1.0,0.0
2018-06-29 08:04:08,-1.0,0.0
2018-06-29 08:04:13,1.0,0.0
2018-06-29 08:04:18,1.0,0.0
2018-06-29 08:04:23,1.0,0.0
2018-06-29 08:04:28,-1.0,0.0
2018-06-29 08:04:33,1.0,0.0
2018-06-29 08:04:38,1.0,0.0
2018-06-29 08:04:43,-1.0,0.0
2018-06-29 08:04:48,-1.0,0.0
2018-06-29 08:04:53,1.0,0.0
2018-06-29 08:04:58,-1.0,0.0
2018-06-29 08:05:03,1.0,0.0
2018-06-29 08:05:08,1.0,0.0
2018-06-29 08:05:13,1.0,0.0
2018-06-29 08:05:18,1.0,0.0
2018-06-29 08:05:23,-1.0,0.0
2018-06-29 08:05:28,1.0,0.0
2018-06-29 08:05:33,-1.0,0.0
2018-06-29 08:05:38,-1.0,0.0
2018-06-29 08:05:43,1.0,0.0
2018-06-29 08:05:48,1.0,0.0
2018-06-29 08:05:53,1.0,0.0
2018-06-29 08:05:58,-1.0,0.0
2018-06-29 08:06:03,1.0,0.0
2018-06-29 08:06:08,1.0,0.0
2018-06-29 08:06:13,1.0,0.0
2018-06-29 08:06:18,1.0,0.0
2018-06-29 08:06:23,1.0,1.0
2018-06-29 08:06:28,1.0,1.0
2018-06-29 08:06:33,1.0,0.0
2018-06-29 08:06:38,-1.0,0.0
2018-06-29 08:06:43,1.0,0.0
2018-06-29 08:06:48,1.0,0.0
2018-06-29 08:06:53,1.0,0.0
2018-06-29 08:06:58,1.0,1.0
2018-06-29 08:07:03,1.0,1.0
2018-06-29 08:07:08,1.0,0.0
2018-06-29 08:07:13,1.0,0.0
2018-06-29 08:07:18,1.0,0.0
2018-06-29 08:07:23,1.0,1.0
2018-06-29 08:07:28,1.0,1.0
2018-06-29 08:07:33,1.0,0.0
2018-06-29 08:07:38,1.0,1.0
2018-06-29 08:07:43,1.0,0.0
2018-06-29 08:07:48,-1.0,0.0
2018-06-29 08:07:53,-1.0,0.0
2018-06-29 08:07:58,1.0,1.0
2018-06-29 08:08:03,1.0,1.0
2018-06-29 08:08:08,1.0,0.0
2018-06-29 08:08:13,1.0,0.0
2018-06-29 08:08:18,-1.0,0.0
2018-06-29 08:08:23,-1.0,0.0
2018-06-29 08:08:28,1.0,0.0
2018-06-29 08:08:33,-1.0,0.0
2018-06-29 08:08:38,1.0,1.0
2018-06-29 08:08:43,-1.0,0.0
2018-06-29 08:08:48,-1.0,0.0
2018-06-29 08:08:53,1.0,1.0
2018-06-29 08:08:58,1.0,1.0
2018-06-29 08:09:03,1.0,0.0
2018-06-29 08:09:08,1.0,0.0
2018-06-29 08:09:13,1.0,0.0
2018-06-29 08:09:18,1.0,0.0
2018-06-29 08:09:23,1.0,0.0
2018-06-29 08:09:28,1.0,0.0
2018-06-29 08:09:33,1.0,0.0
2018-06-29 08:09:38,1.0,0.0
2018-06-29 08:09:43,1.0,0.0
2018-06-29 08:09:48,1.0,0.0
2018-06-29 08:09:53,1.0,0.0
2018-06-29 08:09:58,1.0,1.0
2018-06-29 08:10:03,1.0,1.0
2018-06-29 08:10:08,1.0,1.0
2018-06-29 08:10:13,-1.0,0.0
2018-06-29 08:10:18,1.0,0.0
2018-06-29 08:10:23,1.0,0.0
2018-06-29 08:10:28,1.0,0.0
2018-06-29 08:10:33,1.0,1.0
2018-06-29 08:10:38,1.0,0.0
2018-06-29 08:10:43,1.0,0.0
2018-06-29 08:10:48,1.0,0.0
2018-06-29 08:10:53,1.0,0.0
2018-06-29 08:10:58,1.0,0.0
2018-06-29 08:11:03,-1.0,0.0
2018-06-29 08:11:08,-1.0,0.0
2018-06-29 08:11:13,-1.0,0.0
2018-06-29 08:11:18,-1.0,0.0
2018-06-29 08:11:23,1.0,0.0
2018-06-29 08:11:28,1.0,0.0
2018-06-29 08:11:33,1.0,0.0
2018-06-29 08:11:38,1.0,0.0
2018-06-29 08:11:43,1.0,0.0
2018-06-29 08:11:48,1.0,0.0
2018-06-29 08:11:53,-1.0,0.0
2018-06-29 08:11:58,1.0,1.0
2018-06-29 08:12:03,1.0,0.0
2018-06-29 08:12:08,1.0,0.0
2018-06-29 08:12:13,1.0,0.0
2018-06-29 08:12:18,1.0,0.0
2018-06-29 08:12:23,1.0,0.0
2018-06-29 08:12:28,1.0,0.0
2018-06-29 08:12:33,1.0,0.0
2018-06-29 08:12:38,1.0,0.0
2018-06-29 08:12:43,1.0,1.0
2018-06-29 08:12:48,1.0,1.0
2018-06-29 08:12:53,1.0,0.0
2018-06-29 08:12:58,1.0,0.0
2018-06-29 08:13:03,1.0,1.0
2018-06-29 08:13:08,1.0,1.0
2018-06-29 08:13:13,1.0,0.0
2018-06-29 08:13:18,1.0,0.0
2018-06-29 08:13:23,1.0,0.0
2018-06-29 08:13:28,1.0,0.0
2018-06-29 08:13:33,1.0,1.0
2018-06-29 08:13:38,1.0,1.0
2018-06-29 08:13:43,1.0,0.0
2018-06-29 08:13:48,1.0,0.0
2018-06-29 08:13:53,1.0,0.0
2018-06-29 08:13:58,1.0,0.0
2018-06-29 08:14:03,1.0,1.0
2018-06-29 08:14:08,1.0,0.0
2018-06-29 08:14:13,1.0,0.0
2018-06-29 08:14:18,1.0,1.0
2018-06-29 08:14:23,1.0,0.0
2018-06-29 08:14:28,-1.0,-1.0
2018-06-29 08:14:33,1.0,0.0
2018-06-29 08:14:38,1.0,0.0
2018-06-29 08:14:43,1.0,0.0
2018-06-29 08:14:48,1.0,1.0
2018-06-29 08:14:53,1.0,1.0
2018-06-29 08:14:58,1.0,0.0
2018-06-29 08:15:03,1.0,1.0
2018-06-29 08:15:08,1.0,0.0
2018-06-29 08:15:13,1.0,0.0
2018-06-29 08:15:18,1.0,0.0
2018-06-29 08:15:23,1.0,0.0
2018-06-29 08:15:28,1.0,0.0
2018-06-29 08:15:33,1.0,0.0
2018-06-29 08:15:38,1.0,0.0
2018-06-29 08:15:43,1.0,0.0
2018-06-29 08:15:48,1.0,0.0
2018-06-29 08:15:53,1.0,0.0
2018-06-29 08:15:58,1.0,0.0
2018-06-29 08:16:03,1.0,0.0
2018-06-29 08:16:08,-1.0,0.0
2018-06-29 08:16:13,1.0,0.0
2018-06-29 08:16:18,1.0,0.0
2018-06-29 08:16:23,1.0,0.0
2018-06-29 08:16:28,1.0,0.0
2018-06-29 08:16:33,1.0,0.0
2018-06-29 08:16:38,1.0,1.0
2018-06-29 08:16:43,1.0,0.0
2018-06-29 08:16:48,1.0,0.0
2018-06-29 08:16:53,-1.0,-1.0
2018-06-29 08:16:58,1.0,0.0
2018-06-29 08:17:03,1.0,0.0
2018-06-29 08:17:08,1.0,0.0
2018-06-29 08:17:13,1.0,0.0
2018-06-29 08:17:18,1.0,0.0
2018-06-29 08:17:23,1.0,0.0
2018-06-29 08:17:28,1.0,0.0
2018-06-29 08:17:33,1.0,0.0
2018-06-29 08:17:38,1.0,0.0
2018-06-29 08:17:43,1.0,0.0
2018-06-29 08:17:48,1.0,0.0
2018-06-29 08:17:53,1.0,0.0
2018-06-29 08:17:58,1.0,0.0
2018-06-29 08:18:03,1.0,0.0
2018-06-29 08:18:08,1.0,0.0
2018-06-29 08:18:13,1.0,0.0
2018-06-29 08:18:18,1.0,0.0
2018-06-29 08:18:23,1.0,0.0
2018-06-29 08:18:28,1.0,0.0
2018-06-29 08:18:33,1.0,0.0
2018-06-29 08:18:38,1.0,0.0
2018-06-29 08:18:43,1.0,0.0
2018-06-29 08:18:48,1.0,0.0
2018-06-29 08:18:53,1.0,0.0
2018-06-29 08:18:58,1.0,0.0
2018-06-29 08:19:03,1.0,0.0
2018-06-29 08:19:08,1.0,0.0
2018-06-29 08:19:13,1.0,0.0
2018-06-29 08:19:18,1.0,0.0
2018-06-29 08:19:23,1.0,0.0
2018-06-29 08:19:28,1.0,0.0
2018-06-29 08:19:33,1.0,0.0
2018-06-29 08:19:38,1.0,0.0
2018-06-29 08:19:43,1.0,0.0
2018-06-29 08:19:48,1.0,0.0
2018-06-29 08:19:53,1.0,0.0
2018-06-29 08:19:58,1.0,0.0
2018-06-29 08:20:03,1.0,0.0
2018-06-29 08:20:08,1.0,0.0
2018-06-29 08:20:13,1.0,0.0
2018-06-29 08:20:18,1.0,0.0
2018-06-29 08:20:23,1.0,0.0
2018-06-29 08:20:28,1.0,0.0
2018-06-29 08:20:33,1.0,1.0
2018-06-29 08:20:38,1.0,1.0
2018-06-29 08:20:43,1.0,0.0
2018-06-29 08:20:48,-1.0,0.0
2018-06-29 08:20:53,1.0,0.0
2018-06-29 08:20:58,1.0,1.0
2018-06-29 08:21:03,1.0,0.0
2018-06-29 08:21:08,1.0,0.0
2018-06-29 08:21:13,1.0,0.0
2018-06-29 08:21:18,1.0,0.0
2018-06-29 08:21:23,1.0,0.0
2018-06-29 08:21:28,1.0,0.0
2018-06-29 08:21:33,1.0,0.0
2018-06-29 08:21:38,1.0,0.0
2018-06-29 08:21:43,1.0,0.0
2018-06-29 08:21:48,1.0,0.0
2018-06-29 08:21:53,1.0,0.0
2018-06-29 08:21:58,1.0,0.0
2018-06-29 08:22:03,1.0,0.0
2018-06-29 08:22:08,1.0,0.0
2018-06-29 08:22:13,1.0,0.0
2018-06-29 08:22:18,1.0,0.0
2018-06-29 08:22:23,1.0,0.0
2018-06-29 08:22:28,1.0,0.0
2018-06-29 08:22:33,1.0,0.0
2018-06-29 08:22:38,1.0,0.0
2018-06-29 08:22:43,1.0,0.0
2018-06-29 08:22:48,1.0,0.0
2018-06-29 08:22:53,1.0,0.0
2018-06-29 08:22:58,1.0,0.0
2018-06-29 08:23:03,1.0,0.0
2018-06-29 08:23:08,1.0,0.0
2018-06-29 08:23:13,1.0,0.0
2018-06-29 08:23:18,1.0,0.0
2018-06-29 08:23:23,1.0,0.0
2018-06-29 08:23:28,1.0,0.0
2018-06-29 08:23:33,1.0,0.0
2018-06-29 08:23:38,1.0,0.0
2018-06-29 08:23:43,1.0,0.0
2018-06-29 08:23:48,1.0,0.0
2018-06-29 08:23:53,1.0,0.0
2018-06-29 08:23:58,1.0,0.0
2018-06-29 08:24:03,1.0,0.0
2018-06-29 08:24:08,1.0,0.0
2018-06-29 08:24:13,1.0,0.0
2018-06-29 08:24:18,1.0,0.0
2018-06-29 08:24:23,1.0,0.0
2018-06-29 08:24:28,1.0,0.0
2018-06-29 08:24:33,1.0,0.0
2018-06-29 08:24:38,1.0,0.0
2018-06-29 08:24:43,1.0,0.0
2018-06-29 08:24:48,1.0,0.0
2018-06-29 08:24:53,1.0,0.0
2018-06-29 08:24:58,1.0,0.0
2018-06-29 08:25:03,1.0,0.0
2018-06-29 08:25:08,1.0,0.0
2018-06-29 08:25:13,1.0,0.0
2018-06-29 08:25:18,1.0,0.0
2018-06-29 08:25:23,1.0,0.0
2018-06-29 08:25:28,1.0,0.0
2018-06-29 08:25:33,1.0,0.0
2018-06-29 08:25:38,1.0,0.0
2018-06-29 08:25:43,1.0,0.0
2018-06-29 08:25:48,1.0,0.0
2018-06-29 08:25:53,1.0,0.0
2018-06-29 08:25:58,1.0,0.0
2018-06-29 08:26:03,1.0,0.0
2018-06-29 08:26:08,1.0,0.0
2018-06-29 08:26:13,1.0,0.0
2018-06-29 08:26:18,1.0,0.0
2018-06-29 08:26:23,1.0,0.0
2018-06-29 08:26:28,1.0,0.0
2018-06-29 08:26:33,1.0,0.0
2018-06-29 08:26:38,-1.0,0.0
2018-06-29 08:26:43,-1.0,0.0
2018-06-29 08:26:48,-1.0,0.0
2018-06-29 08:26:53,1.0,0.0
2018-06-29 08:26:58,-1.0,0.0
2018-06-29 08:27:03,1.0,0.0
2018-06-29 08:27:08,1.0,0.0
2018-06-29 08:27:13,1.0,0.0
2018-06-29 08:27:18,-1.0,0.0
2018-06-29 08:27:23,-1.0,0.0
2018-06-29 08:27:28,-1.0,0.0
2018-06-29 08:27:33,-1.0,0.0
2018-06-29 08:27:38,-1.0,0.0
2018-06-29 08:27:43,-1.0,0.0
2018-06-29 08:27:48,-1.0,0.0
2018-06-29 08:27:53,-1.0,0.0
2018-06-29 08:27:58,-1.0,0.0
2018-06-29 08:28:03,-1.0,0.0
2018-06-29 08:28:08,-1.0,0.0
2018-06-29 08:28:13,-1.0,0.0
2018-06-29 08:28:18,-1.0,0.0
2018-06-29 08:28:23,-1.0,0.0
2018-06-29 08:28:28,-1.0,0.0
2018-06-29 08:28:33,-1.0,0.0
2018-06-29 08:28:38,-1.0,0.0
2018-06-29 08:28:43,-1.0,0.0
2018-06-29 08:28:48,-1.0,0.0
2018-06-29 08:28:53,-1.0,0.0
2018-06-29 08:28:58,-1.0,0.0
2018-06-29 08:29:03,-1.0,0.0
2018-06-29 08:29:08,-1.0,0.0
2018-06-29 08:29:13,-1.0,0.0
2018-06-29 08:29:18,-1.0,0.0
2018-06-29 08:29:23,-1.0,0.0
2018-06-29 08:29:28,-1.0,0.0
2018-06-29 08:29:33,-1.0,0.0
2018-06-29 08:29:38,-1.0,0.0
2018-06-29 08:29:43,-1.0,0.0
2018-06-29 08:29:48,-1.0,0.0
2018-06-29 08:29:53,-1.0,0.0
2018-06-29 08:29:58,-1.0,0.0
2018-06-29 08:30:03,-1.0,0.0
2018-06-29 08:30:08,-1.0,0.0
2018-06-29 08:30:13,-1.0,0.0
2018-06-29 08:30:18,-1.0,0.0
2018-06-29 08:30:23,1.0,0.0
2018-06-29 08:30:28,1.0,0.0
2018-06-29 08:30:33,1.0,0.0
2018-06-29 08:30:38,1.0,0.0
2018-06-29 08:30:43,1.0,0.0
2018-06-29 08:30:48,1.0,0.0
2018-06-29 08:30:53,1.0,0.0
2018-06-29 08:30:58,1.0,0.0
2018-06-29 08:31:03,1.0,0.0
2018-06-29 08:31:08,1.0,0.0
2018-06-29 08:31:13,1.0,0.0
2018-06-29 08:31:18,1.0,0.0
2018-06-29 08:31:23,1.0,0.0
2018-06-29 08:31:28,1.0,0.0
2018-06-29 08:31:33,1.0,0.0
2018-06-29 08:31:38,1.0,0.0
2018-06-29 08:31:43,1.0,0.0
2018-06-29 08:31:48,1.0,0.0
2018-06-29 08:31:53,1.0,0.0
2018-06-29 08:31:58,1.0,0.0
2018-06-29 08:32:03,1.0,0.0
2018-06-29 08:32:08,1.0,0.0
2018-06-29 08:32:13,1.0,0.0
2018-06-29 08:32:18,1.0,0.0
2018-06-29 08:32:23,1.0,0.0
2018-06-29 08:32:28,1.0,0.0
2018-06-29 08:32:33,1.0,0.0
2018-06-29 08:32:38,1.0,0.0
2018-06-29 08:32:43,1.0,0.0
2018-06-29 08:32:48,1.0,0.0
2018-06-29 08:32:53,1.0,0.0
2018-06-29 08:32:58,1.0,0.0
2018-06-29 08:33:03,1.0,0.0
2018-06-29 08:33:08,1.0,0.0
2018-06-29 08:33:13,1.0,0.0
2018-06-29 08:33:18,1.0,0.0
2018-06-29 08:33:23,1.0,0.0
2018-06-29 08:33:28,1.0,0.0
2018-06-29 08:33:33,1.0,0.0
2018-06-29 08:33:38,1.0,0.0
2018-06-29 08:33:43,1.0,0.0
2018-06-29 08:33:48,1.0,0.0
2018-06-29 08:33:53,1.0,0.0
2018-06-29 08:33:58,1.0,0.0
2018-06-29 08:34:03,1.0,0.0
2018-06-29 08:34:08,1.0,0.0
2018-06-29 08:34:13,1.0,0.0
2018-06-29 08:34:18,1.0,0.0
2018-06-29 08:34:23,1.0,0.0
2018-06-29 08:34:28,1.0,0.0
2018-06-29 08:34:33,1.0,0.0
2018-06-29 08:34:38,1.0,0.0
2018-06-29 08:34:43,1.0,0.0
2018-06-29 08:34:48,1.0,0.0
2018-06-29 08:34:53,1.0,0.0
2018-06-29 08:34:58,1.0,0.0
2018-06-29 08:35:03,1.0,0.0
2018-06-29 08:35:08,1.0,0.0
2018-06-29 08:35:13,1.0,0.0
2018-06-29 08:35:18,1.0,0.0
2018-06-29 08:35:23,1.0,0.0
2018-06-29 08:35:28,1.0,0.0
2018-06-29 08:35:33,1.0,0.0
2018-06-29 08:35:38,1.0,0.0
2018-06-29 08:35:43,1.0,0.0
2018-06-29 08:35:48,1.0,0.0
2018-06-29 08:35:53,1.0,0.0
2018-06-29 08:35:58,1.0,0.0
2018-06-29 08:36:03,1.0,0.0
2018-06-29 08:36:08,1.0,0.0
2018-06-29 08:36:13,1.0,0.0
2018-06-29 08:36:18,1.0,0.0
2018-06-29 08:36:23,1.0,0.0
2018-06-29 08:36:28,1.0,0.0
2018-06-29 08:36:33,1.0,0.0
2018-06-29 08:36:38,1.0,0.0
2018-06-29 08:36:43,1.0,0.0
2018-06-29 08:36:48,1.0,0.0
2018-06-29 08:36:53,1.0,0.0
2018-06-29 08:36:58,1.0,0.0
2018-06-29 08:37:03,1.0,0.0
2018-06-29 08:37:08,1.0,0.0
2018-06-29 08:37:13,1.0,0.0
2018-06-29 08:37:18,1.0,0.0
2018-06-29 08:37:23,1.0,0.0
2018-06-29 08:37:28,1.0,0.0
2018-06-29 08:37:33,1.0,0.0
2018-06-29 08:37:38,1.0,0.0
2018-06-29 08:37:43,1.0,0.0
2018-06-29 08:37:48,1.0,0.0
2018-06-29 08:37:53,1.0,0.0
2018-06-29 08:37:58,1.0,0.0
2018-06-29 08:38:03,1.0,0.0
2018-06-29 08:38:08,1.0,0.0
2018-06-29 08:38:13,1.0,0.0
2018-06-29 08:38:18,1.0,0.0
2018-06-29 08:38:23,1.0,0.0
2018-06-29 08:38:28,1.0,0.0
2018-06-29 08:38:33,1.0,0.0
2018-06-29 08:38:38,1.0,0.0
2018-06-29 08:38:43,1.0,0.0
2018-06-29 08:38:48,1.0,0.0
2018-06-29 08:38:53,1.0,0.0
2018-06-29 08:38:58,1.0,0.0
2018-06-29 08:39:03,1.0,0.0
2018-06-29 08:39:08,1.0,0.0
2018-06-29 08:39:13,1.0,0.0
2018-06-29 08:39:18,1.0,0.0
2018-06-29 08:39:23,1.0,0.0
2018-06-29 08:39:28,1.0,0.0
2018-06-29 08:39:33,1.0,0.0
2018-06-29 08:39:38,1.0,0.0
2018-06-29 08:39:43,1.0,0.0
2018-06-29 08:39:48,1.0,0.0
2018-06-29 08:39:53,1.0,0.0
2018-06-29 08:39:58,1.0,0.0
2018-06-29 08:40:03,1.0,0.0
2018-06-29 08:40:08,1.0,0.0
2018-06-29 08:40:13,1.0,0.0
2018-06-29 08:40:18,1.0,0.0
2018-06-29 08:40:23,1.0,0.0
2018-06-29 08:40:28,1.0,0.0
2018-06-29 08:40:33,1.0,0.0
2018-06-29 08:40:38,1.0,0.0
2018-06-29 08:40:43,1.0,0.0
2018-06-29 08:40:48,1.0,0.0
2018-06-29 08:40:53,1.0,0.0
2018-06-29 08:40:58,1.0,0.0
2018-06-29 08:41:03,1.0,0.0
2018-06-29 08:41:08,1.0,0.0
2018-06-29 08:41:13,1.0,0.0
2018-06-29 08:41:18,1.0,0.0
2018-06-29 08:41:23,1.0,0.0
2018-06-29 08:41:28,1.0,0.0
2018-06-29 08:41:33,1.0,0.0
2018-06-29 08:41:38,1.0,0.0
2018-06-29 08:41:43,1.0,0.0
2018-06-29 08:41:48,1.0,0.0
2018-06-29 08:41:53,1.0,0.0
2018-06-29 08:41:58,1.0,0.0
2018-06-29 08:42:03,1.0,0.0
2018-06-29 08:42:08,1.0,0.0
2018-06-29 08:42:13,1.0,0.0
2018-06-29 08:42:18,1.0,0.0
2018-06-29 08:42:23,1.0,0.0
2018-06-29 08:42:28,1.0,0.0
2018-06-29 08:42:33,1.0,0.0
2018-06-29 08:42:38,1.0,0.0
2018-06-29 08:42:43,1.0,0.0
2018-06-29 08:42:48,1.0,0.0
2018-06-29 08:42:53,1.0,0.0
2018-06-29 08:42:58,1.0,0.0
2018-06-29 08:43:03,1.0,0.0
2018-06-29 08:43:08,1.0,0.0
2018-06-29 08:43:13,1.0,0.0
2018-06-29 08:43:18,1.0,0.0
2018-06-29 08:43:23,1.0,0.0
2018-06-29 08:43:28,1.0,0.0
2018-06-29 08:43:33,1.0,0.0
2018-06-29 08:43:38,1.0,0.0
2018-06-29 08:43:43,1.0,0.0
2018-06-29 08:43:48,1.0,0.0
2018-06-29 08:43:53,1.0,0.0
2018-06-29 08:43:58,1.0,0.0
2018-06-29 08:44:03,1.0,0.0
2018-06-29 08:44:08,1.0,0.0
2018-06-29 08:44:13,1.0,0.0
2018-06-29 08:44:18,-1.0,0.0
2018-06-29 08:44:23,-1.0,0.0
2018-06-29 08:44:28,-1.0,0.0
2018-06-29 08:44:33,1.0,0.0
2018-06-29 08:44:38,1.0,0.0
2018-06-29 08:44:43,1.0,0.0
2018-06-29 08:44:48,1.0,0.0
2018-06-29 08:44:53,1.0,0.0
2018-06-29 08:44:58,1.0,0.0
2018-06-29 08:45:03,1.0,0.0
2018-06-29 08:45:08,1.0,0.0
2018-06-29 08:45:13,1.0,0.0
2018-06-29 08:45:18,1.0,0.0
2018-06-29 08:45:23,1.0,0.0
2018-06-29 08:45:28,1.0,0.0
2018-06-29 08:45:33,1.0,0.0
2018-06-29 08:45:38,1.0,0.0
2018-06-29 08:45:43,1.0,0.0
2018-06-29 08:45:48,1.0,0.0
2018-06-29 08:45:53,1.0,0.0
2018-06-29 08:45:58,1.0,0.0
2018-06-29 08:46:03,-1.0,0.0
2018-06-29 08:46:08,-1.0,0.0
2018-06-29 08:46:13,1.0,0.0
2018-06-29 08:46:18,1.0,0.0
2018-06-29 08:46:23,1.0,0.0
2018-06-29 08:46:28,1.0,0.0
2018-06-29 08:46:33,1.0,0.0
2018-06-29 08:46:38,1.0,0.0
2018-06-29 08:46:43,1.0,0.0
2018-06-29 08:46:48,1.0,0.0
2018-06-29 08:46:53,1.0,0.0
2018-06-29 08:46:58,1.0,0.0
2018-06-29 08:47:03,1.0,0.0
2018-06-29 08:47:08,1.0,0.0
2018-06-29 08:47:13,1.0,0.0
2018-06-29 08:47:18,1.0,0.0
2018-06-29 08:47:23,1.0,0.0
2018-06-29 08:47:28,1.0,0.0
2018-06-29 08:47:33,1.0,0.0
2018-06-29 08:47:38,1.0,0.0
2018-06-29 08:47:43,1.0,0.0
2018-06-29 08:47:48,1.0,0.0
2018-06-29 08:47:53,1.0,0.0
2018-06-29 08:47:58,1.0,0.0
2018-06-29 08:48:03,1.0,0.0
2018-06-29 08:48:08,1.0,0.0
2018-06-29 08:48:13,1.0,0.0
2018-06-29 08:48:18,1.0,0.0
2018-06-29 08:48:23,1.0,0.0
2018-06-29 08:48:28,1.0,0.0
2018-06-29 08:48:33,1.0,0.0
2018-06-29 08:48:38,1.0,0.0
2018-06-29 08:48:43,1.0,0.0
2018-06-29 08:48:48,1.0,0.0
2018-06-29 08:48:53,1.0,0.0
2018-06-29 08:48:58,1.0,0.0
2018-06-29 08:49:03,1.0,0.0
2018-06-29 08:49:08,1.0,0.0
2018-06-29 08:49:13,1.0,0.0
2018-06-29 08:49:18,1.0,0.0
2018-06-29 08:49:23,1.0,0.0
2018-06-29 08:49:28,1.0,0.0
2018-06-29 08:49:33,1.0,0.0
2018-06-29 08:49:38,1.0,0.0
2018-06-29 08:49:43,1.0,0.0
2018-06-29 08:49:48,1.0,0.0
2018-06-29 08:49:53,1.0,0.0
2018-06-29 08:49:58,1.0,0.0
2018-06-29 08:50:03,1.0,0.0
2018-06-29 08:50:08,1.0,0.0
2018-06-29 08:50:13,1.0,0.0
2018-06-29 08:50:18,1.0,0.0
2018-06-29 08:50:23,1.0,0.0
2018-06-29 08:50:28,1.0,0.0
2018-06-29 08:50:33,1.0,0.0
2018-06-29 08:50:38,1.0,0.0
2018-06-29 08:50:43,1.0,0.0
2018-06-29 08:50:48,1.0,0.0
2018-06-29 08:50:53,1.0,0.0
2018-06-29 08:50:58,1.0,0.0
2018-06-29 08:51:03,1.0,0.0
2018-06-29 08:51:08,1.0,0.0
2018-06-29 08:51:13,1.0,0.0
2018-06-29 08:51:18,1.0,0.0
2018-06-29 08:51:23,1.0,0.0
2018-06-29 08:51:28,1.0,0.0
2018-06-29 08:51:33,-1.0,0.0
2018-06-29 08:51:38,-1.0,0.0
2018-06-29 08:51:43,-1.0,0.0
2018-06-29 08:51:48,-1.0,0.0
2018-06-29 08:51:53,-1.0,0.0
2018-06-29 08:51:58,1.0,0.0
2018-06-29 08:52:03,1.0,0.0
2018-06-29 08:52:08,1.0,0.0
2018-06-29 08:52:13,1.0,0.0
2018-06-29 08:52:18,1.0,0.0
2018-06-29 08:52:23,1.0,0.0
2018-06-29 08:52:28,1.0,0.0
2018-06-29 08:52:33,1.0,0.0
2018-06-29 08:52:38,-1.0,0.0
2018-06-29 08:52:43,-1.0,0.0
2018-06-29 08:52:48,1.0,0.0
2018-06-29 08:52:53,1.0,0.0
2018-06-29 08:52:58,1.0,0.0
2018-06-29 08:53:03,1.0,0.0
2018-06-29 08:53:08,1.0,0.0
2018-06-29 08:53:13,1.0,0.0
2018-06-29 08:53:18,1.0,0.0
2018-06-29 08:53:23,1.0,0.0
2018-06-29 08:53:28,1.0,0.0
2018-06-29 08:53:33,1.0,0.0
2018-06-29 08:53:38,1.0,0.0
2018-06-29 08:53:43,1.0,0.0
2018-06-29 08:53:48,1.0,0.0
2018-06-29 08:53:53,1.0,0.0
2018-06-29 08:53:58,-1.0,0.0
2018-06-29 08:54:03,1.0,0.0
2018-06-29 08:54:08,1.0,0.0
2018-06-29 08:54:13,1.0,0.0
2018-06-29 08:54:18,1.0,1.0
2018-06-29 08:54:23,1.0,0.0
2018-06-29 08:54:28,1.0,0.0
2018-06-29 08:54:33,1.0,0.0
2018-06-29 08:54:38,1.0,0.0
2018-06-29 08:54:43,-1.0,0.0
2018-06-29 08:54:48,-1.0,-1.0
2018-06-29 08:54:53,-1.0,1.0
2018-06-29 08:54:58,-1.0,1.0
2018-06-29 08:55:03,-1.0,1.0
2018-06-29 08:55:08,-1.0,1.0
2018-06-29 08:55:13,-1.0,1.0
2018-06-29 08:55:18,-1.0,1.0
2018-06-29 08:55:23,-1.0,1.0
2018-06-29 08:55:28,-1.0,1.0
2018-06-29 08:55:33,-1.0,1.0
2018-06-29 08:55:38,-1.0,1.0
2018-06-29 08:55:43,-1.0,1.0
2018-06-29 08:55:48,-1.0,1.0
2018-06-29 08:55:53,-1.0,1.0
2018-06-29 08:55:58,-1.0,1.0
2018-06-29 08:56:03,-1.0,1.0
2018-06-29 08:56:08,-1.0,1.0
2018-06-29 08:56:13,-1.0,1.0
2018-06-29 08:56:18,-1.0,1.0
2018-06-29 08:56:23,-1.0,1.0
2018-06-29 08:56:28,-1.0,1.0
2018-06-29 08:56:33,-1.0,1.0
2018-06-29 08:56:38,-1.0,1.0
2018-06-29 08:56:43,-1.0,1.0
2018-06-29 08:56:48,-1.0,1.0
2018-06-29 08:56:53,-1.0,1.0
2018-06-29 08:56:58,-1.0,1.0
2018-06-29 08:57:03,-1.0,1.0
2018-06-29 08:57:08,-1.0,1.0
2018-06-29 08:57:13,-1.0,1.0
2018-06-29 08:57:18,-1.0,1.0
2018-06-29 08:57:23,-1.0,1.0
2018-06-29 08:57:28,-1.0,1.0
2018-06-29 08:57:33,-1.0,1.0
2018-06-29 08:57:38,-1.0,1.0
2018-06-29 08:57:43,-1.0,1.0
2018-06-29 08:57:48,-1.0,1.0
2018-06-29 08:57:53,-1.0,1.0
