,EDA,rise_time,max_deriv,amp,decay_time,SCR_width,AUC
2018-07-31 01:20:00.875000,0.15885500000000002,85921.125,0.16830048731697939,0.06917800000000003,,,
2018-07-31 01:25:20.625000,0.12234500000000001,1.125,0.03252335918275551,0.021135,,,
