1530617363.000000, IBI
14.110021,0.703157
14.750675,0.640654
15.391330,0.640654
15.953855,0.562526
48.424092,0.718783
64.690461,0.687531
65.440495,0.750034
66.268658,0.828163
67.049944,0.781286
67.878107,0.828163
68.612516,0.734409
97.066943,0.828163
97.879480,0.812537
98.723269,0.843789
99.473303,0.750034
131.052874,0.656280
131.756031,0.703157
132.521691,0.765660
133.177971,0.656280
155.585247,0.734409
156.272778,0.687531
157.007187,0.734409
171.429722,0.687531
172.054751,0.625029
172.820411,0.765660
173.492316,0.671906
174.211099,0.718783
174.929882,0.718783
175.633039,0.703157
176.336197,0.703157
189.352417,0.703157
196.305861,0.734409
197.024644,0.718783
197.743427,0.718783
198.446584,0.703157
199.149741,0.703157
199.837272,0.687531
200.509178,0.671906
201.181084,0.671906
201.837364,0.656280
202.493644,0.656280
203.149924,0.656280
203.790578,0.640654
204.431233,0.640654
205.103138,0.671906
205.790670,0.687531
206.509453,0.718783
224.713411,0.640654
225.400943,0.687531
226.057223,0.656280
226.760380,0.703157
227.463537,0.703157
228.182320,0.718783
228.901103,0.718783
229.588634,0.687531
230.307417,0.718783
239.073443,0.703157
239.792226,0.718783
240.464132,0.671906
241.214166,0.750034
241.901698,0.687531
242.651732,0.750034
243.354889,0.703157
244.120549,0.765660
244.839332,0.718783
245.542490,0.703157
246.323775,0.781286
247.058184,0.734409
247.776967,0.718783
252.902201,0.781286
253.667861,0.765660
254.417896,0.750034
255.121053,0.703157
255.839836,0.718783
256.558619,0.718783
257.308653,0.750034
258.027436,0.718783
258.761845,0.734409
259.386873,0.625029
260.230662,0.843789
260.902568,0.671906
261.699479,0.796911
262.402636,0.703157
263.168296,0.765660
263.918331,0.750034
264.668365,0.750034
265.387148,0.718783
266.152808,0.765660
266.918468,0.765660
271.887445,0.718783
272.653105,0.765660
273.434391,0.781286
274.153174,0.718783
274.840706,0.687531
275.543863,0.703157
276.278271,0.734409
276.934551,0.656280
277.668960,0.734409
278.403369,0.734409
279.106526,0.703157
279.825309,0.718783
287.653792,0.703157
288.263195,0.609403
325.155509,0.687531
325.796163,0.640654
326.483695,0.687531
327.124349,0.640654
327.843132,0.718783
328.515038,0.671906
342.359421,0.750034
358.235148,0.656280
383.251918,0.734409
383.939450,0.687531
384.705110,0.765660
385.455144,0.750034
386.142675,0.687531
386.877084,0.734409
387.658370,0.781286
402.971571,0.765660
403.830985,0.859414
425.566355,0.781286
454.911448,0.671906
455.614605,0.703157
456.270885,0.656280
468.162055,0.734409
510.335860,0.765660
511.117146,0.781286
511.835929,0.718783
540.649748,0.750034
541.415408,0.765660
542.165442,0.750034
542.899851,0.734409
543.634259,0.734409
544.384294,0.750034
545.118702,0.734409
545.837485,0.718783
546.540642,0.703157
547.259425,0.718783
547.978208,0.718783
548.696991,0.718783
549.400148,0.703157
550.134557,0.734409
550.837714,0.703157
551.509620,0.671906
552.197151,0.687531
552.900308,0.703157
553.619091,0.718783
554.337874,0.718783
555.072283,0.734409
555.775440,0.703157
556.509849,0.734409
557.228631,0.718783
557.947414,0.718783
558.681823,0.734409
559.400606,0.718783
560.103763,0.703157
560.822546,0.718783
561.525703,0.703157
562.244486,0.718783
562.932018,0.687531
563.650800,0.718783
564.369583,0.718783
565.135243,0.765660
565.869652,0.734409
566.666564,0.796911
567.447849,0.781286
568.229135,0.781286
568.979169,0.750034
569.713578,0.734409
570.447987,0.734409
571.166770,0.718783
571.885552,0.718783
572.635587,0.750034
573.385621,0.750034
574.198158,0.812537
574.979444,0.781286
575.776356,0.796911
576.526390,0.750034
577.370178,0.843789
578.073336,0.703157
578.838996,0.765660
579.589030,0.750034
580.323439,0.734409
600.339980,0.718783
601.058763,0.718783
601.808797,0.750034
617.715775,0.656280
618.450184,0.734409
619.122090,0.671906
619.856498,0.734409
633.169608,0.750034
633.857139,0.687531
634.638425,0.781286
635.325956,0.687531
636.060365,0.734409
636.747896,0.687531
637.497931,0.750034
646.123326,0.765660
646.888986,0.765660
647.639020,0.750034
648.404680,0.765660
649.170340,0.765660
649.920374,0.750034
650.670409,0.750034
651.436069,0.765660
652.201729,0.765660
652.936137,0.734409
653.639295,0.703157
654.436206,0.796911
655.201866,0.765660
655.920649,0.718783
675.280910,0.718783
676.015319,0.734409
676.765353,0.750034
677.484136,0.718783
678.249796,0.765660
678.968579,0.718783
726.517631,0.781286
727.298916,0.781286
728.189582,0.890666
728.877114,0.687531
729.611522,0.734409
730.361557,0.750034
731.095965,0.734409
731.814748,0.718783
732.564782,0.750034
739.596354,0.781286
740.362014,0.765660
741.112049,0.750034
741.815206,0.703157
742.627743,0.812537
743.393403,0.765660
744.159063,0.765660
744.877846,0.718783
745.799763,0.921917
746.487295,0.687531
747.377960,0.890666
755.018935,0.765660
755.831472,0.812537
756.628384,0.796911
757.425295,0.796911
758.222207,0.796911
764.441242,0.781286
765.222527,0.781286
779.598185,0.750034
841.288509,0.718783
841.991666,0.703157
842.694824,0.703157
843.382355,0.687531
844.101138,0.718783
844.804295,0.703157
852.742158,0.734409
853.476567,0.734409
854.242227,0.765660
854.976636,0.734409
855.695419,0.718783
856.429827,0.734409
857.195487,0.765660
857.961147,0.765660
858.711182,0.750034
859.461216,0.750034
860.226876,0.765660
860.930033,0.703157
861.633190,0.703157
862.383225,0.750034
863.164510,0.781286
863.945796,0.781286
864.727082,0.781286
865.508368,0.781286
866.274028,0.765660
867.024062,0.750034
881.040329,0.703157
881.727860,0.687531
882.415392,0.687531
883.134175,0.718783
883.884209,0.750034
884.649869,0.765660
885.415529,0.765660
886.149938,0.734409
886.931223,0.781286
887.665632,0.734409
888.400041,0.734409
896.634793,0.765660
897.369201,0.734409
898.119236,0.750034
898.900521,0.781286
899.666181,0.765660
917.963894,0.734409
918.682677,0.718783
919.401460,0.718783
920.120243,0.718783
942.277507,0.765660
942.980664,0.703157
943.699447,0.718783
944.418230,0.718783
945.152638,0.734409
969.622509,0.828163
970.294415,0.671906
971.028823,0.734409
997.420656,0.765660
998.186316,0.765660
998.951976,0.765660
999.733262,0.781286
1000.467671,0.734409
1001.202079,0.734409
1001.905236,0.703157
1002.577142,0.671906
1003.264674,0.687531
1004.045959,0.781286
1004.795994,0.750034
1005.452274,0.656280
1035.344267,0.640654
1036.016173,0.671906
1057.642163,0.812537
1058.439074,0.796911
1059.204734,0.765660
1059.954769,0.750034
1060.704803,0.750034
1061.392334,0.687531
1062.095492,0.703157
1062.798649,0.703157
1063.517432,0.718783
1064.267466,0.750034
1064.986249,0.718783
1065.751909,0.765660
1066.501943,0.750034
1067.283229,0.781286
1073.142872,0.781286
1073.939784,0.796911
1074.799198,0.859414
1075.471104,0.671906
1076.393021,0.921917
1077.049301,0.656280
1083.908990,0.734409
1084.627773,0.718783
1085.346556,0.718783
1086.080965,0.734409
1086.784122,0.703157
1087.549782,0.765660
1088.284190,0.734409
1089.049850,0.765660
1089.815511,0.765660
1090.565545,0.750034
1091.299953,0.734409
1092.049988,0.750034
1092.800022,0.750034
1093.534431,0.734409
1094.284465,0.750034
1095.034499,0.750034
1095.768908,0.734409
1096.518942,0.750034
1097.315854,0.796911
1098.128391,0.812537
1098.940928,0.812537
1099.737840,0.796911
1100.534751,0.796911
1101.316037,0.781286
1102.081697,0.765660
1102.894234,0.812537
1103.534889,0.640654
1104.253671,0.718783
1105.034957,0.781286
1105.753740,0.718783
1106.456897,0.703157
1107.191306,0.734409
1107.941340,0.750034
1108.707000,0.765660
1109.503912,0.796911
1110.316449,0.812537
1111.144612,0.828163
1111.941523,0.796911
1112.738435,0.796911
1113.535346,0.796911
1114.332258,0.796911
1115.097918,0.765660
1115.847952,0.750034
1116.566735,0.718783
1117.301144,0.734409
1118.051178,0.750034
1118.785587,0.734409
1119.582498,0.796911
1120.426287,0.843789
1130.395493,0.796911
1131.192405,0.796911
1131.958065,0.765660
1132.692473,0.734409
1133.411256,0.718783
1134.145665,0.734409
1134.880073,0.734409
1135.583230,0.703157
1136.255136,0.671906
1136.911416,0.656280
1137.567696,0.656280
1138.239602,0.671906
1138.895882,0.656280
1139.536536,0.640654
1140.177191,0.640654
1140.817845,0.640654
1141.474125,0.656280
1142.130405,0.656280
1142.786685,0.656280
1143.442965,0.656280
1144.114871,0.671906
1144.786777,0.671906
1145.458683,0.671906
1146.161840,0.703157
1146.896248,0.734409
1214.180578,0.703157
1214.868110,0.687531
1215.571267,0.703157
1216.321301,0.750034
1217.102587,0.781286
1217.836996,0.734409
1218.649533,0.812537
1234.353377,0.609403
1235.056534,0.703157
1235.712814,0.656280
1236.431597,0.718783
1254.854315,0.687531
1255.510595,0.656280
1256.213752,0.703157
1256.885658,0.671906
1312.216316,0.734409
1312.935099,0.718783
1313.700759,0.765660
1314.466419,0.765660
1315.247705,0.781286
1315.919610,0.671906
1316.732147,0.812537
1317.404053,0.671906
1318.122836,0.718783
1318.857245,0.734409
1319.544776,0.687531
1320.263559,0.718783
1320.966716,0.703157
1321.669873,0.703157
1322.388656,0.718783
1323.201194,0.812537
1323.966854,0.765660
1324.904397,0.937543
1360.421648,0.640654
1361.077928,0.656280
1361.749833,0.671906
1362.437365,0.687531
1363.093645,0.656280
1363.765551,0.671906
1364.453082,0.687531
1365.140614,0.687531
1365.812519,0.671906
1366.500051,0.687531
1367.156331,0.656280
1367.843862,0.687531
1368.562645,0.718783
1371.890923,0.640654
1372.578454,0.687531
1373.234734,0.656280
1373.906640,0.671906
1374.562920,0.656280
1375.234826,0.671906
1375.906731,0.671906
1376.594263,0.687531
1388.797946,0.671906
1389.501104,0.703157
1390.251138,0.750034
1390.891792,0.640654
1391.594949,0.703157
1392.298107,0.703157
1396.454547,0.609403
1397.204581,0.750034
1397.938990,0.734409
1398.626521,0.687531
1399.329679,0.703157
1407.673810,0.812537
1408.470722,0.796911
1409.267633,0.796911
1410.048919,0.781286
1410.783328,0.734409
1411.486485,0.703157
1412.174016,0.687531
1412.877174,0.703157
1413.595957,0.718783
1414.314739,0.718783
1415.002271,0.687531
1415.752305,0.750034
1416.439837,0.687531
1417.252374,0.812537
1417.986783,0.734409
1418.783694,0.796911
1419.564980,0.781286
1420.330640,0.765660
1421.065048,0.734409
1421.752580,0.687531
1422.455737,0.703157
1423.143269,0.687531
1423.862051,0.718783
1424.565209,0.703157
1425.299617,0.734409
1426.065277,0.765660
1426.815312,0.750034
1427.627849,0.812537
1428.315380,0.687531
1441.581613,0.625029
1442.222267,0.640654
1442.894173,0.671906
1443.581704,0.687531
1444.253610,0.671906
1445.003644,0.750034
1445.706801,0.703157
1446.441210,0.734409
1447.144367,0.703157
1447.831899,0.687531
1448.503804,0.671906
1449.191336,0.687531
1449.894493,0.703157
1450.566399,0.671906
1451.269556,0.703157
1451.988339,0.718783
1452.722748,0.734409
1453.457156,0.734409
1454.207191,0.750034
1454.941599,0.734409
1455.707259,0.765660
1456.488545,0.781286
1457.285456,0.796911
1458.051116,0.765660
1458.785525,0.734409
1469.207877,0.687531
1469.973537,0.765660
1470.676694,0.703157
1471.395477,0.718783
1472.129886,0.734409
1472.942423,0.812537
1473.708083,0.765660
1474.504995,0.796911
1475.301906,0.796911
1476.098818,0.796911
1476.848852,0.750034
1477.598886,0.750034
1478.333295,0.734409
1479.067703,0.734409
1479.817738,0.750034
1487.193075,0.718783
1487.943110,0.750034
1488.677518,0.734409
1489.443178,0.765660
1490.177587,0.734409
1490.943247,0.765660
1491.693281,0.750034
1492.474567,0.781286
1493.240227,0.765660
1494.005887,0.765660
1494.787173,0.781286
1495.552833,0.765660
1496.302867,0.750034
1497.068527,0.765660
1497.834188,0.765660
1498.584222,0.750034
1499.349882,0.765660
1500.099916,0.750034
1500.865576,0.765660
1501.599985,0.734409
1502.350019,0.750034
1503.100054,0.750034
1503.850088,0.750034
1504.584496,0.734409
1505.318905,0.734409
1506.053314,0.734409
1506.787722,0.734409
1507.522131,0.734409
1508.272165,0.750034
1509.037825,0.765660
1509.803485,0.765660
1510.522268,0.718783
1511.256677,0.734409
1511.959834,0.703157
1512.662991,0.703157
1519.116412,0.734409
1519.835195,0.718783
1520.553977,0.718783
1521.272760,0.718783
1521.975918,0.703157
1522.694700,0.718783
1523.366606,0.671906
1524.038512,0.671906
1524.710418,0.671906
1525.397949,0.687531
1526.101106,0.703157
1526.804264,0.703157
1527.569924,0.765660
1528.335584,0.765660
1529.132495,0.796911
1529.866904,0.734409
1530.585687,0.718783
1531.320095,0.734409
1532.023252,0.703157
1532.679533,0.656280
1533.351438,0.671906
1534.023344,0.671906
1534.710876,0.687531
1535.429658,0.718783
1536.117190,0.687531
1536.867224,0.750034
1537.617259,0.750034
1538.351667,0.734409
1539.039199,0.687531
1539.726730,0.687531
1540.414262,0.687531
1541.086167,0.671906
1541.758073,0.671906
1546.508291,0.687531
1547.180196,0.671906
1547.867728,0.687531
1548.508382,0.640654
1549.180288,0.671906
1549.820942,0.640654
1550.445971,0.625029
1556.227485,0.671906
1556.915017,0.687531
1557.633800,0.718783
1561.649609,0.687531
1562.321514,0.671906
1563.009046,0.687531
1563.696577,0.687531
1564.399734,0.703157
1565.071640,0.671906
1565.712295,0.640654
1566.384200,0.671906
1567.056106,0.671906
1567.696760,0.640654
1583.213096,0.640654
1583.900627,0.687531
1584.556907,0.656280
1585.197562,0.640654
1585.900719,0.703157
1590.135288,0.765660
1590.854070,0.718783
1591.572853,0.718783
1592.276011,0.703157
1593.041671,0.765660
1593.744828,0.703157
1594.510488,0.765660
1595.338651,0.828163
1596.088685,0.750034
1604.839086,0.640654
1605.479740,0.640654
1610.495595,0.765660
1629.277704,0.796911
1630.090241,0.812537
1630.809024,0.718783
1631.512182,0.703157
1632.246590,0.734409
1633.012250,0.765660
1633.652905,0.640654
1634.340436,0.687531
1635.043593,0.703157
1635.778002,0.734409
1649.888023,0.718783
1650.622431,0.734409
1651.341214,0.718783
1652.044371,0.703157
1652.778780,0.734409
1653.450686,0.671906
1654.153843,0.703157
1654.857000,0.703157
1655.560157,0.703157
1656.294566,0.734409
1657.028975,0.734409
1657.841512,0.812537
1658.700926,0.859414
1659.544715,0.843789
1660.372878,0.828163
1661.154163,0.781286
1661.888572,0.734409
1662.607355,0.718783
1663.294886,0.687531
1663.982418,0.687531
1664.669949,0.687531
1665.373106,0.703157
1666.123141,0.750034
1672.342175,0.718783
1672.998456,0.656280
1673.685987,0.687531
1674.326641,0.640654
1674.967296,0.640654
1675.686079,0.718783
1676.342359,0.656280
1677.045516,0.703157
1677.764299,0.718783
1678.576836,0.812537
1679.342496,0.765660
1680.092530,0.750034
1680.842565,0.750034
1681.592599,0.750034
1682.342633,0.750034
1683.061416,0.718783
1683.811450,0.750034
1684.530233,0.718783
1685.249016,0.718783
1685.936548,0.687531
1686.608454,0.671906
1687.295985,0.687531
1687.999142,0.703157
1688.733551,0.734409
1689.436708,0.703157
1690.186742,0.750034
1690.936777,0.750034
1691.749314,0.812537
1692.483722,0.734409
1693.249382,0.765660
1693.983791,0.734409
1694.702574,0.718783
1695.390105,0.687531
1696.077637,0.687531
1696.765168,0.687531
1697.468326,0.703157
1698.171483,0.703157
1698.827763,0.656280
1699.530920,0.703157
1700.249703,0.718783
1700.999737,0.750034
1701.734146,0.734409
1702.437303,0.703157
1703.140460,0.703157
1703.843617,0.703157
1704.578026,0.734409
1724.266428,0.718783
1724.969585,0.703157
1725.672742,0.703157
1726.407151,0.734409
1727.141559,0.734409
1727.844716,0.703157
1728.547873,0.703157
1729.251031,0.703157
1729.938562,0.687531
1730.594842,0.656280
1731.235497,0.640654
1731.876151,0.640654
1732.501179,0.625029
1733.141834,0.640654
1733.813740,0.671906
1734.501271,0.687531
1735.204428,0.703157
1785.425477,0.812537
1786.081757,0.656280
1826.661740,0.671906
1827.364897,0.703157
1833.318294,0.734409
1834.068329,0.750034
1834.787112,0.718783
1862.616510,0.671906
1863.288416,0.671906
1863.960322,0.671906
1864.647853,0.687531
1865.413513,0.765660
1866.101045,0.687531
1866.866705,0.765660
1904.024656,0.625029
1904.665310,0.640654
1905.305964,0.640654
1905.946619,0.640654
1906.587273,0.640654
1907.243553,0.656280
1907.868582,0.625029
1915.275171,0.671906
1915.931451,0.656280
1916.587731,0.656280
1917.290888,0.703157
1917.962794,0.671906
1918.681577,0.718783
1919.353482,0.671906
1920.103517,0.750034
1920.837925,0.734409
1921.603585,0.765660
1922.337994,0.734409
1923.072403,0.734409
1923.791186,0.718783
1924.541220,0.750034
1925.385009,0.843789
1933.244743,0.765660
1934.041655,0.796911
1934.822941,0.781286
1948.104799,0.671906
1948.839207,0.734409
1949.526739,0.687531
1950.229896,0.703157
1950.901802,0.671906
1951.604959,0.703157
1952.308116,0.703157
1953.011273,0.703157
1953.651927,0.640654
1954.323833,0.671906
1955.011365,0.687531
1955.714522,0.703157
1956.402053,0.687531
1957.089585,0.687531
1957.745865,0.656280
1958.386519,0.640654
1959.027174,0.640654
1959.699079,0.671906
1960.402236,0.703157
1961.121019,0.718783
1961.777299,0.656280
1962.496082,0.718783
1963.167988,0.671906
1963.855520,0.687531
1964.527425,0.671906
1965.230582,0.703157
1965.933740,0.703157
1966.840031,0.906291
1967.465060,0.625029
1968.058837,0.593777
1968.730743,0.671906
1972.887183,0.656280
1973.574714,0.687531
1974.184117,0.609403
1974.840397,0.656280
1975.465426,0.625029
1976.168583,0.703157
1976.762360,0.593777
1977.387389,0.625029
1978.028043,0.640654
1978.528066,0.500023
1981.434449,0.687531
1982.090729,0.656280
1982.778261,0.687531
1983.450166,0.671906
1984.200201,0.750034
1984.965861,0.765660
1985.778398,0.812537
1986.512807,0.734409
1987.247215,0.734409
1987.981624,0.734409
1988.700407,0.718783
1989.341061,0.640654
2007.310634,0.484397
2007.966914,0.656280
2008.482562,0.515649
2009.107591,0.625029
2009.748245,0.640654
2010.310771,0.562526
2010.904548,0.593777
2011.592080,0.687531
2012.295237,0.703157
2012.998394,0.703157
2013.717177,0.718783
2014.420334,0.703157
2015.154743,0.734409
2015.873526,0.718783
2016.576683,0.703157
2017.232963,0.656280
2017.936120,0.703157
2022.811343,0.703157
2023.514500,0.703157
2024.248909,0.734409
2024.936440,0.687531
2025.670849,0.734409
2026.514638,0.843789
2027.295923,0.781286
2028.077209,0.781286
2028.795992,0.718783
2029.467898,0.671906
2030.139804,0.671906
2030.827335,0.687531
2031.546118,0.718783
2032.296152,0.750034
2033.030561,0.734409
2033.780595,0.750034
2034.593132,0.812537
2035.421295,0.828163
2036.249458,0.828163
2037.046370,0.796911
2037.827656,0.781286
2038.530813,0.703157
2039.202718,0.671906
2039.890250,0.687531
2040.593407,0.703157
2041.343441,0.750034
2042.030973,0.687531
2042.749756,0.718783
2043.515416,0.765660
2044.265450,0.750034
2045.093613,0.828163
2045.906150,0.812537
2046.671810,0.765660
2047.390593,0.718783
2048.046873,0.656280
2048.671902,0.625029
2049.296931,0.625029
2049.921959,0.625029
2050.531362,0.609403
2051.172016,0.640654
2051.828296,0.656280
2052.422074,0.593777
2057.891074,0.906291
2058.672360,0.781286
2059.578651,0.906291
2060.391188,0.812537
2061.156848,0.765660
2061.938134,0.781286
2062.719420,0.781286
2063.500706,0.781286
2064.328869,0.828163
2065.172657,0.843789
2065.953943,0.781286
2066.766480,0.812537
2067.500889,0.734409
2071.844838,0.687531
2072.610498,0.765660
2073.516789,0.906291
2074.251198,0.734409
2074.954355,0.703157
2075.641886,0.687531
2079.001415,0.687531
2079.657695,0.656280
2080.313975,0.656280
2081.001507,0.687531
2081.704664,0.703157
2082.439073,0.734409
2083.204733,0.765660
2083.923516,0.718783
2084.657924,0.734409
2085.454836,0.796911
2086.267373,0.812537
2087.017407,0.750034
2087.814319,0.796911
2088.564353,0.750034
2089.298762,0.734409
2090.033170,0.734409
2090.689450,0.656280
2091.392607,0.703157
2092.158267,0.765660
2093.002056,0.843789
2093.830219,0.828163
2094.658382,0.828163
2095.517796,0.859414
2096.377211,0.859414
2097.174122,0.796911
2097.939782,0.765660
2098.689816,0.750034
2099.408599,0.718783
2100.143008,0.734409
2100.799288,0.656280
2101.455568,0.656280
2102.111848,0.656280
2102.815005,0.703157
2103.471285,0.656280
2104.190068,0.718783
2104.908851,0.718783
2105.658885,0.750034
2106.362043,0.703157
2107.065200,0.703157
2107.768357,0.703157
2108.471514,0.703157
2109.190297,0.718783
2109.830951,0.640654
2110.534109,0.703157
2111.221640,0.687531
2111.971674,0.750034
2112.737334,0.765660
2113.518620,0.781286
2114.315532,0.796911
2115.143695,0.828163
2115.909355,0.765660
2116.628138,0.718783
2117.346920,0.718783
2118.081329,0.734409
2118.846989,0.765660
2119.550146,0.703157
2120.300181,0.750034
2121.081466,0.781286
2121.831501,0.750034
2122.581535,0.750034
2123.378447,0.796911
2124.097229,0.718783
2124.894141,0.796911
2125.659801,0.765660
2126.456712,0.796911
2127.253624,0.796911
2128.003658,0.750034
2128.769318,0.765660
2129.534978,0.765660
2130.300638,0.765660
2131.050673,0.750034
2131.769456,0.718783
2132.456987,0.687531
2133.175770,0.718783
2133.910179,0.734409
2134.628962,0.718783
2135.347744,0.718783
2136.066527,0.718783
2136.800936,0.734409
2137.535345,0.734409
2138.222876,0.687531
2138.941659,0.718783
2139.644816,0.703157
2140.379225,0.734409
2141.082382,0.703157
2141.816791,0.734409
2142.504322,0.687531
2143.301234,0.796911
2144.020016,0.718783
2144.723174,0.703157
2145.504459,0.781286
2155.379911,0.718783
2155.989314,0.609403
2156.754974,0.765660
2157.473757,0.718783
2158.208166,0.734409
2158.911323,0.703157
2159.567603,0.656280
2160.130129,0.562526
2168.192998,0.734409
2168.927407,0.734409
2169.614938,0.687531
2170.333721,0.718783
2171.052504,0.718783
2171.802538,0.750034
2172.458818,0.656280
2173.318233,0.859414
2179.193501,0.703157
2179.865407,0.671906
2180.552939,0.687531
2181.287347,0.734409
2182.053007,0.765660
2182.818667,0.765660
2183.631205,0.812537
2184.428116,0.796911
2185.256279,0.828163
2186.006313,0.750034
2186.756348,0.750034
2187.506382,0.750034
2206.054106,0.750034
2206.632257,0.578151
2207.210409,0.578151
2207.960443,0.750034
2208.710478,0.750034
2215.929558,0.578151
2235.446076,0.843789
2238.914985,0.703157
2239.649394,0.734409
2240.352551,0.703157
2241.118211,0.765660
2241.805743,0.687531
2242.571403,0.765660
2243.274560,0.703157
2244.008968,0.734409
2244.759003,0.750034
2245.399657,0.640654
2246.118440,0.718783
2246.899726,0.781286
2247.509129,0.609403
2248.259163,0.750034
2248.962320,0.703157
2249.696729,0.734409
2250.462389,0.765660
2251.181172,0.718783
2261.228507,0.640654
2266.025601,0.734409
2266.744384,0.718783
2267.525670,0.781286
2268.306956,0.781286
2269.041364,0.734409
2269.775773,0.734409
2270.510181,0.734409
2271.228964,0.718783
2271.963373,0.734409
2272.697782,0.734409
2273.400939,0.703157
2274.104096,0.703157
2274.807253,0.703157
2275.510410,0.703157
2276.182316,0.671906
2276.869848,0.687531
2277.557379,0.687531
2278.276162,0.718783
2279.010571,0.734409
2279.729353,0.718783
2280.495013,0.765660
2281.213796,0.718783
2281.979456,0.765660
2295.183186,0.734409
2295.901969,0.718783
2296.605126,0.703157
2297.308283,0.703157
2298.027066,0.718783
2298.698972,0.671906
2299.402129,0.703157
2300.183415,0.781286
2300.917823,0.734409
2301.730361,0.812537
2302.480395,0.750034
2303.277306,0.796911
2304.042966,0.765660
2304.808626,0.765660
2305.558661,0.750034
2306.324321,0.765660
2307.027478,0.703157
2307.777512,0.750034
2308.465044,0.687531
2309.215078,0.750034
2309.871358,0.656280
2310.543264,0.671906
2311.246421,0.703157
2311.902701,0.656280
2320.340587,0.640654
2321.012493,0.671906
2321.684399,0.671906
2322.356305,0.671906
2323.075088,0.718783
2323.746993,0.671906
2324.418899,0.671906
2325.090805,0.671906
2325.762711,0.671906
2326.387739,0.625029
2330.528554,0.687531
2331.294214,0.765660
2332.075500,0.781286
2332.841160,0.765660
2333.669322,0.828163
2334.356854,0.687531
2335.106888,0.750034
2339.935234,0.640654
2340.763397,0.828163
2341.435303,0.671906
2342.232214,0.796911
2342.935372,0.703157
2343.654155,0.718783
2344.357312,0.703157
2345.044843,0.687531
2345.732375,0.687531
2346.435532,0.703157
2347.154315,0.718783
2347.873098,0.718783
2351.435761,0.718783
2352.170169,0.734409
2359.889273,0.718783
2360.592430,0.703157
2361.342464,0.750034
2362.061247,0.718783
2362.826907,0.765660
2363.576941,0.750034
2364.373853,0.796911
2365.108262,0.734409
2365.889547,0.781286
2366.655207,0.765660
2367.452119,0.796911
2368.249030,0.796911
2369.014690,0.765660
2369.780350,0.765660
2370.514759,0.734409
2371.264793,0.750034
2372.046079,0.781286
2372.796113,0.750034
2373.577399,0.781286
2374.343059,0.765660
2381.796525,0.781286
2382.546560,0.750034
2383.327846,0.781286
2390.437546,0.718783
2391.156329,0.718783
2391.875112,0.718783
2392.625146,0.750034
2393.375180,0.750034
2394.109589,0.734409
2394.843998,0.734409
2395.547155,0.703157
2396.265938,0.718783
2396.953469,0.687531
2397.656626,0.703157
2398.344158,0.687531
2399.016064,0.671906
2421.438965,0.687531
2422.235877,0.796911
2422.939034,0.703157
2423.689068,0.750034
2424.392226,0.703157
2425.173511,0.781286
2425.939171,0.765660
2426.657954,0.718783
2432.470720,0.703157
2433.205129,0.734409
2448.377698,0.703157
2449.096481,0.718783
2449.862141,0.765660
2450.580924,0.718783
2451.315333,0.734409
2452.002864,0.687531
2457.753128,0.812537
2473.285089,0.687531
2473.988246,0.703157
2474.707029,0.718783
2475.425812,0.718783
2476.175846,0.750034
2476.910255,0.734409
2477.629038,0.718783
2478.363446,0.734409
2479.066603,0.703157
2479.785386,0.718783
2480.519795,0.734409
2481.238578,0.718783
2481.972986,0.734409
2482.754272,0.781286
2483.519932,0.765660
2484.301218,0.781286
2485.051252,0.750034
2485.801287,0.750034
2486.535695,0.734409
2487.254478,0.718783
2488.004513,0.750034
2488.770173,0.765660
2489.551458,0.781286
2490.254616,0.703157
2491.004650,0.750034
2501.567633,0.687531
2502.114533,0.546900
2502.880193,0.765660
2514.318217,0.812537
2515.037000,0.718783
2515.771409,0.734409
2516.490191,0.718783
2517.224600,0.734409
2517.943383,0.718783
2518.662166,0.718783
2519.380949,0.718783
2520.130983,0.750034
2520.881017,0.750034
2521.662303,0.781286
2522.459215,0.796911
2523.256126,0.796911
2524.053038,0.796911
2524.803072,0.750034
2525.537481,0.734409
2526.256263,0.718783
2526.959421,0.703157
2527.678204,0.718783
2528.396986,0.718783
2529.084518,0.687531
2529.756424,0.671906
2530.412704,0.656280
2531.100235,0.687531
2531.756515,0.656280
2532.444047,0.687531
2533.147204,0.703157
2533.865987,0.718783
2534.600395,0.734409
2535.287927,0.687531
2536.037961,0.750034
2536.772370,0.734409
2537.506778,0.734409
2538.194310,0.687531
2538.913093,0.718783
2539.616250,0.703157
2540.366284,0.750034
2553.507511,0.890666
2554.351300,0.843789
2555.241965,0.890666
2556.101380,0.859414
2556.960794,0.859414
2557.788957,0.828163
2558.554617,0.765660
2559.351528,0.796911
2560.117188,0.765660
2560.882849,0.765660
2561.617257,0.734409
2562.382917,0.765660
2563.132951,0.750034
2563.882986,0.750034
2564.679897,0.796911
2565.429932,0.750034
2566.226843,0.796911
2567.023755,0.796911
2567.836292,0.812537
2568.633203,0.796911
2569.367612,0.734409
2570.117646,0.750034
2570.883306,0.765660
2571.664592,0.781286
2572.477129,0.812537
2573.274041,0.796911
2574.102204,0.828163
2574.945992,0.843789
2575.742904,0.796911
2576.492938,0.750034
2577.258598,0.765660
2578.008632,0.750034
2578.758667,0.750034
2579.461824,0.703157
2580.180607,0.718783
2580.915015,0.734409
2581.649424,0.734409
2582.399458,0.750034
2583.118241,0.718783
2583.868276,0.750034
2584.618310,0.750034
2585.337093,0.718783
2586.071501,0.734409
2586.790284,0.718783
2587.524693,0.734409
2588.243476,0.718783
2588.946633,0.703157
2589.649790,0.703157
2590.352947,0.703157
2591.040479,0.687531
2591.712385,0.671906
2592.399916,0.687531
2593.118699,0.718783
2593.884359,0.765660
2594.634393,0.750034
2595.384428,0.750034
2596.150088,0.765660
2596.946999,0.796911
2597.728285,0.781286
2598.462694,0.734409
2599.243979,0.781286
2599.994014,0.750034
2600.728422,0.734409
2601.447205,0.718783
2602.181614,0.734409
2602.916023,0.734409
2603.634805,0.718783
2604.322337,0.687531
2605.056746,0.734409
2605.806780,0.750034
2606.619317,0.812537
2607.384977,0.765660
2608.197514,0.812537
2608.994426,0.796911
2609.791337,0.796911
2610.525746,0.734409
2611.260154,0.734409
2611.994563,0.734409
2612.682095,0.687531
2613.369626,0.687531
2614.057158,0.687531
2614.760315,0.703157
2615.479098,0.718783
2616.166629,0.687531
2616.916663,0.750034
2617.682323,0.765660
2618.479235,0.796911
2619.213644,0.734409
2620.010555,0.796911
2620.776215,0.765660
2621.526249,0.750034
2622.260658,0.734409
2622.948189,0.687531
2623.666972,0.718783
2624.385755,0.718783
2625.135790,0.750034
2625.917075,0.781286
2626.667110,0.750034
2627.464021,0.796911
2628.229681,0.765660
2629.026593,0.796911
2629.792253,0.765660
2630.511036,0.718783
2631.229819,0.718783
2631.979853,0.750034
2632.714262,0.734409
2633.417419,0.703157
2634.167453,0.750034
2634.901862,0.734409
2635.683147,0.781286
2636.480059,0.796911
2637.230093,0.750034
2638.027005,0.796911
2638.823916,0.796911
2639.605202,0.781286
2640.339611,0.734409
2641.089645,0.750034
2641.808428,0.718783
2642.527211,0.718783
2643.230368,0.703157
2643.949151,0.718783
2644.683559,0.734409
2645.464845,0.781286
2646.246131,0.781286
2647.027417,0.781286
2647.855580,0.828163
2648.668117,0.812537
2649.433777,0.765660
2650.183811,0.750034
2650.918220,0.734409
2651.652628,0.734409
2652.355786,0.703157
2653.058943,0.703157
2653.762100,0.703157
2654.496509,0.734409
2655.246543,0.750034
2655.980952,0.734409
2656.793489,0.812537
2657.652903,0.859414
2658.465440,0.812537
2659.293603,0.828163
2660.121766,0.828163
2660.918678,0.796911
2661.637460,0.718783
2662.387495,0.750034
2663.090652,0.703157
2663.809435,0.718783
2664.481341,0.671906
2665.200124,0.718783
2665.918906,0.718783
2666.731444,0.812537
2667.575232,0.843789
2668.450272,0.875040
2669.294061,0.843789
2670.137850,0.843789
2670.903510,0.765660
2671.669170,0.765660
2672.450455,0.781286
2673.184864,0.734409
2673.934898,0.750034
2674.638056,0.703157
2675.356838,0.718783
2676.106873,0.750034
2676.888159,0.781286
2677.622567,0.734409
2678.388227,0.765660
2679.153887,0.765660
2679.919547,0.765660
2680.685207,0.765660
2681.388365,0.703157
2682.122773,0.734409
2682.872808,0.750034
2683.607216,0.734409
2684.325999,0.718783
2685.060408,0.734409
2685.779191,0.718783
2686.529225,0.750034
2687.263633,0.734409
2687.966791,0.703157
2688.701199,0.734409
2689.435608,0.734409
2690.201268,0.765660
2690.951302,0.750034
2691.748214,0.796911
2692.545125,0.796911
2693.326411,0.781286
2694.060820,0.734409
2694.810854,0.750034
2695.529637,0.718783
2696.264045,0.734409
2697.014080,0.750034
2697.779740,0.765660
2698.592277,0.812537
2704.623803,0.687531
2705.389463,0.765660
2706.139498,0.750034
2706.795778,0.656280
2707.514560,0.718783
2708.264595,0.750034
2708.999003,0.734409
2709.733412,0.734409
2710.499072,0.765660
2711.264732,0.765660
2711.999141,0.734409
2712.717924,0.718783
2713.483584,0.765660
2714.264869,0.781286
2715.061781,0.796911
2715.811815,0.750034
2716.593101,0.781286
2717.358761,0.765660
2718.124421,0.765660
2718.843204,0.718783
2719.561987,0.718783
2720.280770,0.718783
2721.015178,0.734409
2721.718336,0.703157
2722.437119,0.718783
2723.155901,0.718783
2723.874684,0.718783
2724.593467,0.718783
2725.280999,0.687531
2725.984156,0.703157
2726.702939,0.718783
2727.421722,0.718783
2728.171756,0.750034
2728.890539,0.718783
2729.624948,0.734409
2730.359356,0.734409
2731.109390,0.750034
2731.843799,0.734409
2732.531331,0.687531
2733.218862,0.687531
2733.890768,0.671906
2734.547048,0.656280
2735.218954,0.671906
2735.890859,0.671906
2736.578391,0.687531
2737.297174,0.718783
2738.062834,0.765660
2738.812868,0.750034
2739.547277,0.734409
2740.281685,0.734409
2741.000468,0.718783
2741.703625,0.703157
2742.359905,0.656280
2743.031811,0.671906
2743.688091,0.656280
2744.328746,0.640654
2745.031903,0.703157
2745.688183,0.656280
2746.391340,0.703157
2747.110123,0.718783
2747.844532,0.734409
2748.610192,0.765660
2749.328974,0.718783
2750.079009,0.750034
2750.813417,0.734409
2751.532200,0.718783
2752.266609,0.734409
2753.001018,0.734409
2753.751052,0.750034
2754.516712,0.765660
2755.251121,0.734409
2755.969903,0.718783
2756.673061,0.703157
2757.407469,0.734409
2758.126252,0.718783
2758.860661,0.734409
2759.579444,0.718783
2760.266975,0.687531
2760.985758,0.718783
2761.720167,0.734409
2762.438950,0.718783
2763.173358,0.734409
2763.923393,0.750034
2764.689053,0.765660
2765.454713,0.765660
2766.157870,0.703157
2766.923530,0.765660
2767.642313,0.718783
2768.376721,0.734409
2769.095504,0.718783
2769.876790,0.781286
2770.689327,0.812537
2771.564367,0.875040
2772.455033,0.890666
2781.080428,0.796911
2781.861714,0.781286
2782.611748,0.750034
2783.346157,0.734409
2784.018062,0.671906
2784.689968,0.671906
2785.346248,0.656280
2786.065031,0.718783
2786.736937,0.671906
2787.440094,0.703157
2788.143251,0.703157
2788.893286,0.750034
2789.612068,0.718783
2790.330851,0.718783
2791.034009,0.703157
2791.721540,0.687531
2792.409071,0.687531
2793.080977,0.671906
2793.752883,0.671906
2794.409163,0.656280
2795.081069,0.671906
2795.752975,0.671906
2796.424880,0.671906
2797.128037,0.703157
2797.831195,0.703157
2798.565603,0.734409
2799.300012,0.734409
2800.065672,0.765660
2800.784455,0.718783
2801.471986,0.687531
2802.175143,0.703157
2802.847049,0.671906
2803.534581,0.687531
2804.190861,0.656280
2804.862767,0.671906
2805.534672,0.671906
2806.237829,0.703157
2823.394865,0.656280
2828.426345,0.750034
2829.192005,0.765660
2829.957665,0.765660
2830.723325,0.765660
2838.661189,0.750034
2839.426849,0.765660
2840.192509,0.765660
2840.958169,0.765660
2841.676952,0.718783
2842.380109,0.703157
2843.114517,0.734409
2843.833300,0.718783
2844.489580,0.656280
2845.177112,0.687531
2845.895895,0.718783
2846.630303,0.734409
2847.333461,0.703157
2863.099807,0.734409
2879.975580,0.734409
2880.694363,0.718783
2881.413146,0.718783
2882.116303,0.703157
2882.819460,0.703157
2883.506991,0.687531
2884.178897,0.671906
2884.819551,0.640654
2885.444580,0.625029
2886.053983,0.609403
2886.679012,0.625029
2887.366543,0.687531
2888.022823,0.656280
2888.788483,0.765660
2889.694775,0.906291
2890.538563,0.843789
2891.304223,0.765660
2892.210515,0.906291
2893.023052,0.812537
2893.773086,0.750034
2894.507495,0.734409
2895.210652,0.703157
2895.929435,0.718783
2896.632592,0.703157
2897.335749,0.703157
2898.054532,0.718783
2898.757689,0.703157
2899.523350,0.765660
2900.179630,0.656280
2900.929664,0.750034
2901.648447,0.718783
2902.398481,0.750034
2903.070387,0.671906
2903.773544,0.703157
2904.492327,0.718783
2905.211110,0.718783
2905.961144,0.750034
2906.601799,0.640654
2907.336207,0.734409
2908.070616,0.734409
2908.805024,0.734409
2909.539433,0.734409
2910.289467,0.750034
2911.008250,0.718783
2911.742659,0.734409
2912.461442,0.718783
2913.148973,0.687531
2913.867756,0.718783
2914.602165,0.734409
2915.320948,0.718783
2916.024105,0.703157
2916.727262,0.703157
2917.399168,0.671906
2918.164828,0.765660
2918.899236,0.734409
2919.618019,0.718783
2928.805940,0.750034
2929.665354,0.859414
2930.415389,0.750034
2931.118546,0.703157
2936.243780,0.765660
2936.931312,0.687531
2937.681346,0.750034
2956.072813,0.703157
2956.744719,0.671906
2957.432250,0.687531
2958.135408,0.703157
2958.807313,0.671906
2959.541722,0.734409
2960.135499,0.593777
2960.854282,0.718783
2961.541814,0.687531
2962.260597,0.718783
2962.995005,0.734409
2963.682537,0.687531
2964.385694,0.703157
2965.088851,0.703157
2965.776382,0.687531
2966.463914,0.687531
2987.433624,0.750034
2994.746459,0.906291
2995.590247,0.843789
2996.527790,0.937543
2997.434082,0.906291
3011.434723,0.937543
3012.169131,0.734409
3024.810335,0.718783
3025.575995,0.765660
3026.451035,0.875040
3031.591895,0.828163
3032.357555,0.765660
3033.216970,0.859414
3102.329508,0.546900
3125.736830,0.625029
3135.143510,0.703157
3135.799790,0.656280
3136.518573,0.718783
3137.206105,0.687531
3137.893636,0.687531
3138.612419,0.718783
3139.299951,0.687531
3140.034359,0.734409
3140.768768,0.734409
3141.425048,0.656280
3142.096954,0.671906
3142.721982,0.625029
3143.393888,0.671906
3144.018917,0.625029
3144.643945,0.625029
3145.315851,0.671906
3145.956505,0.640654
3146.644037,0.687531
3147.315943,0.671906
3148.034725,0.718783
3148.691005,0.656280
3194.255591,0.671906
3195.005625,0.750034
3195.740034,0.734409
3196.458817,0.718783
3197.177600,0.718783
3197.974511,0.796911
3198.646417,0.671906
3199.490206,0.843789
3200.162112,0.671906
3200.927772,0.765660
3201.537174,0.609403
3205.756118,0.734409
3206.521778,0.765660
3207.334315,0.812537
3208.068723,0.734409
3208.912512,0.843789
3209.646921,0.734409
3210.428206,0.781286
3211.162615,0.734409
3211.912649,0.750034
3212.631432,0.718783
3213.350215,0.718783
3214.006495,0.656280
3214.772155,0.765660
3215.490938,0.718783
3216.303475,0.812537
3217.100387,0.796911
3217.944175,0.843789
3218.787964,0.843789
3219.600501,0.812537
3220.413038,0.812537
3221.225576,0.812537
3221.944359,0.718783
3222.678767,0.734409
3223.381924,0.703157
3224.085082,0.703157
3224.788239,0.703157
3225.522647,0.734409
3276.431228,0.578151
3277.040631,0.609403
3277.634408,0.593777
3278.228185,0.593777
3278.837588,0.609403
3279.446991,0.609403
3280.056394,0.609403
3280.712674,0.656280
3281.368954,0.656280
3282.056485,0.687531
3282.728391,0.671906
3337.215260,0.656280
3337.918417,0.703157
3346.965706,0.671906
3347.731366,0.765660
3348.325144,0.593777
3404.187076,0.953169
3405.093367,0.906291
3422.219151,0.718783
3422.984811,0.765660
3423.812974,0.828163
3424.641137,0.828163
3425.516177,0.875040
3426.297463,0.781286
3427.156877,0.859414
3427.922537,0.765660
3428.594443,0.671906
3429.266349,0.671906
3430.000757,0.734409
3430.750792,0.750034
3445.626472,0.734409
3446.298378,0.671906
3447.001535,0.703157
3447.673441,0.671906
3448.360972,0.687531
3448.970375,0.609403
3449.626655,0.656280
3450.298561,0.671906
3450.986093,0.687531
3451.673624,0.687531
3452.376781,0.703157
3453.064313,0.687531
3453.783096,0.718783
3454.470627,0.687531
3455.173784,0.703157
3455.720684,0.546900
3478.424849,0.734409
3479.081129,0.656280
3479.846789,0.765660
3496.847567,0.718783
3500.457107,0.718783
3501.144639,0.687531
3519.536105,0.609403
3520.270514,0.734409
3520.958045,0.687531
3521.708080,0.750034
3522.348734,0.640654
3523.098768,0.750034
3563.241231,0.671906
3563.960014,0.718783
3564.663171,0.703157
3565.381954,0.718783
3566.085111,0.703157
3566.757017,0.671906
3567.444548,0.687531
3568.132080,0.687531
3568.788360,0.656280
3569.475891,0.687531
3570.147797,0.671906
3570.804077,0.656280
3571.491609,0.687531
3572.147889,0.656280
3572.804169,0.656280
3573.444823,0.640654
3574.085477,0.640654
3574.726132,0.640654
3575.366786,0.640654
3576.007440,0.640654
3576.663720,0.656280
3577.335626,0.671906
3578.023158,0.687531
3578.695063,0.671906
3579.429472,0.734409
3580.117003,0.687531
3584.101561,0.625029
3584.773467,0.671906
3585.429747,0.656280
3586.164155,0.734409
3586.914190,0.750034
3601.789871,0.843789
3605.274405,0.625029
3605.977562,0.703157
3606.680719,0.703157
3607.508882,0.828163
3608.196414,0.687531
3608.962074,0.765660
3609.727734,0.765660
3610.509020,0.781286
3611.243428,0.734409
3611.930960,0.687531
3612.618491,0.687531
3613.290397,0.671906
3613.977928,0.687531
3614.665460,0.687531
3634.635124,0.812537
3635.463287,0.828163
3636.307076,0.843789
3637.213367,0.906291
3638.072782,0.859414
3638.900944,0.828163
3639.729107,0.828163
3640.526019,0.796911
3641.244802,0.718783
3641.963585,0.718783
3642.651116,0.687531
3643.338648,0.687531
3643.994928,0.656280
3644.682459,0.687531
3645.354365,0.671906
3646.088773,0.734409
3646.745054,0.656280
3647.495088,0.750034
3648.245122,0.750034
3649.010782,0.765660
3649.760817,0.750034
3650.495225,0.734409
3667.746015,0.640654
3668.636681,0.890666
3671.980584,0.703157
3672.714993,0.734409
3673.371273,0.656280
3674.027553,0.656280
3674.777587,0.750034
3675.590124,0.812537
3676.293281,0.703157
3676.918310,0.625029
3677.637093,0.718783
3678.355876,0.718783
3679.074659,0.718783
3679.762190,0.687531
3680.480973,0.718783
3686.809388,0.703157
3687.528171,0.718783
3688.215702,0.687531
3688.965736,0.750034
3689.606391,0.640654
3690.403302,0.796911
3694.622245,0.718783
3695.341028,0.718783
3710.669855,0.734409
3711.404263,0.734409
3712.169924,0.765660
3712.919958,0.750034
3713.701244,0.781286
3714.466904,0.765660
3715.201312,0.734409
3715.920095,0.718783
3716.607627,0.687531
3717.310784,0.703157
3717.998315,0.687531
3718.701473,0.703157
3719.389004,0.687531
3720.092161,0.703157
3746.390240,0.734409
3747.077771,0.687531
3747.827806,0.750034
3748.452834,0.625029
3749.187243,0.734409
3749.890400,0.703157
3750.624809,0.734409
3751.327966,0.703157
3752.093626,0.765660
3752.859286,0.765660
3753.765578,0.906291
3781.641854,0.750034
3810.721310,0.593777
3811.315087,0.593777
3816.268439,0.765660
3817.002847,0.734409
3817.737256,0.734409
3818.471664,0.734409
3819.159196,0.687531
3819.831102,0.671906
3820.518633,0.687531
3821.190539,0.671906
3821.878070,0.687531
3822.518725,0.640654
3823.362513,0.843789
3895.928335,0.593777
3896.600241,0.671906
3897.131515,0.531274
3916.304268,0.640654
3916.835542,0.531274
3917.569951,0.734409
3918.116851,0.546900
4001.933187,0.734409
4007.636573,0.718783
4008.542865,0.906291
4014.715022,0.656280
4015.465056,0.750034
4016.105711,0.640654
4016.871371,0.765660
4017.590154,0.718783
4018.277685,0.687531
4019.027719,0.750034
4019.746502,0.718783
4020.480911,0.734409
4021.184068,0.703157
4021.871600,0.687531
4022.559131,0.687531
4023.293540,0.734409
4024.012323,0.718783
4024.699854,0.687531
4029.012552,0.750034
4029.700083,0.687531
4030.418866,0.718783
4031.122023,0.703157
4031.825180,0.703157
4032.543963,0.718783
4033.247120,0.703157
4033.903400,0.656280
4034.622183,0.718783
4035.294089,0.671906
4043.247578,0.625029
4044.013238,0.765660
4044.653893,0.640654
4045.372675,0.718783
4046.044581,0.671906
4046.794616,0.750034
4047.404018,0.609403
4048.107176,0.703157
4048.857210,0.750034
4049.482239,0.625029
4050.232273,0.750034
4050.888553,0.656280
4051.607336,0.718783
4052.263616,0.656280
4052.966773,0.703157
4053.623053,0.656280
4054.294959,0.671906
4054.966865,0.671906
4055.638770,0.671906
4056.357553,0.718783
4057.029459,0.671906
4057.685739,0.656280
4058.373271,0.687531
4059.029551,0.656280
4059.717082,0.687531
4060.482742,0.765660
4061.139022,0.656280
4066.826782,0.687531
4067.498688,0.671906
4068.201845,0.703157
4068.905003,0.703157
4069.670663,0.765660
4070.420697,0.750034
4071.186357,0.765660
4071.936391,0.750034
4072.608297,0.671906
4073.420834,0.812537
4074.061489,0.640654
4079.749249,0.734409
4080.483658,0.734409
4081.233692,0.750034
4081.983726,0.750034
4082.749386,0.765660
4083.515046,0.765660
4084.202578,0.687531
4084.952612,0.750034
4085.671395,0.718783
4086.405804,0.734409
4087.171464,0.765660
4095.718730,0.703157
4096.437513,0.718783
4097.109419,0.671906
4097.859453,0.750034
4098.609487,0.750034
4099.390773,0.781286
4100.125182,0.734409
4100.890842,0.765660
4101.640876,0.750034
4114.688348,0.687531
4115.454008,0.765660
4116.094663,0.640654
4116.719691,0.625029
4117.407223,0.687531
4118.063503,0.656280
4118.735409,0.671906
4119.360437,0.625029
4119.985466,0.625029
4120.641746,0.656280
4121.329277,0.687531
4122.032434,0.703157
4122.719966,0.687531
4123.454375,0.734409
4124.173157,0.718783
4124.938818,0.765660
4125.720103,0.781286
4126.392009,0.671906
4127.126418,0.734409
4127.845201,0.718783
4128.548358,0.703157
4129.204638,0.656280
4129.876544,0.671906
4130.564075,0.687531
4131.282858,0.718783
4132.017267,0.734409
4132.704798,0.687531
4133.439207,0.734409
4134.173615,0.734409
4134.970527,0.796911
4135.767438,0.796911
4136.517473,0.750034
4137.236255,0.718783
4137.908161,0.671906
4138.611318,0.703157
4139.251973,0.640654
4139.908253,0.656280
4140.580158,0.671906
4141.283316,0.703157
4142.002099,0.718783
4142.720881,0.718783
4143.502167,0.781286
4144.267827,0.765660
4145.080364,0.812537
4145.814773,0.734409
4146.564807,0.750034
4147.299216,0.734409
4148.049250,0.750034
4148.752408,0.703157
4149.455565,0.703157
4150.158722,0.703157
4150.846253,0.687531
4151.533785,0.687531
4152.205691,0.671906
4152.908848,0.703157
4153.627631,0.718783
4154.346414,0.718783
4155.033945,0.687531
4155.768354,0.734409
4156.502762,0.734409
4157.252797,0.750034
4158.002831,0.750034
4158.705988,0.703157
4159.424771,0.718783
4160.127928,0.703157
4160.862337,0.734409
4161.534243,0.671906
4162.268651,0.734409
4163.018686,0.750034
4163.768720,0.750034
4164.456251,0.687531
4165.175034,0.718783
4165.878191,0.703157
4203.879931,0.687531
4204.520585,0.640654
4211.536531,0.625029
4212.317817,0.781286
4213.145980,0.828163
4231.131178,0.765660
4231.865587,0.734409
4244.944311,0.656280
4245.663094,0.718783
4246.444379,0.781286
4278.680230,0.984420
4283.930470,0.625029
4284.539873,0.609403
4285.133650,0.593777
4285.758679,0.625029
4286.368082,0.609403
4292.165222,0.625029
4292.837128,0.671906
4293.493408,0.656280
4294.165314,0.671906
4294.837219,0.671906
4295.509125,0.671906
4296.181031,0.671906
4296.852937,0.671906
4297.556094,0.703157
4298.259251,0.703157
4298.946783,0.687531
4299.649940,0.703157
4300.368723,0.718783
4301.087506,0.718783
4301.837540,0.750034
4302.509446,0.671906
4303.228229,0.718783
4303.884509,0.656280
4304.572040,0.687531
4305.243946,0.671906
4305.868974,0.625029
4306.556506,0.687531
4307.228412,0.671906
4307.900317,0.671906
4308.603475,0.703157
4309.259755,0.656280
4309.962912,0.703157
4310.634818,0.671906
4311.337975,0.703157
4312.009881,0.671906
4312.619283,0.609403
4319.885241,0.812537
4320.666527,0.781286
4321.416561,0.750034
4322.150970,0.734409
4322.916630,0.765660
4323.729167,0.812537
4324.510453,0.781286
4325.307364,0.796911
4326.276159,0.968794
4327.260579,0.984420
4328.010613,0.750034
4337.261036,0.734409
4338.011071,0.750034
4338.698602,0.687531
4339.495514,0.796911
4365.231067,0.687531
4365.887347,0.656280
4366.590504,0.703157
4409.108075,0.562526
4409.686227,0.578151
4410.295630,0.609403
4410.842530,0.546900
4411.530061,0.687531
4416.186524,0.687531
4427.749553,0.593777
4428.405833,0.656280
4429.124616,0.718783
4429.921528,0.796911
4430.702814,0.781286
4431.546602,0.843789
4432.359139,0.812537
4435.203020,0.671906
4435.906177,0.703157
4439.953237,0.703157
4440.672020,0.718783
4441.359551,0.687531
4442.000206,0.640654
4442.750240,0.750034
4443.422146,0.671906
4449.125532,0.687531
4484.361520,0.703157
4485.017800,0.656280
4485.736583,0.718783
4486.533494,0.796911
4502.315467,0.750034
4503.018624,0.703157
4508.300116,0.765660
4516.472365,0.765660
4517.363030,0.890666
4518.331825,0.968794
4527.707254,0.921917
4528.676048,0.968794
4533.004371,0.640654
4545.208055,0.765660
4559.318076,0.734409
4565.693368,0.796911
4579.318991,0.671906
4580.022149,0.703157
4580.678429,0.656280
4581.381586,0.703157
4582.084743,0.703157
4582.850403,0.765660
4583.600437,0.750034
4584.366097,0.765660
4585.131757,0.765660
4585.897418,0.765660
4586.616200,0.718783
4587.350609,0.734409
4588.038141,0.687531
4588.710046,0.671906
4589.366326,0.656280
4590.006981,0.640654
4590.632009,0.625029
4591.225786,0.593777
4591.835189,0.609403
4592.413341,0.578151
4592.960241,0.546900
4593.600895,0.640654
4594.147795,0.546900
4594.772824,0.625029
4595.413478,0.640654
4596.038507,0.625029
4596.710413,0.671906
4597.382318,0.671906
4598.038598,0.656280
4598.726130,0.687531
4599.366784,0.640654
4600.023064,0.656280
4600.663718,0.640654
4601.288747,0.625029
4601.960653,0.671906
4602.601307,0.640654
4603.257587,0.656280
4603.945119,0.687531
4604.632650,0.687531
4605.304556,0.671906
4606.007713,0.703157
4606.773373,0.765660
4607.601536,0.828163
4608.382822,0.781286
4609.148482,0.765660
4609.914142,0.765660
4610.617299,0.703157
4611.242328,0.625029
4611.914233,0.671906
4612.554888,0.640654
4613.211168,0.656280
4613.914325,0.703157
4614.617482,0.703157
4615.398768,0.781286
4616.148802,0.750034
4616.883211,0.734409
4649.556581,0.734409
4682.573718,0.921917
4693.089824,1.015671
4703.043405,0.656280
4703.715311,0.671906
4704.418468,0.703157
4705.105999,0.687531
4705.840408,0.734409
4706.574816,0.734409
4707.356102,0.781286
4708.090511,0.734409
4708.856171,0.765660
4709.559328,0.703157
4710.293737,0.734409
4711.012520,0.718783
4711.731302,0.718783
4712.387583,0.656280
4713.090740,0.703157
4713.809523,0.718783
4714.575183,0.765660
4715.356468,0.781286
4716.106503,0.750034
4716.887789,0.781286
4717.669074,0.781286
4718.622243,0.953169
4719.325400,0.703157
4722.294286,0.593777
4722.888063,0.593777
4723.606846,0.718783
4724.294378,0.687531
4736.419933,0.953169
4739.904467,0.687531
4740.638876,0.734409
4741.357659,0.718783
4742.138944,0.781286
4742.873353,0.734409
4743.685890,0.812537
4744.435925,0.750034
4745.201585,0.765660
4745.967245,0.765660
4746.732905,0.765660
4747.514190,0.781286
4748.264225,0.750034
4749.029885,0.765660
4749.748668,0.718783
4750.498702,0.750034
4751.201859,0.703157
4751.889391,0.687531
4752.576922,0.687531
4753.311331,0.734409
4754.076991,0.765660
4754.827025,0.750034
4755.608311,0.781286
4756.358345,0.750034
4757.030251,0.671906
4757.842788,0.812537
4758.624074,0.781286
4763.811811,0.765660
4764.593097,0.781286
4765.343132,0.750034
4766.046289,0.703157
4766.780697,0.734409
4767.515106,0.734409
4768.296392,0.781286
4768.983923,0.687531
4769.655829,0.671906
4770.296483,0.640654
4770.937138,0.640654
4771.624669,0.687531
4772.343452,0.718783
4773.077861,0.734409
4773.874772,0.796911
4799.063425,0.734409
4799.782208,0.718783
4800.516617,0.734409
4801.251025,0.734409
4812.689049,0.656280
4813.439083,0.750034
4814.142240,0.703157
4814.907900,0.765660
4815.564180,0.656280
4816.251712,0.687531
4823.611424,0.625029
4824.267704,0.656280
4824.923984,0.656280
4825.564638,0.640654
4826.236544,0.671906
4826.892824,0.656280
4827.580355,0.687531
4828.252261,0.671906
4828.924167,0.671906
4829.580447,0.656280
4830.236727,0.656280
4830.908633,0.671906
4831.564913,0.656280
4832.221193,0.656280
4841.752879,0.781286
4842.409159,0.656280
4843.081065,0.671906
4843.784222,0.703157
4844.471754,0.687531
4845.190536,0.718783
4845.956197,0.765660
4846.581225,0.625029
4847.253131,0.671906
4847.925037,0.671906
4848.565691,0.640654
4849.268848,0.703157
4849.940754,0.671906
4850.628285,0.687531
4851.315817,0.687531
4852.050225,0.734409
4852.769008,0.718783
4853.519043,0.750034
4854.284703,0.765660
4855.034737,0.750034
4855.722269,0.687531
4856.441051,0.718783
4857.144209,0.703157
4857.847366,0.703157
4858.566149,0.718783
4866.332129,0.656280
4866.925906,0.593777
4878.551439,0.890666
4879.223344,0.671906
4879.989004,0.765660
4880.660910,0.671906
4881.364067,0.703157
4882.082850,0.718783
4882.770382,0.687531
4883.473539,0.703157
4884.301702,0.828163
4885.114239,0.812537
4889.364434,0.796911
4924.194153,0.718783
4924.897310,0.703157
4929.131879,0.671906
4929.803785,0.671906
4930.522568,0.718783
4931.303853,0.781286
4931.975759,0.671906
4932.741419,0.765660
4933.382073,0.640654
4934.069605,0.687531
4934.757136,0.687531
4935.444668,0.687531
4936.147825,0.703157
4936.835356,0.687531
4937.585391,0.750034
4943.585665,0.734409
4944.398203,0.812537
4945.257617,0.859414
4945.976400,0.718783
4946.742060,0.765660
4947.523346,0.781286
4948.242129,0.718783
4949.007789,0.765660
4956.304998,0.781286
4957.117535,0.812537
4957.820692,0.703157
4958.539475,0.718783
4959.258258,0.718783
4959.867661,0.609403
4960.570818,0.703157
4961.383355,0.812537
4962.070887,0.687531
4962.758418,0.687531
4976.555925,0.750034
4977.180953,0.625029
4977.915362,0.734409
4985.946980,0.718783
4986.681388,0.734409
4987.384545,0.703157
4988.087703,0.703157
4988.790860,0.703157
4989.478391,0.687531
4990.197174,0.718783
4990.931583,0.734409
4991.712868,0.781286
4992.431651,0.718783
4993.181686,0.750034
4993.947346,0.765660
4994.713006,0.765660
4995.431789,0.718783
4996.134946,0.703157
4996.853729,0.718783
4997.556886,0.703157
4998.260043,0.703157
4999.025703,0.765660
4999.791363,0.765660
5000.588275,0.796911
5001.369560,0.781286
5002.166472,0.796911
5002.947758,0.781286
5003.666541,0.718783
5004.385324,0.718783
5005.088481,0.703157
5030.745905,0.609403
5039.980703,0.656280
5040.668234,0.687531
5041.355766,0.687531
5042.043297,0.687531
5042.730829,0.687531
5043.387109,0.656280
5063.388024,0.640654
5064.059930,0.671906
5064.794339,0.734409
5065.559999,0.765660
5066.310033,0.750034
5067.106945,0.796911
5067.950733,0.843789
5068.607013,0.656280
5069.388299,0.781286
5070.153959,0.765660
5070.982122,0.828163
5071.700905,0.718783
5072.654073,0.953169
5083.279560,0.734409
5091.233049,0.796911
5091.904955,0.671906
5092.592486,0.687531
5093.280018,0.687531
5116.734216,0.656280
5117.343619,0.609403
5118.031151,0.687531
5118.703056,0.671906
5119.265582,0.562526
5120.015616,0.750034
5120.609394,0.593777
5133.297474,0.687531
5134.235017,0.937543
5134.985052,0.750034
5135.641332,0.656280
5136.360115,0.718783
5137.047646,0.687531
5141.829115,0.734409
5142.579149,0.750034
5146.188689,0.765660
5146.829344,0.640654
5147.501250,0.671906
5154.548447,0.828163
5155.204727,0.656280
5170.002280,0.765660
5170.721062,0.718783
5171.502348,0.781286
5172.236757,0.734409
5172.939914,0.703157
5173.658697,0.718783
5174.377480,0.718783
5175.049386,0.671906
5175.783794,0.734409
5176.643209,0.859414
5180.346503,0.843789
5193.753366,0.718783
5194.425272,0.671906
5195.315938,0.890666
5214.519942,0.671906
5215.207474,0.687531
5215.895005,0.687531
5216.598162,0.703157
5217.348197,0.750034
5218.098231,0.750034
5249.380913,0.781286
5262.022116,0.906291
5265.584780,0.609403
5266.209808,0.625029
5266.834837,0.625029
5267.475491,0.640654
5268.100520,0.625029
5280.335455,0.671906
5281.101115,0.765660
5281.851149,0.750034
5285.679449,0.625029
5286.335729,0.656280
5287.007635,0.671906
5287.695167,0.687531
5288.382698,0.687531
5289.085855,0.703157
5289.773387,0.687531
5290.492170,0.718783
5291.210953,0.718783
5291.851607,0.640654
5298.680044,0.687531
5299.383202,0.703157
5300.055107,0.671906
5300.695762,0.640654
5301.336416,0.640654
5302.008322,0.671906
5302.711479,0.703157
5303.367759,0.656280
5304.070916,0.703157
5304.789699,0.718783
5305.477231,0.687531
5306.196013,0.718783
5306.836668,0.640654
5307.492948,0.656280
5308.133602,0.640654
5308.821134,0.687531
5321.056069,0.750034
5321.727974,0.671906
5322.384254,0.656280
5330.400246,0.812537
5331.103404,0.703157
5331.869064,0.765660
5332.603472,0.734409
5333.306629,0.703157
5334.056664,0.750034
5334.744195,0.687531
5335.431727,0.687531
5336.181761,0.750034
5336.900544,0.718783
5337.619327,0.718783
5338.384987,0.765660
5339.088144,0.703157
5339.853804,0.765660
5340.463207,0.609403
5386.512190,0.734409
5387.230973,0.718783
5387.965381,0.734409
5388.668539,0.703157
5389.387321,0.718783
5390.043602,0.656280
5390.684256,0.640654
5391.387413,0.703157
5392.028067,0.640654
5392.668722,0.640654
5393.309376,0.640654
5398.778376,0.687531
5399.434656,0.656280
5400.090936,0.656280
5400.684714,0.593777
5401.325368,0.640654
5429.045387,0.734409
5429.732918,0.687531
5430.436075,0.703157
5431.311116,0.875040
5455.093454,0.765660
5455.921617,0.828163
5464.890778,0.796911
5465.687689,0.796911
5466.547103,0.859414
5467.328389,0.781286
5468.094049,0.765660
5468.875335,0.781286
5469.594118,0.718783
5470.328526,0.734409
5470.969181,0.640654
5471.656712,0.687531
5472.297367,0.640654
5472.953647,0.656280
5473.625552,0.671906
5474.234955,0.609403
5480.938387,0.796911
5481.907182,0.968794
5485.251085,0.718783
5485.985493,0.734409
5486.688650,0.703157
5487.391808,0.703157
5488.094965,0.703157
5488.751245,0.656280
5489.423151,0.671906
5490.079431,0.656280
5490.704459,0.625029
5491.376365,0.671906
5491.970142,0.593777
5492.579545,0.609403
5493.204574,0.625029
5493.860854,0.656280
5494.501508,0.640654
5536.706565,0.609403
5543.488125,0.796911
5589.912125,0.843789
5590.771540,0.859414
5591.537200,0.765660
5592.240357,0.703157
5592.943514,0.703157
5593.662297,0.718783
5627.554473,0.671906
5628.242005,0.687531
5628.976413,0.734409
5629.742074,0.765660
5630.554611,0.812537
5631.304645,0.750034
5632.054679,0.750034
5632.789088,0.734409
5633.492245,0.703157
5634.211028,0.718783
5634.914185,0.703157
5635.601717,0.687531
5636.320500,0.718783
5637.054908,0.734409
5637.711188,0.656280
5661.915421,0.781286
5662.759210,0.843789
5663.493618,0.734409
5664.290530,0.796911
5665.071816,0.781286
5665.884353,0.812537
5666.634387,0.750034
5667.400047,0.765660
5668.103204,0.703157
5680.025625,0.750034
5680.744408,0.718783
5681.478817,0.734409
5686.635303,0.718783
5687.291583,0.656280
5688.150997,0.859414
5692.526197,0.703157
5708.042533,0.718783
5708.745690,0.703157
5709.448847,0.703157
5710.136379,0.687531
5710.855161,0.718783
5711.542693,0.687531
5712.261476,0.718783
5712.980259,0.718783
5713.745919,0.765660
5714.511579,0.765660
5715.230362,0.718783
5715.964770,0.734409
5716.667928,0.703157
5717.402336,0.734409
5718.121119,0.718783
5718.839902,0.718783
5719.621188,0.781286
5720.402473,0.781286
5721.386894,0.984420
5728.121577,0.734409
5731.262346,0.656280
5731.903000,0.640654
5732.543654,0.640654
5733.184309,0.640654
5733.793711,0.609403
5734.465617,0.671906
5735.106272,0.640654
5735.778177,0.671906
5736.434457,0.656280
5737.121989,0.687531
5737.778269,0.656280
5738.434549,0.656280
5739.137706,0.703157
5739.762735,0.625029
5740.434640,0.671906
5741.106546,0.671906
5741.747200,0.640654
5742.434732,0.687531
5743.091012,0.656280
5743.731666,0.640654
5744.419198,0.687531
5745.122355,0.703157
5745.872389,0.750034
5746.606798,0.734409
5747.341207,0.734409
5748.028738,0.687531
5748.747521,0.718783
5749.388175,0.640654
5750.028830,0.640654
5750.669484,0.640654
5751.325764,0.656280
5752.060173,0.734409
5752.872710,0.812537
5753.669621,0.796911
5754.482158,0.812537
5755.372824,0.890666
5756.122859,0.750034
5756.919770,0.796911
5757.607301,0.687531
5758.310459,0.703157
5758.982364,0.671906
5759.669896,0.687531
5760.341802,0.671906
5761.029333,0.687531
5761.732490,0.703157
5762.435647,0.703157
5763.170056,0.734409
5763.888839,0.718783
5764.591996,0.703157
5765.279528,0.687531
5765.998311,0.718783
5766.654591,0.656280
5767.342122,0.687531
5768.029654,0.687531
5768.748436,0.718783
5769.467219,0.718783
5770.186002,0.718783
5770.951662,0.765660
5771.686071,0.734409
5772.436105,0.750034
5773.154888,0.718783
5773.889297,0.734409
5778.764520,0.734409
5779.452051,0.687531
5780.155209,0.703157
5780.858366,0.703157
5781.577149,0.718783
5782.249054,0.671906
5782.936586,0.687531
5783.608492,0.671906
5784.327275,0.718783
5785.030432,0.703157
5785.733589,0.703157
5786.452372,0.718783
5787.186780,0.734409
5787.936815,0.750034
5788.655598,0.718783
5789.374381,0.718783
5790.093163,0.718783
5790.811946,0.718783
5791.499478,0.687531
5792.218261,0.718783
5792.921418,0.703157
5793.608949,0.687531
5794.280855,0.671906
5794.968387,0.687531
5795.687170,0.718783
5796.405952,0.718783
5797.093484,0.687531
5797.796641,0.703157
5798.515424,0.718783
5799.249833,0.734409
5799.968616,0.718783
5800.687398,0.718783
5801.406181,0.718783
5802.156216,0.750034
5802.890624,0.734409
5803.609407,0.718783
5804.328190,0.718783
5805.046973,0.718783
5805.781382,0.734409
5806.468913,0.687531
5807.125193,0.656280
5807.828350,0.703157
5808.594010,0.765660
5809.344045,0.750034
5810.015950,0.671906
5810.765985,0.750034
5811.453516,0.687531
5812.187925,0.734409
5812.969211,0.781286
5813.719245,0.750034
5814.484905,0.765660
5815.219314,0.734409
5815.938097,0.718783
5816.688131,0.750034
5817.344411,0.656280
5818.110071,0.765660
5818.844480,0.734409
5819.719520,0.875040
5844.673787,0.734409
5861.002659,0.671906
5861.737068,0.734409
5862.471477,0.734409
5863.205885,0.734409
5867.877974,0.765660
5868.643634,0.765660
5869.362417,0.718783
5870.081200,0.718783
5870.768731,0.687531
5871.581269,0.812537
5872.253174,0.671906
5873.018834,0.765660
5873.893874,0.875040
5887.206984,0.765660
5887.972644,0.765660
5917.942766,0.734409
5918.677174,0.734409
5919.364706,0.687531
5920.114740,0.750034
5920.849149,0.734409
5921.583557,0.734409
5922.349217,0.765660
5923.068000,0.718783
5923.880538,0.812537
5924.661823,0.781286
5931.287127,0.765660
5931.990284,0.703157
5932.740318,0.750034
5933.505978,0.765660
5934.256012,0.750034
5934.974795,0.718783
5935.740455,0.765660
5936.474864,0.734409
5937.209273,0.734409
5937.912430,0.703157
5938.662464,0.750034
5939.396873,0.734409
5940.162533,0.765660
5940.865690,0.703157
5941.631350,0.765660
5942.350133,0.718783
5949.616091,0.781286
5950.350499,0.734409
5951.053656,0.703157
5951.788065,0.734409
5952.491222,0.703157
5953.210005,0.718783
5953.913162,0.703157
5954.600694,0.687531
5955.288225,0.687531
5955.991382,0.703157
5956.710165,0.718783
5968.866972,0.875040
5969.710760,0.843789
5970.632678,0.921917
5971.413963,0.781286
5972.242126,0.828163
5973.007786,0.765660
5973.757821,0.750034
5974.476604,0.718783
5975.179761,0.703157
5975.898544,0.718783
5976.632952,0.734409
5977.336109,0.703157
5978.054892,0.718783
5978.804927,0.750034
5979.554961,0.750034
5980.258118,0.703157
5980.976901,0.718783
5981.633181,0.656280
5982.351964,0.718783
5983.039495,0.687531
5983.711401,0.671906
5984.383307,0.671906
6012.931489,0.687531
6013.634646,0.703157
6014.400306,0.765660
6015.119089,0.718783
6015.884749,0.765660
6016.603532,0.718783
6017.337940,0.734409
6018.041098,0.703157
6018.759881,0.718783
6019.478663,0.718783
6020.228698,0.750034
6020.963106,0.734409
6021.713141,0.750034
6022.447549,0.734409
6023.150707,0.703157
6023.822612,0.671906
6024.510144,0.687531
6039.854596,0.828163
6051.808268,0.671906
6052.573928,0.765660
6053.277086,0.703157
6054.042746,0.765660
6054.745903,0.703157
6055.449060,0.703157
6056.355351,0.906291
6057.011631,0.656280
6057.839794,0.828163
6058.636706,0.796911
6059.496120,0.859414
6060.324283,0.828163
6061.183697,0.859414
6061.949358,0.765660
6062.668140,0.718783
6069.496578,0.812537
6070.340367,0.843789
6071.121652,0.781286
6071.949815,0.828163
6072.762352,0.812537
6073.465510,0.703157
6109.920303,0.640654
6110.592209,0.671906
6111.295366,0.703157
6111.998523,0.703157
6121.748970,0.671906
6122.452127,0.703157
6123.170910,0.718783
6123.858441,0.687531
6124.545973,0.687531
6125.280381,0.734409
6125.952287,0.671906
6131.046270,0.734409
6131.749428,0.703157
6132.468210,0.718783
6133.218245,0.750034
6133.921402,0.703157
6134.640185,0.718783
6135.327716,0.687531
6136.046499,0.718783
6136.749656,0.703157
6137.452814,0.703157
6138.155971,0.703157
6138.874754,0.718783
6139.593537,0.718783
6140.312320,0.718783
6141.031102,0.718783
6141.749885,0.718783
6142.453043,0.703157
6143.171825,0.718783
6143.859357,0.687531
6144.640643,0.781286
6145.328174,0.687531
6146.062583,0.734409
6146.812617,0.750034
6147.531400,0.718783
6148.297060,0.765660
6149.000217,0.703157
6149.750252,0.750034
6150.469034,0.718783
6151.265946,0.796911
6151.969103,0.703157
6161.703924,0.734409
6162.453958,0.750034
6163.188367,0.734409
6163.938401,0.750034
6164.688435,0.750034
6165.485347,0.796911
6166.282258,0.796911
6167.032293,0.750034
6167.797953,0.765660
6168.547987,0.750034
6169.298021,0.750034
6170.032430,0.734409
6170.798090,0.765660
6171.516873,0.718783
6172.282533,0.765660
6173.032567,0.750034
6179.673496,0.718783
6180.392279,0.718783
6181.126688,0.734409
6181.751716,0.625029
6182.470499,0.718783
6183.142405,0.671906
6187.814494,0.671906
6188.502025,0.687531
6189.314563,0.812537
6190.095848,0.781286
6190.939637,0.843789
6191.752174,0.812537
6202.908935,0.718783
6203.674595,0.765660
6204.393378,0.718783
6205.096535,0.703157
6205.799692,0.703157
6206.455972,0.656280
6207.159129,0.703157
6207.846661,0.687531
6208.549818,0.703157
6237.019871,0.828163
6237.738654,0.718783
6238.410560,0.671906
6239.254349,0.843789
6239.941880,0.687531
6249.754829,0.750034
6250.520489,0.765660
6251.239272,0.718783
6251.973681,0.734409
6252.629961,0.656280
6253.364369,0.734409
6257.692693,0.734409
6262.427284,0.796911
6327.117745,0.718783
6333.711797,0.796911
6334.430580,0.718783
6335.258743,0.828163
6336.024403,0.765660
6336.743186,0.718783
6337.540097,0.796911
6338.383886,0.843789
6339.274552,0.890666
6340.149592,0.875040
6341.009006,0.859414
6341.774666,0.765660
6342.634081,0.859414
6343.415366,0.781286
6356.165950,0.718783
6356.962862,0.796911
6357.822276,0.859414
6358.572310,0.750034
6359.322345,0.750034
6360.072379,0.750034
6360.822413,0.750034
6361.572448,0.750034
6362.291230,0.718783
6363.025639,0.734409
6363.744422,0.718783
6364.416328,0.671906
6365.103859,0.687531
6365.838268,0.734409
6366.588302,0.750034
6367.338336,0.750034
6368.103997,0.765660
6368.900908,0.796911
6369.697819,0.796911
6370.494731,0.796911
6371.197888,0.703157
6371.947922,0.750034
6372.682331,0.734409
6373.447991,0.765660
6374.198025,0.750034
6374.916808,0.718783
6375.698094,0.781286
6376.557508,0.859414
6377.354420,0.796911
6378.135706,0.781286
6378.995120,0.859414
6392.964509,0.703157
6393.792672,0.828163
6394.558332,0.765660
6395.339618,0.781286
6396.152155,0.812537
6397.089698,0.937543
6397.933487,0.843789
6398.808527,0.875040
6399.667941,0.859414
6406.418250,0.656280
6407.090156,0.671906
6407.762062,0.671906
6408.433968,0.671906
6409.105873,0.671906
6409.762153,0.656280
6410.418433,0.656280
6411.059088,0.640654
6411.699742,0.640654
6412.324771,0.625029
6412.949799,0.625029
6413.574828,0.625029
6414.231108,0.656280
6414.981142,0.750034
6415.809305,0.828163
6416.731222,0.921917
6417.465631,0.734409
6418.231291,0.765660
6429.559935,0.859414
6430.434975,0.875040
6431.294389,0.859414
6432.060049,0.765660
6432.841335,0.781286
6433.669498,0.828163
6434.450783,0.781286
6435.263321,0.812537
6436.060232,0.796911
6436.919647,0.859414
6437.747809,0.828163
6438.529095,0.781286
6439.357258,0.828163
6440.201047,0.843789
6440.966707,0.765660
6441.716741,0.750034
6448.154536,0.750034
6449.013950,0.859414
6449.842113,0.828163
6450.623399,0.781286
6451.404685,0.781286
6452.154719,0.750034
6452.982882,0.828163
6453.686039,0.703157
6454.545453,0.859414
6467.202283,0.781286
6468.014820,0.812537
6468.796106,0.781286
6469.624269,0.828163
6470.468057,0.843789
6471.327471,0.859414
6472.202512,0.875040
6473.015049,0.812537
6473.858837,0.843789
6474.624497,0.765660
6475.437035,0.812537
6485.031224,0.765660
6485.812510,0.781286
6486.578170,0.765660
6487.359455,0.781286
6488.125115,0.765660
6488.843898,0.718783
6489.625184,0.781286
6490.422096,0.796911
6491.234633,0.812537
6492.047170,0.812537
6500.625688,0.750034
6501.360096,0.734409
6502.078879,0.718783
6502.813288,0.734409
6503.547696,0.734409
6504.297731,0.750034
6505.047765,0.750034
6505.829051,0.781286
6506.625962,0.796911
6507.454125,0.828163
6508.219785,0.765660
6509.016697,0.796911
6509.782357,0.765660
6510.532391,0.750034
6511.251174,0.718783
6511.969957,0.718783
6512.704365,0.734409
6513.454400,0.750034
6514.173183,0.718783
6514.938843,0.765660
6515.751380,0.812537
6516.595169,0.843789
6517.376454,0.781286
6518.157740,0.781286
6518.907774,0.750034
6519.642183,0.734409
6520.360966,0.718783
6521.095375,0.734409
6521.861035,0.765660
6522.642320,0.781286
6523.392355,0.750034
6524.189266,0.796911
6524.986178,0.796911
6525.814341,0.828163
6526.533123,0.718783
6527.298784,0.765660
6528.048818,0.750034
6528.830104,0.781286
6529.533261,0.703157
6530.298921,0.765660
6531.033329,0.734409
6531.798990,0.765660
6532.549024,0.750034
6533.345935,0.796911
6534.189724,0.843789
6552.346805,0.703157
6553.065588,0.718783
6553.815622,0.750034
6554.550031,0.734409
6555.284440,0.734409
6556.065725,0.781286
6556.831385,0.765660
6557.643923,0.812537
6558.456460,0.812537
6559.237746,0.781286
6560.050283,0.812537
6560.862820,0.812537
6561.612854,0.750034
6562.378514,0.765660
6563.191051,0.812537
6564.003589,0.812537
6568.113152,0.843789
6568.941315,0.828163
6569.691349,0.750034
6570.472635,0.781286
6571.238295,0.765660
6572.003955,0.765660
6572.753989,0.750034
6573.519649,0.765660
6574.300935,0.781286
6575.113472,0.812537
6575.894758,0.781286
6576.676044,0.781286
6577.457330,0.781286
6578.238615,0.781286
6578.894895,0.656280
6579.723058,0.828163
6583.160716,0.671906
6583.816996,0.656280
6584.488901,0.671906
6585.238936,0.750034
6624.975130,0.703157
6625.709538,0.734409
6626.443947,0.734409
6627.225233,0.781286
6628.006518,0.781286
6628.740927,0.734409
6629.522213,0.781286
6630.319124,0.796911
6631.022281,0.703157
6631.787941,0.765660
6632.459847,0.671906
6633.194256,0.734409
6639.928939,0.734409
6640.647722,0.718783
6641.350879,0.703157
6642.022785,0.671906
6642.725942,0.703157
6643.382222,0.656280
6644.038502,0.656280
6644.757285,0.718783
6645.476068,0.718783
6649.648134,0.671906
6650.320040,0.671906
6651.101326,0.781286
6661.148660,0.796911
6661.914320,0.765660
6662.695606,0.781286
6663.461266,0.765660
6664.242552,0.781286
6665.023838,0.781286
6665.789498,0.765660
6666.523906,0.734409
6667.242689,0.718783
6667.977098,0.734409
6668.695881,0.718783
6669.383412,0.687531
6670.055318,0.671906
6670.820978,0.765660
6671.602264,0.781286
6672.336673,0.734409
6673.149210,0.812537
6673.946121,0.796911
6674.743033,0.796911
6675.477441,0.734409
6676.211850,0.734409
6676.930633,0.718783
6677.649416,0.718783
6678.305696,0.656280
6679.180736,0.875040
6682.837153,0.734409
6683.540310,0.703157
6684.274719,0.734409
6685.102882,0.828163
6685.852916,0.750034
6686.665453,0.812537
6687.352985,0.687531
6688.118645,0.765660
6688.853054,0.734409
6689.571836,0.718783
6690.321871,0.750034
6691.040654,0.718783
6694.118920,0.765660
6695.009585,0.890666
6698.650377,0.718783
6703.978746,0.890666
6704.775657,0.796911
6708.197689,0.718783
6708.932098,0.734409
6714.541729,0.875040
6715.354267,0.812537
6716.119927,0.765660
6716.854335,0.734409
6717.604370,0.750034
6718.276275,0.671906
6718.963807,0.687531
6719.698215,0.734409
6720.385747,0.687531
6721.167033,0.781286
6721.901441,0.734409
6722.667101,0.765660
6723.448387,0.781286
6724.260924,0.812537
6725.073462,0.812537
6725.885999,0.812537
6726.589156,0.703157
6727.307939,0.718783
6728.026722,0.718783
6728.745505,0.718783
6729.448662,0.703157
6730.198696,0.750034
6730.948730,0.750034
6731.714391,0.765660
6732.433173,0.718783
6733.183208,0.750034
6733.933242,0.750034
6734.698902,0.765660
6735.464562,0.765660
6736.214597,0.750034
6736.917754,0.703157
6742.855525,0.750034
6743.730566,0.875040
6744.480600,0.750034
6745.308763,0.828163
6746.136926,0.828163
6746.980714,0.843789
6747.746374,0.765660
6748.527660,0.781286
6749.308946,0.781286
6750.090232,0.781286
6750.887143,0.796911
6751.652803,0.765660
6752.449715,0.796911
6753.231000,0.781286
6753.996660,0.765660
6754.793572,0.796911
6755.590483,0.796911
6756.418646,0.828163
6757.184306,0.765660
6757.981218,0.796911
6758.809381,0.828163
6759.465661,0.656280
6760.121941,0.656280
6764.919035,0.781286
6765.715947,0.796911
6766.450356,0.734409
6767.200390,0.750034
6783.763648,0.734409
6784.513682,0.750034
6798.545575,0.718783
6806.217801,0.859414
6825.562436,0.750034
6852.313661,0.734409
6873.267745,0.781286
6873.939651,0.671906
6881.439994,0.750034
6882.111900,0.671906
6882.893186,0.781286
6883.643220,0.750034
6884.315126,0.671906
6901.628418,0.656280
6902.269073,0.640654
6902.940978,0.671906
6917.957291,0.718783
6918.629196,0.671906
6919.316728,0.687531
6940.317689,0.671906
6940.973969,0.656280
6941.661501,0.687531
6942.364658,0.703157
6943.036564,0.671906
6943.708469,0.671906
6944.458504,0.750034
6945.192912,0.734409
6945.974198,0.781286
6946.708607,0.734409
6953.693301,0.781286
6954.443336,0.750034
6969.584654,0.781286
6970.350314,0.765660
6994.929564,0.578151
6995.538967,0.609403
6999.570401,0.812537
7000.398564,0.828163
7001.211102,0.812537
7002.054890,0.843789
7002.789299,0.734409
7003.539333,0.750034
7004.289367,0.750034
7005.039402,0.750034
7005.789436,0.750034
7006.523845,0.734409
7007.258253,0.734409
7008.023913,0.765660
7008.773948,0.750034
7009.508356,0.734409
7035.415792,0.734409
7066.307831,0.703157
7067.010988,0.703157
7090.777701,0.703157
7091.527736,0.750034
7092.371524,0.843789
7093.105933,0.734409
7093.934096,0.828163
7094.777884,0.843789
7095.621673,0.843789
7096.387333,0.765660
7101.012545,0.718783
7101.715702,0.703157
7102.450111,0.734409
7103.215771,0.765660
7104.043934,0.828163
7104.887722,0.843789
7119.263381,0.765660
7120.044666,0.781286
7120.747823,0.703157
7121.450981,0.703157
7122.279144,0.828163
7135.732884,0.718783
7136.420416,0.687531
7137.139199,0.718783
7137.857982,0.718783
7138.576765,0.718783
7139.311173,0.734409
7140.029956,0.718783
7140.764365,0.734409
7147.202159,0.734409
7148.014697,0.812537
7148.702228,0.687531
7167.562466,0.687531
7168.312501,0.750034
7169.046909,0.734409
7169.812569,0.765660
7180.266173,0.843789
7180.938079,0.671906
7181.641236,0.703157
7182.375644,0.734409
7183.094427,0.718783
7183.828836,0.734409
7184.594496,0.765660
7185.360156,0.765660
7186.141442,0.781286
7186.891476,0.750034
7187.672762,0.781286
7188.438422,0.765660
7189.235333,0.796911
7189.985368,0.750034
7190.782279,0.796911
7191.532314,0.750034
7192.313599,0.781286
7193.048008,0.734409
7193.829294,0.781286
7194.626205,0.796911
7195.423117,0.796911
7196.204402,0.781286
7196.938811,0.734409
7197.688845,0.750034
7198.438880,0.750034
7199.204540,0.765660
7199.954574,0.750034
7200.720234,0.765660
7201.517146,0.796911
7202.298431,0.781286
7203.079717,0.781286
7203.892254,0.812537
7204.704792,0.812537
7205.501703,0.796911
7206.298615,0.796911
7207.079900,0.781286
7207.845560,0.765660
7208.548717,0.703157
7209.283126,0.734409
7210.017535,0.734409
7210.798820,0.781286
7211.533229,0.734409
7212.283263,0.750034
7213.048923,0.765660
7213.783332,0.734409
7214.611495,0.828163
7215.330278,0.718783
7216.142815,0.812537
7216.845972,0.703157
7217.627258,0.781286
7218.424170,0.796911
7219.221081,0.796911
7219.971115,0.750034
7220.768027,0.796911
7221.580564,0.812537
7222.377476,0.796911
7223.158761,0.781286
7223.955673,0.796911
7224.752584,0.796911
7225.533870,0.781286
7226.315156,0.781286
7227.096442,0.781286
7227.862102,0.765660
7228.596510,0.734409
7229.377796,0.781286
7230.190333,0.812537
7230.971619,0.781286
7231.815408,0.843789
7232.627945,0.812537
7233.471733,0.843789
7234.237393,0.765660
7235.003053,0.765660
7235.737462,0.734409
7236.503122,0.765660
7237.221905,0.718783
7237.956314,0.734409
7238.675097,0.718783
7239.393879,0.718783
7240.128288,0.734409
7240.878322,0.750034
7241.565854,0.687531
7242.378391,0.812537
7243.128425,0.750034
7243.862834,0.734409
7244.612868,0.750034
7245.409780,0.796911
7246.175440,0.765660
7255.269606,0.796911
7256.066518,0.796911
7256.863429,0.796911
7257.660341,0.796911
7258.519755,0.859414
7259.222912,0.703157
7259.972946,0.750034
7260.707355,0.734409
7269.817147,0.781286
7270.598433,0.781286
7295.365191,0.734409
7296.130852,0.765660
7296.912137,0.781286
7297.677797,0.765660
7298.443457,0.765660
7299.209117,0.765660
7317.428701,0.671906
7330.288665,0.937543
7331.101202,0.812537
7331.929365,0.828163
7332.741902,0.812537
7333.570065,0.828163
7334.460731,0.890666
7335.210765,0.750034
7336.179560,0.968794
7340.007860,0.796911
7340.836023,0.828163
7341.664186,0.828163
7342.507974,0.843789
7343.336137,0.828163
7344.179926,0.843789
7345.008089,0.828163
7345.789375,0.781286
7346.586286,0.796911
7347.367572,0.781286
