,Binary,Multiclass
2018-08-01 05:06:40,1.0,1.0
2018-08-01 05:06:45,1.0,1.0
2018-08-01 05:06:50,1.0,1.0
2018-08-01 05:06:55,1.0,1.0
2018-08-01 05:07:00,1.0,1.0
2018-08-01 05:07:05,1.0,1.0
2018-08-01 05:07:10,1.0,1.0
2018-08-01 05:07:15,-1.0,-1.0
2018-08-01 05:07:20,-1.0,-1.0
2018-08-01 05:07:25,-1.0,-1.0
2018-08-01 05:07:30,1.0,1.0
2018-08-01 05:07:35,1.0,1.0
2018-08-01 05:07:40,1.0,1.0
2018-08-01 05:07:45,1.0,1.0
2018-08-01 05:07:50,-1.0,-1.0
2018-08-01 05:07:55,-1.0,1.0
2018-08-01 05:08:00,1.0,1.0
2018-08-01 05:08:05,1.0,1.0
2018-08-01 05:08:10,1.0,1.0
2018-08-01 05:08:15,-1.0,1.0
2018-08-01 05:08:20,1.0,1.0
2018-08-01 05:08:25,1.0,1.0
2018-08-01 05:08:30,1.0,1.0
2018-08-01 05:08:35,1.0,1.0
2018-08-01 05:08:40,-1.0,-1.0
2018-08-01 05:08:45,1.0,1.0
2018-08-01 05:08:50,1.0,1.0
2018-08-01 05:08:55,1.0,1.0
2018-08-01 05:09:00,1.0,1.0
2018-08-01 05:09:05,1.0,1.0
2018-08-01 05:09:10,1.0,1.0
2018-08-01 05:09:15,1.0,1.0
2018-08-01 05:09:20,-1.0,-1.0
2018-08-01 05:09:25,-1.0,1.0
2018-08-01 05:09:30,-1.0,-1.0
2018-08-01 05:09:35,-1.0,-1.0
2018-08-01 05:09:40,-1.0,-1.0
2018-08-01 05:09:45,-1.0,-1.0
2018-08-01 05:09:50,1.0,1.0
2018-08-01 05:09:55,-1.0,-1.0
2018-08-01 05:10:00,1.0,1.0
2018-08-01 05:10:05,1.0,1.0
2018-08-01 05:10:10,1.0,1.0
2018-08-01 05:10:15,1.0,1.0
2018-08-01 05:10:20,1.0,1.0
2018-08-01 05:10:25,1.0,1.0
2018-08-01 05:10:30,-1.0,1.0
2018-08-01 05:10:35,1.0,1.0
2018-08-01 05:10:40,1.0,1.0
2018-08-01 05:10:45,1.0,1.0
2018-08-01 05:10:50,1.0,1.0
2018-08-01 05:10:55,1.0,1.0
2018-08-01 05:11:00,1.0,1.0
2018-08-01 05:11:05,1.0,1.0
2018-08-01 05:11:10,1.0,1.0
2018-08-01 05:11:15,1.0,1.0
2018-08-01 05:11:20,1.0,1.0
2018-08-01 05:11:25,1.0,1.0
2018-08-01 05:11:30,1.0,1.0
2018-08-01 05:11:35,1.0,1.0
2018-08-01 05:11:40,1.0,1.0
2018-08-01 05:11:45,1.0,1.0
2018-08-01 05:11:50,1.0,1.0
2018-08-01 05:11:55,1.0,1.0
2018-08-01 05:12:00,1.0,1.0
2018-08-01 05:12:05,-1.0,-1.0
2018-08-01 05:12:10,1.0,1.0
2018-08-01 05:12:15,1.0,1.0
2018-08-01 05:12:20,1.0,1.0
2018-08-01 05:12:25,1.0,1.0
2018-08-01 05:12:30,1.0,1.0
2018-08-01 05:12:35,1.0,1.0
2018-08-01 05:12:40,1.0,1.0
2018-08-01 05:12:45,1.0,1.0
2018-08-01 05:12:50,1.0,1.0
2018-08-01 05:12:55,1.0,1.0
2018-08-01 05:13:00,1.0,1.0
2018-08-01 05:13:05,1.0,1.0
2018-08-01 05:13:10,1.0,1.0
2018-08-01 05:13:15,-1.0,-1.0
2018-08-01 05:13:20,1.0,1.0
2018-08-01 05:13:25,1.0,1.0
2018-08-01 05:13:30,1.0,1.0
2018-08-01 05:13:35,1.0,1.0
2018-08-01 05:13:40,1.0,1.0
2018-08-01 05:13:45,1.0,1.0
2018-08-01 05:13:50,-1.0,-1.0
2018-08-01 05:13:55,1.0,1.0
2018-08-01 05:14:00,1.0,1.0
2018-08-01 05:14:05,-1.0,1.0
2018-08-01 05:14:10,-1.0,1.0
2018-08-01 05:14:15,-1.0,-1.0
2018-08-01 05:14:20,-1.0,-1.0
2018-08-01 05:14:25,1.0,1.0
2018-08-01 05:14:30,1.0,1.0
2018-08-01 05:14:35,1.0,1.0
2018-08-01 05:14:40,1.0,1.0
2018-08-01 05:14:45,1.0,1.0
2018-08-01 05:14:50,1.0,1.0
2018-08-01 05:14:55,1.0,-1.0
2018-08-01 05:15:00,-1.0,-1.0
2018-08-01 05:15:05,1.0,1.0
2018-08-01 05:15:10,-1.0,1.0
2018-08-01 05:15:15,-1.0,-1.0
2018-08-01 05:15:20,-1.0,-1.0
2018-08-01 05:15:25,-1.0,1.0
2018-08-01 05:15:30,1.0,1.0
2018-08-01 05:15:35,1.0,1.0
2018-08-01 05:15:40,-1.0,1.0
2018-08-01 05:15:45,1.0,1.0
2018-08-01 05:15:50,-1.0,1.0
2018-08-01 05:15:55,-1.0,1.0
2018-08-01 05:16:00,1.0,1.0
2018-08-01 05:16:05,-1.0,-1.0
2018-08-01 05:16:10,-1.0,-1.0
2018-08-01 05:16:15,1.0,1.0
2018-08-01 05:16:20,1.0,1.0
2018-08-01 05:16:25,1.0,1.0
2018-08-01 05:16:30,1.0,1.0
2018-08-01 05:16:35,1.0,1.0
2018-08-01 05:16:40,1.0,1.0
2018-08-01 05:16:45,1.0,1.0
2018-08-01 05:16:50,1.0,1.0
2018-08-01 05:16:55,1.0,1.0
2018-08-01 05:17:00,1.0,1.0
2018-08-01 05:17:05,1.0,1.0
2018-08-01 05:17:10,1.0,1.0
2018-08-01 05:17:15,1.0,1.0
2018-08-01 05:17:20,1.0,1.0
2018-08-01 05:17:25,1.0,1.0
2018-08-01 05:17:30,1.0,1.0
2018-08-01 05:17:35,1.0,1.0
2018-08-01 05:17:40,1.0,1.0
2018-08-01 05:17:45,1.0,1.0
2018-08-01 05:17:50,1.0,1.0
2018-08-01 05:17:55,1.0,1.0
2018-08-01 05:18:00,1.0,1.0
2018-08-01 05:18:05,1.0,1.0
2018-08-01 05:18:10,1.0,1.0
2018-08-01 05:18:15,1.0,1.0
2018-08-01 05:18:20,1.0,1.0
2018-08-01 05:18:25,1.0,1.0
2018-08-01 05:18:30,1.0,1.0
2018-08-01 05:18:35,-1.0,1.0
