,EDA,rise_time,max_deriv,amp,decay_time,SCR_width,AUC
2018-07-05 11:37:25.875000,6.6062955,4.0,0.03693084600972796,0.07366700000000037,,,
2018-07-05 11:37:29.250000,6.764521,4.0,0.029736361370595432,0.09096300000000035,,,
2018-07-05 11:37:40.375000,6.670355,1.875,0.06442228014205398,0.16975599999999957,0.625,2.25,0.38195099999999904
2018-07-05 11:37:42.625000,6.637684500000001,0.75,0.1851108180845351,0.046762500000000706,,,
2018-07-05 11:37:47.500000,6.767084,1.0,0.20310997286570398,0.09608900000000009,0.625,1.625,0.15614462500000015
2018-07-05 11:38:00.875000,3.855015,1.125,0.39132930868875704,0.24983000000000022,,,
2018-07-05 11:39:13.750000,3.357918,1.125,0.03550060901917185,0.028826500000000088,0.375,1.375,0.03963643750000012
2018-07-05 11:39:31.625000,2.7429604999999997,0.75,0.12432736897719465,0.021139499999999867,0.5,0.625,0.013212187499999917
2018-07-05 11:39:35.500000,2.7974099999999997,1.625,0.04127509703567789,0.03395099999999962,,,
2018-07-05 11:39:52.750000,3.139484,1.25,0.026859329478345018,0.030747999999999998,,,
2018-07-05 11:40:14.500000,3.220199,1.125,0.2166399531212786,0.13388350000000004,,,
2018-07-05 11:40:24.250000,3.170233,4.0,0.019859170567341877,0.028185999999999822,0.375,2.0,0.056371999999999645
2018-07-05 11:40:29.250000,3.175357,4.0,0.009246608811631418,0.05124700000000004,1.375,3.25,0.16655275000000014
2018-07-05 11:40:33.625000,3.2951474999999997,4.0,0.03457787070852625,0.12235249999999986,,,
2018-07-05 11:40:39.250000,3.347035,4.0,0.02389895468325598,0.030747999999999553,,,
2018-07-05 11:40:52.125000,3.401485,4.0,0.009395966957654878,0.05380900000000022,,,
2018-07-05 11:40:57,3.464256,1.625,0.03142161452455916,0.05316199999999949,1.25,2.5,0.13290499999999872
2018-07-05 11:41:02.750000,3.594936,4.0,0.04289546752670503,0.147335,,,
2018-07-05 11:41:12.625000,3.6218405,4.0,0.014343028853321727,0.04612249999999962,0.75,2.375,0.1095409374999991
2018-07-05 11:41:19.125000,3.820423,4.0,0.04254209613835158,0.11594649999999973,,,
2018-07-05 11:41:23.625000,3.854374,1.75,0.03204797525554248,0.06149649999999962,,,
2018-07-05 11:41:30,4.083691,4.0,0.0744308284016384,0.20048999999999984,,,
2018-07-05 11:41:38,4.168248999999999,4.0,0.09941010461959365,0.16911599999999938,1.125,2.5,0.42278999999999844
2018-07-05 11:41:55.500000,4.251525,4.0,0.049764456896554066,0.178083,,,
2018-07-05 11:42:27.500000,4.13622,4.0,0.004780502293908029,0.02690599999999943,,,
2018-07-05 11:42:30.875000,4.3828455,4.0,0.09809062907586963,0.23701750000000033,1.75,3.125,0.740679687500001
2018-07-05 11:42:36,4.252806,1.75,0.014063324175474179,0.03202899999999964,,,
2018-07-05 11:42:38.375000,4.3258335,1.625,0.024659201875635972,0.04740349999999971,0.875,2.25,0.10665787499999935
2018-07-05 11:43:00.250000,4.5838,4.0,0.04310203496969578,0.15502199999999977,1.25,2.875,0.44568824999999934
2018-07-05 11:43:11.375000,4.8483635,4.0,0.0829647946654859,0.25815699999999975,1.5,3.125,0.8067406249999992
2018-07-05 11:43:20.125000,4.9175265,4.0,0.0930210932231823,0.25941800000000015,,,
2018-07-05 11:43:26,5.175043,4.0,0.11284137057999644,0.35232300000000016,,,
2018-07-05 11:43:31,5.026426,1.25,0.03167199481040228,0.023059999999999192,,,
2018-07-05 11:43:32.875000,5.1647935,1.375,0.08432598975295846,0.10377550000000024,,,
2018-07-05 11:43:41.375000,5.5301525,4.0,0.1299720242129574,0.3506254999999996,1.75,3.375,1.1833610624999986
2018-07-05 11:43:53.125000,5.307228,1.75,0.03325676110004494,0.055090500000000375,,,
2018-07-05 11:43:56.125000,5.460328499999999,4.0,0.04142676731200012,0.07366749999999911,,,
2018-07-05 11:44:08.875000,5.9526765,4.0,0.11530494079264741,0.2713449999999993,1.5,3.0,0.8140349999999978
2018-07-05 11:44:14.500000,5.838652,1.375,0.0540561023529591,0.09801049999999911,0.375,1.625,0.15926706249999856
2018-07-05 11:44:24.250000,5.5500110000000005,4.0,0.05681502380564041,0.12811800000000062,1.0,2.5,0.32029500000000155
2018-07-05 11:44:28,5.521825,4.0,0.04474283069258078,0.04099800000000009,0.875,1.875,0.07687125000000017
2018-07-05 11:44:35.500000,5.592289,1.75,0.08955650275232685,0.1614279999999999,,,
2018-07-05 11:44:51.500000,5.665317,4.0,0.08520454388250798,0.171678,1.0,2.5,0.429195
2018-07-05 11:44:57,5.635848999999999,1.625,0.08084118656262262,0.11914899999999928,0.875,2.125,0.2531916249999985
2018-07-05 11:45:01.375000,5.648661499999999,1.625,0.029125968533172397,0.07430849999999989,1.0,2.5,0.18577124999999972
2018-07-05 11:45:08.500000,5.725532,1.375,0.10880408688996113,0.1332425000000006,,,
2018-07-05 11:45:20.625000,5.685816,1.5,0.027322390016077946,0.03459249999999958,1.125,2.25,0.07783312499999906
2018-07-05 11:45:38.750000,5.829308,1.875,0.15812728786437802,0.19281799999999993,1.25,2.375,0.45794274999999984
2018-07-05 11:45:42.250000,5.748593,1.25,0.05357680852863922,0.0666209999999996,1.75,2.875,0.19153537499999884
2018-07-05 11:45:48.875000,5.8523689999999995,1.625,0.06368949236589927,0.11402499999999893,1.25,2.625,0.2993156249999972
2018-07-05 11:45:52.625000,5.865821,1.25,0.06857967727196268,0.05252850000000109,0.375,1.5,0.07879275000000163
2018-07-05 11:46:04.250000,5.708876999999999,4.0,0.0498363909306363,0.1217119999999996,0.625,2.125,0.25863799999999915
2018-07-05 11:46:09.750000,5.822901,4.0,0.07559806000244507,0.2280490000000004,1.5,3.0,0.6841470000000012
2018-07-05 11:46:23.500000,5.728095,4.0,0.031942214484583786,0.18961499999999987,,,
2018-07-05 11:46:34.500000,5.804965,4.0,0.08199147108920357,0.21011300000000066,,,
2018-07-05 11:46:51.750000,5.749875,1.625,0.1493956782290624,0.22292549999999967,,,
2018-07-05 11:47:10.750000,5.597414,0.75,0.8511609483565898,0.07901599999999931,,,
2018-07-05 11:47:14.750000,6.002642,1.875,0.138935043266585,0.3411685000000002,1.0,2.5,0.8529212500000005
2018-07-05 11:47:33.125000,5.668896,1.5,0.05269046405913613,0.06277799999999978,0.25,1.5,0.09416699999999967
2018-07-05 11:47:43.125000,5.543340000000001,4.0,0.03855240838693774,0.06277750000000104,1.0,2.375,0.14909656250000247
2018-07-05 11:47:49.875000,5.6490375,4.0,0.08100521499040525,0.15374150000000064,1.5,2.875,0.44200681250000184
2018-07-05 11:48:11,5.764343,1.625,0.16715559401762192,0.2728900000000003,,,
2018-07-05 11:48:13.375000,5.786764,1.0,0.05754503384947185,0.024982999999998867,0.25,1.125,0.028105874999998726
2018-07-05 11:48:18.625000,5.7015655,1.625,0.04908130949362288,0.08711950000000002,,,
2018-07-05 11:48:22.375000,5.837635000000001,1.75,0.23322476652041857,0.37218200000000046,,,
2018-07-05 11:48:30.125000,5.906554,4.0,0.2287966567652049,0.30081199999999964,0.5,1.75,0.5264209999999994
2018-07-05 11:48:35.625000,5.9193655000000005,4.0,0.16211777952596051,0.34079250000000005,0.625,2.25,0.7667831250000001
2018-07-05 11:48:47.875000,5.892725499999999,1.5,0.4208604943254173,0.523360499999999,1.125,2.25,1.1775611249999978
2018-07-05 11:48:54.500000,6.002642,1.625,0.23501343745978787,0.4154774999999997,0.75,2.125,0.8828896874999994
2018-07-05 11:49:08,5.802402,1.375,0.412526175205695,0.5560299999999998,,,
2018-07-05 11:49:17.875000,5.164377,0.875,0.11461311274556252,0.057653000000000176,,,
2018-07-05 11:49:19.625000,5.6172725,1.25,0.3379573743163604,0.32670000000000066,,,
2018-07-05 11:49:40.750000,5.626882,0.875,0.10193003969855141,0.05445000000000011,,,
2018-07-05 11:49:48.250000,5.564104,1.625,0.04445959487648565,0.06469950000000058,0.25,1.75,0.11322412500000101
2018-07-05 11:50:00.500000,5.720783,1.125,0.07410539567794316,0.05445000000000011,,,
2018-07-05 11:50:05.375000,5.950114,1.5,0.09625900106624741,0.1210709999999997,1.375,2.75,0.3329452499999992
2018-07-05 11:50:14.500000,6.116667,4.0,0.09502134926241013,0.2562349999999993,,,
2018-07-05 11:50:18,6.433978,4.0,0.10776473152102994,0.3173110000000001,,,
2018-07-05 11:50:24.875000,5.959082,0.875,0.13035912598984822,0.03587300000000049,0.75,1.625,0.05829362500000079
2018-07-05 11:50:28.750000,6.0103290000000005,0.875,0.35465837670328426,0.04740349999999971,0.25,0.5,0.023701749999999855
2018-07-05 11:50:33.250000,5.824559,1.25,0.08078410393092383,0.08840199999999943,,,
2018-07-05 11:50:36.750000,5.96805,4.0,0.09002744645908933,0.11274300000000004,0.5,1.75,0.19730025000000007
2018-07-05 11:50:40.625000,5.822637,1.5,0.05667749760230123,0.03715400000000013,0.5,1.625,0.06037525000000021
2018-07-05 11:50:47.875000,5.809185,4.0,0.07663785189103933,0.057013000000000424,0.5,1.625,0.09264612500000069
2018-07-05 11:50:51.375000,5.892461,1.75,0.04556957533645445,0.21972199999999997,0.25,2.0,0.43944399999999995
2018-07-05 11:50:57,6.135885,4.0,0.12094419509237397,0.13452399999999987,0.375,1.75,0.23541699999999977
2018-07-05 11:51:05.625000,5.8732435,1.125,0.18853422861786484,0.0333104999999998,0.125,1.25,0.04163812499999975
2018-07-05 11:51:14.625000,5.5935705,0.875,0.21315998528173097,0.03843450000000015,,,
2018-07-05 11:51:17.875000,5.9027104999999995,1.25,0.25261764565629363,0.19831799999999955,,,
2018-07-05 11:51:29,5.822901,4.0,0.10578871063926698,0.19858200000000004,0.375,2.0,0.3971640000000001
2018-07-05 11:51:31.375000,6.0673414999999995,1.25,0.28309530044197473,0.23098749999999946,0.375,1.5,0.3464812499999992
2018-07-05 11:51:39.125000,5.6471155,1.375,0.05413306890805458,0.03907550000000004,0.25,1.5,0.05861325000000006
2018-07-05 11:51:41.250000,5.656724,0.875,0.05361890048121154,0.020497999999999905,,,
2018-07-05 11:51:44.750000,5.751532,4.0,0.006490893542942189,0.052528999999999826,,,
2018-07-05 11:51:55.125000,5.967409999999999,4.0,0.11928178271788781,0.1543814999999995,0.625,1.875,0.2894653124999991
2018-07-05 11:51:58.375000,5.916803,1.625,0.027645123780374092,0.04484099999999991,0.25,1.75,0.07847174999999984
2018-07-05 11:52:00.500000,5.988549,0.875,0.1996134416611426,0.054449499999999595,,,
2018-07-05 11:52:02.625000,6.283860499999999,1.75,0.07177639960705307,0.13516399999999962,,,
2018-07-05 11:52:16.500000,6.76324,4.0,0.09606456061580104,0.3775259999999996,0.75,2.375,0.896624249999999
2018-07-05 11:52:23.750000,7.095808,4.0,0.08604380432004177,0.15832800000000002,0.25,1.75,0.27707400000000004
2018-07-05 11:52:29.750000,6.506467,1.25,0.03615173040530095,0.028185999999999822,0.5,1.625,0.04580224999999971
2018-07-05 11:52:43.875000,6.701103,1.5,0.147536867282124,0.24854850000000006,1.0,2.25,0.5592341250000001
2018-07-05 11:52:54.875000,6.601171,0.875,0.16760999992257197,0.02754500000000082,0.125,1.0,0.02754500000000082
2018-07-05 11:53:02.250000,6.425008999999999,1.75,0.025042764160684072,0.085839,,,
2018-07-05 11:53:08.500000,6.768364999999999,4.0,0.11135518337790984,0.23189299999999946,1.0,2.5,0.5797324999999987
2018-07-05 11:53:16.500000,6.544159,1.875,0.025166009097439712,0.0666209999999996,1.25,2.875,0.19153537499999884
2018-07-05 11:53:21.250000,6.682525999999999,1.875,0.08412891102323172,0.18064599999999942,1.25,2.625,0.4741957499999985
2018-07-05 11:53:28,6.948473,4.0,0.11481767494873552,0.22494899999999962,0.625,2.125,0.4780166249999992
2018-07-05 11:54:21,6.467288,4.0,0.03330284640339087,0.07943299999999986,1.125,2.625,0.20851162499999965
2018-07-05 11:54:31.250000,6.350701,1.75,0.022659383955804913,0.029467000000000354,,,
2018-07-05 11:54:33.875000,6.644731500000001,1.875,0.08356295752258447,0.23509650000000093,,,
2018-07-05 11:54:36.625000,6.706868,1.875,0.038335887225510845,0.052528000000000574,,,
2018-07-05 11:54:39,7.040717999999999,1.625,0.1452754802655143,0.2691504999999994,,,
2018-07-05 11:54:44.375000,6.916442999999999,1.25,0.050283226776926426,0.04163749999999933,0.375,1.5,0.06245624999999899
2018-07-05 11:54:47.500000,7.026625,1.5,0.11750187451952243,0.14349200000000017,0.75,2.0,0.28698400000000035
2018-07-05 11:54:52.125000,7.140649499999999,1.625,0.14331392607688898,0.23445549999999926,,,
2018-07-05 11:54:56.125000,7.544933500000001,1.875,0.14764097878192572,0.43887550000000086,,,
2018-07-05 11:55:17.875000,7.523794,1.875,0.16081411600010043,0.3145290000000003,1.125,2.625,0.8256386250000007
2018-07-05 11:55:24.625000,7.7082835,1.75,0.24658204627070646,0.4938929999999999,,,
2018-07-05 11:55:31,8.008673,1.75,0.23971864039167556,0.4509280000000002,1.25,2.625,1.1836860000000007
2018-07-05 11:55:35.750000,7.8626190000000005,1.375,0.17422775977360772,0.19217700000000093,0.75,1.875,0.36033187500000174
2018-07-05 11:55:45.500000,8.175226,4.0,0.13730452000450555,0.2652039999999998,0.5,2.0,0.5304079999999995
2018-07-05 11:55:54,7.49753,1.25,0.059129183979493405,0.034591999999999956,0.25,1.375,0.04756399999999994
2018-07-05 11:56:12.625000,8.280282500000002,1.75,0.35045382639483336,0.6636500000000023,1.125,2.5,1.6591250000000057
2018-07-05 11:56:27.375000,7.470625500000001,4.0,0.009591558287340263,0.02113950000000031,,,
2018-07-05 11:56:31.500000,7.579525,4.0,0.032455860992733676,0.03971600000000031,0.625,1.875,0.07446750000000057
2018-07-05 11:56:46.125000,7.2342485,1.875,0.03413872380265559,0.04932550000000013,,,
2018-07-05 11:56:48.250000,7.346350999999999,1.625,0.05770278570755849,0.09352549999999926,1.125,2.375,0.22212306249999825
2018-07-05 11:56:52,7.430909,1.375,0.09804414718612975,0.10825949999999906,1.0,2.125,0.230051437499998
2018-07-05 11:57:08.500000,7.300228999999999,1.625,0.04478935768062087,0.08199549999999878,1.0,2.375,0.1947393124999971
2018-07-05 11:57:19.875000,7.077945,1.625,0.02916804241744586,0.053169000000000466,1.125,2.5,0.13292250000000116
2018-07-05 11:57:23.750000,7.101646000000001,1.75,0.030347641081839072,0.05124700000000004,1.375,2.875,0.14733512500000012
2018-07-05 11:57:46,6.926692999999999,1.625,0.03994979600355819,0.06534050000000047,,,
2018-07-05 11:57:48.625000,7.168835,1.625,0.11631544147849127,0.19986299999999968,0.875,2.25,0.4496917499999993
2018-07-05 11:58:07.375000,7.074669,4.0,0.2025912663717726,0.2831399999999995,,,
2018-07-05 11:58:16.875000,7.1790845,4.0,0.07449673273483626,0.1473355000000005,0.5,2.0,0.294671000000001
2018-07-05 11:58:44.625000,6.5806725,4.0,0.0876242627661945,0.16463150000000049,0.875,2.25,0.3704208750000011
2018-07-05 11:58:49.500000,7.3546059999999995,4.0,0.366798955239382,0.6003339999999993,,,
2018-07-05 11:58:57.125000,7.157945,1.75,0.12048304463834825,0.23445500000000052,,,
2018-07-05 11:59:25.250000,6.755014999999999,1.375,0.05341777197564568,0.058293499999998666,1.0,2.125,0.12387368749999716
2018-07-05 11:59:34.500000,6.621772999999999,1.375,0.029674091237186673,0.030108000000000246,0.375,1.625,0.0489255000000004
2018-07-05 11:59:38.375000,6.7543745,1.625,0.12351148120623634,0.18128649999999968,,,
2018-07-05 11:59:40.625000,6.817793,1.375,0.05399700638738736,0.0602159999999996,0.375,1.625,0.09785099999999936
2018-07-05 11:59:45.750000,6.883133,4.0,0.0940874361938917,0.21011300000000066,0.25,2.0,0.4202260000000013
2018-07-05 11:59:47.750000,7.150899000000001,1.0,0.43122861691501413,0.1857710000000008,0.625,1.625,0.3018778750000013
2018-07-05 11:59:56.875000,4.8554105,1.625,1.1463072124257572,2.0861864999999993,,,
2018-07-05 12:00:04.250000,4.84516,1.25,0.020055269550599775,0.029466999999999466,0.125,1.25,0.03683374999999933
2018-07-05 12:00:11.875000,2.2976409999999996,1.125,0.7330317639606605,0.6929729999999996,0.375,1.375,0.9528378749999995
2018-07-05 12:00:21.625000,4.978382,4.0,0.053347526444934346,0.09030199999999944,,,
2018-07-05 12:00:25,5.061018,1.875,0.03619229317585848,0.08007350000000013,,,
2018-07-05 12:00:30.500000,5.136608,1.25,0.07266769152397856,0.06405900000000031,1.875,3.0,0.19217700000000093
2018-07-05 12:00:44,5.470578,1.875,0.5195007669793164,1.2116795000000007,,,
2018-07-05 12:00:45.875000,5.469297,0.75,0.21586082864265066,0.03202999999999978,0.25,0.5,0.01601499999999989
2018-07-05 12:00:50,5.497483,0.625,0.5105395456802206,0.10228600000000032,,,
2018-07-05 12:00:57.625000,5.039878999999999,1.75,0.08091081610849216,0.11210349999999991,,,
2018-07-05 12:01:02,5.16095,0.875,0.3298797603522523,0.022420499999999954,,,
2018-07-05 12:01:04.750000,5.7972779999999995,0.375,0.07017167626444021,0.030107999999999357,,,
2018-07-05 12:01:11.125000,5.930256,4.0,0.08356310769347175,0.3215754999999998,,,
2018-07-05 12:01:15.625000,5.889258,1.0,0.14316216851740293,0.03138850000000026,0.25,1.25,0.03923562500000033
2018-07-05 12:01:18.250000,6.06542,1.875,0.04459811733594066,0.16078800000000015,,,
2018-07-05 12:01:22.375000,6.1756009999999995,4.0,0.06062799125165341,0.14925649999999901,,,
2018-07-05 12:01:34.500000,6.1717580000000005,1.625,0.034899246952353025,0.048685000000000755,0.875,2.125,0.1034556250000016
2018-07-05 12:01:42.375000,6.2351755,1.125,0.08292933381853729,0.07494850000000053,1.125,2.125,0.15926556250000112
2018-07-05 12:01:48,6.128198,4.0,0.012692620138363253,0.024343000000000004,0.625,2.5,0.06085750000000001
2018-07-05 12:01:55.750000,6.353685,4.0,0.09651694653121723,0.18192699999999906,1.25,2.625,0.47755837499999754
2018-07-05 12:02:09.375000,6.456398,1.75,0.06982989796778227,0.14050800000000052,0.75,2.125,0.2985795000000011
2018-07-05 12:02:23.375000,6.273830500000001,4.0,0.07727026568931095,0.07430850000000078,,,
2018-07-05 12:02:45.500000,6.323796,4.0,0.06003749273115844,0.02306100000000022,0.125,1.375,0.0317088750000003
2018-07-05 12:02:51.375000,6.487786999999999,1.75,0.08602478665557811,0.1364454999999989,,,
2018-07-05 12:02:53.625000,6.755553,1.75,0.05349727024505668,0.1620689999999998,0.75,2.375,0.3849138749999995
2018-07-05 12:02:57.625000,6.8452355,1.625,0.1757565097987559,0.2600795000000007,0.875,2.25,0.5851788750000015
2018-07-05 12:03:08.250000,6.6953380000000005,4.0,0.055927988086178715,0.11530599999999946,0.875,2.5,0.28826499999999866
2018-07-05 12:03:19.750000,6.659464999999999,1.0,0.14424101814588397,0.12555599999999956,,,
2018-07-05 12:03:22.875000,6.7017435,1.75,0.020292455428414513,0.03971649999999993,0.375,1.875,0.07446843749999987
2018-07-05 12:03:27.125000,7.0061255,1.875,0.13650614268922823,0.3159124999999987,,,
2018-07-05 12:03:41.500000,6.6819880000000005,1.5,0.03754942913518633,0.06277799999999978,1.125,2.375,0.14909774999999947
2018-07-05 12:03:45,6.697361999999999,0.875,0.07047968059590204,0.023701999999999224,,,
2018-07-05 12:03:49.375000,6.7204235,1.75,0.10432909095050036,0.04163799999999984,0.125,1.375,0.05725224999999978
2018-07-05 12:03:52.875000,6.8549465,1.125,0.21844137455951085,0.2113934999999998,,,
2018-07-05 12:04:05.750000,6.813949000000001,1.75,0.07744360784731796,0.15758500000000097,1.0,2.25,0.3545662500000022
2018-07-05 12:04:12.375000,6.7934505000000005,1.375,0.1399118968418982,0.14861650000000104,1.25,2.5,0.3715412500000026
2018-07-05 12:04:21.250000,6.634583999999999,1.625,0.020081163298588223,0.033309999999999285,0.5,1.875,0.06245624999999866
2018-07-05 12:04:28.125000,6.661489000000001,1.5,0.054876063696237765,0.07558950000000131,0.625,1.875,0.14173031250000245
2018-07-05 12:04:58.250000,6.389136,4.0,0.02486769592120197,0.05765299999999929,1.375,3.0,0.17295899999999786
2018-07-05 12:05:25.500000,6.257175,1.75,0.021396176789451715,0.02306100000000022,0.5,1.75,0.040356750000000385
2018-07-05 12:05:27.750000,6.289205,1.125,0.03885724581237682,0.0262645000000008,0.875,2.0,0.0525290000000016
2018-07-05 12:05:34.625000,6.3551855,4.0,0.03499067945635659,0.09672950000000036,0.875,2.5,0.2418237500000009
2018-07-05 12:05:42.125000,6.3065005,1.5,0.04972610443896741,0.059574500000000086,0.625,1.875,0.11170218750000016
2018-07-05 12:05:49.750000,6.405792,1.625,0.18356701736925274,0.20178549999999973,,,
2018-07-05 12:05:55.250000,6.259737,1.0,0.03559652976611005,0.03202900000000053,,,
2018-07-05 12:05:58.625000,6.381449,4.0,0.07244779804236146,0.10505600000000026,1.625,2.75,0.2889040000000007
2018-07-05 12:06:05.500000,6.504442,4.0,0.08984223814397296,0.1217119999999996,0.75,2.0,0.2434239999999992
2018-07-05 12:06:09.500000,6.6607460000000005,4.0,0.04918258044763135,0.13836700000000057,0.75,2.5,0.34591750000000143
2018-07-05 12:06:15.375000,6.765162,1.75,0.11821021109114938,0.1287585,,,
2018-07-05 12:06:18,7.158586,1.75,0.15817563221545683,0.3415359999999996,1.125,2.625,0.896531999999999
2018-07-05 12:06:27.875000,6.8901795,1.625,0.046269815023915584,0.04932550000000102,,,
2018-07-05 12:06:31.375000,6.9612845,1.125,0.14157545552181716,0.07943249999999935,0.25,1.375,0.10921968749999911
2018-07-05 12:06:44.875000,6.625615999999999,1.75,0.019514654478857807,0.024982999999998867,,,
2018-07-05 12:06:50,7.293108999999999,1.75,0.4961861307254196,0.7200209999999991,1.75,3.0,2.1600629999999974
2018-07-05 12:06:56.750000,6.861353,1.375,0.09919181811792299,0.10825949999999995,0.625,1.75,0.18945412499999992
2018-07-05 12:07:11.125000,6.639709,1.75,0.04733296296282319,0.04932550000000013,1.5,2.625,0.12947943750000035
2018-07-05 12:07:17.875000,6.601274,1.5,0.030482484234966023,0.03331100000000031,0.25,1.375,0.04580262500000043
2018-07-05 12:07:19.875000,6.9190055,1.25,0.25399987298708027,0.2427829999999993,1.125,2.25,0.5462617499999984
2018-07-05 12:07:31.375000,6.990111000000001,1.125,0.08116702400398879,0.057012000000000285,0.5,1.5,0.08551800000000043
2018-07-05 12:07:34.625000,7.0932455,1.5,0.11669961290898456,0.14541300000000046,,,
2018-07-05 12:07:39,7.1662729999999994,1.125,0.12864839868402456,0.08519849999999973,0.375,1.375,0.11714793749999963
2018-07-05 12:07:41.500000,7.118869,1.0,0.07462899392805511,0.025622999999999507,0.125,1.125,0.028825874999999446
2018-07-05 12:07:48.375000,7.063138,4.0,0.01809121726448737,0.12939850000000064,1.125,2.875,0.37202068750000183
2018-07-05 12:07:57.750000,7.022781,4.0,0.10532955018391021,0.15374100000000102,0.875,2.125,0.32669962500000216
2018-07-05 12:08:05.875000,7.1259155,4.0,0.12743368924760645,0.21203449999999968,1.125,2.5,0.5300862499999992
2018-07-05 12:08:11.750000,7.102214,1.625,0.12078799833635046,0.18000499999999953,,,
2018-07-05 12:08:18.500000,7.2854220000000005,4.0,0.05124358576177457,0.18192700000000084,1.125,2.875,0.5230401250000024
2018-07-05 12:08:27.250000,7.017656,4.0,0.0333638378327592,0.03971600000000031,0.875,2.125,0.08439650000000065
2018-07-05 12:08:32.500000,7.022781,1.125,0.054002671048280604,0.048043999999999976,0.5,1.5,0.07206599999999996
2018-07-05 12:08:38.375000,7.1681945,1.75,0.08947018095325987,0.14285100000000028,,,
2018-07-05 12:08:40.500000,7.6064300000000005,1.625,0.2113851807559577,0.3434280000000003,0.75,2.125,0.7297845000000006
2018-07-05 12:08:54.125000,7.256669,4.0,0.06964859218781427,0.23253400000000024,,,
2018-07-05 12:09:12.875000,7.2277695,1.625,0.0872230366505633,0.1332424999999997,0.875,2.25,0.29979562499999934
2018-07-05 12:09:31.375000,6.882492500000001,4.0,0.05043752572674265,0.12427450000000118,1.125,2.625,0.3262205625000031
2018-07-05 12:09:40,6.901069000000001,1.75,0.074204109184695,0.14861600000000053,,,
2018-07-05 12:09:45.250000,7.437314999999999,4.0,0.10180739174944975,0.417095999999999,1.125,2.75,1.1470139999999973
2018-07-05 12:09:54.875000,6.9401455,1.5,0.06799174337236025,0.08199599999999929,,,
2018-07-05 12:09:57.250000,7.039436,1.375,0.08445400830541061,0.07110500000000108,0.375,1.625,0.11554562500000176
2018-07-05 12:10:05.750000,7.607711,4.0,0.08312014878589125,0.21723200000000098,,,
2018-07-05 12:10:09.125000,7.7191735,4.0,0.0749477242705403,0.09160400000000024,0.25,1.875,0.17175750000000045
2018-07-05 12:10:23.875000,7.2290505000000005,1.125,0.5520314989699067,0.2946705000000005,,,
2018-07-05 12:10:29,7.580807000000001,1.5,0.17227631186734627,0.23132600000000103,0.75,2.0,0.46265200000000206
2018-07-05 12:10:35,7.666646000000001,1.75,0.22121114173373968,0.3702610000000002,1.25,2.5,0.9256525000000004
2018-07-05 12:10:41.750000,7.573119999999999,4.0,0.1504526974347904,0.2229259999999993,0.875,2.25,0.5015834999999984
2018-07-05 12:10:47.250000,7.767859,4.0,0.15014854242112108,0.21395699999999884,0.625,2.25,0.4814032499999974
2018-07-05 12:10:55.625000,7.9285995,4.0,0.1832109041016956,0.28629649999999973,0.625,2.0,0.5725929999999995
2018-07-05 12:11:00.125000,7.582041,1.0,0.05936698521691852,0.024342500000000378,0.25,1.25,0.030428125000000472
2018-07-05 12:11:09.250000,8.040703,4.0,0.2852026670851444,0.4739900000000006,1.125,2.375,1.1257262500000014
2018-07-05 12:11:15.250000,7.640975,1.125,0.06558390655063562,0.03010749999999973,0.25,1.375,0.04139781249999963
2018-07-05 12:11:17.875000,7.854932,1.375,0.19348473698944701,0.21011299999999977,0.75,2.0,0.42022599999999954
2018-07-05 12:11:23.875000,7.7646085,1.625,0.10664652082066794,0.16334949999999981,1.0,2.375,0.38795506249999956
2018-07-05 12:11:27.375000,7.9503795,1.375,0.22723093034053932,0.26200050000000097,1.0,2.25,0.5895011250000022
2018-07-05 12:11:33,7.79856,1.625,0.11236001304664711,0.12939850000000064,0.625,1.75,0.22644737500000112
2018-07-05 12:11:36.625000,7.740907,1.25,0.11538212107885215,0.08712050000000104,,,
2018-07-05 12:11:44.875000,7.689659499999999,1.375,0.1048622190472841,0.10505649999999989,0.625,1.75,0.1838488749999998
2018-07-05 12:12:01,7.660239999999999,1.625,0.1744107670621382,0.26840749999999947,,,
2018-07-05 12:12:11,7.354038,1.5,0.07503689365833921,0.09480700000000031,0.625,1.875,0.17776312500000058
2018-07-05 12:12:15.625000,7.232326500000001,1.25,0.03806751716343015,0.021780000000001465,0.25,1.375,0.029947500000002014
2018-07-05 12:12:30.875000,6.939505,1.125,0.06531668762759679,0.038435999999999026,0.375,1.5,0.05765399999999854
2018-07-05 12:12:39.250000,6.983065,1.375,0.07892236755674276,0.0909639999999996,1.0,2.125,0.19329849999999915
2018-07-05 12:12:54.250000,6.907475,1.875,0.04837839228705221,0.11530599999999946,1.125,2.625,0.3026782499999986
2018-07-05 12:13:07.250000,6.753734,4.0,0.020460601559605607,0.0499660000000004,0.875,2.5,0.124915000000001
2018-07-05 12:13:21.750000,6.620492,1.75,0.014748197830819265,0.030749000000000137,0.5,1.875,0.05765437500000026
2018-07-05 12:13:24.250000,6.673019999999999,1.0,0.10733087034162025,0.04868499999999898,,,
2018-07-05 12:13:27.250000,6.830605,4.0,0.09510347404717123,0.15117900000000084,,,
2018-07-05 12:13:30.625000,6.9209274999999995,1.5,0.054812343240666195,0.0787924999999996,0.625,1.875,0.14773593749999925
2018-07-05 12:13:34.875000,6.902991,1.625,0.038796628801812005,0.0903230000000006,0.5,2.0,0.1806460000000012
2018-07-05 12:13:38.125000,6.861352500000001,1.875,0.02644681571742069,0.030747500000000372,0.125,1.75,0.05380812500000065
2018-07-05 12:13:40,6.827299000000001,0.75,0.45701646518542915,0.020499000000000933,,,
2018-07-05 12:13:58.375000,6.7023845,4.0,0.03310043973503696,0.04676349999999996,,,
2018-07-05 12:14:22,6.802419,1.5,0.17643683967160229,0.13654799999999945,0.125,1.25,0.1706849999999993
2018-07-05 12:14:26.375000,6.3366085,4.0,0.08208411063298726,0.1832085000000001,1.375,2.75,0.5038233750000003
2018-07-05 12:14:31.500000,6.253332,1.375,0.1366815949062996,0.15502250000000029,0.875,2.0,0.31004500000000057
2018-07-05 12:14:36.125000,6.1393065,1.25,0.15624183086156762,0.06085550000000062,0.125,1.375,0.08367631250000085
2018-07-05 12:14:59.500000,6.5685009999999995,0.625,0.40457240194399446,0.08434649999999966,0.125,0.25,0.021086624999999914
2018-07-05 12:15:01.125000,7.2739650000000005,1.0,1.0937019259470375,0.4413310000000008,0.375,1.375,0.6068301250000011
2018-07-05 12:15:02.750000,7.6064300000000005,0.875,0.5928919483179449,0.06662100000000049,,,
2018-07-05 12:15:19.625000,7.3437885000000005,0.875,0.18045508664677712,0.1063375000000013,,,
2018-07-05 12:15:31.500000,7.679457000000001,4.0,0.08535237530145778,0.3343870000000013,1.25,2.875,0.9613626250000038
2018-07-05 12:15:40.625000,7.5801655,4.0,0.08897329053144887,0.15822499999999984,1.25,2.625,0.4153406249999996
2018-07-05 12:15:54.500000,7.525716,1.875,0.041082595234744446,0.14093,,,
2018-07-05 12:15:57,7.626929,1.5,0.06575105011513216,0.09096400000000049,,,
2018-07-05 12:16:00.875000,7.648709,1.125,0.047759778163115385,0.026905000000001067,0.25,1.375,0.03699437500000147
2018-07-05 12:16:04.750000,7.858822,4.0,0.08777269553104716,0.15502299999999902,0.875,2.125,0.3294238749999979
2018-07-05 12:16:19,7.430909,4.0,0.031032261438429742,0.11018099999999986,1.25,2.875,0.3167703749999996
2018-07-05 12:16:25.750000,7.314889,0.75,0.47562307539718063,0.06021499999999946,,,
2018-07-05 12:16:29.125000,7.4341115,1.25,0.5193350796693572,0.456274500000001,,,
2018-07-05 12:16:32.125000,7.4136135,1.5,0.08474957894724611,0.0999320000000008,0.375,1.625,0.1623895000000013
2018-07-05 12:16:43,6.10898,4.0,0.08324503068138966,0.13708600000000004,,,
2018-07-05 12:16:59.375000,5.7092525,1.375,0.06635381031980003,0.03843550000000029,0.25,1.5,0.05765325000000043
2018-07-05 12:17:02.500000,5.918085,4.0,0.04594067412405067,0.2178009999999997,,,
2018-07-05 12:17:07,6.93438,4.0,0.12986525221566225,0.5409790000000001,,,
2018-07-05 12:17:19.750000,6.831886,1.375,0.03295494904874374,0.030108000000000246,0.625,1.875,0.05645250000000046
2018-07-05 12:17:37.375000,6.8338075,1.75,0.05064731620706553,0.11082150000000102,,,
2018-07-05 12:17:40.750000,6.944628999999999,1.625,0.08708430494304764,0.09160399999999846,0.5,1.75,0.1603069999999973
2018-07-05 12:17:48.125000,6.765905,1.75,0.02712016307006948,0.022420499999999954,,,
2018-07-05 12:17:59.250000,6.901069000000001,4.0,0.08789162852502486,0.22548700000000022,1.375,2.875,0.6482751250000006
2018-07-05 12:18:10.250000,7.660239999999999,4.0,0.16456343425910802,0.42862699999999876,1.625,3.125,1.3394593749999961
2018-07-05 12:18:14.250000,7.656396000000001,1.625,0.1210057150917585,0.18128650000000057,0.875,2.25,0.4078946250000013
2018-07-05 12:18:19.750000,7.647428,1.5,0.15003055196206816,0.19986399999999982,1.25,2.5,0.49965999999999955
2018-07-05 12:18:28.375000,7.512904499999999,4.0,0.030746232422430353,0.06213749999999951,0.375,2.0,0.12427499999999903
2018-07-05 12:18:32,7.7947630000000006,4.0,0.24980859496861996,0.42150700000000096,1.75,3.125,1.3172093750000031
2018-07-05 12:18:36.625000,7.885085499999999,1.75,0.15004080141590137,0.31196549999999945,0.875,2.25,0.7019223749999988
2018-07-05 12:18:40.875000,7.9036165,1.75,0.12425500637799658,0.19469250000000038,0.75,2.0,0.38938500000000076
2018-07-05 12:18:49.125000,7.7242985,1.5,0.30941897014891495,0.4778789999999997,,,
2018-07-05 12:18:58.375000,7.681379,1.75,0.10593484158499678,0.28698349999999984,,,
2018-07-05 12:19:02.875000,7.629491000000001,4.0,0.03991907030894737,0.05060600000000015,1.125,2.25,0.11386350000000034
2018-07-05 12:19:13.750000,7.817824000000001,4.0,0.16506706148324923,0.14605400000000124,1.125,2.375,0.34687825000000294
2018-07-05 12:19:22.125000,7.846650499999999,1.625,0.19795645017984498,0.3094034999999993,,,
2018-07-05 12:19:29.750000,8.11501,4.0,0.06786515733828224,0.29718599999999906,0.5,2.25,0.6686684999999979
2018-07-05 12:19:34,7.984331,1.25,0.06070128888395132,0.034591999999999956,0.625,1.75,0.06053599999999992
2018-07-05 12:19:41.750000,8.250815,4.0,0.11320519381598615,0.22420600000000057,0.625,2.0,0.44841200000000114
2018-07-05 12:19:50.375000,8.339857,1.875,0.23291723046262547,0.47980100000000014,0.625,2.0,0.9596020000000003
2018-07-05 12:19:55,7.894647999999999,1.375,0.14247303202792239,0.11594599999999833,0.625,1.875,0.21739874999999687
2018-07-05 12:19:58.125000,7.6063835,1.25,0.10725734511319018,0.07238699999999998,1.0,2.125,0.15382237499999996
2018-07-05 12:20:02,7.885680000000001,1.875,0.1593191398511209,0.31965400000000077,1.125,2.625,0.839091750000002
2018-07-05 12:20:06.500000,7.617914,1.5,0.04042481400500364,0.034591999999999956,0.25,1.5,0.051887999999999934
2018-07-05 12:20:14.125000,7.7441569999999995,1.625,0.18254560793139518,0.27609399999999873,,,
2018-07-05 12:20:16.875000,7.716610999999999,1.0,0.08162255502564264,0.04804349999999946,0.375,1.375,0.06605981249999926
2018-07-05 12:20:23.875000,7.7486405000000005,1.75,0.19155929192466914,0.2735310000000002,,,
2018-07-05 12:20:29,8.148321000000001,4.0,0.07423392528081507,0.2741250000000006,1.125,2.75,0.7538437500000017
2018-07-05 12:20:41,7.665317999999999,1.125,0.038866483024136755,0.02049949999999967,0.375,1.375,0.028186812499999547
2018-07-05 12:21:08.250000,6.720422999999999,1.25,0.039567477704544274,0.02306100000000022,0.5,1.625,0.03747412500000036
2018-07-05 12:21:12.375000,6.871602000000001,1.625,0.107374443459328,0.16527200000000075,1.625,3.0,0.49581600000000225
2018-07-05 12:21:19.625000,6.810746,1.5,0.08107307476252146,0.11082150000000013,0.625,1.875,0.20779031250000024
2018-07-05 12:21:28.750000,6.5999929999999996,1.625,0.05202873606604186,0.06469949999999969,0.5,1.75,0.11322412499999945
2018-07-05 12:21:51.250000,6.2494879999999995,1.625,0.040436225048370744,0.06341849999999916,0.75,2.125,0.1347643124999982
2018-07-05 12:21:54.125000,6.3218745,1.625,0.04901145340667057,0.08135449999999977,,,
2018-07-05 12:22:02.125000,6.3161095,1.5,0.019507612533871566,0.039716499999999044,1.125,2.5,0.09929124999999761
2018-07-05 12:22:08.875000,6.3526229999999995,1.5,0.06117337410999468,0.07366749999999911,1.25,2.5,0.18416874999999777
2018-07-05 12:22:21.375000,6.4480705,1.5,0.140061372423677,0.20306650000000026,,,
2018-07-05 12:22:23.750000,6.471132,1.625,0.03335664622464307,0.02113950000000031,0.125,1.25,0.02642437500000039
2018-07-05 12:22:34.875000,6.7094305,4.0,0.15211259334815352,0.3215754999999998,,,
2018-07-05 12:22:40.750000,6.758114999999999,4.0,0.10742310777926178,0.26264099999999946,,,
2018-07-05 12:22:46.250000,6.888795,1.75,0.08207314046543601,0.21011299999999888,,,
2018-07-05 12:22:48.375000,7.194459,1.25,0.2496086385915106,0.24160449999999933,1.125,2.25,0.5436101249999985
2018-07-05 12:22:53.500000,7.181647,1.75,0.07073553690877432,0.171678,1.25,2.75,0.4721145
2018-07-05 12:22:57.375000,7.2264885,1.375,0.10413618929776902,0.12299350000000064,,,
2018-07-05 12:23:02.125000,7.5769625000000005,1.625,0.20941365094517295,0.31075750000000024,1.0,2.25,0.6992043750000005
2018-07-05 12:23:06.750000,7.3079160000000005,1.0,0.051810489665875537,0.03331100000000031,,,
2018-07-05 12:23:32,7.237450999999999,1.625,0.06698310895599136,0.07238599999999895,,,
2018-07-05 12:23:35.125000,7.5571044999999994,1.5,0.1718311387755378,0.2447039999999987,1.125,2.375,0.5811719999999969
2018-07-05 12:23:39.625000,7.8126995,4.0,0.15100488137191448,0.257517,0.875,2.125,0.547223625
2018-07-05 12:24:05.875000,8.197005999999998,4.0,0.2917341797708488,0.5508589999999982,1.75,3.125,1.7214343749999945
2018-07-05 12:24:22.750000,7.58465,4.0,0.168200446689184,0.36513500000000043,1.5,2.875,1.0497631250000012
2018-07-05 12:24:31,7.615398,4.0,0.0528960469422195,0.10505600000000026,0.5,2.0,0.21011200000000052
2018-07-05 12:24:35.875000,7.578885,1.5,0.1263917822220293,0.16591249999999924,0.875,2.125,0.3525640624999984
2018-07-05 12:24:42.250000,7.404004,1.375,0.05404382791789075,0.04740349999999971,0.375,1.625,0.07703068749999953
2018-07-05 12:24:50.625000,7.4840775,1.875,0.1388630132224442,0.24150150000000004,,,
2018-07-05 12:24:55.500000,7.934365,1.875,0.20106819089185635,0.5072995000000002,1.5,3.0,1.5218985000000007
2018-07-05 12:25:02.125000,7.8485255,1.875,0.08652258879887498,0.2664844999999998,1.375,2.875,0.7661429374999994
2018-07-05 12:25:07.375000,7.8075285,1.75,0.18296147724955958,0.1883335000000006,,,
2018-07-05 12:25:10,7.808808999999999,1.25,0.05902864063677171,0.020497999999999017,0.625,1.875,0.03843374999999816
2018-07-05 12:25:14.375000,8.2194265,1.75,0.18110161272883118,0.4323970000000017,1.625,3.125,1.3512406250000053
2018-07-05 12:25:21.625000,8.3970625,1.875,0.21068993870756714,0.5177885,,,
2018-07-05 12:25:31.500000,8.009953999999999,1.5,0.21981626501420592,0.30107599999999923,0.125,1.125,0.33871049999999914
2018-07-05 12:25:33.375000,8.130384,0.875,0.7071858661121162,0.2485009999999992,,,
2018-07-05 12:25:40.500000,6.7465850000000005,1.25,0.6724816460705298,0.6171060000000006,1.0,2.125,1.3113502500000012
2018-07-05 12:25:45.750000,7.149617999999999,4.0,0.32807147540028936,0.655003999999999,,,
2018-07-05 12:25:50.625000,7.059934999999999,1.375,0.03878191937977604,0.04484099999999902,1.125,2.25,0.1008922499999978
2018-07-05 12:25:59.875000,7.164992,4.0,0.05702684102575972,0.10633799999999916,0.25,1.625,0.17279924999999863
2018-07-05 12:26:18.250000,6.756296000000001,4.0,0.02569537241351938,0.0755889999999999,,,
2018-07-05 12:26:29.875000,6.797935,4.0,0.03249087689874486,0.08455800000000036,0.625,2.25,0.1902555000000008
2018-07-05 12:26:34.500000,6.921568,1.5,0.16229179063079613,0.1524599999999996,,,
2018-07-05 12:26:36.875000,7.0003605,1.75,0.06386025441922172,0.08263599999999993,1.625,2.875,0.2375784999999998
2018-07-05 12:26:41.750000,7.199584,4.0,0.01301919422108,0.13324299999999933,,,
2018-07-05 12:26:52.500000,7.400728,1.625,0.07414474426830253,0.09672850000000022,0.375,1.625,0.15718381250000035
2018-07-05 12:26:55.375000,7.1899745,1.125,0.14263192749069376,0.09672849999999933,,,
2018-07-05 12:26:58.500000,7.229050999999999,1.5,0.06992922218821107,0.061497000000000135,0.875,2.0,0.12299400000000027
2018-07-05 12:27:07.875000,7.188053,4.0,0.05958137974697664,0.03267000000000131,,,
2018-07-05 12:27:20.625000,7.188053,1.5,0.054507760568682784,0.07430850000000078,1.5,2.625,0.19505981250000204
2018-07-05 12:27:42.375000,7.3449975,4.0,0.09231645870004357,0.13900799999999958,0.875,2.125,0.2953919999999991
2018-07-05 12:27:53.250000,7.674333,4.0,0.1046151814799039,0.1665529999999995,1.0,2.375,0.39556337499999883
2018-07-05 12:28:06.625000,7.46486,4.0,0.0711009189328422,0.22933049999999966,1.625,3.25,0.7453241249999989
2018-07-05 12:28:21,7.7102059999999994,4.0,0.17398404151645508,0.30363899999999955,,,
2018-07-05 12:28:24.500000,7.851135,1.625,0.08972162026583419,0.18961450000000024,,,
2018-07-05 12:28:26.375000,8.019563000000002,1.375,0.13049281037270077,0.11974400000000163,0.375,1.625,0.19458400000000264
2018-07-05 12:28:33,8.066326,1.875,0.12443072298115254,0.23189299999999946,,,
2018-07-05 12:28:54.500000,7.8318710000000005,4.0,0.07402790744280097,0.2408620000000008,1.875,3.5,0.8430170000000028
2018-07-05 12:28:59.125000,8.079138,1.875,0.16305174947623158,0.349762000000001,1.125,2.5,0.8744050000000025
2018-07-05 12:29:04.875000,7.9029755,1.375,0.11613721326192561,0.13132050000000017,1.125,2.25,0.2954711250000004
2018-07-05 12:29:09.625000,8.175866000000001,1.0,0.09469177255378014,0.04676249999999982,1.0,2.0,0.09352499999999964
2018-07-05 12:29:26.125000,7.800482000000001,1.875,0.08052389063814758,0.171037000000001,1.75,3.125,0.5344906250000031
2018-07-05 12:29:50.500000,7.524435,0.875,0.19627201952713946,0.02242100000000047,0.25,1.125,0.025223625000000527
2018-07-05 12:29:54.375000,7.6615205,1.5,0.24782538151967515,0.13900800000000046,0.125,1.25,0.17376000000000058
2018-07-05 12:29:58.625000,8.184834500000001,1.75,0.2781986654622486,0.6379790000000014,,,
2018-07-05 12:30:01.625000,8.28925,1.375,0.16437971686531938,0.17423999999999928,0.375,1.625,0.28313999999999884
2018-07-05 12:30:07.125000,8.331529499999998,1.5,0.21722961194291912,0.4880819999999986,,,
2018-07-05 12:30:10.125000,8.6078165,1.625,0.32258322599008693,0.35700150000000086,1.125,2.25,0.8032533750000019
2018-07-05 12:30:22.750000,8.089387,4.0,0.07955677799112948,0.0806679999999993,0.25,2.125,0.1714194999999985
2018-07-05 12:30:26.250000,8.404556,1.125,0.3386365364775372,0.25046949999999946,,,
2018-07-05 12:30:30.875000,8.865973499999999,1.5,0.4065764903910818,0.6017054999999978,,,
2018-07-05 12:30:44.500000,9.191671000000001,4.0,0.3313998356902559,0.2904650000000011,0.75,1.875,0.544621875000002
2018-07-05 12:30:54.250000,8.930311,1.5,0.1645666004754247,0.22932999999999915,0.875,2.125,0.4873262499999982
2018-07-05 12:30:59.375000,8.8086,1.125,0.06346181824183361,0.04484099999999991,0.5,1.5,0.06726149999999986
2018-07-05 12:31:02.125000,8.837426,1.25,0.05299462231280927,0.04612200000000044,,,
2018-07-05 12:31:04.625000,8.9911675,4.0,0.07771066138373328,0.14156999999999975,,,
2018-07-05 12:31:12.625000,9.268542499999999,1.875,0.13373412750636504,0.37282249999999983,1.5,3.0,1.1184674999999995
2018-07-05 12:31:26.750000,8.378486,1.125,0.06554892705176485,0.04676300000000033,,,
2018-07-05 12:31:49.125000,8.532227500000001,4.0,0.045083169908487264,0.1812870000000011,,,
2018-07-05 12:31:51.250000,8.788463,1.5,0.13295254761046493,0.17552099999999982,0.625,2.0,0.35104199999999963
2018-07-05 12:31:55.500000,8.748746,4.0,0.07947547826844925,0.12811800000000062,0.5,1.875,0.24022125000000116
2018-07-05 12:32:00.125000,8.5962855,1.625,0.07537717543015532,0.07174550000000046,0.625,1.875,0.13452281250000087
2018-07-05 12:32:05.875000,8.4495915,1.875,0.020878649649375802,0.09672950000000036,,,
2018-07-05 12:32:08.750000,8.861489,4.0,0.15846089565867771,0.2972319999999993,0.875,2.25,0.6687719999999984
2018-07-05 12:32:25.500000,8.779494,4.0,0.14109066718993546,0.3420740000000002,1.75,3.25,1.1117405000000007
2018-07-05 12:32:32.625000,8.5424765,1.5,0.07939003658628252,0.10505649999999989,0.5,1.875,0.1969809374999998
2018-07-05 12:32:55.125000,8.174779,1.875,0.10473974648653694,0.14989799999999853,1.125,2.375,0.3560077499999965
2018-07-05 12:33:05.375000,7.418737500000001,0.875,0.8603094367501072,0.14997050000000112,0.125,1.0,0.14997050000000112
2018-07-05 12:33:12.125000,7.935005,1.875,0.09606513221368829,0.32088800000000006,,,
2018-07-05 12:33:27.875000,7.8094495,4.0,0.08626106776693732,0.26264100000000035,,,
2018-07-05 12:33:34.375000,7.938848999999999,1.875,0.08697557882016582,0.22997099999999993,1.75,3.25,0.7474057499999998
2018-07-05 12:33:51,7.706314999999999,1.0,0.0671670039221226,0.028185999999999822,,,
2018-07-05 12:33:52.875000,7.731939,1.25,0.039660119856726794,0.024982999999999755,0.25,1.375,0.034351624999999664
2018-07-05 12:33:54.750000,8.120135000000001,1.0,0.4154148493803689,0.2511100000000015,0.125,1.0,0.2511100000000015
2018-07-05 12:33:56.375000,8.1438375,0.75,0.4090468192160479,0.06662150000000011,1.125,1.5,0.09993225000000017
2018-07-05 12:34:01.750000,8.319999000000001,1.875,0.11800278380371765,0.22997150000000133,,,
2018-07-05 12:34:07.500000,8.27772,1.25,0.060497380452417815,0.04355999999999938,,,
2018-07-05 12:34:30.500000,8.280282000000001,1.75,0.06685874429253147,0.14733500000000177,,,
2018-07-05 12:34:33.625000,8.591801499999999,4.0,0.1563891545534446,0.3236904999999979,1.5,2.875,0.9306101874999939
2018-07-05 12:34:40.750000,8.247806,1.375,0.08135519600595842,0.08968250000000033,0.875,2.0,0.17936500000000066
2018-07-05 12:34:47.500000,8.470730999999999,4.0,0.18343659304632354,0.3266999999999989,,,
2018-07-05 12:34:53.375000,9.0782875,1.5,0.5622748195477101,0.9671205,,,
2018-07-05 12:34:58.875000,9.034727499999999,4.0,0.10957433172928432,0.3004359999999977,,,
2018-07-05 12:35:01.750000,9.268542,1.375,0.20102480625849495,0.2184399999999993,,,
2018-07-05 12:35:04,9.583272000000001,1.625,0.10447267478350852,0.1846899999999998,0.375,1.875,0.3462937499999996
2018-07-05 12:35:16.625000,9.100708000000001,4.0,0.06168748796041257,0.2511105000000011,1.875,3.5,0.8788867500000039
2018-07-05 12:35:23,9.039211,1.625,0.07614412313798624,0.1204300000000007,0.75,2.125,0.2559137500000015
2018-07-05 12:35:25.625000,9.228185,1.25,0.2034228047809421,0.1543814999999995,0.625,1.75,0.27016762499999913
2018-07-05 12:35:32.125000,8.998214,4.0,0.06592709291722798,0.12619550000000146,0.375,1.75,0.22084212500000255
2018-07-05 12:35:40,9.411594000000001,1.5,0.2609628940941633,0.35828900000000097,0.75,2.0,0.7165780000000019
2018-07-05 12:35:51.625000,8.806678000000002,1.75,0.08210906643036253,0.10441550000000177,0.625,1.625,0.16967518750000288
2018-07-05 12:36:00,8.473293,1.875,0.08291936343921691,0.32670000000000066,0.375,2.0,0.6534000000000013
2018-07-05 12:36:01.750000,8.660345,0.75,0.6105331433290786,0.04868499999999898,0.5,0.75,0.036513749999999234
2018-07-05 12:36:12.375000,8.9757935,1.875,0.18604683671260602,0.41409949999999895,1.875,3.25,1.3458233749999966
2018-07-05 12:36:20,9.018713,1.75,0.14328071880582627,0.30876400000000004,1.125,2.5,0.7719100000000001
2018-07-05 12:36:42.125000,8.624751,1.125,0.04932257454926514,0.0506069999999994,,,
2018-07-05 12:36:44.375000,8.802194,1.875,0.0808152164474123,0.12299300000000102,0.875,2.125,0.26136012500000216
2018-07-05 12:36:52.375000,8.578349499999998,0.875,0.12943970963625873,0.0358724999999982,,,
2018-07-05 12:36:55.250000,8.902125,4.0,0.05937418952457563,0.2943080000000009,1.375,3.0,0.8829240000000027
2018-07-05 12:37:04,8.730447999999999,1.875,0.07829419547736904,0.11530549999999984,,,
2018-07-05 12:37:10.250000,8.785539,4.0,0.05946441804615432,0.16271000000000058,,,
2018-07-05 12:37:14.500000,9.180141,1.875,0.14568365950480455,0.3369495000000011,0.875,2.25,0.7581363750000025
2018-07-05 12:37:19.250000,9.040493,1.75,0.14143819650906408,0.034591999999999956,,,
2018-07-05 12:37:32.125000,9.217295,1.5,0.2045791070627203,0.25046999999999997,0.875,2.125,0.5322487499999999
2018-07-05 12:37:35.125000,9.1404245,1.0,0.15121041127576973,0.039716499999999044,0.25,1.25,0.049645624999998805
2018-07-05 12:37:46.125000,8.600129500000001,1.375,0.1337831395877842,0.17167750000000126,0.375,1.375,0.23605656250000173
2018-07-05 12:37:49.375000,8.7737285,0.875,0.22421294070458941,0.023700500000000346,0.25,1.125,0.02666306250000039
2018-07-05 12:37:51.625000,8.860208499999999,1.625,0.020563823386133606,0.07174549999999869,1.125,2.625,0.18833193749999655
2018-07-05 12:37:58.625000,8.545039500000001,0.625,0.16108679910228574,0.028186500000002113,,,
2018-07-05 12:38:36.750000,7.992017999999999,4.0,0.024320861591011322,0.051246999999998266,,,
2018-07-05 12:38:56.250000,8.15729,0.875,0.8922769918877584,0.2440180000000005,0.625,1.25,0.30502250000000064
2018-07-05 12:38:58.750000,8.191881,0.75,1.1033883143325092,0.22415900000000022,,,
2018-07-05 12:38:59.875000,8.314233,0.75,0.28080121657481527,0.04996550000000077,0.25,1.0,0.04996550000000077
2018-07-05 12:39:08,8.591161999999999,4.0,0.0679290990852337,0.18064599999999764,0.625,2.25,0.4064534999999947
2018-07-05 12:39:19,8.539914,1.0,0.18478741435781387,0.06149699999999925,0.375,1.375,0.08455837499999896
2018-07-05 12:39:25.375000,8.28496,4.0,0.0165088781492031,0.02242000000000033,0.375,2.0,0.04484000000000066
2018-07-05 12:39:36.500000,8.01636,1.875,0.02590090862626937,0.06085600000000113,0.25,1.875,0.11410500000000212
2018-07-05 12:39:38.375000,8.097715,1.0,0.11855001583676028,0.053810000000002134,,,
2018-07-05 12:39:41.250000,8.30975,4.0,0.06692410343553234,0.15502299999999813,,,
2018-07-05 12:39:45.375000,8.7628395,1.75,0.2425628037233949,0.4389970000000005,,,
2018-07-05 12:39:50.750000,8.861489,1.625,0.1521454605597441,0.26648400000000017,1.625,3.0,0.7994520000000005
2018-07-05 12:39:59.750000,9.259574,4.0,0.130781620536645,0.45958000000000077,,,
2018-07-05 12:40:01.125000,9.331960500000001,1.0,0.08252918912010188,0.024983000000000644,0.125,1.125,0.028105875000000724
2018-07-05 12:40:13.125000,9.288400500000002,1.625,0.2238177660541183,0.40036750000000154,1.375,2.75,1.1010106250000042
2018-07-05 12:40:19.750000,9.064836,1.25,0.06259003558163556,0.04227999999999987,0.25,1.375,0.058134999999999826
2018-07-05 12:40:21.875000,9.159001499999999,1.25,0.09197277312385665,0.07687049999999829,0.375,1.5,0.11530574999999743
2018-07-05 12:40:33,9.031525,1.5,0.1965537129978614,0.22036300000000075,0.25,1.5,0.33054450000000113
2018-07-05 12:40:37.375000,8.9444045,1.0,0.48251448578725586,0.1973009999999995,,,
2018-07-05 12:40:45.125000,9.7991505,4.0,0.1990478841894472,0.3807104999999993,0.875,2.25,0.8565986249999984
2018-07-05 12:40:55.250000,7.971519,1.25,0.3419753954506106,0.21006699999999956,,,
2018-07-05 12:40:57.375000,8.429092,1.375,0.46147742136547976,0.3384230000000006,0.375,1.625,0.549937375000001
2018-07-05 12:41:03,8.492511,1.875,0.17739239634978787,0.40805500000000094,1.375,2.875,1.1731581250000027
2018-07-05 12:41:08.500000,8.670594,4.0,0.049462133409036824,0.3779469999999989,1.375,3.125,1.1810843749999966
2018-07-05 12:41:17.875000,8.8166485,4.0,0.17104688775469867,0.37730649999999955,,,
2018-07-05 12:41:25.375000,8.712232499999999,1.375,0.06547436216889224,0.08904149999999866,0.625,1.875,0.1669528124999975
2018-07-05 12:41:32.375000,8.5245405,1.375,0.12013028060830067,0.13580450000000077,,,
2018-07-05 12:41:38.250000,8.792306,1.25,0.17290921967872208,0.13708600000000004,1.0,2.125,0.2913077500000001
2018-07-05 12:41:49.125000,9.125691,4.0,0.23846474643144688,0.33466650000000087,0.75,1.875,0.6274996875000016
2018-07-05 12:41:54.125000,8.7381355,1.375,0.20147712099001325,0.14605449999999998,0.125,1.5,0.21908174999999996
2018-07-05 12:41:57.625000,8.3752825,0.75,0.25760172443481366,0.0377945000000004,0.625,1.375,0.051967437500000546
2018-07-05 12:42:01.625000,8.801274500000002,1.625,0.18541508833548193,0.392040500000002,1.125,2.5,0.980101250000005
2018-07-05 12:42:06.250000,8.504042,1.5,0.06372174833981603,0.05509100000000089,,,
2018-07-05 12:42:08.625000,8.92839,1.75,0.12098670578144066,0.32057350000000007,0.5,2.0,0.6411470000000001
2018-07-05 12:42:12.500000,8.464325,1.0,0.25122184366660605,0.08199500000000093,0.25,1.125,0.09224437500000104
2018-07-05 12:42:16.625000,8.5770685,1.5,0.19996685968937555,0.2837804999999989,1.0,2.25,0.6385061249999975
2018-07-05 12:42:19.500000,8.473293,1.125,0.06325100019954277,0.024342000000000752,,,
2018-07-05 12:42:21.875000,8.7141545,4.0,0.061160129135302554,0.19409800000000033,0.25,1.875,0.3639337500000006
2018-07-05 12:42:29.250000,8.574506,0.875,0.4019637397925919,0.13260149999999982,,,
2018-07-05 12:42:31.750000,8.702622999999999,4.0,0.016828429419909696,0.05637099999999862,0.375,2.0,0.11274199999999723
2018-07-05 12:42:33.875000,8.662267,0.75,0.3833583992887384,0.062137499999998624,,,
2018-07-05 12:42:39.500000,8.639846,1.375,0.03625383289987383,0.03331000000000017,0.625,1.75,0.0582925000000003
2018-07-05 12:42:53,8.846115,1.375,0.38657071906060736,0.4541759999999986,,,
2018-07-05 12:42:58.750000,8.820492,1.5,0.16466668550941677,0.2139559999999996,0.75,2.0,0.4279119999999992
2018-07-05 12:43:10.875000,8.7295285,1.75,0.12089905850763927,0.25815700000000064,0.75,2.125,0.5485836250000014
2018-07-05 12:43:14.375000,8.5905205,1.0,0.0994748815517923,0.032669500000000795,0.25,1.25,0.040836875000000994
2018-07-05 12:43:21.625000,8.677641,1.875,0.1268630619459401,0.26840699999999984,,,
2018-07-05 12:43:25.750000,8.916219,4.0,0.10755389116037861,0.2674050000000001,1.0,2.5,0.6685125000000003
2018-07-05 12:43:38.625000,8.60233,4.0,0.044441363837549375,0.09672849999999933,1.375,2.75,0.26600337499999815
2018-07-05 12:43:42.125000,8.617064,1.125,0.06438821855162047,0.037794999999999135,0.625,1.625,0.061416874999998594
2018-07-05 12:43:53.875000,8.562613,1.625,0.040117867086166825,0.03715400000000102,,,
2018-07-05 12:43:58.500000,8.791945,4.0,0.07020674538097182,0.11658699999999911,,,
2018-07-05 12:44:00.625000,8.8374265,1.25,0.07471259240850969,0.020498999999999157,,,
2018-07-05 12:44:03.875000,8.955294,1.25,0.0491378992128233,0.021779499999999175,0.25,1.375,0.029946812499998865
2018-07-05 12:44:09,9.242919,1.625,0.19811684220967862,0.3548860000000005,1.875,3.25,1.1533795000000016
2018-07-05 12:44:18.125000,8.872017499999998,1.5,0.06613574996877247,0.07174549999999869,0.5,1.75,0.1255546249999977
2018-07-05 12:44:25.750000,8.913656,1.875,0.031103161090541676,0.092884999999999,,,
2018-07-05 12:44:29.125000,9.029603,1.375,0.15158690050044754,0.12107199999999985,0.375,1.625,0.19674199999999975
2018-07-05 12:44:33.875000,9.1135205,1.5,0.7362416888933794,1.1304250000000007,,,
2018-07-05 12:44:35.875000,9.785058,1.5,0.34736549459348254,0.49921999999999933,1.75,3.0,1.497659999999998
2018-07-05 12:44:41.250000,9.593522,1.375,0.1837223374690069,0.19986399999999982,0.875,1.875,0.37474499999999966
2018-07-05 12:44:47,9.268103,1.0,0.07184606888986877,0.033310999999999424,0.25,1.25,0.04163874999999928
2018-07-05 12:45:01.625000,8.9757935,1.375,0.042745870062923075,0.04804350000000035,1.0,2.125,0.10209243750000074
2018-07-05 12:45:05.875000,9.023837499999999,1.25,0.07591628572555464,0.06341799999999864,,,
2018-07-05 12:45:21.125000,9.05907,1.75,0.06615233958261513,0.18384849999999986,1.125,2.625,0.48260231249999963
2018-07-05 12:45:42.250000,8.90597,1.625,0.05627328661500286,0.0839180000000006,0.75,2.125,0.17832575000000128
2018-07-05 12:45:45.250000,8.722761,0.625,0.10811813405846493,0.021780500000000202,,,
2018-07-05 12:45:49,8.827817,1.125,0.03736755146436366,0.03138849999999849,,,
2018-07-05 12:46:08.625000,8.8835485,1.5,0.13473102632239886,0.19153549999999875,,,
2018-07-05 12:46:14.625000,8.757992999999999,1.0,0.15742906707614424,0.08647899999999886,1.5,2.5,0.21619749999999716
2018-07-05 12:46:24.500000,9.090459,4.0,0.09174276508645818,0.10633799999999916,0.375,1.625,0.17279924999999863
2018-07-05 12:46:27.750000,8.995650999999999,1.0,0.1298131044293811,0.04484099999999813,0.375,1.375,0.06165637499999743
2018-07-05 12:46:31.625000,9.297368500000001,1.875,0.2731178104929768,0.3657755000000016,1.25,2.375,0.8687168125000038
2018-07-05 12:46:44.500000,8.876502,4.0,0.07595531297631197,0.10249400000000009,1.625,3.125,0.32029375000000027
2018-07-05 12:46:54.500000,9.019994,4.0,0.06019524450615421,0.10377500000000062,1.0,2.125,0.2205218750000013
2018-07-05 12:47:02.625000,9.3641915,4.0,0.06691750038341127,0.28398250000000047,,,
2018-07-05 12:47:04.625000,9.4910275,1.125,0.12574404041578902,0.0640584999999998,0.25,1.375,0.08808043749999972
2018-07-05 12:47:08.125000,9.4487485,1.0,0.11068542024388961,0.0281860000000016,0.25,1.25,0.035232500000002
2018-07-05 12:47:24.875000,9.012947,1.375,0.036657824182924514,0.057012000000000285,,,
2018-07-05 12:47:34.125000,8.755431000000002,1.625,0.03350853139912857,0.05573200000000078,0.5,2.0,0.11146400000000156
2018-07-05 12:47:42.125000,8.8668935,4.0,0.1137562287564009,0.1582259999999991,0.625,2.0,0.3164519999999982
2018-07-05 12:47:48.750000,8.975153,4.0,0.07191486063848629,0.19730200000000053,,,
2018-07-05 12:47:51.125000,9.084053,4.0,0.05154975293148567,0.06405900000000031,0.25,1.75,0.11210325000000054
2018-07-05 12:47:56.750000,9.168611,4.0,0.06337069102858806,0.24598600000000026,0.875,2.625,0.6457132500000007
2018-07-05 12:48:08,9.446186,1.875,0.12001790605106066,0.3409934999999997,1.625,3.125,1.0656046874999991
2018-07-05 12:48:14.500000,9.410314,1.125,0.13501506818384712,0.08776149999999916,0.375,1.375,0.12067206249999884
2018-07-05 12:48:19,9.473091,1.5,0.0913425463395896,0.15117900000000084,0.625,1.75,0.26456325000000147
2018-07-05 12:48:24.625000,9.5454775,4.0,0.2563067367208376,0.4189445000000003,,,
2018-07-05 12:48:40.375000,9.280274,1.5,0.1294737625805098,0.07046449999999993,0.125,1.375,0.0968886874999999
2018-07-05 12:48:49.500000,9.339849000000001,1.75,0.13076243293212997,0.2664850000000012,,,
2018-07-05 12:49:00.125000,9.085974499999999,1.25,0.167716915912564,0.15694449999999804,0.75,1.875,0.29427093749999633
2018-07-05 12:49:03.500000,9.235231,1.625,0.11807543527286413,0.19730050000000077,,,
2018-07-05 12:49:07.875000,9.6562995,4.0,0.23041161999321247,0.3115275000000004,0.625,1.75,0.5451731250000007
2018-07-05 12:49:11.500000,9.548680000000001,1.25,0.22090469401278767,0.17295800000000128,0.375,1.5,0.2594370000000019
2018-07-05 12:49:15.500000,9.589678,1.5,0.22581603168565323,0.30491899999999994,1.0,2.25,0.6860677499999999
2018-07-05 12:49:26.750000,8.436139,0.625,0.21006090027799473,0.027545500000000445,0.125,0.5,0.013772750000000222
2018-07-05 12:49:30.125000,8.955935,1.25,0.21375719311669883,0.10405400000000142,0.125,1.375,0.14307425000000196
2018-07-05 12:49:35,9.236513,4.0,0.40875647211200317,1.1163779999999992,,,
2018-07-05 12:49:41.125000,8.366956,4.0,0.06043198342393907,0.08712049999999927,0.5,2.375,0.20691118749999826
2018-07-05 12:49:44.500000,10.507894,4.0,0.2991914336496606,1.4298850000000005,,,
2018-07-05 12:49:47.375000,10.735942000000001,1.375,0.35802245166653535,0.342074000000002,1.0,2.25,0.7696665000000045
2018-07-05 12:49:56.250000,7.228483,1.875,0.09885929748007882,0.2312524999999992,0.625,2.125,0.4914115624999983
2018-07-05 12:50:19.250000,8.203412,1.25,0.8016681580882263,0.8878089999999998,0.25,1.375,1.2207373749999997
2018-07-05 12:50:21.875000,8.284125499999998,1.0,1.0943242674419693,0.4647359999999976,,,
2018-07-05 12:50:26.750000,7.719173,1.25,0.5392220933389353,0.4734669999999994,0.625,1.625,0.769383874999999
2018-07-05 12:50:29.625000,8.454716,1.25,0.8925568331212368,0.9924914999999999,,,
2018-07-05 12:50:32.250000,9.250166,1.125,0.7660556433277392,0.48860800000000104,,,
2018-07-05 12:50:50.625000,9.788261,4.0,0.07375068297059073,0.3049210000000002,0.875,2.5,0.7623025000000005
2018-07-05 12:50:55.750000,9.484622,1.125,0.0605402280403311,0.04356049999999989,,,
2018-07-05 12:51:03.875000,9.815806,4.0,0.09983696389097929,0.26071950000000044,,,
2018-07-05 12:51:06.625000,9.8983955,1.625,0.0437743464816478,0.07170050000000039,0.375,1.875,0.13443843750000073
2018-07-05 12:51:15.625000,9.846507500000001,1.5,0.12834152692474277,0.18384900000000215,0.5,1.875,0.34471687500000403
2018-07-05 12:51:29.750000,9.561492,0.875,0.16180060699619503,0.04227850000000011,0.25,1.0,0.04227850000000011
2018-07-05 12:51:34.750000,9.628114,4.0,0.009102852493590774,0.07559000000000005,,,
2018-07-05 12:51:39,9.710109,4.0,0.035958705235202615,0.10505699999999862,,,
2018-07-05 12:51:41.375000,9.921457,1.75,0.06546453032083832,0.15881999999999863,1.0,2.5,0.3970499999999966
2018-07-05 12:52:09.375000,9.808072,1.0,0.17526484736147552,0.07046399999999764,,,
2018-07-05 12:52:12.875000,10.069433,4.0,0.05714048283964246,0.18000600000000055,,,
2018-07-05 12:52:23.625000,10.147583999999998,4.0,0.06155612969311619,0.16975549999999906,1.25,2.75,0.4668276249999974
2018-07-05 12:52:37.750000,9.510245,1.625,0.04842322680102029,0.08199549999999967,1.0,2.375,0.1947393124999992
2018-07-05 12:52:41.125000,9.7427785,1.875,0.09592913835375327,0.25046950000000123,,,
2018-07-05 12:52:49,9.642206,1.75,0.046766697377478295,0.08968199999999982,,,
2018-07-05 12:53:01.375000,9.681923,1.75,0.06755333171089006,0.09929149999999964,,,
2018-07-05 12:53:05,9.75495,1.0,0.1565093985655679,0.07815199999999933,,,
2018-07-05 12:53:07.500000,10.050856,1.75,0.2036288899801022,0.30103100000000005,1.25,2.5,0.7525775000000001
2018-07-05 12:53:18.625000,9.961173,1.125,0.08221067398952187,0.06149700000000102,,,
2018-07-05 12:53:20.750000,10.016264,1.5,0.03352356424652925,0.051247999999999294,0.375,1.5,0.07687199999999894
2018-07-05 12:53:26.250000,9.994484,1.375,0.04982068690045338,0.0429195,,,
2018-07-05 12:53:36.125000,10.0149825,4.0,0.030698383380759253,0.023702000000000112,0.125,1.5,0.03555300000000017
2018-07-05 12:53:46,9.912488,1.875,0.05922307577317554,0.11914949999999891,0.75,2.375,0.2829800624999974
2018-07-05 12:53:51.875000,9.783729999999998,4.0,0.030057220354166247,0.09929149999999964,0.75,2.25,0.2234058749999992
2018-07-05 12:53:59,10.023951,4.0,0.13610213750198596,0.257517,0.125,1.75,0.45065475
2018-07-05 12:54:00.750000,10.212284,0.75,0.6404135054199216,0.04227900000000062,,,
2018-07-05 12:54:06.625000,10.3118735,4.0,0.21349569533865065,0.21233349999999973,,,
2018-07-05 12:54:14.125000,9.711343500000002,1.875,0.3052392318509902,0.4124925000000026,,,
2018-07-05 12:54:26.125000,9.8439455,1.375,0.07632223245781944,0.08647949999999938,0.75,1.875,0.16214906249999883
2018-07-05 12:55:07.750000,9.142548,4.0,0.01685368091786188,0.05765399999999943,1.375,3.0,0.17296199999999828
2018-07-05 12:55:20.875000,8.745181500000001,1.5,0.08114821928302973,0.11210300000000117,1.0,2.25,0.25223175000000264
2018-07-05 12:55:26.750000,8.975153,0.75,0.4466544278080917,0.058573000000000874,,,
2018-07-05 12:55:30.250000,9.034087,4.0,0.01352446019902942,0.04099700000000084,,,
2018-07-05 12:55:40.375000,9.231387999999999,4.0,0.006904228156059844,0.08455749999999895,1.75,3.5,0.29595124999999634
2018-07-05 12:55:48.375000,9.2108895,1.875,0.004744270979536225,0.023061500000000734,,,
2018-07-05 12:55:58.625000,9.3261955,4.0,0.041206366925777616,0.0621375000000004,1.0,2.25,0.1398093750000009
2018-07-05 12:56:05.750000,9.374880000000001,4.0,0.020280247800030793,0.0755890000000008,,,
2018-07-05 12:56:09.875000,9.494231,1.75,0.07912899010328545,0.12703799999999887,,,
2018-07-05 12:56:15.750000,9.549961999999999,1.75,0.03584867954010207,0.07046499999999867,,,
2018-07-05 12:56:19.500000,9.567898,1.375,0.039730462486055274,0.04355999999999938,1.25,2.25,0.0980099999999986
2018-07-05 12:56:23.250000,9.564053999999999,1.625,0.021420313890970988,0.022419999999998552,1.0,2.25,0.05044499999999674
2018-07-05 12:56:27,9.61402,1.75,0.03668641079390511,0.06021499999999946,1.0,2.375,0.14301062499999873
2018-07-05 12:56:32.125000,9.664627,1.75,0.030377630695646474,0.08263600000000082,1.625,3.125,0.25823750000000256
2018-07-05 12:56:50.500000,9.470528999999999,1.5,0.027219631842754666,0.037154999999998495,,,
2018-07-05 12:57:00.375000,9.6671895,1.5,0.033282966513539236,0.17616199999999793,,,
2018-07-05 12:57:18.750000,7.803731,4.0,0.06022943348291321,0.16270899999999955,,,
2018-07-05 12:57:20.500000,8.080419000000001,1.375,0.15702084230755986,0.16266300000000022,,,
2018-07-05 12:57:24.625000,8.286688,1.625,0.029670362608349876,0.09864999999999924,0.875,2.25,0.2219624999999983
2018-07-05 12:57:38.625000,8.061201,1.5,0.09479497301949635,0.13708550000000042,1.375,2.625,0.3598494375000011
2018-07-05 12:57:43.375000,7.949098,4.0,0.04383778971539698,0.08583900000000089,0.625,2.125,0.18240787500000188
2018-07-05 12:57:55.750000,7.719127,1.875,0.0242153204735871,0.06726150000000075,0.875,2.5,0.16815375000000188
2018-07-05 12:58:01.375000,8.0125165,4.0,0.13539591893885827,0.2857025000000002,,,
2018-07-05 12:58:11.625000,7.812699,1.75,0.17555326630013113,0.3926805000000009,,,
2018-07-05 12:58:13.625000,7.902381500000001,1.375,0.08273939525561858,0.09352550000000104,1.875,3.0,0.2805765000000031
2018-07-05 12:58:21.750000,8.208536,4.0,0.12060680772071208,0.16270899999999955,0.5,2.0,0.3254179999999991
2018-07-05 12:58:37.375000,9.100067000000001,4.0,0.14156559584829864,0.47943850000000054,,,
2018-07-05 12:58:58.750000,8.949530000000001,4.0,0.13703202081633492,0.3126080000000009,1.25,2.625,0.8205960000000023
2018-07-05 12:59:06.625000,8.930311,1.375,0.2372922691635111,0.2511100000000006,1.625,2.75,0.6905525000000017
2018-07-05 12:59:12.375000,8.853440500000001,4.0,0.01865783571636115,0.05701200000000206,1.0,2.75,0.15678300000000567
2018-07-05 12:59:18.375000,8.9239055,4.0,0.09401159165683026,0.171678,0.625,2.0,0.343356
2018-07-05 12:59:30.500000,8.87394,4.0,0.20774125061497983,0.38435299999999906,,,
2018-07-05 12:59:45.625000,8.203605499999998,1.125,0.03416330513910282,0.0339514999999988,,,
2018-07-05 12:59:49.875000,8.28496,1.75,0.031911233213662626,0.048684499999998465,0.75,2.125,0.10345456249999674
2018-07-05 12:59:52.875000,8.315068,1.0,0.0883245419519838,0.03266999999999953,,,
2018-07-05 12:59:54.750000,8.352862,1.125,0.04162734623779585,0.033951000000000064,0.375,1.375,0.04668262500000009
2018-07-05 13:00:17.625000,8.248894,4.0,0.23809243230113708,0.3267004999999994,,,
2018-07-05 13:00:20.375000,8.230957,1.25,0.07617372757286489,0.06341850000000093,,,
2018-07-05 13:00:24.500000,8.446388,4.0,0.03600235183822065,0.17763599999999968,,,
2018-07-05 13:00:26.125000,8.5399145,1.25,0.061578980861369814,0.04676349999999907,0.375,1.5,0.0701452499999986
2018-07-05 13:00:32.750000,8.719279,1.625,0.15712212775279255,0.2587975,1.5,2.75,0.711693125
2018-07-05 13:00:38,8.80768,4.0,0.12359820331543148,0.18705199999999955,0.875,2.125,0.39748549999999905
2018-07-05 13:00:43.375000,8.7621985,1.625,0.08536237705678928,0.06598050000000022,0.5,1.625,0.10721831250000036
2018-07-05 13:00:57.125000,8.445748,0.875,0.17789356465208073,0.030108000000000246,,,
2018-07-05 13:01:02,8.58988,1.5,0.04360925471387134,0.03715400000000102,0.375,1.5,0.05573100000000153
2018-07-05 13:01:06.625000,8.823694499999998,1.75,0.21141744186832767,0.33822999999999936,,,
2018-07-05 13:01:11.250000,8.636003,1.125,0.1131696761800427,0.03779500000000091,0.25,1.375,0.05196812500000125
2018-07-05 13:01:21.500000,8.855083,4.0,0.08486608273369001,0.2485470000000003,,,
2018-07-05 13:01:27.875000,8.812804499999999,1.75,0.08111685639536859,0.1665524999999981,,,
2018-07-05 13:01:30.500000,8.830741999999999,1.25,0.05033521946299402,0.033310999999999424,0.25,1.375,0.04580262499999921
2018-07-05 13:01:32.625000,8.8720185,1.25,0.07116127868822275,0.03551150000000014,0.25,1.375,0.04882831250000019
2018-07-05 13:01:36.250000,8.9175,1.375,0.11901300741248377,0.13004000000000104,,,
2018-07-05 13:01:40.250000,8.978996,1.375,0.13937060366941267,0.13580450000000077,,,
2018-07-05 13:01:45,9.299291,4.0,0.1125486904591213,0.16271000000000058,0.5,1.75,0.284742500000001
2018-07-05 13:01:49.375000,9.2550895,4.0,0.20242317611960203,0.20050349999999995,0.75,2.125,0.4260699374999999
2018-07-05 13:01:54.250000,9.479497,1.875,0.13908089933723033,0.40569349999999993,1.25,2.75,1.1156571249999998
2018-07-05 13:02:06.375000,9.082333,4.0,0.004174580017469509,0.023062000000001248,,,
2018-07-05 13:02:10.250000,9.275789999999999,4.0,0.03330649735715241,0.11530599999999858,,,
2018-07-05 13:02:17.875000,9.461560500000001,1.75,0.18318268267622528,0.3138885000000009,1.25,2.75,0.8631933750000025
2018-07-05 13:02:22.125000,9.255931499999999,0.875,0.057982987757668525,0.03651249999999884,0.875,1.75,0.06389687499999797
2018-07-05 13:02:40.125000,9.030883500000002,4.0,0.03434264587778557,0.11594600000000099,0.875,2.5,0.2898650000000025
2018-07-05 13:02:46.750000,8.911094,1.625,0.024585484530447843,0.04356049999999989,0.5,1.875,0.0816759374999998
2018-07-05 13:02:57.125000,8.95017,1.25,0.24226809864038756,0.18577050000000028,0.25,1.375,0.2554344375000004
2018-07-05 13:03:37.375000,7.856853500000001,1.875,0.030446394364798124,0.05445050000000062,1.25,2.5,0.13612625000000156
2018-07-05 13:03:45.875000,7.2886255,1.0,0.6274504527601259,0.3190135000000005,,,
2018-07-05 13:03:51,7.098371,1.75,0.03226199007310271,0.05381000000000036,0.875,2.375,0.12779875000000085
2018-07-05 13:03:57.500000,7.085559,1.875,0.06559355963552349,0.05316899999999958,0.125,1.75,0.09304574999999926
2018-07-05 13:03:59.875000,7.271329,1.25,0.41398591299945764,0.4183035000000004,,,
2018-07-05 13:04:03.250000,7.64999,0.875,0.5065204269921928,0.04263550000000027,0.25,1.125,0.047964937500000304
2018-07-05 13:04:23.500000,6.858047,1.625,0.22466993556406223,0.3363089999999991,0.625,1.875,0.6305793749999983
2018-07-05 13:04:29.750000,6.469851,4.0,0.04038440892492545,0.13452400000000075,0.125,2.0,0.2690480000000015
2018-07-05 13:04:48.500000,7.658958,0.75,0.771482413585229,0.12755000000000027,1.0,1.625,0.20726875000000045
2018-07-05 13:04:57.500000,8.048389,4.0,0.14529487542517217,0.23697000000000035,1.25,2.375,0.5628037500000008
2018-07-05 13:05:04.625000,8.131666500000001,1.375,0.04047507285293506,0.06277750000000104,0.375,1.625,0.10201343750000169
2018-07-05 13:05:11.250000,7.956144999999999,1.25,0.9042636066237719,1.1145769999999997,,,
2018-07-05 13:05:20.250000,8.316155,4.0,0.012733560616972284,0.05637100000000039,0.375,2.125,0.11978837500000084
2018-07-05 13:05:31.125000,7.229690999999999,1.875,0.11834023026361606,0.28634299999999957,1.75,3.25,0.9306147499999986
2018-07-05 13:05:36.500000,7.615398,4.0,0.17404538176687012,0.25566699999999987,,,
2018-07-05 13:05:45.625000,7.95102,4.0,0.20684729904899868,0.324732,1.125,2.375,0.7712385
2018-07-05 13:05:50.125000,8.4995575,1.5,0.4882642625227902,0.5837699999999995,0.25,1.375,0.8026837499999993
2018-07-05 13:05:54.375000,6.6524185,1.0,0.34194386175360236,0.2171599999999998,,,
2018-07-05 13:05:56.750000,7.102214,1.875,0.17011974447925127,0.3063040000000008,,,
2018-07-05 13:06:04.375000,7.462297500000001,4.0,0.2156150774026635,0.5010130000000013,,,
2018-07-05 13:06:08.500000,7.4834369999999995,0.75,0.1787527280757395,0.056371999999999645,0.625,1.375,0.07751149999999951
2018-07-05 13:06:14.875000,7.5929775,0.875,0.750830432333057,0.10897249999999925,0.25,1.0,0.10897249999999925
2018-07-05 13:06:16.875000,7.509061000000001,0.75,0.5200625427419574,0.12683700000000098,0.375,0.625,0.07927312500000061
2018-07-05 13:06:26,7.436033999999999,4.0,0.04356071380418314,0.2466999999999997,,,
2018-07-05 13:06:33.500000,7.502655,4.0,0.08526992368466324,0.19217700000000004,,,
2018-07-05 13:06:43.375000,7.5474955,1.875,0.04662895128995004,0.15374150000000064,,,
2018-07-05 13:06:45.750000,7.717892999999999,1.625,0.0754568836582763,0.14093,,,
2018-07-05 13:06:53.625000,8.1041205,4.0,0.17323487718581987,0.298467500000001,1.25,2.5,0.7461687500000025
2018-07-05 13:06:58.375000,8.111807500000001,1.5,0.152871700854746,0.20498800000000195,1.0,2.25,0.4612230000000044
2018-07-05 13:07:02.125000,7.9785655,1.125,0.0340111509624208,0.023701500000000486,0.375,1.375,0.03258956250000067
2018-07-05 13:07:06.375000,7.9676754999999995,1.375,0.25176787886251617,0.02946749999999909,0.125,1.5,0.04420124999999864
2018-07-05 13:07:11.375000,8.788462500000001,4.0,0.1474857587624001,0.5261165000000005,,,
2018-07-05 13:07:18.250000,8.949530000000001,4.0,0.17873695225442532,0.39039800000000113,1.25,2.625,1.024794750000003
2018-07-05 13:07:22.375000,9.334522500000002,1.875,0.19935481372802855,0.5822945000000015,1.375,2.875,1.6740966875000043
2018-07-05 13:07:34.375000,8.7996315,1.25,0.03714547849516947,0.03651299999999935,,,
2018-07-05 13:07:37,9.194234,1.875,0.1571867878307458,0.36065099999999894,1.5,3.0,1.0819529999999968
2018-07-05 13:07:42.500000,9.190391,4.0,0.10669737732301598,0.19730100000000128,1.125,2.5,0.4932525000000032
2018-07-05 13:07:57.125000,9.013588,1.875,0.02397699525815966,0.047402999999999196,1.0,2.5,0.11850749999999799
2018-07-05 13:08:04.500000,9.658862,1.5,0.21855492354595896,0.2775759999999998,0.75,2.0,0.5551519999999996
2018-07-05 13:08:27,9.155358999999999,1.375,0.034401099343050134,0.03266949999999902,0.25,1.5,0.04900424999999853
2018-07-05 13:08:50.625000,8.8816275,1.125,0.04182190318779533,0.028186500000000336,0.375,1.375,0.03875643750000046
2018-07-05 13:08:56.125000,8.989245,1.25,0.13368475220055132,0.08840050000000055,0.5,1.625,0.1436508125000009
2018-07-05 13:09:00.750000,9.205765,1.5,0.11608316609786584,0.1819279999999992,1.0,2.375,0.4320789999999981
2018-07-05 13:09:16.500000,9.212171000000001,1.375,0.21603888032115037,0.2760940000000005,0.375,1.5,0.41414100000000076
2018-07-05 13:09:20.625000,8.921984,4.0,0.09293593027797442,0.14925700000000042,,,
2018-07-05 13:09:25,8.93928,1.125,0.18220886574113848,0.09865100000000027,,,
2018-07-05 13:09:28.375000,9.216014,1.5,0.09786986913065476,0.14797599999999989,1.0,2.25,0.33294599999999974
2018-07-05 13:09:37.625000,8.932233499999999,1.25,0.04735079359809902,0.0429195,0.5,1.625,0.0697441875
2018-07-05 13:09:44.875000,9.4058295,1.625,0.16075090884401533,0.28206050000000005,0.875,2.25,0.6346361250000001
2018-07-05 13:09:53,9.054585000000001,1.5,0.08927047406174893,0.1255550000000003,0.5,1.75,0.21972125000000053
2018-07-05 13:09:59.375000,9.122488,1.5,0.14364680090344706,0.20819149999999986,0.75,2.125,0.4424069374999997
2018-07-05 13:10:07.500000,8.898282,1.75,0.11083425458222962,0.19217699999999915,0.625,2.0,0.3843539999999983
2018-07-05 13:10:13.375000,8.8598465,1.0,0.6284367743585477,0.09636699999999898,0.125,1.125,0.10841287499999885
2018-07-05 13:10:20.375000,8.8166485,0.875,0.5193926697894256,0.10890050000000073,,,
2018-07-05 13:10:23.875000,9.174376,4.0,0.2562309511875043,0.2885439999999999,0.25,1.375,0.3967479999999999
2018-07-05 13:10:28.125000,8.8310205,1.125,0.11476942098926202,0.053169499999999204,0.375,1.375,0.0731080624999989
2018-07-05 13:10:31.125000,8.9194215,0.875,0.9244654141347723,0.027183499999999583,0.125,1.0,0.027183499999999583
2018-07-05 13:10:36.500000,6.975378,1.75,0.13591830207006694,0.17295899999999964,0.5,2.125,0.36753787499999924
2018-07-05 13:10:39.500000,7.1483360000000005,1.5,0.12903346201212074,0.1870510000000003,,,
2018-07-05 13:10:42.125000,7.2069865,0.875,1.3682374407530986,0.13882649999999952,0.125,1.0,0.13882649999999952
2018-07-05 13:10:43.750000,8.780775,1.0,1.339813001828265,0.70031,,,
2018-07-05 13:10:45.375000,9.158361,1.25,0.20589439647590524,0.20911100000000005,,,
2018-07-05 13:10:46.875000,9.24484,1.0,0.09885685469046024,0.03395099999999829,0.125,1.125,0.038194874999998074
2018-07-05 13:10:58.750000,8.826536,4.0,0.016515083304689426,0.12171200000000049,0.875,2.625,0.3194940000000013
2018-07-05 13:11:01.125000,8.842551,0.75,0.14659521462857583,0.03715400000000102,0.375,0.75,0.027865500000000765
2018-07-05 13:11:05.625000,8.891876,1.25,0.04853041764099686,0.053809499999999844,1.0,2.0,0.10761899999999969
2018-07-05 13:11:13,8.766321000000001,4.0,0.015126479834279394,0.025623000000001284,0.625,2.25,0.05765175000000289
2018-07-05 13:11:18,8.671514,1.125,0.032012709919129634,0.03587300000000049,,,
2018-07-05 13:11:24.750000,8.936717,1.875,0.10793319913831567,0.2876235000000005,1.5,2.75,0.7909646250000013
2018-07-05 13:11:28.500000,8.88547,1.375,0.07559179186291232,0.08199549999999967,0.375,1.5,0.1229932499999995
2018-07-05 13:11:34.250000,8.990527,4.0,0.06964409152995898,0.21908200000000022,,,
2018-07-05 13:11:36.250000,9.044336,1.25,0.05135693578748146,0.03459099999999893,0.375,1.5,0.05188649999999839
2018-07-05 13:11:41.750000,9.289042,1.5,0.17560726996996578,0.2562370000000005,0.875,2.125,0.544503625000001
2018-07-05 13:11:58.125000,8.8053965,1.75,0.05798747946209204,0.12875800000000126,0.75,2.25,0.28970550000000284
2018-07-05 13:12:06.750000,8.859847,4.0,0.04688051860441078,0.1063369999999999,1.375,2.75,0.29242674999999974
2018-07-05 13:12:13.500000,9.474372,1.75,0.1466399015153783,0.3275410000000001,0.5,2.0,0.6550820000000002
2018-07-05 13:12:23,9.350098,1.75,0.1690997220065853,0.3266999999999989,1.5,2.875,0.9392624999999968
2018-07-05 13:12:29.250000,9.671674000000001,4.0,0.15046631123072274,0.47659800000000097,,,
2018-07-05 13:12:42.250000,9.329599,4.0,0.01530918051827257,0.09096300000000035,,,
2018-07-05 13:12:43.625000,9.415438000000002,0.875,0.07236438648583743,0.021780000000001465,0.75,1.125,0.024502500000001648
2018-07-05 13:13:03.375000,9.563368,4.0,0.02535505175183772,0.03971600000000031,0.5,1.875,0.07446750000000057
2018-07-05 13:13:07.750000,9.471810000000001,1.75,0.05472581652642816,0.06021600000000049,0.625,1.75,0.10537800000000086
2018-07-05 13:13:14.875000,9.341129500000001,1.625,0.05224865276788648,0.097369500000001,0.75,2.125,0.20691018750000212
2018-07-05 13:13:21.250000,9.502558,1.75,0.19576683783709825,0.35360499999999995,1.125,2.5,0.8840124999999999
2018-07-05 13:13:29.125000,9.016352000000001,1.75,0.03109642250394984,0.0621375000000004,0.375,1.875,0.11650781250000075
2018-07-05 13:13:31.625000,9.1412665,1.375,0.11687049186207332,0.13067950000000117,1.0,2.125,0.2776939375000025
2018-07-05 13:13:35.125000,9.458998000000001,1.75,0.15444619250991565,0.32413750000000086,1.375,2.75,0.8913781250000024
2018-07-05 13:13:44.625000,9.5563675,1.875,0.21444221738730107,0.42919450000000126,1.625,3.0,1.2875835000000038
2018-07-05 13:14:00.500000,7.9531350000000005,1.875,0.9959518450717582,1.6194970000000009,1.125,2.625,4.2511796250000025
2018-07-05 13:14:03.250000,8.181632,1.125,0.9341312203861776,0.5008935000000001,,,
2018-07-05 13:14:06.125000,8.562335,1.875,0.2841319212675799,0.3627659999999988,0.375,1.5,0.5441489999999982
2018-07-05 13:14:15.375000,8.713513500000001,4.0,0.1959201893777518,0.7534790000000022,,,
2018-07-05 13:14:28,8.554008,1.75,0.08433229484308669,0.2536740000000002,1.75,3.25,0.8244405000000006
2018-07-05 13:14:34.375000,8.4643245,4.0,0.018258152562381724,0.03715349999999873,1.25,2.5,0.09288374999999682
2018-07-05 13:14:43.750000,8.783338,1.25,0.14794394293205215,0.10890000000000022,1.0,2.125,0.23141250000000047
2018-07-05 13:14:49,8.696218,1.375,0.11061559242418184,0.12171200000000049,0.875,2.0,0.24342400000000097
2018-07-05 13:14:54.250000,8.918781,4.0,0.1512611519428546,0.3429929999999981,,,
2018-07-05 13:14:56.875000,8.922624500000001,1.125,0.11271894507995484,0.061496500000002285,0.375,1.375,0.08455768750000314
2018-07-05 13:14:58.750000,9.045617,1.0,0.14148808113471034,0.05252700000000132,0.125,1.125,0.05909287500000149
2018-07-05 13:15:07.125000,8.905328,4.0,0.2121299464493518,0.37602500000000205,1.0,2.375,0.8930593750000049
2018-07-05 13:15:12.875000,8.8457535,4.0,0.10424021079493428,0.1934570000000022,,,
2018-07-05 13:15:20.625000,9.434015,4.0,0.26975759604147953,0.5722460000000016,1.625,3.125,1.788268750000005
2018-07-05 13:15:26.375000,9.5691795,4.0,0.13609486138656024,0.26007900000000106,0.625,2.125,0.5526678750000023
2018-07-05 13:15:29.875000,9.36355,1.0,0.12243354816605034,0.02370100000000086,0.25,1.25,0.029626250000001075
2018-07-05 13:15:34.500000,9.52562,1.5,0.19167129900014146,0.26648600000000044,1.0,2.25,0.599593500000001
2018-07-05 13:15:41.750000,9.29757,1.375,0.06533851649277267,0.0647000000000002,0.625,1.75,0.11322500000000035
2018-07-05 13:15:58.250000,9.672955,1.5,0.16301044580706048,0.23189300000000124,0.75,2.0,0.4637860000000025
2018-07-05 13:16:02.750000,9.901003999999999,1.375,0.2965064748246391,0.3529644999999988,1.0,2.125,0.7500495624999974
2018-07-05 13:16:08.125000,10.0816035,1.5,0.3112255999386022,0.37341650000000115,0.625,1.875,0.7001559375000022
2018-07-05 13:16:13.875000,9.7766835,1.25,0.14511565335534726,0.1428515000000008,0.5,1.5,0.2142772500000012
2018-07-05 13:16:19.375000,9.9201755,1.625,0.1780517873200509,0.28826549999999784,1.625,3.0,0.8647964999999935
2018-07-05 13:16:22.875000,9.950282999999999,1.125,0.16894796378267074,0.11466500000000046,1.375,2.375,0.2723293750000011
2018-07-05 13:16:28.125000,9.91441,1.5,0.10176148001276175,0.1236335000000004,1.0,2.25,0.2781753750000009
2018-07-05 13:16:36.500000,10.091853,4.0,0.13611418436404676,0.2587980000000005,1.125,2.5,0.6469950000000013
2018-07-05 13:16:41.625000,10.073276,1.75,0.06951152547883055,0.15181950000000022,1.625,3.0,0.45545850000000065
2018-07-05 13:16:48.125000,10.0470115,1.75,0.05849439924978128,0.07174549999999869,,,
2018-07-05 13:16:51.375000,10.2077995,1.625,0.0986058105975971,0.15438150000000128,,,
2018-07-05 13:16:54.875000,10.456646000000001,4.0,0.19263118438947657,0.3090615000000003,,,
2018-07-05 13:17:03.500000,10.381057,1.625,0.1601115137387481,0.2145975,,,
2018-07-05 13:17:08.750000,10.746192,4.0,0.1466094187794198,0.2062690000000007,0.5,1.75,0.36097075000000123
2018-07-05 13:17:15.625000,10.7340215,4.0,0.0675194679647717,0.11082200000000064,,,
2018-07-05 13:17:22,11.234663000000001,4.0,0.157883437866424,0.2463280000000001,0.75,2.0,0.4926560000000002
2018-07-05 13:17:31.625000,11.18854,4.0,0.21877732336329814,0.3446365,0.5,1.875,0.6461934375
2018-07-05 13:17:39.875000,10.903776999999998,4.0,0.15544345332786946,0.27801549999999686,,,
2018-07-05 13:17:44.250000,10.750035,1.125,0.14990175060925992,0.06597950000000097,,,
2018-07-05 13:17:46,10.77694,0.875,0.049796827537399224,0.021138999999999797,,,
2018-07-05 13:17:48.625000,11.1654795,4.0,0.28293763425234886,0.3680400000000006,0.375,1.625,0.598065000000001
2018-07-05 13:18:07.250000,10.960491000000001,4.0,0.040981106922856725,0.3331060000000008,1.375,3.125,1.0409562500000025
2018-07-05 13:18:20.500000,10.265751,1.5,0.07632045740651705,0.11402499999999982,0.5,1.75,0.1995437499999997
2018-07-05 13:18:27,10.311873,1.875,0.049778872051767564,0.21715900000000055,,,
2018-07-05 13:18:30,10.573234,4.0,0.06416922482979004,0.09224500000000013,0.5,2.25,0.2075512500000003
2018-07-05 13:18:50,10.653948,4.0,0.07800707340624058,0.32285699999999906,0.75,2.375,0.7667853749999978
2018-07-05 13:19:03.125000,10.5418445,4.0,0.111305361994539,0.36769750000000023,,,
2018-07-05 13:19:04.625000,10.7019915,1.125,0.14679492935022154,0.08904249999999969,0.25,1.25,0.11130312499999961
2018-07-05 13:19:13.250000,10.423336,4.0,0.0699850829673565,0.048685000000000755,,,
2018-07-05 13:19:23.500000,10.284968,1.75,0.020283084804255225,0.03715399999999924,0.5,2.125,0.07895224999999839
2018-07-05 13:19:31.500000,10.279844,1.375,0.04228345428528968,0.03523299999999985,0.625,1.875,0.06606187499999971
2018-07-05 13:19:37.625000,10.204255,1.5,0.06636358269712161,0.08904249999999969,0.625,1.875,0.16695468749999942
2018-07-05 13:19:41.375000,10.286249999999999,1.75,0.07805746321933782,0.13260199999999855,,,
2018-07-05 13:19:49,10.182474000000001,1.375,0.04469222134854789,0.028185500000001085,0.125,1.5,0.04227825000000163
2018-07-05 13:19:58.125000,10.619356,4.0,0.048277662229317286,0.3292624999999987,1.125,2.875,0.9466296874999962
2018-07-05 13:20:07.750000,10.478425999999999,1.875,0.10394300087442332,0.18064599999999942,0.75,2.0,0.36129199999999884
2018-07-05 13:20:13.625000,10.527111,1.875,0.044694133916848955,0.13452299999999973,,,
2018-07-05 13:20:19.625000,10.2382055,1.25,0.03957719577459784,0.02690499999999929,0.25,1.375,0.036994374999999025
2018-07-05 13:20:35.750000,10.519423,4.0,0.119545853089015,0.3686360000000004,,,
2018-07-05 13:20:40.125000,10.752598500000001,4.0,0.03781062584209849,0.2568760000000019,1.125,2.875,0.7385185000000054
2018-07-05 13:20:44,10.524549,1.5,0.1451797387625149,0.196021,,,
2018-07-05 13:20:47.625000,10.8294685,1.5,0.12884712133556064,0.11402499999999982,0.375,1.5,0.17103749999999973
2018-07-05 13:20:53.250000,10.805126,1.625,0.07051712637962737,0.11530549999999984,0.75,2.125,0.24502418749999966
2018-07-05 13:21:02.500000,10.873028999999999,4.0,0.03769396947562598,0.04484099999999813,0.625,1.875,0.0840768749999965
2018-07-05 13:21:08.750000,10.673165,1.125,0.16960541679302565,0.1217114999999982,0.625,1.625,0.19778118749999707
2018-07-05 13:21:15,10.638574,1.375,0.04514940120905209,0.038435999999999026,,,
2018-07-05 13:21:23.625000,10.72249,4.0,0.05804159886620397,0.19794100000000014,,,
2018-07-05 13:21:31,10.596294,1.625,0.06665867327879482,0.0781515000000006,,,
2018-07-05 13:21:33.375000,10.7846275,1.5,0.12821097910990886,0.14925749999999915,0.625,1.875,0.2798578124999984
2018-07-05 13:21:46.875000,10.6123095,1.75,0.20366467744729988,0.3709004999999994,,,
2018-07-05 13:21:58.875000,10.778222,1.0,0.058925997771233085,0.021780500000000202,0.375,1.375,0.02994818750000028
2018-07-05 13:22:03.375000,10.958569,4.0,0.0622109124046446,0.21365800000000057,,,
2018-07-05 13:22:09.625000,10.9188525,4.0,0.02934256228928689,0.07430799999999849,0.875,2.375,0.1764814999999964
2018-07-05 13:22:27.750000,12.008052000000001,4.0,0.2934050928411196,1.4050090000000015,,,
2018-07-05 13:22:39.125000,11.016221999999999,1.375,0.369764561229438,0.1735989999999994,,,
2018-07-05 13:22:40.375000,11.472321,0.625,0.4807153422409556,0.07623000000000069,0.375,0.5,0.03811500000000034
2018-07-05 13:22:49.875000,11.719805000000001,1.25,0.10774780871322776,0.06405900000000031,0.375,1.5,0.09608850000000047
2018-07-05 13:22:52.875000,12.163074000000002,4.0,0.2016472817645294,0.42597350000000134,,,
2018-07-05 13:23:07.500000,12.241226,1.75,0.06881928484959587,0.18577099999999902,1.0,2.5,0.46442749999999755
2018-07-05 13:23:11.500000,11.722349000000001,0.5,0.07011140099210422,0.04356000000000115,,,
2018-07-05 13:23:13.500000,11.958086,1.625,0.28674720901479844,0.20562900000000006,0.125,1.625,0.3341471250000001
2018-07-05 13:23:16.125000,10.867606,1.25,0.12397710539944029,0.07529150000000051,0.75,2.0,0.15058300000000102
2018-07-05 13:23:18.500000,10.591169,0.625,0.4597144332275178,0.04419950000000128,,,
2018-07-05 13:24:06,8.87394,1.25,0.07661008539666625,0.03202999999999889,0.5,1.75,0.05605249999999806
2018-07-05 13:24:20.875000,8.863049499999999,4.0,0.04755311537663687,0.09672899999999984,,,
2018-07-05 13:24:39,8.652658,0.625,0.1897074335685005,0.047404000000000224,,,
2018-07-05 13:24:47.250000,8.50276,1.25,0.054065214161177266,0.02690400000000004,0.5,1.625,0.04371900000000006
2018-07-05 13:24:50.125000,8.534149,1.125,0.08374720988622641,0.06341800000000042,,,
2018-07-05 13:25:00.625000,8.381689,1.75,0.022107177142778767,0.036513499999999866,0.625,1.875,0.06846281249999975
2018-07-05 13:25:16.125000,8.369518,1.0,0.20002341980337235,0.07174649999999971,,,
2018-07-05 13:25:30.625000,8.15364,1.5,0.01999399266878754,0.028826999999999714,0.375,1.375,0.03963712499999961
2018-07-05 13:25:40.875000,8.001180000000002,1.125,0.044708125682674904,0.04163900000000087,,,
2018-07-05 13:26:07.250000,7.794716,1.625,0.07166105115168264,0.0999314999999994,0.5,1.75,0.17488012499999894
2018-07-05 13:26:18.500000,7.640975,4.0,0.022904420893969046,0.04227899999999973,,,
2018-07-05 13:26:28.625000,7.6525055,1.375,0.03249460680233085,0.03331050000000069,0.75,1.875,0.06245718750000129
2018-07-05 13:26:34.625000,7.633288,1.5,0.02396745418577595,0.03971649999999993,,,
2018-07-05 13:26:43.625000,7.631366,4.0,0.10237223928685424,0.08455700000000022,,,
2018-07-05 13:26:57.250000,8.842272,4.0,0.177771394970776,0.8258649999999985,,,
2018-07-05 13:27:01.500000,8.597567999999999,1.125,0.23686455207927537,0.08135549999999903,,,
2018-07-05 13:27:42.750000,8.349019,1.375,0.05382831676887179,0.05060600000000015,,,
2018-07-05 13:28:04.375000,8.241399999999999,4.0,0.016215342086390194,0.11850899999999953,,,
2018-07-05 13:28:23.625000,8.036412,1.875,0.04506775249802075,0.05124700000000093,,,
2018-07-05 13:28:37.375000,7.786389,4.0,0.026428872521307767,0.08904199999999918,0.625,2.25,0.20034449999999815
2018-07-05 13:28:42.500000,7.710159,1.0,0.07786013315241647,0.03203000000000067,,,
2018-07-05 13:28:44.625000,7.763968,1.5,0.03485390350484607,0.042919000000000374,0.875,2.125,0.0912028750000008
2018-07-05 13:29:02.625000,7.373896,1.125,0.11990287941435795,0.09160400000000024,,,
2018-07-05 13:29:04.875000,7.414894,1.625,0.024065734840363007,0.048043999999999976,0.625,1.75,0.08407699999999996
2018-07-05 13:29:09.750000,7.526997,4.0,0.06347425120309325,0.11146299999999965,,,
2018-07-05 13:29:20.125000,7.732626,4.0,0.07594353251810304,0.16334999999999944,1.75,3.25,0.5308874999999982
2018-07-05 13:29:25,7.721736,1.75,0.05038255046268603,0.09224499999999924,1.25,2.75,0.2536737499999979
2018-07-05 13:29:34.250000,7.738391,1.75,0.08488723043172897,0.1857709999999999,1.125,2.5,0.46442749999999977
2018-07-05 13:29:44.125000,7.6083514999999995,1.625,0.040677306568191796,0.058293499999999554,0.75,2.0,0.11658699999999911
2018-07-05 13:30:00.875000,7.414253499999999,1.625,0.04039549653198904,0.05637149999999824,0.375,1.625,0.09160368749999714
2018-07-05 13:30:09.750000,7.828074000000001,1.125,0.5518810630596711,0.33694999999999986,0.5,1.375,0.4633062499999998
2018-07-05 13:30:14.250000,8.243129,1.625,0.10729644664363747,0.19922399999999918,0.75,2.125,0.42335099999999826
2018-07-05 13:30:18.625000,8.413078,4.0,0.13627462811574986,0.16418450000000107,0.625,2.0,0.32836900000000213
2018-07-05 13:30:22.750000,8.862771,4.0,0.18961151750766447,0.39588400000000057,,,
2018-07-05 13:30:30.250000,8.679200999999999,1.625,0.16013873207868556,0.15694449999999982,,,
2018-07-05 13:30:38.250000,8.755152,4.0,0.03595876612367732,0.2613600000000016,,,
2018-07-05 13:30:41.750000,8.701343,1.125,0.025279529492280517,0.024342500000001266,,,
2018-07-05 13:30:44.125000,8.796790999999999,1.375,0.08643578589440892,0.09801099999999785,,,
2018-07-05 13:30:46.125000,9.136581,1.625,0.19584728256973705,0.2866219999999995,1.75,3.0,0.8598659999999985
2018-07-05 13:30:58,9.226263000000001,1.5,0.07718891019534624,0.11914900000000195,,,
2018-07-05 13:30:59.875000,9.2941665,1.25,0.05370490583956666,0.03715500000000027,0.375,1.5,0.05573250000000041
2018-07-05 13:31:18,9.561492,4.0,0.21962690998656598,0.541938,1.5,3.0,1.625814
2018-07-05 13:31:24.375000,9.598006,1.0,0.9861883808258014,0.3160115000000001,,,
2018-07-05 13:31:39.125000,6.317171,4.0,0.2458383995886102,0.35104250000000015,0.375,1.625,0.5704440625000002
2018-07-05 13:31:47.500000,7.462938,1.0,0.4229381508271217,0.19417100000000076,0.5,1.375,0.26698512500000104
2018-07-05 13:32:09.625000,7.231686,1.625,0.020187717548093786,0.037794999999999135,,,
2018-07-05 13:32:16.250000,7.251544,1.625,0.020223443356158555,0.022420499999999954,0.5,1.625,0.036433312499999926
2018-07-05 13:32:26.875000,7.4174565,4.0,0.01527037432392575,0.1447730000000007,,,
2018-07-05 13:32:29.750000,7.989455,4.0,0.2894014158126268,0.4240219999999999,,,
2018-07-05 13:32:41.750000,8.021484,1.875,0.13169755844016962,0.34079249999999917,,,
2018-07-05 13:32:47.875000,8.3014225,0.75,0.36070129007635643,0.05252849999999931,0.375,0.75,0.039396374999999484
2018-07-05 13:32:51.625000,8.402635,1.875,0.17757995182179798,0.2671260000000011,,,
2018-07-05 13:32:55.750000,8.438702000000001,1.125,0.03648098564387681,0.022614500000001314,,,
2018-07-05 13:33:11.250000,8.678282000000001,0.625,0.2608218241420346,0.0307485000000014,,,
2018-07-05 13:33:12.375000,8.860849000000002,0.75,0.2638263481319072,0.04291900000000126,,,
2018-07-05 13:33:15.750000,8.899925,0.875,0.21247138941780008,0.06726199999999949,0.5,1.25,0.08407749999999936
2018-07-05 13:33:18.875000,8.807039499999998,1.0,0.12514800391226544,0.04804399999999731,1.0,1.875,0.09008249999999496
2018-07-05 13:33:29.875000,8.3073805,0.875,0.14345016512887554,0.050606500000000665,,,
2018-07-05 13:33:39.250000,8.620628,4.0,0.042246515926017025,0.11786799999999964,1.875,3.375,0.3978044999999988
2018-07-05 13:33:52.500000,8.428452,1.75,0.02111951656681299,0.04484099999999991,,,
2018-07-05 13:33:55.625000,8.478417499999999,1.875,0.014426400079429413,0.04740349999999971,,,
2018-07-05 13:34:15.250000,8.302896,1.875,0.04249542032101061,0.1178675000000009,,,
2018-07-05 13:34:45.875000,8.0011795,1.75,0.01745244934819823,0.04484099999999902,,,
2018-07-05 13:34:48.625000,8.0287245,1.75,0.019596661217143208,0.02754499999999993,,,
2018-07-05 13:34:52.750000,8.264462,4.0,0.043838403794644876,0.10762000000000072,0.75,2.25,0.2421450000000016
2018-07-05 13:35:03.500000,8.356705999999999,1.875,0.1176178381785391,0.18769199999999842,,,
2018-07-05 13:35:07,8.473293,1.75,0.08449604401359778,0.16014699999999849,0.75,2.0,0.32029399999999697
2018-07-05 13:35:16.875000,7.9965015,1.25,0.22105430885974897,0.2402204999999995,,,
2018-07-05 13:35:20.625000,8.0323745,1.375,0.04308147869459589,0.045481500000000175,1.125,2.125,0.09664818750000037
2018-07-05 13:35:30.875000,8.202130499999999,1.625,0.07940451027178597,0.12683649999999957,1.375,2.625,0.3329458124999989
2018-07-05 13:35:34.500000,8.400713,1.625,0.11454952749978986,0.20306599999999975,1.375,2.625,0.5330482499999993
2018-07-05 13:35:44.250000,8.273876,1.375,0.05767041659459693,0.0736669999999986,,,
2018-07-05 13:35:53,8.738497,4.0,0.09781839844148266,0.3095979999999994,1.875,3.5,1.0835929999999978
2018-07-05 13:36:02.500000,9.20064,4.0,0.12599262863338367,0.1524599999999996,0.375,1.75,0.2668049999999993
2018-07-05 13:36:15,9.175016000000001,4.0,0.2559126367908746,0.5560310000000008,,,
2018-07-05 13:36:21.750000,8.957216,1.25,0.11270656626564346,0.09993099999999977,0.5,1.625,0.16238787499999963
2018-07-05 13:36:27.500000,9.351819,4.0,0.15899432152155413,0.5701240000000016,,,
2018-07-05 13:36:43.750000,9.358225,4.0,0.1546728026844022,0.3625740000000004,,,
2018-07-05 13:36:48.500000,9.403908,1.625,0.08183473314961276,0.14369349999999947,0.625,2.0,0.28738699999999895
2018-07-05 13:37:12.625000,9.120767999999998,4.0,0.024558918218446024,0.07366850000000014,1.5,3.125,0.23021406250000043
2018-07-05 13:37:21.250000,9.72292,4.0,0.21830125520734356,0.5957470000000011,,,
2018-07-05 13:37:56.500000,9.214293,4.0,0.08522449946749333,0.23957999999999835,1.375,2.875,0.6887924999999953
2018-07-05 13:38:05.875000,9.573023,4.0,0.12143951492100769,0.46314549999999954,,,
2018-07-05 13:38:17,9.191233,1.0,0.9740236524314412,0.11322400000000066,0.125,1.125,0.12737700000000074
2018-07-05 13:38:20.375000,9.792104,0.875,0.6205902915272361,0.16399000000000008,,,
2018-07-05 13:38:22.250000,9.95733,1.5,0.11621910724599616,0.05120100000000072,,,
2018-07-05 13:38:25.625000,10.5674685,4.0,0.054638665001746745,0.11752600000000157,0.125,2.0,0.23505200000000315
2018-07-05 13:38:37.250000,10.26225,1.25,0.4579505488845115,0.4343199999999996,0.25,1.375,0.5971899999999994
2018-07-05 13:38:42,10.073916,0.875,0.2944948095543154,0.06277700000000053,0.125,1.0,0.06277700000000053
2018-07-05 13:38:45.375000,9.529463,1.0,0.7326919046768978,0.438364,,,
2018-07-05 13:38:47.375000,9.6992185,1.5,0.02860732269576971,0.0685424999999995,,,
2018-07-05 13:38:49.250000,9.9253,1.5,0.1971725530618187,0.20366000000000106,,,
2018-07-05 13:38:52.500000,11.015581,4.0,0.6627780058816697,1.015972999999999,,,
2018-07-05 13:38:57.500000,11.197725,1.625,0.16124373959487315,0.17253499999999988,0.375,2.0,0.34506999999999977
2018-07-05 13:39:19.125000,9.442983,4.0,0.03780361723553227,0.15310000000000024,0.25,2.125,0.3253375000000005
2018-07-05 13:39:28.375000,8.973230999999998,1.75,0.05535976370953932,0.10185349999999893,,,
2018-07-05 13:39:31.250000,9.125051,4.0,0.08869397469702278,0.14477399999999818,0.75,2.0,0.28954799999999636
