,Binary,Multiclass
2018-06-30 08:07:15,-1.0,-1.0
2018-06-30 08:07:20,1.0,1.0
2018-06-30 08:07:25,1.0,1.0
2018-06-30 08:07:30,1.0,1.0
2018-06-30 08:07:35,1.0,1.0
2018-06-30 08:07:40,1.0,1.0
2018-06-30 08:07:45,1.0,1.0
2018-06-30 08:07:50,-1.0,1.0
2018-06-30 08:07:55,1.0,1.0
2018-06-30 08:08:00,1.0,1.0
2018-06-30 08:08:05,1.0,1.0
2018-06-30 08:08:10,1.0,1.0
2018-06-30 08:08:15,1.0,1.0
2018-06-30 08:08:20,1.0,1.0
2018-06-30 08:08:25,1.0,1.0
2018-06-30 08:08:30,1.0,1.0
2018-06-30 08:08:35,1.0,1.0
2018-06-30 08:08:40,1.0,1.0
2018-06-30 08:08:45,1.0,1.0
2018-06-30 08:08:50,1.0,1.0
2018-06-30 08:08:55,1.0,1.0
2018-06-30 08:09:00,1.0,1.0
2018-06-30 08:09:05,1.0,1.0
2018-06-30 08:09:10,1.0,1.0
2018-06-30 08:09:15,1.0,1.0
2018-06-30 08:09:20,1.0,1.0
2018-06-30 08:09:25,1.0,1.0
2018-06-30 08:09:30,1.0,1.0
2018-06-30 08:09:35,1.0,1.0
2018-06-30 08:09:40,1.0,1.0
2018-06-30 08:09:45,1.0,1.0
2018-06-30 08:09:50,1.0,1.0
2018-06-30 08:09:55,1.0,1.0
2018-06-30 08:10:00,1.0,1.0
2018-06-30 08:10:05,1.0,1.0
2018-06-30 08:10:10,1.0,1.0
2018-06-30 08:10:15,1.0,1.0
2018-06-30 08:10:20,1.0,1.0
2018-06-30 08:10:25,1.0,1.0
2018-06-30 08:10:30,1.0,1.0
2018-06-30 08:10:35,1.0,1.0
2018-06-30 08:10:40,1.0,1.0
2018-06-30 08:10:45,1.0,1.0
2018-06-30 08:10:50,1.0,1.0
2018-06-30 08:10:55,1.0,1.0
2018-06-30 08:11:00,1.0,1.0
2018-06-30 08:11:05,1.0,1.0
2018-06-30 08:11:10,1.0,1.0
2018-06-30 08:11:15,1.0,1.0
2018-06-30 08:11:20,1.0,1.0
2018-06-30 08:11:25,1.0,1.0
2018-06-30 08:11:30,1.0,1.0
2018-06-30 08:11:35,1.0,1.0
2018-06-30 08:11:40,1.0,1.0
2018-06-30 08:11:45,1.0,1.0
2018-06-30 08:11:50,1.0,1.0
2018-06-30 08:11:55,1.0,1.0
2018-06-30 08:12:00,1.0,1.0
2018-06-30 08:12:05,1.0,1.0
2018-06-30 08:12:10,1.0,1.0
2018-06-30 08:12:15,1.0,1.0
2018-06-30 08:12:20,1.0,1.0
2018-06-30 08:12:25,1.0,1.0
2018-06-30 08:12:30,1.0,1.0
2018-06-30 08:12:35,1.0,1.0
2018-06-30 08:12:40,1.0,1.0
2018-06-30 08:12:45,1.0,1.0
2018-06-30 08:12:50,1.0,1.0
2018-06-30 08:12:55,1.0,1.0
2018-06-30 08:13:00,1.0,1.0
2018-06-30 08:13:05,1.0,1.0
2018-06-30 08:13:10,1.0,1.0
2018-06-30 08:13:15,1.0,1.0
2018-06-30 08:13:20,1.0,1.0
2018-06-30 08:13:25,1.0,1.0
2018-06-30 08:13:30,1.0,1.0
2018-06-30 08:13:35,1.0,1.0
2018-06-30 08:13:40,1.0,1.0
2018-06-30 08:13:45,1.0,1.0
2018-06-30 08:13:50,1.0,1.0
2018-06-30 08:13:55,1.0,1.0
2018-06-30 08:14:00,1.0,1.0
2018-06-30 08:14:05,1.0,1.0
2018-06-30 08:14:10,1.0,1.0
2018-06-30 08:14:15,1.0,1.0
2018-06-30 08:14:20,1.0,1.0
2018-06-30 08:14:25,1.0,1.0
2018-06-30 08:14:30,1.0,1.0
2018-06-30 08:14:35,1.0,1.0
2018-06-30 08:14:40,1.0,1.0
2018-06-30 08:14:45,1.0,1.0
2018-06-30 08:14:50,1.0,1.0
2018-06-30 08:14:55,1.0,1.0
2018-06-30 08:15:00,1.0,1.0
2018-06-30 08:15:05,1.0,1.0
2018-06-30 08:15:10,1.0,1.0
2018-06-30 08:15:15,1.0,1.0
2018-06-30 08:15:20,1.0,1.0
2018-06-30 08:15:25,1.0,1.0
2018-06-30 08:15:30,1.0,1.0
2018-06-30 08:15:35,1.0,1.0
2018-06-30 08:15:40,1.0,1.0
2018-06-30 08:15:45,1.0,1.0
2018-06-30 08:15:50,1.0,1.0
2018-06-30 08:15:55,1.0,1.0
2018-06-30 08:16:00,1.0,1.0
2018-06-30 08:16:05,1.0,1.0
2018-06-30 08:16:10,1.0,1.0
2018-06-30 08:16:15,1.0,1.0
2018-06-30 08:16:20,1.0,1.0
2018-06-30 08:16:25,1.0,1.0
2018-06-30 08:16:30,1.0,1.0
2018-06-30 08:16:35,1.0,1.0
2018-06-30 08:16:40,1.0,1.0
2018-06-30 08:16:45,1.0,1.0
2018-06-30 08:16:50,1.0,1.0
2018-06-30 08:16:55,1.0,1.0
2018-06-30 08:17:00,1.0,1.0
2018-06-30 08:17:05,1.0,1.0
2018-06-30 08:17:10,1.0,1.0
2018-06-30 08:17:15,1.0,1.0
2018-06-30 08:17:20,1.0,1.0
2018-06-30 08:17:25,1.0,1.0
2018-06-30 08:17:30,1.0,1.0
2018-06-30 08:17:35,1.0,1.0
2018-06-30 08:17:40,1.0,1.0
2018-06-30 08:17:45,1.0,1.0
2018-06-30 08:17:50,1.0,1.0
2018-06-30 08:17:55,1.0,1.0
2018-06-30 08:18:00,1.0,1.0
2018-06-30 08:18:05,1.0,1.0
2018-06-30 08:18:10,1.0,1.0
2018-06-30 08:18:15,1.0,1.0
2018-06-30 08:18:20,1.0,1.0
2018-06-30 08:18:25,1.0,1.0
2018-06-30 08:18:30,1.0,1.0
2018-06-30 08:18:35,1.0,1.0
2018-06-30 08:18:40,1.0,1.0
2018-06-30 08:18:45,1.0,1.0
2018-06-30 08:18:50,1.0,1.0
2018-06-30 08:18:55,1.0,1.0
2018-06-30 08:19:00,1.0,1.0
2018-06-30 08:19:05,1.0,1.0
2018-06-30 08:19:10,1.0,1.0
2018-06-30 08:19:15,1.0,1.0
2018-06-30 08:19:20,1.0,1.0
2018-06-30 08:19:25,1.0,1.0
2018-06-30 08:19:30,1.0,1.0
2018-06-30 08:19:35,1.0,1.0
2018-06-30 08:19:40,1.0,1.0
2018-06-30 08:19:45,1.0,1.0
2018-06-30 08:19:50,1.0,1.0
2018-06-30 08:19:55,1.0,1.0
2018-06-30 08:20:00,1.0,1.0
2018-06-30 08:20:05,1.0,1.0
2018-06-30 08:20:10,1.0,1.0
2018-06-30 08:20:15,1.0,1.0
2018-06-30 08:20:20,1.0,1.0
2018-06-30 08:20:25,1.0,1.0
2018-06-30 08:20:30,1.0,1.0
2018-06-30 08:20:35,1.0,1.0
2018-06-30 08:20:40,1.0,1.0
2018-06-30 08:20:45,-1.0,1.0
2018-06-30 08:20:50,1.0,1.0
2018-06-30 08:20:55,1.0,1.0
2018-06-30 08:21:00,1.0,1.0
2018-06-30 08:21:05,1.0,1.0
2018-06-30 08:21:10,1.0,1.0
2018-06-30 08:21:15,1.0,1.0
2018-06-30 08:21:20,1.0,1.0
2018-06-30 08:21:25,1.0,1.0
2018-06-30 08:21:30,1.0,1.0
2018-06-30 08:21:35,1.0,1.0
2018-06-30 08:21:40,1.0,1.0
2018-06-30 08:21:45,1.0,1.0
2018-06-30 08:21:50,1.0,1.0
2018-06-30 08:21:55,1.0,1.0
2018-06-30 08:22:00,1.0,1.0
2018-06-30 08:22:05,1.0,1.0
2018-06-30 08:22:10,1.0,1.0
2018-06-30 08:22:15,1.0,1.0
2018-06-30 08:22:20,1.0,1.0
2018-06-30 08:22:25,1.0,1.0
2018-06-30 08:22:30,1.0,1.0
2018-06-30 08:22:35,1.0,1.0
2018-06-30 08:22:40,1.0,1.0
2018-06-30 08:22:45,1.0,1.0
2018-06-30 08:22:50,1.0,1.0
2018-06-30 08:22:55,1.0,1.0
2018-06-30 08:23:00,1.0,1.0
2018-06-30 08:23:05,1.0,1.0
2018-06-30 08:23:10,1.0,1.0
2018-06-30 08:23:15,1.0,1.0
2018-06-30 08:23:20,1.0,1.0
2018-06-30 08:23:25,1.0,1.0
2018-06-30 08:23:30,1.0,1.0
2018-06-30 08:23:35,1.0,1.0
2018-06-30 08:23:40,1.0,1.0
2018-06-30 08:23:45,1.0,1.0
2018-06-30 08:23:50,1.0,1.0
2018-06-30 08:23:55,1.0,1.0
2018-06-30 08:24:00,1.0,1.0
2018-06-30 08:24:05,1.0,1.0
2018-06-30 08:24:10,1.0,1.0
2018-06-30 08:24:15,1.0,1.0
2018-06-30 08:24:20,1.0,1.0
2018-06-30 08:24:25,1.0,1.0
2018-06-30 08:24:30,1.0,1.0
2018-06-30 08:24:35,1.0,1.0
2018-06-30 08:24:40,1.0,1.0
2018-06-30 08:24:45,1.0,1.0
2018-06-30 08:24:50,1.0,1.0
2018-06-30 08:24:55,1.0,1.0
2018-06-30 08:25:00,1.0,1.0
2018-06-30 08:25:05,1.0,1.0
2018-06-30 08:25:10,1.0,1.0
2018-06-30 08:25:15,1.0,1.0
2018-06-30 08:25:20,1.0,1.0
2018-06-30 08:25:25,1.0,1.0
2018-06-30 08:25:30,1.0,1.0
2018-06-30 08:25:35,1.0,1.0
2018-06-30 08:25:40,1.0,1.0
2018-06-30 08:25:45,1.0,1.0
2018-06-30 08:25:50,1.0,1.0
2018-06-30 08:25:55,1.0,1.0
2018-06-30 08:26:00,1.0,1.0
2018-06-30 08:26:05,1.0,1.0
2018-06-30 08:26:10,1.0,1.0
2018-06-30 08:26:15,1.0,1.0
2018-06-30 08:26:20,1.0,1.0
2018-06-30 08:26:25,1.0,1.0
2018-06-30 08:26:30,1.0,1.0
2018-06-30 08:26:35,1.0,1.0
2018-06-30 08:26:40,1.0,1.0
2018-06-30 08:26:45,1.0,1.0
2018-06-30 08:26:50,1.0,1.0
2018-06-30 08:26:55,1.0,1.0
2018-06-30 08:27:00,1.0,1.0
2018-06-30 08:27:05,1.0,1.0
2018-06-30 08:27:10,1.0,1.0
2018-06-30 08:27:15,1.0,1.0
2018-06-30 08:27:20,1.0,1.0
2018-06-30 08:27:25,1.0,1.0
2018-06-30 08:27:30,1.0,1.0
2018-06-30 08:27:35,1.0,1.0
2018-06-30 08:27:40,1.0,1.0
2018-06-30 08:27:45,1.0,1.0
2018-06-30 08:27:50,1.0,1.0
2018-06-30 08:27:55,1.0,1.0
2018-06-30 08:28:00,1.0,1.0
2018-06-30 08:28:05,1.0,1.0
2018-06-30 08:28:10,1.0,1.0
2018-06-30 08:28:15,1.0,1.0
2018-06-30 08:28:20,1.0,1.0
2018-06-30 08:28:25,1.0,1.0
2018-06-30 08:28:30,1.0,1.0
2018-06-30 08:28:35,1.0,1.0
2018-06-30 08:28:40,1.0,1.0
2018-06-30 08:28:45,1.0,1.0
2018-06-30 08:28:50,1.0,1.0
2018-06-30 08:28:55,1.0,1.0
2018-06-30 08:29:00,1.0,1.0
2018-06-30 08:29:05,1.0,1.0
2018-06-30 08:29:10,1.0,1.0
2018-06-30 08:29:15,1.0,1.0
2018-06-30 08:29:20,1.0,1.0
2018-06-30 08:29:25,1.0,1.0
2018-06-30 08:29:30,1.0,1.0
2018-06-30 08:29:35,1.0,1.0
2018-06-30 08:29:40,1.0,1.0
2018-06-30 08:29:45,1.0,1.0
2018-06-30 08:29:50,1.0,1.0
2018-06-30 08:29:55,1.0,1.0
2018-06-30 08:30:00,1.0,1.0
2018-06-30 08:30:05,1.0,1.0
2018-06-30 08:30:10,1.0,1.0
2018-06-30 08:30:15,1.0,1.0
2018-06-30 08:30:20,1.0,1.0
2018-06-30 08:30:25,1.0,1.0
2018-06-30 08:30:30,1.0,1.0
2018-06-30 08:30:35,1.0,1.0
2018-06-30 08:30:40,1.0,1.0
2018-06-30 08:30:45,1.0,1.0
2018-06-30 08:30:50,1.0,1.0
2018-06-30 08:30:55,1.0,1.0
2018-06-30 08:31:00,1.0,1.0
2018-06-30 08:31:05,1.0,1.0
2018-06-30 08:31:10,1.0,1.0
2018-06-30 08:31:15,1.0,1.0
2018-06-30 08:31:20,1.0,1.0
2018-06-30 08:31:25,1.0,1.0
2018-06-30 08:31:30,1.0,1.0
2018-06-30 08:31:35,1.0,1.0
2018-06-30 08:31:40,1.0,1.0
2018-06-30 08:31:45,1.0,1.0
2018-06-30 08:31:50,1.0,1.0
2018-06-30 08:31:55,1.0,1.0
2018-06-30 08:32:00,1.0,1.0
2018-06-30 08:32:05,1.0,1.0
2018-06-30 08:32:10,1.0,1.0
2018-06-30 08:32:15,1.0,1.0
2018-06-30 08:32:20,1.0,1.0
2018-06-30 08:32:25,1.0,1.0
2018-06-30 08:32:30,1.0,1.0
2018-06-30 08:32:35,1.0,1.0
2018-06-30 08:32:40,1.0,1.0
2018-06-30 08:32:45,1.0,1.0
2018-06-30 08:32:50,1.0,1.0
2018-06-30 08:32:55,1.0,1.0
2018-06-30 08:33:00,1.0,1.0
2018-06-30 08:33:05,1.0,1.0
2018-06-30 08:33:10,1.0,1.0
2018-06-30 08:33:15,1.0,1.0
2018-06-30 08:33:20,1.0,1.0
2018-06-30 08:33:25,1.0,1.0
2018-06-30 08:33:30,1.0,1.0
2018-06-30 08:33:35,1.0,1.0
2018-06-30 08:33:40,1.0,1.0
2018-06-30 08:33:45,1.0,1.0
2018-06-30 08:33:50,1.0,1.0
2018-06-30 08:33:55,1.0,1.0
2018-06-30 08:34:00,1.0,1.0
2018-06-30 08:34:05,1.0,1.0
2018-06-30 08:34:10,1.0,1.0
2018-06-30 08:34:15,1.0,1.0
2018-06-30 08:34:20,1.0,1.0
2018-06-30 08:34:25,1.0,1.0
2018-06-30 08:34:30,1.0,1.0
2018-06-30 08:34:35,1.0,1.0
2018-06-30 08:34:40,1.0,1.0
2018-06-30 08:34:45,1.0,1.0
2018-06-30 08:34:50,1.0,1.0
2018-06-30 08:34:55,1.0,1.0
2018-06-30 08:35:00,1.0,1.0
2018-06-30 08:35:05,1.0,1.0
2018-06-30 08:35:10,1.0,1.0
2018-06-30 08:35:15,1.0,1.0
2018-06-30 08:35:20,1.0,1.0
2018-06-30 08:35:25,1.0,1.0
2018-06-30 08:35:30,1.0,1.0
2018-06-30 08:35:35,1.0,1.0
2018-06-30 08:35:40,1.0,1.0
2018-06-30 08:35:45,1.0,1.0
2018-06-30 08:35:50,1.0,1.0
2018-06-30 08:35:55,1.0,1.0
2018-06-30 08:36:00,1.0,1.0
2018-06-30 08:36:05,-1.0,1.0
2018-06-30 08:36:10,1.0,1.0
2018-06-30 08:36:15,1.0,1.0
2018-06-30 08:36:20,1.0,1.0
2018-06-30 08:36:25,1.0,1.0
2018-06-30 08:36:30,-1.0,1.0
2018-06-30 08:36:35,1.0,1.0
2018-06-30 08:36:40,1.0,1.0
2018-06-30 08:36:45,1.0,1.0
2018-06-30 08:36:50,1.0,1.0
2018-06-30 08:36:55,1.0,1.0
2018-06-30 08:37:00,1.0,1.0
2018-06-30 08:37:05,1.0,1.0
2018-06-30 08:37:10,1.0,1.0
2018-06-30 08:37:15,1.0,1.0
2018-06-30 08:37:20,1.0,1.0
2018-06-30 08:37:25,1.0,1.0
2018-06-30 08:37:30,1.0,1.0
2018-06-30 08:37:35,1.0,1.0
2018-06-30 08:37:40,1.0,1.0
2018-06-30 08:37:45,1.0,1.0
2018-06-30 08:37:50,1.0,1.0
2018-06-30 08:37:55,1.0,1.0
2018-06-30 08:38:00,1.0,1.0
2018-06-30 08:38:05,1.0,1.0
2018-06-30 08:38:10,1.0,1.0
2018-06-30 08:38:15,1.0,1.0
2018-06-30 08:38:20,1.0,1.0
2018-06-30 08:38:25,1.0,1.0
2018-06-30 08:38:30,1.0,1.0
2018-06-30 08:38:35,1.0,1.0
2018-06-30 08:38:40,1.0,1.0
2018-06-30 08:38:45,1.0,1.0
2018-06-30 08:38:50,1.0,1.0
2018-06-30 08:38:55,1.0,1.0
2018-06-30 08:39:00,1.0,1.0
2018-06-30 08:39:05,1.0,1.0
2018-06-30 08:39:10,1.0,1.0
2018-06-30 08:39:15,1.0,1.0
2018-06-30 08:39:20,1.0,1.0
2018-06-30 08:39:25,1.0,1.0
2018-06-30 08:39:30,1.0,1.0
2018-06-30 08:39:35,1.0,1.0
2018-06-30 08:39:40,1.0,1.0
2018-06-30 08:39:45,1.0,1.0
2018-06-30 08:39:50,1.0,1.0
2018-06-30 08:39:55,1.0,1.0
2018-06-30 08:40:00,1.0,1.0
2018-06-30 08:40:05,1.0,1.0
2018-06-30 08:40:10,1.0,1.0
2018-06-30 08:40:15,1.0,1.0
2018-06-30 08:40:20,1.0,1.0
2018-06-30 08:40:25,1.0,1.0
2018-06-30 08:40:30,1.0,1.0
2018-06-30 08:40:35,1.0,1.0
2018-06-30 08:40:40,1.0,1.0
2018-06-30 08:40:45,1.0,1.0
2018-06-30 08:40:50,1.0,1.0
2018-06-30 08:40:55,1.0,1.0
2018-06-30 08:41:00,1.0,1.0
2018-06-30 08:41:05,1.0,1.0
2018-06-30 08:41:10,1.0,1.0
2018-06-30 08:41:15,1.0,1.0
2018-06-30 08:41:20,1.0,1.0
2018-06-30 08:41:25,1.0,1.0
2018-06-30 08:41:30,1.0,1.0
2018-06-30 08:41:35,1.0,1.0
2018-06-30 08:41:40,1.0,1.0
2018-06-30 08:41:45,1.0,1.0
2018-06-30 08:41:50,1.0,1.0
2018-06-30 08:41:55,1.0,1.0
2018-06-30 08:42:00,1.0,1.0
2018-06-30 08:42:05,1.0,1.0
2018-06-30 08:42:10,1.0,1.0
2018-06-30 08:42:15,1.0,1.0
2018-06-30 08:42:20,1.0,1.0
2018-06-30 08:42:25,1.0,1.0
2018-06-30 08:42:30,1.0,1.0
2018-06-30 08:42:35,1.0,1.0
2018-06-30 08:42:40,1.0,1.0
2018-06-30 08:42:45,1.0,1.0
2018-06-30 08:42:50,1.0,1.0
2018-06-30 08:42:55,1.0,1.0
2018-06-30 08:43:00,1.0,1.0
2018-06-30 08:43:05,1.0,1.0
2018-06-30 08:43:10,1.0,1.0
2018-06-30 08:43:15,1.0,1.0
2018-06-30 08:43:20,1.0,1.0
2018-06-30 08:43:25,1.0,1.0
2018-06-30 08:43:30,1.0,1.0
2018-06-30 08:43:35,1.0,1.0
2018-06-30 08:43:40,1.0,1.0
2018-06-30 08:43:45,1.0,1.0
2018-06-30 08:43:50,1.0,1.0
2018-06-30 08:43:55,1.0,1.0
2018-06-30 08:44:00,1.0,1.0
2018-06-30 08:44:05,1.0,1.0
2018-06-30 08:44:10,1.0,1.0
2018-06-30 08:44:15,1.0,1.0
2018-06-30 08:44:20,1.0,1.0
2018-06-30 08:44:25,1.0,1.0
2018-06-30 08:44:30,1.0,1.0
2018-06-30 08:44:35,1.0,1.0
2018-06-30 08:44:40,1.0,1.0
2018-06-30 08:44:45,1.0,1.0
2018-06-30 08:44:50,1.0,1.0
2018-06-30 08:44:55,1.0,1.0
2018-06-30 08:45:00,1.0,1.0
2018-06-30 08:45:05,1.0,1.0
2018-06-30 08:45:10,1.0,1.0
2018-06-30 08:45:15,1.0,1.0
2018-06-30 08:45:20,1.0,1.0
2018-06-30 08:45:25,1.0,1.0
2018-06-30 08:45:30,1.0,1.0
2018-06-30 08:45:35,1.0,1.0
2018-06-30 08:45:40,1.0,1.0
2018-06-30 08:45:45,1.0,1.0
2018-06-30 08:45:50,1.0,1.0
2018-06-30 08:45:55,1.0,1.0
2018-06-30 08:46:00,1.0,1.0
2018-06-30 08:46:05,1.0,1.0
2018-06-30 08:46:10,1.0,1.0
2018-06-30 08:46:15,1.0,1.0
2018-06-30 08:46:20,1.0,1.0
2018-06-30 08:46:25,1.0,1.0
2018-06-30 08:46:30,1.0,1.0
2018-06-30 08:46:35,1.0,1.0
2018-06-30 08:46:40,1.0,1.0
2018-06-30 08:46:45,1.0,1.0
2018-06-30 08:46:50,1.0,1.0
2018-06-30 08:46:55,1.0,1.0
2018-06-30 08:47:00,1.0,1.0
2018-06-30 08:47:05,1.0,1.0
2018-06-30 08:47:10,1.0,1.0
2018-06-30 08:47:15,1.0,1.0
2018-06-30 08:47:20,1.0,1.0
2018-06-30 08:47:25,1.0,1.0
2018-06-30 08:47:30,1.0,1.0
2018-06-30 08:47:35,1.0,1.0
2018-06-30 08:47:40,1.0,1.0
2018-06-30 08:47:45,1.0,1.0
2018-06-30 08:47:50,-1.0,1.0
2018-06-30 08:47:55,1.0,1.0
2018-06-30 08:48:00,1.0,1.0
2018-06-30 08:48:05,1.0,1.0
2018-06-30 08:48:10,1.0,1.0
2018-06-30 08:48:15,1.0,1.0
2018-06-30 08:48:20,1.0,1.0
2018-06-30 08:48:25,1.0,1.0
2018-06-30 08:48:30,1.0,1.0
2018-06-30 08:48:35,1.0,1.0
2018-06-30 08:48:40,1.0,1.0
2018-06-30 08:48:45,1.0,1.0
2018-06-30 08:48:50,1.0,1.0
2018-06-30 08:48:55,1.0,1.0
2018-06-30 08:49:00,1.0,1.0
2018-06-30 08:49:05,1.0,1.0
2018-06-30 08:49:10,1.0,1.0
2018-06-30 08:49:15,1.0,1.0
2018-06-30 08:49:20,1.0,1.0
2018-06-30 08:49:25,1.0,1.0
2018-06-30 08:49:30,1.0,1.0
2018-06-30 08:49:35,1.0,1.0
2018-06-30 08:49:40,1.0,1.0
2018-06-30 08:49:45,1.0,1.0
2018-06-30 08:49:50,1.0,1.0
2018-06-30 08:49:55,1.0,1.0
2018-06-30 08:50:00,1.0,1.0
2018-06-30 08:50:05,1.0,1.0
2018-06-30 08:50:10,1.0,1.0
2018-06-30 08:50:15,1.0,1.0
2018-06-30 08:50:20,1.0,1.0
2018-06-30 08:50:25,1.0,1.0
2018-06-30 08:50:30,1.0,1.0
2018-06-30 08:50:35,1.0,1.0
2018-06-30 08:50:40,-1.0,1.0
