1530346035.000000, IBI
16.844521,0.796911
17.594555,0.750034
18.266461,0.671906
18.953993,0.687531
19.641524,0.687531
20.313430,0.671906
20.969710,0.656280
21.766621,0.796911
22.610410,0.843789
23.454199,0.843789
24.360490,0.906291
25.204279,0.843789
25.876184,0.671906
26.657470,0.781286
27.391879,0.734409
33.157768,0.968794
44.736423,0.875040
45.642714,0.906291
46.533380,0.890666
47.517800,0.984420
48.674103,1.156303
55.830681,0.750034
78.659851,0.890666
79.550516,0.890666
80.409931,0.859414
81.253719,0.843789
82.113134,0.859414
82.956922,0.843789
83.847588,0.890666
84.613248,0.765660
85.332031,0.718783
86.144568,0.812537
95.426243,0.921917
96.379412,0.953169
97.270077,0.890666
132.662323,0.890666
133.459234,0.796911
134.318648,0.859414
135.193688,0.875040
136.099980,0.906291
136.990646,0.890666
137.834434,0.843789
138.584469,0.750034
139.287626,0.703157
139.975157,0.687531
140.600186,0.625029
141.272092,0.671906
142.131506,0.859414
146.741092,0.812537
147.663009,0.921917
166.960767,0.859414
167.882684,0.921917
168.804602,0.921917
169.804647,1.000046
170.648436,0.843789
171.445348,0.796911
172.211008,0.765660
173.070422,0.859414
173.945462,0.875040
174.742373,0.796911
175.586162,0.843789
176.414325,0.828163
177.320616,0.906291
178.086277,0.765660
178.930065,0.843789
184.867837,0.750034
185.664748,0.796911
186.461660,0.796911
187.430454,0.968794
193.368226,0.828163
200.962324,0.843789
268.059145,0.765660
268.731051,0.671906
269.481085,0.750034
270.293622,0.812537
271.090534,0.796911
271.793691,0.703157
272.465597,0.671906
273.200006,0.734409
289.153861,0.953169
330.546380,1.015671
331.452672,0.906291
332.390215,0.937543
333.265255,0.875040
338.921764,1.000046
339.874932,0.953169
359.391451,0.718783
360.125859,0.734409
360.860268,0.734409
361.625928,0.765660
362.438465,0.812537
363.266628,0.828163
364.126042,0.859414
364.969831,0.843789
365.844871,0.875040
366.719911,0.875040
367.610577,0.890666
368.469991,0.859414
369.360657,0.890666
370.173194,0.812537
386.814581,0.828163
411.034440,0.750034
411.846977,0.812537
412.612637,0.765660
413.472051,0.859414
414.331465,0.859414
415.206506,0.875040
416.081546,0.875040
416.987837,0.906291
417.878503,0.890666
418.753543,0.875040
419.691086,0.937543
420.659880,0.968794
421.581797,0.921917
422.566217,0.984420
435.926204,0.906291
436.863747,0.937543
453.130117,0.984420
458.239726,0.906291
459.083514,0.843789
460.021057,0.937543
460.974226,0.953169
479.959470,0.937543
480.834510,0.875040
481.725176,0.890666
482.631467,0.906291
499.819754,0.984420
500.538537,0.718783
501.351074,0.812537
502.335494,0.984420
503.148031,0.812537
504.038697,0.890666
504.991866,0.953169
505.835654,0.843789
506.663817,0.828163
507.523232,0.859414
515.632978,0.921917
521.727007,0.921917
522.633298,0.906291
523.539590,0.906291
524.367753,0.828163
525.211541,0.843789
526.117833,0.906291
527.086627,0.968794
528.008544,0.921917
529.024216,1.015671
530.008636,0.984420
530.946179,0.937543
532.008727,1.062549
532.961896,0.953169
533.915065,0.953169
541.587291,1.000046
542.509208,0.921917
569.010421,0.843789
569.885461,0.875040
570.854255,0.968794
574.291913,0.796911
575.166953,0.875040
575.963864,0.796911
576.870156,0.906291
577.729570,0.859414
578.604610,0.875040
579.526527,0.921917
580.354690,0.828163
581.229730,0.875040
582.089145,0.859414
582.979810,0.890666
583.917353,0.937543
584.839271,0.921917
585.839316,1.000046
586.854988,1.015671
587.730028,0.875040
588.605068,0.875040
589.464482,0.859414
590.417651,0.953169
591.339568,0.921917
592.323988,0.984420
593.277157,0.953169
594.214700,0.937543
595.230371,1.015671
596.074160,0.843789
596.949200,0.875040
597.824240,0.875040
598.714906,0.890666
599.636823,0.921917
600.480612,0.843789
601.371277,0.890666
602.215066,0.843789
603.090106,0.875040
604.074526,0.984420
604.902689,0.828163
605.887109,0.984420
606.684021,0.796911
607.559061,0.875040
608.496603,0.937543
609.340392,0.843789
619.997130,0.843789
620.840919,0.843789
621.700333,0.859414
622.528496,0.828163
623.278530,0.750034
624.122319,0.843789
627.778736,0.812537
628.481893,0.703157
629.403811,0.921917
630.278851,0.875040
631.216393,0.937543
632.169562,0.953169
633.138356,0.968794
633.997771,0.859414
637.810445,0.937543
638.716737,0.906291
639.701157,0.984420
655.045609,0.953169
655.889398,0.843789
656.748812,0.859414
657.608227,0.859414
658.483267,0.875040
659.405184,0.921917
660.280224,0.875040
661.139638,0.859414
662.061555,0.921917
662.999098,0.937543
663.905390,0.906291
664.858558,0.953169
665.827353,0.968794
666.811773,0.984420
667.749316,0.937543
668.718110,0.968794
669.671279,0.953169
670.530693,0.859414
694.391160,1.046923
695.375580,0.984420
696.422503,1.046923
697.375672,0.953169
698.375718,1.000046
699.360138,0.984420
700.313306,0.953169
701.219598,0.906291
702.250895,1.031297
703.219689,0.968794
704.204109,0.984420
705.188529,0.984420
706.094821,0.906291
706.969861,0.875040
707.907404,0.937543
708.891824,0.984420
709.688735,0.796911
710.610653,0.921917
711.548196,0.937543
730.799077,0.656280
731.533485,0.734409
746.440418,0.843789
747.315458,0.875040
748.190498,0.875040
748.940532,0.750034
749.815572,0.875040
750.565607,0.750034
751.300015,0.734409
751.971921,0.671906
752.659452,0.687531
753.362610,0.703157
754.112644,0.750034
754.893930,0.781286
755.675215,0.781286
756.440876,0.765660
757.237787,0.796911
758.097201,0.859414
759.003493,0.906291
759.925410,0.921917
760.862953,0.937543
761.753619,0.890666
779.504431,0.765660
780.332594,0.828163
781.238886,0.906291
781.988920,0.750034
782.738954,0.750034
783.379609,0.640654
784.239023,0.859414
840.819738,0.640654
841.507270,0.687531
842.272930,0.765660
847.382539,0.828163
848.241953,0.859414
855.304776,0.750034
855.945431,0.640654
860.633145,0.890666
861.476934,0.843789
874.868172,0.843789
875.758838,0.890666
876.649503,0.890666
877.446415,0.796911
882.852912,0.843789
883.618572,0.765660
884.384233,0.765660
885.165518,0.781286
892.400224,0.875040
893.275265,0.875040
894.072176,0.796911
894.837836,0.765660
895.478490,0.640654
896.103519,0.625029
896.791050,0.687531
897.587962,0.796911
898.369248,0.781286
903.978879,0.718783
904.760165,0.781286
905.619580,0.859414
906.463368,0.843789
907.197777,0.734409
907.916560,0.718783
908.604091,0.687531
909.307248,0.703157
910.072908,0.765660
910.885446,0.812537
911.588603,0.703157
912.369889,0.781286
922.198463,0.687531
922.932872,0.734409
923.667281,0.734409
924.339186,0.671906
925.073595,0.734409
930.886361,0.828163
931.792653,0.906291
932.667693,0.875040
933.527107,0.859414
934.308393,0.781286
935.042801,0.734409
935.730333,0.687531
936.464741,0.734409
972.716401,0.609403
977.685378,0.859414
978.513541,0.828163
979.341704,0.828163
980.232370,0.890666
980.998030,0.765660
981.904321,0.906291
985.967007,0.828163
986.857673,0.890666
987.654585,0.796911
988.326490,0.671906
989.045273,0.718783
997.358154,0.890666
998.186317,0.828163
999.076982,0.890666
999.889520,0.812537
1000.811437,0.921917
1001.748980,0.937543
1002.624020,0.875040
1032.391008,0.875040
1033.234796,0.843789
1034.094211,0.859414
1034.922374,0.828163
1035.672408,0.750034
1110.378953,0.828163
1111.269618,0.890666
1112.160284,0.890666
1112.957196,0.796911
1145.599315,0.687531
1146.333723,0.734409
1147.146260,0.812537
1147.974423,0.828163
1148.786961,0.812537
1149.583872,0.796911
1150.333906,0.750034
1151.037064,0.703157
1151.693344,0.656280
1152.349624,0.656280
1153.021529,0.671906
1153.787189,0.765660
1154.646604,0.859414
1155.490392,0.843789
1156.349807,0.859414
1157.068590,0.718783
1157.771747,0.703157
1158.428027,0.656280
1159.178061,0.750034
1159.990598,0.812537
1160.850013,0.859414
1161.709427,0.859414
1162.553216,0.843789
1282.402452,0.843789
1283.339995,0.937543
1284.121280,0.781286
1284.840063,0.718783
1285.574472,0.734409
1286.293255,0.718783
1286.902658,0.609403
1287.574564,0.671906
1329.092089,0.781286
1329.842123,0.750034
1342.827093,0.640654
1347.389802,0.843789
1348.233590,0.843789
1349.108630,0.875040
1349.921167,0.812537
1350.733705,0.812537
1351.483739,0.750034
1352.280650,0.796911
1358.468434,0.781286
1359.187217,0.718783
1359.905999,0.718783
1364.687468,0.843789
1365.531257,0.843789
1366.265666,0.734409
1367.015700,0.750034
1367.796986,0.781286
1368.515769,0.718783
1415.502294,0.703157
1439.409639,0.859414
1440.237802,0.828163
1440.972210,0.734409
1441.706619,0.734409
1442.331647,0.625029
1442.972302,0.640654
1443.831716,0.859414
1444.816136,0.984420
1452.535239,0.781286
1489.036910,0.906291
1489.911950,0.875040
1490.708862,0.796911
1491.521399,0.812537
1492.396439,0.875040
1493.130848,0.734409
1493.880882,0.750034
1494.615291,0.734409
1495.443454,0.828163
1496.380996,0.937543
1497.349791,0.968794
1498.287334,0.937543
1499.131122,0.843789
1500.146794,1.015671
1501.224968,1.078174
1514.913095,1.046923
1519.163289,0.921917
1520.053955,0.890666
1520.960247,0.906291
1521.897789,0.937543
1558.790103,0.656280
1559.415132,0.625029
1560.008909,0.593777
1579.634807,0.859414
1580.728607,1.093800
1581.494267,0.765660
1582.384933,0.890666
1583.244348,0.859414
1584.088136,0.843789
1585.025679,0.937543
1585.900719,0.875040
1606.807926,0.828163
1648.325452,0.921917
1649.278620,0.953169
1655.591409,0.968794
1666.716919,0.921917
1667.623210,0.906291
1668.513876,0.890666
1739.438998,0.750034
1740.267161,0.828163
1839.177938,0.875040
1839.881095,0.703157
1840.865515,0.984420
1847.725204,0.843789
1848.600245,0.875040
1849.475285,0.875040
1850.287822,0.812537
1851.115985,0.828163
1852.084779,0.968794
1852.928568,0.843789
1862.475880,0.937543
1863.366545,0.890666
1864.288463,0.921917
1887.336393,0.765660
1888.133304,0.796911
1888.961467,0.828163
1889.695876,0.734409
1890.524039,0.828163
1891.320950,0.796911
1892.227242,0.906291
1902.633968,0.921917
1903.509008,0.875040
1919.306606,0.734409
1920.150395,0.843789
1932.385330,0.812537
1998.904000,0.843789
2127.316128,0.750034
2128.081788,0.765660
2128.847448,0.765660
2129.613108,0.765660
2146.488881,0.953169
2147.317044,0.828163
2233.883506,0.875040
2234.805423,0.921917
2235.696089,0.890666
2236.508626,0.812537
2237.321163,0.812537
2238.102449,0.781286
2238.914986,0.812537
2239.696272,0.781286
2240.524435,0.828163
2247.165364,0.750034
2248.024778,0.859414
2248.852941,0.828163
2249.665478,0.812537
2250.478016,0.812537
2251.321804,0.843789
2252.181219,0.859414
2253.103136,0.921917
2254.040679,0.937543
2254.900093,0.859414
2255.697005,0.796911
2256.509542,0.812537
2257.384582,0.875040
2258.275248,0.890666
2259.212790,0.937543
2260.119082,0.906291
2261.072251,0.953169
2261.947291,0.875040
2262.775454,0.828163
2263.603616,0.828163
2264.478657,0.875040
2265.353697,0.875040
2266.181859,0.828163
2267.025648,0.843789
2267.900688,0.875040
2268.806980,0.906291
2269.682020,0.875040
2270.525808,0.843789
2271.385223,0.859414
2272.260263,0.875040
2273.119677,0.859414
2273.994717,0.875040
2274.697874,0.703157
2275.385406,0.687531
2307.996274,0.906291
2328.856603,0.734409
2329.622263,0.765660
2330.466052,0.843789
2331.325466,0.859414
2332.138004,0.812537
2332.966166,0.828163
2333.825581,0.859414
2334.653744,0.828163
2335.481907,0.828163
2336.325695,0.843789
2337.122607,0.796911
2337.903893,0.781286
2338.700804,0.796911
2339.544593,0.843789
2340.325878,0.781286
2341.107164,0.781286
2341.935327,0.828163
2342.763490,0.828163
2343.576027,0.812537
2344.451067,0.875040
2345.326107,0.875040
2346.169896,0.843789
2346.982433,0.812537
2347.841847,0.859414
2348.716887,0.875040
2349.576302,0.859414
2350.435716,0.859414
2351.310756,0.875040
2352.170171,0.859414
2352.935831,0.765660
2353.717116,0.781286
2354.514028,0.796911
2355.326565,0.812537
2356.154728,0.828163
2357.014142,0.859414
2357.857931,0.843789
2358.732971,0.875040
2359.467380,0.734409
2360.154911,0.687531
2360.858068,0.703157
2361.576851,0.718783
2362.358137,0.781286
2363.076920,0.718783
2363.858206,0.781286
2364.592614,0.734409
2365.452029,0.859414
2366.373946,0.921917
2367.295863,0.921917
2368.233406,0.937543
2369.139697,0.906291
2370.061615,0.921917
2370.999157,0.937543
2371.921075,0.921917
2372.842992,0.921917
2373.733658,0.890666
2374.639949,0.906291
2375.468112,0.828163
2376.218146,0.750034
2377.061935,0.843789
2377.890098,0.828163
2378.702635,0.812537
2379.608927,0.906291
2380.562095,0.953169
2381.593392,1.031297
2382.593438,1.000046
2393.875204,0.890666
2394.797122,0.921917
2395.625284,0.828163
2396.453447,0.828163
2397.312862,0.859414
2398.172276,0.859414
2399.062942,0.890666
2399.937982,0.875040
2400.969279,1.031297
2401.922448,0.953169
2402.672482,0.750034
2403.547522,0.875040
2404.360059,0.812537
2409.719680,0.890666
2410.563468,0.843789
2411.454134,0.890666
2412.376051,0.921917
2413.266717,0.890666
2414.173008,0.906291
2415.110551,0.937543
2416.016843,0.906291
2416.891883,0.875040
2431.736312,0.578151
2449.080856,0.671906
2449.659008,0.578151
2462.706480,0.859414
2463.565894,0.859414
2464.378432,0.812537
2465.112840,0.734409
2465.878500,0.765660
2466.644160,0.765660
2467.566077,0.921917
2468.503620,0.937543
2469.441163,0.937543
2470.347455,0.906291
2471.331875,0.984420
2480.785433,0.937543
2481.738601,0.953169
2482.644893,0.906291
2491.973445,0.921917
2492.942239,0.968794
2493.848531,0.906291
2509.255486,0.906291
2510.177403,0.921917
2511.177449,1.000046
2512.068115,0.890666
2512.943155,0.875040
2513.927575,0.984420
2514.833866,0.906291
2515.708906,0.875040
2516.646449,0.937543
2517.583992,0.937543
2537.288019,0.750034
2538.209936,0.921917
2539.100602,0.890666
2539.960016,0.859414
2540.913185,0.953169
2541.694471,0.781286
2542.600762,0.906291
2543.397674,0.796911
2544.288340,0.890666
