,Binary,Multiclass
2018-07-31 01:20:00,-1.0,-1.0
2018-07-31 01:20:05,1.0,1.0
2018-07-31 01:20:10,1.0,1.0
2018-07-31 01:20:15,1.0,1.0
2018-07-31 01:20:20,1.0,1.0
2018-07-31 01:20:25,1.0,1.0
2018-07-31 01:20:30,1.0,1.0
2018-07-31 01:20:35,1.0,1.0
2018-07-31 01:20:40,1.0,1.0
2018-07-31 01:20:45,1.0,1.0
2018-07-31 01:20:50,1.0,1.0
2018-07-31 01:20:55,1.0,1.0
2018-07-31 01:21:00,1.0,1.0
2018-07-31 01:21:05,1.0,1.0
2018-07-31 01:21:10,1.0,1.0
2018-07-31 01:21:15,1.0,1.0
2018-07-31 01:21:20,1.0,1.0
2018-07-31 01:21:25,1.0,1.0
2018-07-31 01:21:30,1.0,1.0
2018-07-31 01:21:35,1.0,1.0
2018-07-31 01:21:40,1.0,1.0
2018-07-31 01:21:45,1.0,1.0
2018-07-31 01:21:50,1.0,1.0
2018-07-31 01:21:55,1.0,1.0
2018-07-31 01:22:00,1.0,1.0
2018-07-31 01:22:05,1.0,1.0
2018-07-31 01:22:10,1.0,1.0
2018-07-31 01:22:15,1.0,1.0
2018-07-31 01:22:20,1.0,1.0
2018-07-31 01:22:25,1.0,1.0
2018-07-31 01:22:30,1.0,1.0
2018-07-31 01:22:35,1.0,1.0
2018-07-31 01:22:40,1.0,1.0
2018-07-31 01:22:45,1.0,1.0
2018-07-31 01:22:50,1.0,1.0
2018-07-31 01:22:55,1.0,1.0
2018-07-31 01:23:00,1.0,1.0
2018-07-31 01:23:05,1.0,1.0
2018-07-31 01:23:10,1.0,1.0
2018-07-31 01:23:15,1.0,1.0
2018-07-31 01:23:20,1.0,1.0
2018-07-31 01:23:25,1.0,1.0
2018-07-31 01:23:30,1.0,1.0
2018-07-31 01:23:35,1.0,1.0
2018-07-31 01:23:40,1.0,1.0
2018-07-31 01:23:45,1.0,1.0
2018-07-31 01:23:50,1.0,1.0
2018-07-31 01:23:55,1.0,1.0
2018-07-31 01:24:00,1.0,1.0
2018-07-31 01:24:05,1.0,1.0
2018-07-31 01:24:10,1.0,1.0
2018-07-31 01:24:15,1.0,1.0
2018-07-31 01:24:20,1.0,1.0
2018-07-31 01:24:25,1.0,1.0
2018-07-31 01:24:30,1.0,1.0
2018-07-31 01:24:35,1.0,1.0
2018-07-31 01:24:40,1.0,1.0
2018-07-31 01:24:45,1.0,1.0
2018-07-31 01:24:50,1.0,1.0
2018-07-31 01:24:55,1.0,1.0
2018-07-31 01:25:00,1.0,1.0
2018-07-31 01:25:05,1.0,1.0
2018-07-31 01:25:10,1.0,1.0
2018-07-31 01:25:15,1.0,1.0
2018-07-31 01:25:20,1.0,1.0
2018-07-31 01:25:25,1.0,1.0
2018-07-31 01:25:30,1.0,1.0
2018-07-31 01:25:35,1.0,1.0
2018-07-31 01:25:40,1.0,1.0
2018-07-31 01:25:45,1.0,1.0
2018-07-31 01:25:50,1.0,1.0
2018-07-31 01:25:55,1.0,1.0
2018-07-31 01:26:00,1.0,1.0
2018-07-31 01:26:05,-1.0,-1.0
2018-07-31 01:26:10,1.0,1.0
2018-07-31 01:26:15,1.0,1.0
2018-07-31 01:26:20,-1.0,-1.0
2018-07-31 01:26:25,1.0,1.0
2018-07-31 01:26:30,-1.0,1.0
2018-07-31 01:26:35,1.0,1.0
2018-07-31 01:26:40,1.0,1.0
2018-07-31 01:26:45,-1.0,1.0
2018-07-31 01:26:50,-1.0,-1.0
2018-07-31 01:26:55,-1.0,-1.0
2018-07-31 01:27:00,-1.0,-1.0
2018-07-31 01:27:05,-1.0,-1.0
2018-07-31 01:27:10,-1.0,-1.0
2018-07-31 01:27:15,1.0,1.0
2018-07-31 01:27:20,-1.0,1.0
2018-07-31 01:27:25,1.0,1.0
2018-07-31 01:27:30,1.0,1.0
2018-07-31 01:27:35,1.0,1.0
2018-07-31 01:27:40,1.0,1.0
2018-07-31 01:27:45,1.0,1.0
2018-07-31 01:27:50,1.0,1.0
2018-07-31 01:27:55,1.0,1.0
2018-07-31 01:28:00,1.0,1.0
2018-07-31 01:28:05,1.0,1.0
2018-07-31 01:28:10,1.0,1.0
2018-07-31 01:28:15,1.0,1.0
2018-07-31 01:28:20,1.0,1.0
2018-07-31 01:28:25,1.0,1.0
2018-07-31 01:28:30,1.0,1.0
2018-07-31 01:28:35,1.0,1.0
2018-07-31 01:28:40,1.0,1.0
2018-07-31 01:28:45,1.0,1.0
2018-07-31 01:28:50,1.0,1.0
2018-07-31 01:28:55,1.0,1.0
2018-07-31 01:29:00,1.0,1.0
2018-07-31 01:29:05,1.0,1.0
2018-07-31 01:29:10,1.0,1.0
2018-07-31 01:29:15,1.0,1.0
2018-07-31 01:29:20,1.0,1.0
2018-07-31 01:29:25,1.0,1.0
2018-07-31 01:29:30,1.0,1.0
2018-07-31 01:29:35,1.0,1.0
2018-07-31 01:29:40,1.0,1.0
2018-07-31 01:29:45,1.0,1.0
2018-07-31 01:29:50,-1.0,-1.0
2018-07-31 01:29:55,1.0,1.0
2018-07-31 01:30:00,1.0,1.0
2018-07-31 01:30:05,1.0,1.0
2018-07-31 01:30:10,1.0,1.0
2018-07-31 01:30:15,1.0,1.0
2018-07-31 01:30:20,1.0,1.0
2018-07-31 01:30:25,1.0,1.0
2018-07-31 01:30:30,1.0,1.0
2018-07-31 01:30:35,1.0,1.0
2018-07-31 01:30:40,1.0,1.0
2018-07-31 01:30:45,1.0,1.0
2018-07-31 01:30:50,-1.0,1.0
2018-07-31 01:30:55,1.0,1.0
2018-07-31 01:31:00,1.0,1.0
2018-07-31 01:31:05,1.0,1.0
2018-07-31 01:31:10,1.0,1.0
2018-07-31 01:31:15,1.0,1.0
2018-07-31 01:31:20,1.0,1.0
2018-07-31 01:31:25,1.0,1.0
2018-07-31 01:31:30,1.0,1.0
2018-07-31 01:31:35,1.0,1.0
2018-07-31 01:31:40,1.0,1.0
2018-07-31 01:31:45,1.0,1.0
2018-07-31 01:31:50,1.0,1.0
2018-07-31 01:31:55,1.0,1.0
2018-07-31 01:32:00,1.0,1.0
2018-07-31 01:32:05,1.0,1.0
2018-07-31 01:32:10,-1.0,0.0
2018-07-31 01:32:15,1.0,1.0
2018-07-31 01:32:20,1.0,1.0
2018-07-31 01:32:25,1.0,1.0
2018-07-31 01:32:30,1.0,1.0
2018-07-31 01:32:35,-1.0,-1.0
2018-07-31 01:32:40,-1.0,-1.0
2018-07-31 01:32:45,1.0,1.0
2018-07-31 01:32:50,-1.0,-1.0
2018-07-31 01:32:55,1.0,1.0
2018-07-31 01:33:00,1.0,1.0
2018-07-31 01:33:05,1.0,1.0
2018-07-31 01:33:10,1.0,1.0
2018-07-31 01:33:15,1.0,1.0
2018-07-31 01:33:20,1.0,1.0
2018-07-31 01:33:25,1.0,1.0
2018-07-31 01:33:30,1.0,1.0
2018-07-31 01:33:35,1.0,1.0
2018-07-31 01:33:40,1.0,1.0
2018-07-31 01:33:45,1.0,1.0
2018-07-31 01:33:50,1.0,1.0
2018-07-31 01:33:55,1.0,1.0
2018-07-31 01:34:00,1.0,1.0
2018-07-31 01:34:05,1.0,1.0
2018-07-31 01:34:10,1.0,1.0
2018-07-31 01:34:15,1.0,1.0
2018-07-31 01:34:20,1.0,1.0
2018-07-31 01:34:25,1.0,1.0
2018-07-31 01:34:30,1.0,1.0
2018-07-31 01:34:35,1.0,1.0
2018-07-31 01:34:40,1.0,1.0
2018-07-31 01:34:45,1.0,1.0
2018-07-31 01:34:50,1.0,1.0
2018-07-31 01:34:55,-1.0,1.0
