,EDA,rise_time,max_deriv,amp,decay_time,SCR_width,AUC
2018-07-31 01:20:00.875000,2.96485,85501.125,3.148483262643529,1.6298500000000002,,,
2018-07-31 01:20:07.750000,2.9986,1.875,0.032765780809887346,0.06150000000000011,1.0,2.375,0.14606250000000026
2018-07-31 01:20:47.875000,2.9454,4.0,0.09954728626225595,0.2542499999999994,1.875,3.375,0.8580937499999981
2018-07-31 01:20:54.125000,2.8372,1.625,0.046347538544013744,0.07050000000000001,0.75,2.125,0.14981250000000002
2018-07-31 01:21:06.750000,2.7911,1.625,0.05304259877763684,0.08455000000000013,0.875,2.25,0.19023750000000028
2018-07-31 01:22:16.500000,2.3448,4.0,0.02018788721592024,0.021800000000000264,0.875,2.125,0.04632500000000056
2018-07-31 01:23:06.875000,2.1046500000000004,1.875,0.007259167774757103,0.02375000000000016,1.875,3.375,0.08015625000000054
2018-07-31 01:23:17.375000,2.1283000000000003,4.0,0.049390986872246856,0.06150000000000011,,,
2018-07-31 01:23:25.750000,2.1194,1.375,0.03726687141928231,0.04230000000000045,0.5,1.625,0.06873750000000073
2018-07-31 01:24:02.125000,2.13315,4.0,0.059568227641154436,0.14410000000000012,,,
2018-07-31 01:25:11.625000,1.9307500000000002,1.875,0.04077194766857062,0.06785000000000019,1.5,2.75,0.18658750000000052
2018-07-31 01:26:05.750000,1.7502,1.75,0.04547875403877377,0.05249999999999999,0.375,1.625,0.08531249999999999
2018-07-31 01:26:17.375000,1.8025,1.625,0.027431010670200706,0.025600000000000067,0.375,1.75,0.04480000000000012
2018-07-31 01:26:31.125000,2.0806,1.5,0.10917402013809685,0.17094999999999994,0.75,2.0,0.34189999999999987
2018-07-31 01:26:33.875000,2.1146000000000003,0.875,0.30337884096667267,0.0416000000000003,0.125,1.0,0.0416000000000003
2018-07-31 01:26:45.625000,2.0883000000000003,1.25,0.18564559468183006,0.10440000000000027,0.125,1.25,0.13050000000000034
2018-07-31 01:26:56.500000,2.1741,1.75,0.3647234436355813,0.6380000000000001,0.625,1.75,1.1165000000000003
2018-07-31 01:27:03.375000,1.8710499999999999,1.125,0.8162812077271937,0.7012499999999999,,,
2018-07-31 01:27:11.875000,1.6936499999999999,0.875,0.7054987487851836,0.08064999999999967,,,
2018-07-31 01:27:20.875000,1.6943,4.0,0.08509839832824184,0.021150000000000002,0.125,1.5,0.031725
2018-07-31 01:27:26.375000,2.5984,4.0,0.13915686036748376,0.5947999999999998,,,
2018-07-31 01:27:38.250000,3.2842,4.0,0.2406532827559662,0.504,,,
2018-07-31 01:27:41.500000,4.398,4.0,0.1693438523528883,0.3803000000000001,0.5,2.125,0.8081375000000002
2018-07-31 01:27:47.125000,4.11555,4.0,0.09199228570623319,0.10695000000000032,0.25,2.125,0.22726875000000069
2018-07-31 01:28:01.250000,3.3277,1.625,0.1738167041020393,0.2862499999999999,0.625,2.0,0.5724999999999998
2018-07-31 01:28:04.500000,3.1587,1.375,0.034720609212651965,0.04035000000000011,0.5,1.5,0.06052500000000016
2018-07-31 01:28:12.125000,3.55085,1.875,0.2273274621294199,0.57145,,,
2018-07-31 01:28:21.500000,3.23,4.0,0.060714378669139535,0.13319999999999999,0.875,2.375,0.31634999999999996
2018-07-31 01:28:41.750000,3.3969,4.0,0.09456209458200426,0.14990000000000014,0.5,1.875,0.28106250000000027
2018-07-31 01:28:53.750000,3.2227,4.0,0.16858518666978206,0.42010000000000014,1.625,3.125,1.3128125000000004
2018-07-31 01:29:02.625000,2.8673,1.625,0.03649598019366174,0.05830000000000046,0.75,2.125,0.12388750000000098
2018-07-31 01:29:33.250000,3.06,4.0,0.17866156616966578,0.5474000000000001,1.75,3.375,1.8474750000000004
2018-07-31 01:29:50.250000,2.6022,4.0,0.06040929059760991,0.19469999999999965,0.375,2.0,0.3893999999999993
2018-07-31 01:29:56.125000,2.7219499999999996,1.0,0.18683505447755167,0.036499999999999755,0.5,1.5,0.05474999999999963
2018-07-31 01:29:58.750000,2.7188,1.0,0.07188090355657195,0.028200000000000003,0.5,1.375,0.038775000000000004
2018-07-31 01:30:16.375000,2.4511000000000003,1.0,0.08354230759220194,0.038450000000000095,,,
2018-07-31 01:30:17.625000,2.61375,0.875,0.1568260249911244,0.03584999999999994,0.25,0.875,0.031368749999999945
2018-07-31 01:30:44.250000,2.4767,1.5,0.12421950501593848,0.07690000000000019,0.75,1.75,0.13457500000000033
2018-07-31 01:30:53,2.4831,1.0,0.2199118353408771,0.14469999999999983,,,
2018-07-31 01:30:56,3.3879,4.0,0.21447596652281042,0.7587999999999999,,,
2018-07-31 01:32:03.125000,2.0813,1.75,0.06989387350129483,0.02950000000000008,0.125,1.875,0.05531250000000015
2018-07-31 01:32:11.500000,2.4946,1.375,0.4049749337190267,0.37170000000000014,,,
2018-07-31 01:32:24.750000,2.3755,0.875,0.19459756811211726,0.06530000000000014,0.875,1.75,0.11427500000000024
2018-07-31 01:32:41.250000,2.1818,0.625,0.7130455900812009,0.06150000000000011,0.125,0.25,0.015375000000000028
2018-07-31 01:32:43.125000,2.6432,1.0,0.7596080817036039,0.3250000000000002,0.25,1.125,0.3656250000000002
2018-07-31 01:32:52.250000,2.1975,1.5,0.029046320342713372,0.026899999999999924,0.25,1.25,0.033624999999999905
2018-07-31 01:32:57.875000,2.0918,1.125,0.03746115930536398,0.023700000000000276,0.25,1.375,0.03258750000000038
2018-07-31 01:33:21.875000,1.9672999999999998,1.0,0.0508671286906246,0.02179999999999982,,,
2018-07-31 01:33:38,1.7873,1.0,0.03459595845617258,0.021700000000000053,0.125,1.125,0.02441250000000006
