1.533e+09,1.533e+09
4054.1,0.95317
4055,0.90629
4055.9,0.95317
4056.9,0.96879
4057.9,1
4058.9,1
4060,1.0625
4061,1.0469
4062,1
4063,1.0157
4064,1.0157
4065,1
4066,1.0157
4067,1
4308,1.0782
4309.1,1.0938
4310.2,1.0782
4311.3,1.1251
4312.4,1.0313
4313.4,1.0313
4314.4,1
4315.4,1.0157
4316.4,1.0157
4317.5,1.0782
4341.4,1.0469
4382.4,1.0625
4383.5,1.0625
4384.3,0.81254
4385.1,0.87504
4425.4,1
4460.8,1.0782
4461.8,1.0625
4462.7,0.84379
4481.6,1.0313
4482.6,1.0469
4489,0.98442
4522,1.0782
4522.9,0.90629
4524.1,1.1563
4525,0.93754
4571.7,1.0469
4572.8,1.0313
4573.8,1.0469
4574.8,1.0157
4575.8,1.0157
4576.9,1.0157
4577.8,0.98442
4578.9,1.0313
4579.9,1.0469
4580.9,1
4582.1,1.2188
4583.1,0.92192
4584.1,1.0469
4592,0.87504
4592.9,0.92192
4593.7,0.82816
4594.6,0.89067
4595.5,0.90629
4596.4,0.92192
4597.4,0.95317
4598.3,0.95317
4599.3,0.93754
4677.7,0.68753
4678.3,0.67191
4679,0.67191
4679.7,0.67191
4680.4,0.70316
4681.1,0.75003
4681.8,0.67191
4682.6,0.79691
4683.4,0.76566
4684.2,0.78129
4684.9,0.76566
4685.7,0.75003
4686.4,0.76566
4687.2,0.78129
4687.9,0.70316
4688.7,0.76566
4689.4,0.70316
4690.1,0.68753
4690.7,0.65628
4691.4,0.67191
4692.1,0.70316
4692.9,0.76566
4693.7,0.78129
4694.5,0.81254
4695.3,0.87504
4696.2,0.84379
4697.1,0.89067
4697.9,0.87504
4698.8,0.84379
4699.7,0.87504
4700.5,0.81254
4701.3,0.81254
4702.1,0.81254
4703,0.85941
4703.7,0.73441
4704.4,0.75003
4705.2,0.71878
4705.9,0.71878
4706.6,0.75003
4719.9,0.82816
4720.7,0.84379
4721.6,0.85941
4722.4,0.79691
4723.2,0.85941
4724.1,0.84379
4724.9,0.79691
4725.7,0.84379
4726.6,0.89067
4727.4,0.76566
4751.9,0.92192
4752.8,0.92192
4753.8,1.0157
4754.7,0.87504
4755.6,0.89067
4756.4,0.85941
4757.3,0.87504
4758.2,0.89067
4759.1,0.93754
4760,0.85941
4760.8,0.82816
4761.7,0.85941
4762.5,0.87504
4763.5,0.92192
4764.4,0.90629
4794.9,0.87504
4795.8,0.87504
4796.7,0.87504
4797.5,0.84379
4798.4,0.84379
4799.2,0.84379
4800,0.82816
4800.9,0.87504
4801.8,0.85941
4802.6,0.85941
4803.5,0.87504
4804.3,0.84379
4805.3,0.90629
4806.1,0.85941
4807,0.89067
4807.9,0.87504
4808.7,0.85941
4809.7,0.92192
4810.5,0.87504
4811.4,0.90629
4812.3,0.84379
4813.2,0.93754
4814.2,0.95317
4815.1,0.96879
4816.1,0.95317
