1.5331e+09,1.5331e+09
4500.2,0.51565
4500.7,0.53127
4501.2,0.50002
4501.8,0.56253
4502.5,0.68753
4510.3,0.59378
4510.9,0.6094
4511.4,0.51565
4512.1,0.67191
4512.6,0.4844
4513.1,0.45315
4513.6,0.5469
4514.1,0.51565
4514.6,0.50002
4526.1,0.5469
4526.6,0.51565
4527.1,0.51565
4527.7,0.5469
4528.2,0.5469
4528.8,0.6094
4529.4,0.59378
4530,0.53127
4539.6,0.50002
4551.7,0.59378
4552.3,0.56253
4564,0.53127
4564.6,0.57815
4565.1,0.53127
4565.7,0.5469
4566.2,0.51565
4566.7,0.51565
4567.2,0.51565
4567.8,0.6094
4568.3,0.43752
4568.7,0.45315
4571.5,0.56253
4588.1,0.4844
4588.6,0.4844
4589.1,0.51565
4589.5,0.42189
4590,0.4844
4590.5,0.4844
4590.9,0.43752
4591.4,0.53127
4597.1,0.81254
4603.6,0.43752
4604.2,0.5469
4604.6,0.43752
4619,0.45315
4658.1,0.43752
4658.6,0.46877
4659.1,0.4844
4659.5,0.45315
4660,0.53127
4660.5,0.46877
4661,0.46877
4667,0.53127
4667.5,0.53127
4668,0.4844
4679.1,0.5469
4679.7,0.57815
4724.8,0.53127
4725.4,0.51565
4747.8,0.64065
4748.4,0.56253
4774.1,0.64065
4774.7,0.68753
4780.2,0.57815
4780.8,0.65628
4781.4,0.56253
4782,0.59378
4782.6,0.57815
4783.2,0.62503
4783.9,0.70316
4784.6,0.67191
4785.3,0.73441
4788.4,0.65628
4789,0.6094
4789.6,0.59378
4790.2,0.59378
4790.8,0.59378
4791.4,0.64065
4792,0.57815
4792.7,0.65628
4793.2,0.53127
4793.9,0.68753
4794.6,0.70316
4797.4,0.70316
4829,0.57815
4829.5,0.45315
4850.2,0.62503
4850.8,0.53127
4851.4,0.62503
4967,0.93754
4970.6,1.0782
4982.2,0.65628
4982.9,0.65628
4983.5,0.64065
4996.4,0.70316
4997.2,0.76566
4997.9,0.73441
4998.7,0.73441
4999.5,0.87504
5003.5,0.73441
5004.2,0.70316
5005.1,0.84379
5022.9,0.5469
5023.6,0.65628
5024.2,0.59378
5024.8,0.6094
5029.1,0.59378
5029.6,0.51565
5030.3,0.64065
5030.8,0.56253
5031.5,0.62503
5039.2,0.68753
5040,0.79691
5040.8,0.82816
5041.7,0.84379
5042.6,0.90629
5043.3,0.73441
5048.7,0.71878
5049.4,0.65628
5050.3,0.89067
5050.9,0.64065
5055.7,0.79691
5056.3,0.65628
5057,0.65628
5057.7,0.71878
5058.4,0.68753
5059.1,0.65628
5059.8,0.75003
5060.6,0.75003
5065.5,0.75003
5066.2,0.70316
5066.8,0.67191
5067.5,0.67191
5068.1,0.6094
5068.8,0.65628
5069.5,0.71878
5070.3,0.76566
5071,0.68753
5071.6,0.67191
5075.7,0.64065
5076.4,0.71878
5077.1,0.68753
5077.7,0.65628
5078.3,0.5469
5078.9,0.59378
5079.5,0.65628
5080.3,0.78129
5080.9,0.64065
5081.6,0.62503
5082.1,0.56253
5082.8,0.70316
5083.4,0.6094
5084.1,0.70316
5084.8,0.65628
5085.6,0.84379
5086.3,0.70316
5091.7,0.73441
5092.5,0.76566
5093.3,0.84379
5094,0.64065
5097.1,0.57815
