1.533e+09,1.533e+09
3997.6,0.78129
3998.3,0.73441
3999.1,0.78129
3999.8,0.76566
4000.5,0.70316
4001.3,0.73441
4002,0.73441
4002.8,0.78129
4003.6,0.79691
4004.4,0.79691
4005.1,0.73441
4005.9,0.73441
4012.9,0.64065
4013.6,0.68753
4014.3,0.71878
4015.1,0.76566
4015.8,0.75003
4016.6,0.71878
4017.3,0.71878
4018.1,0.78129
4018.8,0.76566
4023,0.64065
4023.8,0.81254
4024.6,0.78129
4025.4,0.85941
4026.2,0.75003
4026.9,0.71878
4027.6,0.71878
4028.3,0.70316
4029.1,0.76566
4029.8,0.70316
4030.5,0.68753
4031.2,0.71878
4032,0.78129
4032.8,0.79691
4033.6,0.78129
4034.4,0.79691
4035,0.68753
4035.7,0.67191
4036.4,0.67191
4037.1,0.71878
4037.8,0.70316
4038.5,0.67191
4039.1,0.59378
4039.7,0.67191
4040.5,0.73441
4041.3,0.78129
4042,0.70316
4042.7,0.76566
4043.5,0.76566
4044.3,0.78129
4070.5,0.75003
4071.2,0.70316
4081.2,1.2032
4113.6,0.81254
4114.4,0.81254
4115.2,0.84379
4119.8,0.82816
4153.7,0.89067
4167.2,0.75003
4168,0.78129
4180.9,0.67191
4181.6,0.64065
4182.2,0.65628
4182.9,0.68753
4183.6,0.68753
4184.3,0.73441
4185.1,0.78129
4185.8,0.65628
4186.5,0.67191
4187.1,0.67191
4187.8,0.71878
4188.6,0.71878
4189.3,0.75003
4190.1,0.76566
4190.8,0.71878
4191.5,0.68753
4192.1,0.65628
4192.8,0.6094
4193.4,0.65628
4194.1,0.70316
4194.9,0.75003
4195.7,0.79691
4196.4,0.75003
4197.1,0.73441
4197.8,0.70316
4198.5,0.68753
4199.3,0.78129
4200.1,0.81254
4200.9,0.79691
4201.7,0.73441
4215.6,0.68753
4227.5,0.67191
4228.3,0.71878
4228.9,0.68753
4229.7,0.71878
4230.3,0.67191
4231,0.65628
4267.9,0.67191
4268.4,0.53127
4269.1,0.65628
4272.1,0.68753
4272.7,0.59378
4299.5,0.68753
4338.9,0.75003
4339.5,0.6094
4340.1,0.67191
4354.2,0.67191
4354.9,0.62503
4355.5,0.64065
4356.1,0.62503
4356.8,0.67191
4357.5,0.70316
4358.2,0.71878
4358.9,0.67191
4359.6,0.65628
4372.7,0.64065
4373.4,0.70316
4374.1,0.71878
4374.8,0.71878
4375.6,0.76566
4376.2,0.67191
4377,0.70316
4377.6,0.6094
4378.2,0.67191
4378.9,0.68753
4379.7,0.73441
4380.4,0.70316
4381.2,0.79691
4381.9,0.75003
4382.7,0.79691
4383.5,0.78129
4384.2,0.68753
4384.8,0.67191
4385.5,0.6094
4386.2,0.71878
4386.8,0.62503
4387.6,0.79691
4395.7,0.75003
4396.4,0.75003
4397.1,0.68753
4397.8,0.68753
4398.5,0.73441
4399.2,0.68753
4400,0.71878
4400.7,0.75003
4401.5,0.75003
4402.2,0.76566
4402.9,0.71878
4403.7,0.71878
4404.4,0.75003
4405,0.59378
4405.7,0.70316
4406.4,0.70316
4407.2,0.76566
4407.9,0.73441
4408.6,0.67191
4409.3,0.68753
4409.9,0.65628
4410.6,0.70316
4411.4,0.75003
4412.1,0.70316
4412.8,0.75003
4413.6,0.75003
4414.3,0.73441
4415.2,0.84379
4415.8,0.68753
4416.6,0.78129
4417.3,0.71878
4418.1,0.79691
4419,0.82816
4422.6,0.75003
4430.1,0.78129
4430.9,0.79691
4431.7,0.84379
4432.5,0.76566
4433.2,0.70316
4433.9,0.65628
4434.6,0.70316
4444.8,0.79691
4445.6,0.79691
4446.4,0.78129
4447.1,0.70316
4447.8,0.65628
4448.5,0.75003
4451.8,0.65628
4452.6,0.84379
4453.4,0.71878
4454.2,0.84379
4454.9,0.68753
4455.6,0.70316
4456.3,0.73441
4457,0.70316
4457.7,0.70316
4458.5,0.78129
4459.3,0.81254
4460.2,0.82816
4460.9,0.78129
4461.7,0.71878
4462.4,0.75003
4463.2,0.76566
4464,0.84379
4464.9,0.84379
4465.6,0.78129
4466.3,0.70316
4467,0.62503
4467.6,0.64065
4468.4,0.75003
4469.2,0.82816
4470,0.85941
4470.9,0.81254
4471.7,0.79691
4472.4,0.71878
4473.1,0.70316
4473.8,0.73441
4474.6,0.81254
4475.5,0.84379
4476.2,0.76566
4477,0.79691
4477.8,0.81254
4478.7,0.82816
4479.4,0.76566
4480.3,0.81254
4481,0.76566
4481.7,0.70316
4482.4,0.71878
4483.2,0.71878
4483.9,0.76566
4484.7,0.78129
4485.5,0.81254
4486.2,0.70316
4486.9,0.67191
4487.6,0.68753
4488.3,0.68753
4489.1,0.81254
4489.9,0.81254
4490.7,0.82816
4491.5,0.78129
4492.3,0.75003
4493,0.73441
4493.7,0.70316
4494.3,0.6094
4494.9,0.59378
4495.5,0.56253
4496.1,0.62503
4496.8,0.70316
4497.6,0.81254
4498.4,0.78129
4499.2,0.81254
4499.9,0.71878
4500.6,0.68753
4501.3,0.65628
4501.9,0.67191
4502.6,0.70316
4503.3,0.64065
4503.9,0.65628
4504.6,0.68753
4505.4,0.75003
4506.1,0.76566
4506.9,0.75003
4507.6,0.73441
4508.3,0.68753
4509,0.70316
4509.7,0.70316
4510.4,0.73441
4511.2,0.75003
4511.9,0.71878
4512.6,0.65628
4513.3,0.68753
4514,0.70316
4514.7,0.71878
4515.5,0.78129
4516.2,0.73441
4516.9,0.68753
4517.6,0.67191
4518.2,0.6094
4518.8,0.62503
4519.5,0.70316
4520.1,0.62503
4520.7,0.59378
4521.4,0.65628
4522.1,0.73441
4522.8,0.71878
4523.6,0.73441
4524.2,0.67191
4524.9,0.64065
4525.6,0.70316
4526.3,0.71878
4527,0.71878
4527.7,0.71878
4528.4,0.71878
4529.1,0.65628
4529.8,0.67191
4530.5,0.68753
4531.1,0.68753
4531.8,0.68753
4532.5,0.64065
4533.1,0.6094
4533.7,0.65628
4534.3,0.59378
4535,0.65628
4535.6,0.6094
4536.2,0.57815
4536.8,0.57815
4537.3,0.59378
4538,0.64065
4538.7,0.71878
4539.5,0.75003
4540.1,0.68753
4540.8,0.65628
4541.4,0.64065
4542.1,0.62503
4542.7,0.65628
4543.5,0.73441
4544.1,0.62503
4544.7,0.64065
4545.3,0.62503
4545.9,0.59378
4546.6,0.6094
4547.2,0.62503
4547.8,0.67191
4548.6,0.71878
4549.3,0.68753
4549.9,0.6094
4550.5,0.6094
4551.1,0.64065
4551.8,0.70316
4552.5,0.71878
4553.2,0.70316
4553.9,0.67191
4554.6,0.65628
4555.2,0.59378
4555.7,0.5469
4556.3,0.56253
4556.9,0.62503
4557.6,0.68753
4558.3,0.73441
4559.1,0.73441
4559.8,0.71878
4560.5,0.71878
4561.2,0.68753
4561.9,0.70316
4562.5,0.62503
4563.2,0.65628
4563.8,0.68753
4564.6,0.71878
4565.3,0.71878
4565.9,0.65628
4566.7,0.73441
4571.7,0.62503
4572.3,0.6094
4572.9,0.64065
4573.5,0.62503
4574.3,0.73441
4575,0.70316
4575.6,0.57815
4596.1,0.67191
4596.8,0.65628
4597.5,0.68753
4598.1,0.65628
4598.7,0.6094
4599.4,0.67191
4600.1,0.65628
4600.7,0.6094
4601.4,0.68753
4602,0.64065
4602.6,0.5469
4603.2,0.64065
4603.8,0.57815
4604.4,0.67191
4605.2,0.71878
4605.9,0.71878
4606.6,0.70316
4607.2,0.65628
4607.9,0.62503
4608.5,0.65628
4609.2,0.65628
4609.8,0.62503
4610.5,0.67191
4611.1,0.67191
4611.8,0.68753
4612.5,0.62503
4613.2,0.73441
4613.8,0.64065
4614.6,0.73441
4615.2,0.67191
4615.9,0.67191
4616.6,0.67191
4617.2,0.65628
4617.9,0.67191
4618.5,0.62503
4619.2,0.64065
4619.9,0.67191
4620.5,0.64065
4621.1,0.65628
4621.9,0.76566
4622.6,0.65628
4623.2,0.62503
4623.9,0.68753
4624.6,0.67191
4625.3,0.73441
4625.9,0.64065
4630.2,0.6094
4630.9,0.68753
4631.6,0.71878
4632.4,0.75003
4633.1,0.75003
4633.9,0.79691
4634.7,0.78129
4635.5,0.73441
4636.2,0.70316
4636.9,0.71878
4637.5,0.6094
4638.2,0.70316
4638.9,0.71878
4639.7,0.78129
4644,0.71878
4644.7,0.70316
4645.4,0.70316
4646.1,0.70316
4646.8,0.71878
4647.5,0.70316
4648.2,0.68753
4648.9,0.71878
4649.7,0.76566
4650.5,0.76566
4651.2,0.75003
4657.3,0.75003
4657.9,0.65628
4658.6,0.68753
4659.3,0.67191
4660.1,0.81254
4669,0.70316
4669.7,0.65628
4670.4,0.65628
4671,0.67191
4671.7,0.68753
4672.4,0.64065
4673.1,0.70316
4673.7,0.67191
4674.4,0.71878
4675.2,0.75003
4675.9,0.70316
4676.6,0.68753
4677.2,0.65628
4677.9,0.62503
4678.5,0.64065
4679.2,0.68753
4679.9,0.71878
4680.7,0.73441
4681.3,0.67191
4682,0.67191
4682.7,0.68753
4683.4,0.67191
4684.1,0.70316
4684.8,0.73441
4685.5,0.68753
4686.2,0.68753
4686.9,0.71878
4687.6,0.71878
4688.3,0.73441
4689,0.70316
4689.7,0.68753
4690.4,0.62503
4691,0.6094
4691.6,0.6094
4692.2,0.59378
4692.7,0.57815
4693.3,0.56253
4694,0.67191
4694.7,0.73441
4695.4,0.71878
4696.2,0.71878
4696.8,0.68753
4697.4,0.5469
4698,0.64065
4720.2,0.76566
4721,0.75003
4740.7,0.70316
4741.4,0.67191
4742,0.62503
4742.6,0.62503
4743.3,0.65628
4744,0.68753
4744.7,0.68753
4745.3,0.67191
4746,0.70316
4746.8,0.76566
4747.6,0.78129
4748.3,0.70316
4749,0.65628
4749.6,0.62503
4750.2,0.65628
4750.9,0.70316
4751.7,0.73441
4752.4,0.68753
4753,0.67191
4753.7,0.67191
4754.4,0.67191
4755,0.64065
4755.7,0.67191
4756.3,0.65628
4757,0.67191
4757.7,0.73441
4758.5,0.75003
4759.2,0.71878
4759.9,0.68753
4760.6,0.65628
4761.2,0.65628
4761.9,0.64065
4762.5,0.62503
4763.1,0.65628
4763.8,0.64065
4764.3,0.56253
4764.9,0.5469
4765.4,0.5469
4766,0.56253
4766.7,0.68753
4767.5,0.78129
4768.3,0.79691
4769.1,0.82816
4769.9,0.82816
4770.6,0.68753
4771.2,0.64065
4771.9,0.62503
4772.5,0.62503
4773.2,0.67191
4773.9,0.75003
4774.8,0.84379
4778.1,0.82816
4778.9,0.84379
4779.7,0.73441
4780.4,0.76566
4781,0.59378
4781.6,0.5469
4782.1,0.56253
4782.7,0.57815
4783.3,0.62503
4793.7,0.78129
4794.4,0.70316
4795.1,0.70316
4795.8,0.70316
4796.5,0.70316
4797.3,0.73441
4798,0.75003
4798.8,0.75003
4799.5,0.78129
4800.3,0.76566
4801,0.73441
4801.8,0.70316
4802.4,0.68753
4803.2,0.75003
4803.9,0.70316
4804.6,0.70316
4805.4,0.76566
4806.2,0.81254
4807,0.79691
4807.8,0.81254
4808.6,0.81254
4809.4,0.78129
4810.1,0.70316
4810.8,0.73441
4811.5,0.70316
4812.3,0.73441
4813,0.76566
4813.8,0.76566
4814.5,0.76566
4815.3,0.75003
4816,0.73441
4824.8,0.70316
4825.5,0.76566
4831.1,0.76566
4831.8,0.76566
4832.6,0.79691
4833.4,0.75003
4834.1,0.70316
4834.8,0.67191
4835.4,0.68753
4836.1,0.68753
4836.8,0.71878
4837.5,0.65628
4838.1,0.62503
4838.8,0.62503
4839.4,0.62503
4840.1,0.73441
4840.8,0.68753
4841.5,0.75003
4842.3,0.71878
4843,0.71878
4843.7,0.71878
4847.3,0.71878
4848.1,0.78129
4848.8,0.76566
4849.6,0.71878
4850.2,0.65628
4850.9,0.67191
4851.5,0.62503
4852.2,0.67191
4852.8,0.67191
4853.5,0.67191
4854.2,0.67191
4854.8,0.6094
4855.4,0.57815
4855.9,0.5469
4856.5,0.59378
4857.2,0.65628
4857.9,0.70316
4858.6,0.67191
