1.5331e+09,1.5331e+09
2400.3,0.6094
2407.5,0.87504
2408.3,0.73441
2409.1,0.81254
2431.1,0.6094
2431.8,0.71878
2437.7,0.70316
2448.9,0.82816
2452,0.71878
2452.7,0.64065
2453.4,0.68753
2454,0.64065
2454.7,0.67191
2455.3,0.6094
2456,0.67191
2456.6,0.67191
2457.2,0.6094
2457.9,0.62503
2470.8,0.78129
2481.4,0.64065
2482,0.67191
2486.4,0.82816
2489.7,0.71878
2490.4,0.68753
2491,0.64065
2491.7,0.70316
2492.5,0.76566
2493.2,0.67191
2493.9,0.71878
2494.5,0.65628
2495.2,0.65628
2495.9,0.68753
2502.6,0.64065
2503.3,0.64065
2504.1,0.76566
2504.7,0.64065
2505.3,0.65628
2506,0.64065
2506.7,0.71878
2507.5,0.76566
2510.5,0.6094
2511.2,0.64065
2511.8,0.67191
2512.6,0.73441
2513.3,0.73441
2513.9,0.64065
2514.6,0.68753
2515.3,0.62503
2515.9,0.6094
2516.5,0.62503
2517.1,0.57815
2517.7,0.64065
2518.4,0.67191
2519.1,0.68753
2519.7,0.64065
2520.4,0.73441
2529.8,0.67191
2530.4,0.59378
2531,0.62503
2531.7,0.65628
2532.4,0.65628
2576.9,0.5469
2591.4,0.56253
2592,0.57815
2592.6,0.6094
2593.2,0.6094
2593.8,0.6094
2594.4,0.6094
2595,0.57815
2595.7,0.64065
2596.2,0.56253
2596.9,0.65628
2597.6,0.71878
2606.4,0.5469
2607,0.6094
2607.6,0.57815
2608.2,0.59378
2608.8,0.57815
2609.4,0.65628
2615.8,0.57815
2616.4,0.57815
2617,0.65628
2617.7,0.62503
2618.2,0.53127
2618.8,0.59378
2619.4,0.65628
2620,0.53127
2623.5,0.53127
2624.2,0.64065
2644.6,0.53127
2645.2,0.62503
2645.8,0.6094
2658.9,0.64065
2659.4,0.56253
2659.9,0.51565
2660.6,0.64065
2661.1,0.5469
2661.9,0.73441
2668.3,0.56253
2668.9,0.57815
2669.5,0.56253
2670.1,0.62503
2670.7,0.6094
2681.5,0.5469
2682.1,0.6094
2682.7,0.5469
2683.3,0.62503
2683.9,0.62503
2684.6,0.67191
2740.4,0.73441
2741,0.62503
2741.7,0.68753
2742.3,0.56253
2748.2,0.64065
2748.9,0.68753
2749.6,0.67191
2750.2,0.64065
2750.9,0.64065
2751.5,0.62503
2752.2,0.67191
2752.8,0.62503
2753.5,0.67191
2774.3,0.53127
2774.9,0.56253
2798.1,0.71878
2798.7,0.62503
2799.3,0.62503
2800,0.64065
2800.6,0.64065
2801.2,0.5469
2826,0.57815
2826.7,0.71878
2827.3,0.5469
2827.9,0.65628
2828.5,0.53127
2829.2,0.70316
2829.7,0.56253
2830.4,0.68753
2855.5,0.57815
2856.1,0.51565
2856.6,0.59378
2857.2,0.53127
2857.7,0.56253
2858.3,0.57815
2858.9,0.57815
2859.6,0.65628
2860.2,0.65628
2860.9,0.67191
2861.5,0.64065
2862.2,0.71878
2863,0.73441
2863.6,0.67191
2864.3,0.65628
2864.9,0.64065
2865.6,0.62503
2866.3,0.70316
2867,0.68753
2867.6,0.64065
2868.3,0.65628
2868.9,0.64065
2869.6,0.70316
2870.3,0.68753
2870.9,0.6094
2871.5,0.62503
2933.8,0.53127
2934.4,0.62503
2944.7,0.68753
2945.4,0.68753
2953.5,0.62503
2954.2,0.67191
2954.9,0.71878
2955.7,0.82816
2956.6,0.82816
2957.3,0.73441
2958.1,0.76566
2965.9,0.82816
2966.8,0.90629
2967.4,0.67191
2968.1,0.65628
2968.8,0.68753
2977.5,0.62503
2986.3,0.79691
2987.1,0.76566
2987.8,0.71878
2988.4,0.65628
2989.1,0.70316
2989.9,0.71878
2990.6,0.73441
2991.4,0.76566
2992,0.65628
2996.3,0.5469
2996.9,0.56253
2997.4,0.56253
2998,0.5469
2998.5,0.5469
2999.1,0.56253
2999.7,0.59378
3000.3,0.57815
3027.8,0.79691
3028.4,0.59378
3029.1,0.73441
3033.6,0.6094
3034.2,0.67191
3040.1,0.67191
3040.7,0.62503
3041.4,0.67191
3042,0.68753
3042.7,0.62503
3043.3,0.65628
3059,0.68753
3059.8,0.73441
3060.5,0.73441
3061.2,0.70316
3061.9,0.68753
3062.6,0.67191
3063.3,0.70316
3064,0.67191
3064.6,0.68753
3065.3,0.64065
3066,0.68753
3066.7,0.78129
3067.5,0.73441
3068.2,0.73441
3068.9,0.65628
3069.6,0.70316
3070.3,0.76566
3073.6,0.79691
3074.2,0.62503
3074.9,0.70316
3075.7,0.75003
3076.4,0.75003
3077.2,0.71878
3077.8,0.67191
3078.5,0.64065
3079.1,0.67191
3079.8,0.70316
3080.6,0.71878
3081.3,0.76566
3082,0.68753
3091.3,0.6094
3091.9,0.67191
3092.5,0.56253
3093.2,0.65628
3093.8,0.62503
3094.4,0.64065
3095,0.62503
3095.7,0.62503
3096.4,0.68753
3096.9,0.56253
3113.6,0.6094
3117.9,0.56253
3118.4,0.53127
3119,0.57815
3119.6,0.6094
3120.2,0.59378
3127.2,0.6094
3131.4,0.57815
3132,0.64065
3134.8,0.50002
3135.4,0.62503
3135.9,0.4844
3136.4,0.57815
3136.9,0.50002
3137.5,0.51565
3138,0.51565
3138.5,0.5469
3139.1,0.56253
3157.2,0.6094
3157.8,0.6094
3158.5,0.65628
3159.1,0.64065
3159.8,0.67191
3176,0.57815
3219.5,0.59378
3220.1,0.5469
3220.6,0.51565
3221.2,0.6094
3221.9,0.68753
3231.8,0.65628
3238,0.76566
3264.6,0.6094
3265.1,0.53127
3265.7,0.57815
3266.3,0.56253
3266.8,0.56253
3267.5,0.64065
3268.1,0.59378
3268.7,0.6094
3269.3,0.6094
3269.9,0.59378
3270.4,0.56253
3273.8,0.57815
3274.4,0.62503
3274.9,0.50002
3275.4,0.51565
