1530271717.000000, IBI
91.551066,0.765660
92.551111,1.000046
125.208856,0.562526
125.724505,0.515649
126.208902,0.484397
126.771428,0.562526
127.318328,0.546900
127.943357,0.625029
135.693711,0.531274
136.256237,0.562526
136.818763,0.562526
137.396914,0.578151
137.959440,0.562526
138.506340,0.546900
139.084491,0.578151
139.631392,0.546900
140.178292,0.546900
140.725192,0.546900
141.256466,0.531274
141.772115,0.515649
142.350266,0.578151
142.897166,0.546900
164.695039,0.546900
165.257565,0.562526
170.742191,0.562526
171.226588,0.484397
171.757862,0.531274
172.398516,0.640654
172.851662,0.453146
173.398562,0.546900
173.961088,0.562526
181.445806,0.515649
182.008331,0.562526
182.445851,0.437520
183.024003,0.578151
205.525033,0.562526
206.056307,0.531274
206.650084,0.593777
207.259487,0.609403
207.806387,0.546900
227.401034,0.562526
227.979186,0.578151
228.604214,0.625029
233.760700,0.578151
234.323226,0.562526
234.917003,0.593777
235.542032,0.625029
236.088932,0.546900
236.635832,0.546900
237.245235,0.609403
237.885889,0.640654
238.385912,0.500023
238.948438,0.562526
239.510963,0.562526
240.135992,0.625029
240.714144,0.578151
241.323546,0.609403
241.886072,0.562526
242.511101,0.625029
243.104878,0.593777
243.651778,0.546900
244.292432,0.640654
244.839332,0.546900
245.448735,0.609403
245.995635,0.546900
246.558161,0.562526
247.105061,0.546900
247.714464,0.609403
248.276990,0.562526
248.808264,0.531274
249.433293,0.625029
255.871087,0.609403
256.433613,0.562526
281.762897,0.609403
282.294172,0.531274
282.856698,0.562526
283.434849,0.578151
284.044252,0.609403
284.575526,0.531274
285.184929,0.609403
285.794332,0.609403
286.372483,0.578151
287.028764,0.656280
287.606915,0.578151
288.185066,0.578151
288.794469,0.609403
289.372621,0.578151
289.950772,0.578151
290.544549,0.593777
291.075824,0.531274
291.669601,0.593777
292.294630,0.625029
292.904032,0.609403
295.716661,0.562526
296.326064,0.609403
296.888590,0.562526
297.513618,0.625029
298.060519,0.546900
298.623044,0.562526
299.248073,0.625029
299.841850,0.593777
300.373124,0.531274
300.951276,0.578151
301.513802,0.562526
302.154456,0.640654
302.638853,0.484397
303.310759,0.671906
303.888910,0.578151
304.498313,0.609403
310.217325,0.562526
310.857979,0.640654
311.404879,0.546900
312.061159,0.656280
312.576808,0.515649
316.748874,0.578151
317.342651,0.593777
317.920803,0.578151
321.545969,0.656280
322.139746,0.593777
325.093006,0.625029
325.655532,0.562526
326.264935,0.609403
326.858712,0.593777
327.483740,0.625029
328.061892,0.578151
332.171455,0.531274
332.874612,0.703157
343.109456,0.546900
385.845787,0.578151
386.423938,0.578151
387.017715,0.593777
387.580241,0.562526
388.158393,0.578151
388.689667,0.531274
389.345947,0.656280
393.158622,0.546900
393.721147,0.562526
394.299299,0.578151
394.877450,0.578151
395.455602,0.578151
403.362214,0.578151
403.940365,0.578151
404.534142,0.593777
405.127919,0.593777
405.737322,0.609403
406.284222,0.546900
438.316939,0.578151
438.895090,0.578151
439.473242,0.578151
440.067019,0.593777
440.660796,0.593777
441.254573,0.593777
441.848351,0.593777
442.442128,0.593777
443.035905,0.593777
455.239588,0.546900
455.786489,0.546900
456.364640,0.578151
456.942791,0.578151
457.474066,0.531274
468.599575,0.562526
469.146475,0.546900
469.787129,0.640654
470.365281,0.578151
470.927807,0.562526
471.521584,0.593777
472.130987,0.609403
472.709138,0.578151
473.318541,0.609403
477.349976,0.562526
477.990630,0.640654
486.178505,0.640654
486.756656,0.578151
487.491065,0.734409
500.554163,0.640654
501.132314,0.578151
501.679214,0.546900
502.257366,0.578151
502.882394,0.625029
503.460546,0.578151
504.116826,0.656280
521.101978,0.578151
521.633253,0.531274
522.242656,0.609403
522.898936,0.656280
523.430210,0.531274
523.977110,0.546900
527.524147,0.593777
528.180427,0.656280
528.774204,0.593777
529.414859,0.640654
530.039887,0.625029
530.680542,0.640654
531.289945,0.609403
531.946225,0.656280
534.946362,0.656280
535.462011,0.515649
539.727831,0.687531
540.305982,0.578151
540.899760,0.593777
552.165900,0.500023
561.916347,0.578151
562.588252,0.671906
563.088275,0.500023
563.728930,0.640654
564.291455,0.562526
564.916484,0.625029
565.510261,0.593777
566.088413,0.578151
566.713441,0.625029
567.338470,0.625029
567.963498,0.625029
568.588527,0.625029
569.166678,0.578151
569.776081,0.609403
570.401110,0.625029
570.994887,0.593777
571.588664,0.593777
572.135564,0.546900
572.744967,0.609403
620.731539,0.578151
621.294065,0.562526
621.872216,0.578151
622.434742,0.562526
623.012893,0.578151
623.559793,0.546900
624.153570,0.593777
624.747348,0.593777
625.309873,0.562526
625.888025,0.578151
626.481802,0.593777
627.059953,0.578151
627.653731,0.593777
634.138402,0.609403
634.763431,0.625029
635.341583,0.578151
635.966611,0.625029
636.576014,0.609403
637.154166,0.578151
643.951352,0.656280
644.467000,0.515649
645.123280,0.656280
645.763935,0.640654
652.232981,0.609403
652.811132,0.578151
653.404909,0.593777
677.218499,0.593777
677.796651,0.578151
678.374802,0.578151
678.984205,0.609403
679.562357,0.578151
680.156134,0.593777
695.281826,0.578151
695.859978,0.578151
696.485007,0.625029
705.360413,0.609403
706.001067,0.640654
709.641859,0.593777
710.266887,0.625029
710.876290,0.609403
711.485693,0.609403
712.095096,0.609403
712.704499,0.609403
713.313902,0.609403
713.923305,0.609403
714.517082,0.593777
715.095233,0.578151
715.689011,0.593777
716.282788,0.593777
716.876565,0.593777
717.501594,0.625029
718.095371,0.593777
718.720399,0.625029
719.361054,0.640654
719.970457,0.609403
720.595485,0.625029
721.173637,0.578151
721.798665,0.625029
722.376817,0.578151
722.986220,0.609403
723.595623,0.609403
724.173774,0.578151
724.783177,0.609403
725.361328,0.578151
725.970731,0.609403
726.548883,0.578151
727.127034,0.578151
727.736437,0.609403
728.330214,0.593777
728.986494,0.656280
729.611523,0.625029
730.283429,0.671906
730.924083,0.640654
731.564737,0.640654
732.174140,0.609403
739.346344,0.593777
739.955746,0.609403
740.565149,0.609403
741.174552,0.609403
741.768329,0.593777
742.362107,0.593777
742.924632,0.562526
743.596538,0.671906
744.190315,0.593777
744.768467,0.578151
745.362244,0.593777
745.924770,0.562526
746.534173,0.609403
747.127950,0.593777
747.721727,0.593777
748.315504,0.593777
748.940533,0.625029
749.549936,0.609403
750.159338,0.609403
750.753116,0.593777
751.378144,0.625029
754.347030,0.562526
755.003310,0.656280
755.550210,0.546900
756.159613,0.609403
756.753390,0.593777
757.331542,0.578151
757.940945,0.609403
758.534722,0.593777
759.097248,0.562526
759.769153,0.671906
760.362931,0.593777
760.941082,0.578151
761.534859,0.593777
762.113011,0.578151
762.706788,0.593777
765.550668,0.578151
766.222574,0.671906
770.410265,0.609403
771.019668,0.609403
771.629071,0.609403
776.238657,0.562526
776.832434,0.593777
777.441837,0.609403
778.035614,0.593777
778.613766,0.578151
779.254420,0.640654
779.832572,0.578151
780.457600,0.625029
781.051378,0.593777
781.660780,0.609403
782.238932,0.578151
782.832709,0.593777
783.410861,0.578151
783.989012,0.578151
784.567163,0.578151
785.129689,0.562526
785.723466,0.593777
786.285992,0.562526
786.817266,0.531274
787.426669,0.609403
787.989195,0.562526
788.567347,0.578151
789.145498,0.578151
789.723650,0.578151
790.317427,0.593777
790.911204,0.593777
791.504981,0.593777
792.114384,0.609403
792.692535,0.578151
793.301938,0.609403
793.864464,0.562526
794.458241,0.593777
795.036393,0.578151
795.645796,0.609403
796.192696,0.546900
796.770847,0.578151
797.364624,0.593777
797.911524,0.546900
798.489676,0.578151
799.052202,0.562526
799.614727,0.562526
800.208504,0.593777
800.786656,0.578151
801.411685,0.625029
802.021087,0.609403
802.646116,0.625029
803.255519,0.609403
803.864922,0.609403
804.474325,0.609403
805.083728,0.609403
805.693130,0.609403
806.286908,0.593777
806.880685,0.593777
807.458836,0.578151
808.036988,0.578151
808.677642,0.640654
809.240168,0.562526
809.849571,0.609403
810.443348,0.593777
811.052751,0.609403
811.677779,0.625029
812.287182,0.609403
812.896585,0.609403
813.521614,0.625029
814.115391,0.593777
814.709168,0.593777
815.287320,0.578151
815.881097,0.593777
816.443623,0.562526
817.021774,0.578151
817.615551,0.593777
818.193703,0.578151
818.787480,0.593777
819.396883,0.609403
819.990660,0.593777
820.600063,0.609403
821.178214,0.578151
821.756366,0.578151
825.178397,0.546900
825.756549,0.578151
826.334700,0.578151
826.928478,0.593777
827.506629,0.578151
828.116032,0.609403
828.725435,0.609403
829.272335,0.546900
829.881738,0.609403
830.444263,0.562526
831.038041,0.593777
831.584941,0.546900
832.178718,0.593777
832.694366,0.515649
833.241266,0.546900
833.772541,0.531274
851.429599,0.640654
852.117131,0.687531
852.710908,0.593777
853.460942,0.750034
854.148474,0.687531
854.804754,0.656280
855.429782,0.625029
856.039185,0.609403
856.679839,0.640654
857.273617,0.593777
857.883019,0.609403
858.476797,0.593777
859.008071,0.531274
859.586222,0.578151
860.133122,0.546900
860.695648,0.562526
861.273800,0.578151
910.682311,0.562526
911.276088,0.593777
911.869866,0.593777
912.463643,0.593777
913.026169,0.562526
913.604320,0.578151
914.198097,0.593777
914.776249,0.578151
915.323149,0.546900
915.885674,0.562526
916.463826,0.578151
917.073229,0.609403
917.682632,0.609403
918.260783,0.578151
918.838935,0.578151
919.448338,0.609403
920.026489,0.578151
920.557763,0.531274
921.229669,0.671906
921.776569,0.546900
922.385972,0.609403
922.979749,0.593777
923.573526,0.593777
924.151678,0.578151
924.761081,0.609403
925.354858,0.593777
925.917384,0.562526
926.479909,0.562526
927.042435,0.562526
927.620587,0.578151
928.183112,0.562526
928.761264,0.578151
929.370667,0.609403
988.107730,0.609403
988.732759,0.625029
989.373413,0.640654
989.982816,0.609403
990.592219,0.609403
991.201622,0.609403
991.811025,0.609403
992.404802,0.593777
1017.171561,0.625029
1017.812215,0.640654
1018.484121,0.671906
1019.156027,0.671906
1019.827932,0.671906
1020.499838,0.671906
1021.140492,0.640654
1021.781147,0.640654
1022.390550,0.609403
1022.968701,0.578151
1035.703659,0.531274
1036.313062,0.609403
1036.922465,0.609403
1037.453739,0.531274
1038.063142,0.609403
1048.266734,0.625029
1048.891763,0.625029
1072.986616,0.562526
1073.564767,0.578151
1074.174170,0.609403
1074.752321,0.578151
1075.346099,0.593777
1075.892999,0.546900
1076.455524,0.562526
1077.018050,0.562526
1077.596202,0.578151
1078.174353,0.578151
1078.736879,0.562526
1079.299405,0.562526
1079.877556,0.578151
1080.486959,0.609403
1081.096362,0.609403
1081.674513,0.578151
1082.283916,0.609403
1091.221825,0.593777
1091.815603,0.593777
1092.440631,0.625029
1093.034408,0.593777
1093.659437,0.625029
1094.253214,0.593777
1094.753237,0.500023
1095.300137,0.546900
1120.176276,0.656280
1120.738801,0.562526
1121.332579,0.593777
1121.910730,0.578151
1122.520133,0.609403
1123.067033,0.546900
1123.707687,0.640654
1124.223336,0.515649
1145.021163,0.656280
1145.646192,0.625029
1146.286846,0.640654
1153.412172,0.562526
1153.927821,0.515649
1154.521598,0.593777
1155.084124,0.562526
1155.631024,0.546900
1156.224801,0.593777
1156.771701,0.546900
1157.349852,0.578151
1157.928004,0.578151
1158.474904,0.546900
1159.053055,0.578151
1159.615581,0.562526
1160.162481,0.546900
1160.740633,0.578151
1161.303158,0.562526
1161.865684,0.562526
1162.396958,0.531274
1162.959484,0.562526
1163.506384,0.546900
1164.037658,0.531274
1164.568933,0.531274
1165.115833,0.546900
1165.693984,0.578151
1166.272136,0.578151
1166.850287,0.578151
1186.241800,0.562526
1202.555047,0.625029
1203.133198,0.578151
1203.742601,0.609403
1235.040909,0.609403
1235.681563,0.640654
1236.306592,0.625029
1236.931620,0.625029
1237.572274,0.640654
1238.134800,0.562526
1238.822332,0.687531
1239.400483,0.578151
1240.072389,0.671906
1240.634915,0.562526
1241.259943,0.625029
1241.838095,0.578151
1242.463123,0.625029
1243.041275,0.578151
1243.650678,0.609403
1244.260081,0.609403
1244.885109,0.625029
1245.541389,0.656280
1246.244546,0.703157
1246.775821,0.531274
1247.416475,0.640654
1247.994627,0.578151
1248.650907,0.656280
1249.229058,0.578151
1249.775958,0.546900
1250.400987,0.625029
1251.026015,0.625029
1254.088655,0.703157
1254.666807,0.578151
1261.635876,0.625029
1262.260904,0.625029
1262.885933,0.625029
1263.495336,0.609403
1264.104739,0.609403
1269.667493,0.656280
1270.276896,0.609403
1270.870673,0.593777
1271.464451,0.593777
1272.026976,0.562526
1272.620754,0.593777
1273.245782,0.625029
1273.839559,0.593777
1274.417711,0.578151
1275.027114,0.609403
1283.886894,0.546900
1284.480671,0.593777
1285.058823,0.578151
1285.699477,0.640654
1286.246377,0.546900
1286.855780,0.609403
1287.449557,0.593777
1288.058960,0.609403
1288.621486,0.562526
1289.215263,0.593777
1289.824666,0.609403
1290.387192,0.562526
1302.590875,0.609403
1303.215904,0.625029
1303.856558,0.640654
1304.528464,0.671906
1305.153493,0.625029
1305.778521,0.625029
1306.419176,0.640654
1307.012953,0.593777
1307.637981,0.625029
1308.263010,0.625029
1308.841161,0.578151
1309.419313,0.578151
1309.997464,0.578151
1310.575616,0.578151
1318.154088,0.625029
1318.779116,0.625029
1319.372894,0.593777
1382.297649,0.546900
1382.828923,0.531274
1383.360198,0.531274
1383.907098,0.546900
1384.453998,0.546900
1385.032149,0.578151
1385.610301,0.578151
1386.172826,0.562526
1386.750978,0.578151
1387.329129,0.578151
1387.891655,0.562526
1442.737916,0.562526
1443.362944,0.625029
1444.034850,0.671906
1462.816960,0.718783
1463.598245,0.781286
1480.864661,0.578151
1481.427186,0.562526
1482.005338,0.578151
1482.599115,0.593777
1483.192892,0.593777
1483.786669,0.593777
1484.380447,0.593777
1484.974224,0.593777
1485.568001,0.593777
1486.161778,0.593777
1486.755555,0.593777
1487.364958,0.609403
1488.005613,0.640654
1488.615016,0.609403
1489.224418,0.609403
1489.849447,0.625029
1490.458850,0.609403
1491.083879,0.625029
1491.693281,0.609403
1492.271433,0.578151
1492.865210,0.593777
1493.458987,0.593777
1494.068390,0.609403
1505.662671,0.625029
1506.303325,0.640654
1506.928354,0.625029
1507.553382,0.625029
1508.162785,0.609403
1508.772188,0.609403
1509.397217,0.625029
1510.006620,0.609403
1510.616023,0.609403
1511.209800,0.593777
1511.803577,0.593777
1584.681913,0.609403
1585.322567,0.640654
1586.056976,0.734409
1586.682004,0.625029
1587.338284,0.656280
1588.025816,0.687531
1588.572716,0.546900
1589.228996,0.656280
1602.213965,0.609403
1602.885871,0.671906
1610.558097,0.625029
1611.214377,0.656280
1611.839406,0.625029
1612.480060,0.640654
1613.089463,0.609403
1613.714492,0.625029
1614.339520,0.625029
1614.964549,0.625029
1615.527075,0.562526
1616.152103,0.625029
1616.761506,0.609403
1617.355283,0.593777
1617.964686,0.609403
1618.589715,0.625029
1619.214744,0.625029
1619.855398,0.640654
1620.496052,0.640654
1621.152332,0.656280
1621.792987,0.640654
1622.433641,0.640654
1623.058670,0.625029
1623.668072,0.609403
1624.293101,0.625029
1624.886878,0.593777
1625.511907,0.625029
1626.105684,0.593777
1626.715087,0.609403
1627.340116,0.625029
1627.933893,0.593777
1628.558921,0.625029
1629.152699,0.593777
1629.777727,0.625029
1630.387130,0.609403
1631.012159,0.625029
1631.621562,0.609403
1632.230964,0.609403
1632.855993,0.625029
1633.434144,0.578151
1638.746888,0.593777
1639.309413,0.562526
1639.887565,0.578151
1640.496968,0.609403
1641.059494,0.562526
1641.653271,0.593777
1646.919137,0.593777
1647.450411,0.531274
1648.044188,0.593777
1648.606714,0.562526
1649.200491,0.593777
1649.794268,0.593777
1650.372420,0.578151
1650.950571,0.578151
1651.622477,0.671906
1652.185003,0.562526
1652.747529,0.562526
1653.294429,0.546900
1653.888206,0.593777
1654.450732,0.562526
1654.982006,0.531274
1655.528906,0.546900
1656.060180,0.531274
1656.591455,0.531274
1657.122729,0.531274
1657.700880,0.578151
1658.279032,0.578151
1658.904060,0.625029
1659.529089,0.625029
1660.154118,0.625029
1660.747895,0.593777
1661.388549,0.640654
1662.044829,0.656280
1662.716735,0.671906
1663.404266,0.687531
1664.091798,0.687531
1664.763704,0.671906
1665.435609,0.671906
1666.091889,0.656280
1666.716918,0.625029
1667.326321,0.609403
1667.920098,0.593777
1668.513875,0.593777
1669.107652,0.593777
1675.873587,0.593777
1676.529867,0.656280
1677.108019,0.578151
1677.670544,0.562526
1678.217444,0.546900
1678.889350,0.671906
1681.748856,0.562526
1682.373885,0.625029
1682.983288,0.609403
1683.561439,0.578151
1684.217719,0.656280
1684.889625,0.671906
1685.530279,0.640654
1686.155308,0.625029
1686.795962,0.640654
1687.436616,0.640654
1688.061645,0.625029
1688.655422,0.593777
1689.264825,0.609403
1689.858602,0.593777
1690.452379,0.593777
1691.061782,0.609403
1691.624308,0.562526
1701.015363,0.562526
1701.562263,0.546900
1702.093537,0.531274
1702.609186,0.515649
1703.171712,0.562526
1703.749863,0.578151
1704.328015,0.578151
1810.489124,0.593777
1811.067276,0.578151
1836.334057,0.625029
1836.943460,0.609403
1837.568489,0.625029
1838.162266,0.593777
1838.787294,0.625029
1852.881690,0.593777
1853.397338,0.515649
1854.069244,0.671906
1854.694273,0.625029
1855.303675,0.609403
1855.944330,0.640654
1856.506855,0.562526
1857.163136,0.656280
1857.756913,0.593777
1858.381941,0.625029
1859.038221,0.656280
1859.616373,0.578151
1860.241401,0.625029
1860.913307,0.671906
1861.569587,0.656280
1873.570137,0.484397
1887.445772,0.546900
1888.023923,0.578151
1933.275995,0.562526
1933.822895,0.546900
1934.401046,0.578151
1934.932320,0.531274
1935.479220,0.546900
1935.994869,0.515649
1936.588646,0.593777
1942.182652,0.609403
1942.823307,0.640654
1948.823581,0.562526
1949.386107,0.562526
1949.979884,0.593777
1950.558036,0.578151
1951.151813,0.593777
1951.714339,0.562526
1952.308116,0.593777
1961.292902,0.656280
1961.871053,0.578151
1962.480456,0.609403
1963.105485,0.625029
1963.668011,0.562526
1964.261788,0.593777
1964.824314,0.562526
1965.402465,0.578151
1965.964991,0.562526
1966.527517,0.562526
1967.090042,0.562526
1967.652568,0.562526
1968.261971,0.609403
1968.824497,0.562526
1969.387022,0.562526
1969.949548,0.562526
1970.543325,0.593777
1971.168354,0.625029
1978.699949,0.578151
1979.262475,0.562526
1979.793749,0.531274
1980.340649,0.546900
1980.965677,0.625029
1981.528203,0.562526
1982.121980,0.593777
1982.778260,0.656280
1983.372038,0.593777
1984.028318,0.656280
1984.700223,0.671906
1985.309626,0.609403
1985.934655,0.625029
1986.559684,0.625029
1987.137835,0.578151
1987.794115,0.656280
1988.372267,0.578151
1988.966044,0.593777
1989.544195,0.578151
1990.122347,0.578151
1990.716124,0.593777
1991.278650,0.562526
1991.856801,0.578151
1992.434952,0.578151
1993.013104,0.578151
1993.575630,0.562526
1994.153781,0.578151
1994.716307,0.562526
1995.294458,0.578151
1995.856984,0.562526
1996.403884,0.546900
1997.028913,0.625029
1997.763321,0.734409
1998.466479,0.703157
1999.169636,0.703157
2004.076110,0.671906
2004.732390,0.656280
2007.998165,0.625029
2008.654445,0.656280
2009.279474,0.625029
2009.888876,0.609403
2010.467028,0.578151
2011.076431,0.609403
2011.654582,0.578151
2012.279611,0.625029
2051.203268,0.625029
2051.812670,0.609403
2052.390822,0.578151
2053.000225,0.609403
2053.609628,0.609403
2054.250282,0.640654
2054.890936,0.640654
2055.500339,0.609403
2056.125368,0.625029
2056.719145,0.593777
2057.344174,0.625029
2057.969202,0.625029
2058.594231,0.625029
2059.219260,0.625029
2059.828662,0.609403
2060.438065,0.609403
2061.047468,0.609403
2061.672497,0.625029
2062.328777,0.656280
2062.938180,0.609403
2063.656963,0.718783
2066.578971,0.609403
2067.110246,0.531274
2067.766526,0.656280
2068.407180,0.640654
2069.079086,0.671906
2069.688489,0.609403
2070.297892,0.609403
2070.907295,0.609403
2071.516697,0.609403
2072.126100,0.609403
2072.751129,0.625029
2073.360532,0.609403
2073.938683,0.578151
2074.532460,0.593777
2075.157489,0.625029
2075.766892,0.609403
2076.376295,0.609403
2076.970072,0.593777
2077.563849,0.593777
2078.188878,0.625029
2078.782655,0.593777
2079.345181,0.562526
2097.814776,0.640654
2098.408553,0.593777
2099.002331,0.593777
2121.972132,0.609403
2122.753418,0.781286
2154.645503,0.609403
2155.239280,0.593777
2155.833057,0.593777
2156.426834,0.593777
2157.036237,0.609403
2157.598763,0.562526
2158.223791,0.625029
2158.801943,0.578151
2171.052504,0.515649
2171.661906,0.609403
2172.208807,0.546900
2172.802584,0.593777
2173.365109,0.562526
2173.958887,0.593777
2174.552664,0.593777
2175.130815,0.578151
2175.708967,0.578151
2176.287118,0.578151
2176.818393,0.531274
2177.443421,0.625029
2221.445435,0.625029
2222.101715,0.656280
2222.679867,0.578151
2223.289270,0.609403
2223.898673,0.609403
2224.508075,0.609403
2225.086227,0.578151
2225.648753,0.562526
2226.242530,0.593777
2226.836307,0.593777
2227.398833,0.562526
2228.023861,0.625029
2228.602013,0.578151
2229.195790,0.593777
2229.867696,0.671906
2230.430222,0.562526
2231.195882,0.765660
2242.415145,0.640654
2243.040174,0.625029
2243.680828,0.640654
2244.290231,0.609403
2244.899634,0.609403
2245.462160,0.562526
2246.055937,0.593777
2246.680965,0.625029
2247.321620,0.640654
2248.102906,0.781286
2248.868566,0.765660
2249.556097,0.687531
2250.321757,0.765660
2251.024914,0.703157
2251.696820,0.671906
2252.337474,0.640654
2253.087509,0.750034
2284.963968,0.640654
2285.620248,0.656280
2286.260902,0.640654
2286.901556,0.640654
2287.526585,0.625029
2288.135988,0.609403
2288.761017,0.625029
2289.292291,0.531274
2289.979822,0.687531
2290.526722,0.546900
2291.120500,0.593777
2291.792405,0.671906
2295.339443,0.531274
2295.980097,0.640654
2296.542623,0.562526
2297.152026,0.609403
2297.730177,0.578151
2298.323954,0.593777
2298.933357,0.609403
2299.527134,0.593777
2300.136537,0.609403
2300.730314,0.593777
2301.324092,0.593777
2301.870992,0.546900
2302.449143,0.578151
2303.074172,0.625029
2303.699200,0.625029
2304.261726,0.562526
2304.855503,0.593777
2305.480532,0.625029
2306.089935,0.609403
2306.761841,0.671906
2307.386869,0.625029
2307.996272,0.609403
2308.652552,0.656280
2309.230704,0.578151
2309.761978,0.531274
2310.418258,0.656280
2311.012035,0.593777
2311.558935,0.546900
2312.152712,0.593777
2312.808992,0.656280
2313.449647,0.640654
2314.074675,0.625029
2314.746581,0.671906
2323.356350,0.625029
2323.965753,0.609403
2324.653285,0.687531
2325.309565,0.656280
2325.965845,0.656280
2326.559622,0.593777
2327.169025,0.609403
2327.809679,0.640654
2331.716108,0.546900
2332.309885,0.593777
2332.934914,0.625029
2333.591194,0.656280
2334.294351,0.703157
2335.028759,0.734409
2335.747542,0.718783
2336.419448,0.671906
2337.075728,0.656280
2337.732008,0.656280
2355.029675,0.593777
2355.623452,0.593777
2356.217229,0.593777
2362.405013,0.562526
2362.967538,0.562526
2375.546239,0.625029
2376.155642,0.609403
2376.749419,0.593777
2379.577674,0.531274
2380.108948,0.531274
2380.640222,0.531274
2381.155871,0.515649
2381.687145,0.531274
2382.249671,0.562526
2382.874700,0.625029
2383.530980,0.656280
2384.187260,0.656280
2392.828280,0.562526
2393.375180,0.546900
2403.656901,0.625029
2404.203801,0.546900
2422.954659,0.609403
2423.564062,0.609403
2424.189091,0.625029
2424.782868,0.593777
2425.423522,0.640654
2426.032925,0.609403
2426.642328,0.609403
2427.251731,0.609403
2427.845508,0.593777
2428.454911,0.609403
2429.017437,0.562526
2429.579962,0.562526
2430.220617,0.640654
2430.767517,0.546900
2431.361294,0.593777
2431.923820,0.562526
2446.643244,0.640654
2447.283898,0.640654
2447.877675,0.593777
2448.502704,0.625029
2449.112107,0.609403
2449.752761,0.640654
2450.346538,0.593777
2451.002818,0.656280
2451.627847,0.625029
2452.237250,0.609403
2452.893530,0.656280
2453.487307,0.593777
2480.535420,0.578151
2481.129197,0.593777
2481.676097,0.546900
2482.269874,0.593777
2482.816774,0.546900
2483.363674,0.546900
2483.926200,0.562526
2484.473100,0.546900
2485.051252,0.578151
2485.629403,0.578151
2531.178363,0.625029
2531.787766,0.609403
2548.460404,0.671906
2555.257590,0.687531
2555.913870,0.656280
2556.554525,0.640654
2557.195179,0.640654
2583.665141,0.656280
2584.368298,0.703157
2587.571569,0.671906
2588.212224,0.640654
2588.821627,0.609403
2589.415404,0.593777
2590.024807,0.609403
2590.649835,0.625029
2591.337367,0.687531
2591.962395,0.625029
2592.618675,0.656280
2607.681865,0.656280
2608.291268,0.609403
2609.010051,0.718783
2609.681957,0.671906
2610.385114,0.703157
2647.449310,0.656280
2648.152467,0.703157
2648.855625,0.703157
2649.605659,0.750034
2650.293190,0.687531
2650.980722,0.687531
2651.621376,0.640654
2652.277656,0.656280
2652.887059,0.609403
2653.558965,0.671906
2654.215245,0.656280
2654.887151,0.671906
2655.512179,0.625029
2656.137208,0.625029
2656.762237,0.625029
2657.418517,0.656280
2658.074797,0.656280
2658.731077,0.656280
2659.371731,0.640654
2660.028011,0.656280
2660.699917,0.671906
2661.340571,0.640654
2661.965600,0.625029
2662.606254,0.640654
2663.215657,0.609403
2663.840686,0.625029
2664.481340,0.640654
2665.075117,0.593777
2665.684520,0.609403
2666.309549,0.625029
2666.934577,0.625029
2667.575232,0.640654
2668.200260,0.625029
2668.840914,0.640654
2669.512820,0.671906
2703.826891,0.671906
2704.467545,0.640654
2726.890446,0.578151
2727.437346,0.546900
2728.015498,0.578151
2728.578024,0.562526
2729.218678,0.640654
2729.843707,0.625029
2730.484361,0.640654
2731.187518,0.703157
2731.859424,0.671906
2734.984567,0.578151
2735.609596,0.625029
2772.111266,0.625029
2772.705044,0.593777
2773.298821,0.593777
2773.970726,0.671906
2774.595755,0.625029
2775.205158,0.609403
2775.798935,0.593777
2776.408338,0.609403
2777.002115,0.593777
2777.627144,0.625029
2781.283561,0.640654
2781.955467,0.671906
2782.611747,0.656280
2783.283653,0.671906
2783.955559,0.671906
2784.596213,0.640654
2785.236867,0.640654
2785.861896,0.625029
2786.486924,0.625029
2787.111953,0.625029
2787.736982,0.625029
2788.362010,0.625029
2788.987039,0.625029
2789.612067,0.625029
2790.237096,0.625029
2790.846499,0.609403
2791.455902,0.609403
2792.065305,0.609403
2797.018656,0.625029
2797.612434,0.593777
2798.253088,0.640654
2798.831239,0.578151
2799.425017,0.593777
2813.378780,0.703157
2814.144440,0.765660
2814.956978,0.812537
2815.738263,0.781286
2827.598181,0.640654
2836.395459,0.640654
2837.020488,0.625029
2837.692393,0.671906
2838.348673,0.656280
2839.020579,0.671906
2839.692485,0.671906
2840.411268,0.718783
2841.098799,0.687531
2841.848834,0.750034
2842.598868,0.750034
2843.317651,0.718783
2844.020808,0.703157
2844.708339,0.687531
2845.333368,0.625029
2860.849703,0.750034
2861.584112,0.734409
2862.302895,0.718783
2867.709392,0.718783
2868.350047,0.640654
2869.037578,0.687531
2869.709484,0.671906
2870.428267,0.718783
2958.744810,0.343766
2959.182330,0.437520
2959.541721,0.359391
2975.276816,0.671906
2976.042476,0.765660
2976.839388,0.796911
2987.136734,0.656280
2987.808640,0.671906
2998.731015,0.796911
2999.402921,0.671906
3000.074826,0.671906
3000.731107,0.656280
3001.387387,0.656280
3002.043667,0.656280
3002.715572,0.671906
3003.387478,0.671906
3004.028132,0.640654
3004.668787,0.640654
3005.309441,0.640654
3005.950095,0.640654
3019.435088,0.625029
3020.060116,0.625029
3020.732022,0.671906
3021.294548,0.562526
3021.950828,0.656280
3022.591482,0.640654
3023.263388,0.671906
3023.841539,0.578151
3024.529071,0.687531
3025.247854,0.718783
3058.343119,0.640654
3058.921270,0.578151
3071.328088,0.656280
3071.953117,0.625029
3072.562520,0.609403
3073.218800,0.656280
3073.828202,0.609403
3074.453231,0.625029
3075.078260,0.625029
3075.687663,0.609403
3076.312691,0.625029
3080.094114,0.640654
3080.750394,0.656280
3081.422300,0.671906
3082.062954,0.640654
3082.719234,0.656280
3083.344263,0.625029
3084.016169,0.671906
3084.656823,0.640654
3085.297477,0.640654
3085.969383,0.671906
3086.563160,0.593777
3087.266318,0.703157
3087.906972,0.640654
3088.578878,0.671906
3089.250783,0.671906
3089.891438,0.640654
3090.594595,0.703157
3091.313378,0.718783
3091.938406,0.625029
3092.641564,0.703157
3093.297844,0.656280
3093.969749,0.671906
3094.641655,0.671906
3095.297935,0.656280
3095.954215,0.656280
3096.594870,0.640654
3097.266775,0.671906
3097.954307,0.687531
3102.626396,0.671906
3103.251424,0.625029
3103.860827,0.609403
3119.486542,0.593777
3120.142823,0.656280
3120.736600,0.593777
3121.408505,0.671906
3122.064785,0.656280
3122.736691,0.671906
3123.471100,0.734409
3124.096128,0.625029
3124.814911,0.718783
3125.439940,0.625029
3126.111846,0.671906
3126.799377,0.687531
3127.471283,0.671906
3128.143189,0.671906
3128.846346,0.703157
3129.471375,0.625029
3133.955955,0.609403
3134.565358,0.609403
3135.159135,0.593777
3135.768538,0.609403
3136.299812,0.531274
3136.924841,0.625029
3137.518618,0.593777
3138.128021,0.609403
3138.753049,0.625029
3139.315575,0.562526
3139.971855,0.656280
3140.612509,0.640654
3141.237538,0.625029
3141.940695,0.703157
3142.518847,0.578151
3143.190753,0.671906
3143.831407,0.640654
3144.472061,0.640654
3145.128341,0.656280
3145.706493,0.578151
3146.409650,0.703157
3147.065930,0.656280
3147.784713,0.718783
3148.534747,0.750034
3149.237904,0.703157
3150.003564,0.765660
3150.722347,0.718783
3151.441130,0.718783
3152.081784,0.640654
3152.753690,0.671906
3153.425596,0.671906
3154.113127,0.687531
3154.816285,0.703157
3155.472565,0.656280
3156.206973,0.734409
3156.910131,0.703157
3157.660165,0.750034
3158.332071,0.671906
3159.097731,0.765660
3159.785262,0.687531
3160.519671,0.734409
3161.144699,0.625029
3161.847857,0.703157
3162.488511,0.640654
3163.160417,0.671906
3163.847948,0.687531
3164.488602,0.640654
3165.223011,0.734409
3165.926168,0.703157
3166.644951,0.718783
3167.332483,0.687531
3168.066891,0.734409
3168.770048,0.703157
3169.535708,0.765660
3170.160737,0.625029
3170.879520,0.718783
3171.551426,0.671906
3172.207706,0.656280
3172.863986,0.656280
3173.520266,0.656280
3174.192172,0.671906
3174.864077,0.671906
3175.520357,0.656280
3176.192263,0.671906
3176.926672,0.734409
3177.645455,0.718783
3178.426740,0.781286
3183.176958,0.656280
3183.864489,0.687531
3184.552021,0.687531
3185.239552,0.687531
3185.942709,0.703157
3186.645867,0.703157
3187.317772,0.671906
3187.989678,0.671906
3188.677210,0.687531
3191.802353,0.609403
3192.458633,0.656280
3193.161790,0.703157
3193.802444,0.640654
3194.458724,0.656280
3195.146256,0.687531
3195.786910,0.640654
3196.411939,0.625029
3197.052593,0.640654
3197.661996,0.609403
3198.287024,0.625029
3198.927679,0.640654
3199.552707,0.625029
3200.255865,0.703157
3200.927770,0.671906
3201.646553,0.718783
3202.365336,0.718783
3203.084119,0.718783
3203.771651,0.687531
3237.476318,0.671906
3238.101347,0.625029
3238.726376,0.625029
3239.398281,0.671906
3240.023310,0.625029
3240.663964,0.640654
3259.336694,0.671906
3259.977348,0.640654
3260.633628,0.656280
3268.383983,0.687531
3269.087140,0.703157
3269.743420,0.656280
3270.384075,0.640654
3271.040355,0.656280
3271.665383,0.625029
3272.274786,0.609403
3272.899815,0.625029
3273.493592,0.593777
3274.118621,0.625029
3274.743649,0.625029
3275.415555,0.671906
3276.087461,0.671906
3276.790618,0.703157
3277.493775,0.703157
3278.212558,0.718783
3278.884464,0.671906
3279.571995,0.687531
3280.243901,0.671906
3280.884555,0.640654
3281.540835,0.656280
3282.165864,0.625029
3282.790893,0.625029
3283.415921,0.625029
3284.072201,0.656280
3296.994668,0.671906
3297.697825,0.703157
3298.354105,0.656280
3299.057262,0.703157
3299.729168,0.671906
3300.416699,0.687531
3301.104231,0.687531
3301.776137,0.671906
3302.432417,0.656280
3303.088697,0.656280
3303.729351,0.640654
3304.370005,0.640654
3305.041911,0.671906
3305.729443,0.687531
3306.416974,0.687531
3307.073254,0.656280
3307.792037,0.718783
3308.510820,0.718783
3309.198351,0.687531
3309.870257,0.671906
3310.542163,0.671906
3311.198443,0.656280
3311.870349,0.671906
3312.542254,0.671906
3313.182909,0.640654
3313.823563,0.640654
3314.479843,0.656280
3315.136123,0.656280
3315.792403,0.656280
3316.448683,0.656280
3317.104963,0.656280
3317.792495,0.687531
3318.448775,0.656280
3319.120681,0.671906
3327.417935,0.671906
3328.058590,0.640654
3328.746121,0.687531
3329.324273,0.578151
3330.027430,0.703157
3330.652458,0.625029
3331.199358,0.546900
3331.840013,0.640654
3332.449416,0.609403
3333.074444,0.625029
3333.715099,0.640654
3334.340127,0.625029
3334.965156,0.625029
3335.605810,0.640654
3336.230839,0.625029
3336.887119,0.656280
3337.527773,0.640654
3338.137176,0.609403
3338.762205,0.625029
3339.387233,0.625029
3340.027888,0.640654
3340.652916,0.625029
3341.293571,0.640654
3341.949851,0.656280
3342.606131,0.656280
3343.278036,0.671906
3343.903065,0.625029
3344.559345,0.656280
3345.199999,0.640654
3345.856279,0.656280
3346.512559,0.656280
3347.121962,0.609403
3347.746991,0.625029
3348.372020,0.625029
3349.012674,0.640654
3349.637702,0.625029
3350.278357,0.640654
3350.903385,0.625029
3351.559665,0.656280
3352.215945,0.656280
3352.872226,0.656280
3353.544131,0.671906
3354.200411,0.656280
3354.872317,0.671906
3355.497346,0.625029
3356.138000,0.640654
3356.747403,0.609403
3357.372432,0.625029
3357.981834,0.609403
3358.591237,0.609403
3359.185014,0.593777
3359.778792,0.593777
3360.388195,0.609403
3361.013223,0.625029
3361.622626,0.609403
3362.247655,0.625029
3371.888721,0.765660
3372.701258,0.812537
3376.060787,0.671906
3376.701441,0.640654
3377.357721,0.656280
3378.045253,0.687531
3378.670281,0.625029
3379.404690,0.734409
3380.060970,0.656280
3380.685999,0.625029
3381.389156,0.703157
3382.107939,0.718783
3382.811096,0.703157
3383.389247,0.578151
3408.312263,0.703157
3409.202929,0.890666
3412.343698,0.671906
3412.968726,0.625029
3413.593755,0.625029
3414.187532,0.593777
3417.297050,0.671906
3417.937704,0.640654
3418.437727,0.500023
3435.876025,0.656280
3436.563556,0.687531
3437.266714,0.703157
3437.907368,0.640654
3438.563648,0.656280
3439.219928,0.656280
3439.844957,0.625029
3440.391857,0.546900
3441.110640,0.718783
3446.642143,0.625029
3447.251546,0.609403
3447.829697,0.578151
3507.488678,0.593777
3508.144958,0.656280
3513.145187,0.625029
3513.754590,0.609403
3514.473373,0.718783
3515.098401,0.625029
3518.176667,0.687531
3552.865755,0.656280
3553.522035,0.656280
3611.368433,0.609403
3611.962210,0.593777
3668.574177,0.593777
3669.152328,0.578151
3669.761731,0.609403
3670.355509,0.593777
3670.980537,0.625029
3671.589940,0.609403
3672.199343,0.609403
3672.808746,0.609403
3673.433774,0.625029
3674.074429,0.640654
3674.777586,0.703157
3681.684152,0.609403
3682.309181,0.625029
3682.949835,0.640654
3683.559238,0.609403
3684.215518,0.656280
3684.840547,0.625029
3685.449950,0.609403
3686.074978,0.625029
3686.715632,0.640654
3687.293784,0.578151
3687.965690,0.671906
3688.543841,0.578151
3689.184495,0.640654
3689.793898,0.609403
3690.418927,0.625029
3691.059581,0.640654
3691.700236,0.640654
3692.372141,0.671906
3692.997170,0.625029
3693.622199,0.625029
3694.262853,0.640654
3694.887882,0.625029
3695.528536,0.640654
3696.106687,0.578151
3696.731716,0.625029
3697.325493,0.593777
3697.903645,0.578151
3719.138992,0.625029
3719.717143,0.578151
3720.310920,0.593777
3720.904697,0.593777
3721.467223,0.562526
3722.029749,0.562526
3722.686029,0.656280
3723.295432,0.609403
3723.951712,0.656280
3724.529863,0.578151
3725.233021,0.703157
3725.826798,0.593777
3726.436201,0.609403
3727.123732,0.687531
3727.717509,0.593777
3728.311286,0.593777
3728.920689,0.609403
3729.561344,0.640654
3730.155121,0.593777
3730.748898,0.593777
3731.342675,0.593777
3731.998955,0.656280
3732.483352,0.484397
3733.170884,0.687531
3733.749035,0.578151
3734.342813,0.593777
3734.905338,0.562526
3735.467864,0.562526
3736.092893,0.625029
3736.749173,0.656280
3934.836365,0.609403
3935.430142,0.593777
3936.008294,0.578151
3936.602071,0.593777
3937.211474,0.609403
3937.727123,0.515649
3938.320900,0.593777
3938.914677,0.593777
3939.477203,0.562526
3940.070980,0.593777
3940.649131,0.578151
3941.227283,0.578151
3941.852311,0.625029
3942.477340,0.625029
3943.086743,0.609403
3943.680520,0.593777
3944.274297,0.593777
3944.914952,0.640654
3945.508729,0.593777
3946.118132,0.609403
3946.711909,0.593777
3947.305686,0.593777
3947.883837,0.578151
3951.368372,0.546900
3951.962149,0.593777
3952.555926,0.593777
3953.149704,0.593777
3953.712229,0.562526
3954.274755,0.562526
3954.852906,0.578151
3955.431058,0.578151
3961.493835,0.718783
3962.212618,0.718783
3962.900150,0.687531
3963.556430,0.656280
3964.212710,0.656280
3964.853364,0.640654
3976.775785,0.578151
3977.369562,0.593777
3977.932088,0.562526
3978.494614,0.562526
3979.041514,0.546900
3979.635291,0.593777
3980.150939,0.515649
3980.697839,0.546900
3981.244740,0.546900
3981.838517,0.593777
3982.494797,0.656280
3983.276083,0.781286
3984.057368,0.781286
3984.838654,0.781286
3985.619940,0.781286
3986.385600,0.765660
3987.120008,0.734409
3987.838791,0.718783
3988.573200,0.734409
3989.307609,0.734409
3989.979514,0.671906
3990.635794,0.656280
3991.292074,0.656280
3991.917103,0.625029
3992.557757,0.640654
3993.167160,0.609403
3993.823440,0.656280
3994.495346,0.671906
3995.182878,0.687531
3995.854783,0.671906
3996.557940,0.703157
3997.245472,0.687531
3997.964255,0.718783
3998.620535,0.656280
3999.292441,0.671906
3999.948721,0.656280
4000.620626,0.671906
4001.230029,0.609403
4001.855058,0.625029
4002.480087,0.625029
4003.089489,0.609403
4003.745770,0.656280
4035.997246,1.156303
4042.810058,0.640654
4043.435086,0.625029
4044.091366,0.656280
4044.747646,0.656280
4045.419552,0.671906
4046.060206,0.640654
4046.700861,0.640654
4047.341515,0.640654
4047.966544,0.625029
4048.607198,0.640654
4049.216601,0.609403
4049.826004,0.609403
4050.451032,0.625029
4051.060435,0.609403
4051.701090,0.640654
4052.326118,0.625029
4052.951147,0.625029
4053.607427,0.656280
4088.874666,0.609403
4089.562198,0.687531
4090.249729,0.687531
4090.890383,0.640654
4091.562289,0.671906
4092.218569,0.656280
4219.740031,0.484397
4220.396312,0.656280
4229.115461,0.656280
4229.709238,0.593777
4230.412395,0.703157
4231.068675,0.656280
4231.803084,0.734409
4232.537492,0.734409
4233.162521,0.625029
4241.928547,0.625029
4242.491073,0.562526
4243.084850,0.593777
4314.134978,0.687531
4314.822509,0.687531
4315.494415,0.671906
4316.181946,0.687531
4316.885103,0.703157
4317.557009,0.671906
4318.275792,0.718783
4318.994575,0.718783
4319.666481,0.671906
4320.354012,0.687531
4321.057169,0.703157
4321.775952,0.718783
4322.510361,0.734409
4323.260395,0.750034
4324.010430,0.750034
4324.713587,0.703157
4325.479247,0.765660
4326.198030,0.718783
4326.901187,0.703157
4327.619970,0.718783
4328.338753,0.718783
4329.057536,0.718783
4329.854447,0.796911
4330.479476,0.625029
4331.182633,0.703157
4331.917042,0.734409
4332.588947,0.671906
4333.307730,0.718783
4333.995262,0.687531
4334.745296,0.750034
4335.370325,0.625029
4336.042230,0.671906
4336.761013,0.718783
4337.464170,0.703157
4338.167328,0.703157
4338.870485,0.703157
4339.542391,0.671906
4340.183045,0.640654
4340.823699,0.640654
4341.464354,0.640654
4342.136259,0.671906
4342.776914,0.640654
4343.417568,0.640654
4344.058222,0.640654
4344.730128,0.671906
4345.402034,0.671906
4356.402537,0.703157
4357.105695,0.703157
4357.793226,0.687531
4358.465132,0.671906
4359.121412,0.656280
4359.762066,0.640654
4360.387095,0.625029
4360.996498,0.609403
4361.590275,0.593777
4362.199678,0.609403
4362.824706,0.625029
4363.465361,0.640654
4364.106015,0.640654
4364.777921,0.671906
4365.449826,0.671906
4366.137358,0.687531
4366.809264,0.671906
4367.481169,0.671906
4368.121824,0.640654
4368.762478,0.640654
4369.403132,0.640654
4370.075038,0.671906
4370.746944,0.671906
4371.434475,0.687531
4372.075130,0.640654
4372.731410,0.656280
4373.372064,0.640654
4374.012718,0.640654
4458.875978,0.703157
4459.532258,0.656280
4460.219790,0.687531
4464.766873,0.640654
4465.516907,0.750034
4466.188813,0.671906
4466.860718,0.671906
4467.579501,0.718783
4468.204530,0.625029
4473.595402,0.703157
4474.329810,0.734409
4475.095470,0.765660
4475.814253,0.718783
4476.564288,0.750034
4477.267445,0.703157
4488.064814,0.687531
4488.752346,0.687531
4489.393000,0.640654
4490.064906,0.671906
4490.768063,0.703157
4491.393091,0.625029
4492.002494,0.609403
4496.299566,0.640654
4496.940220,0.640654
4497.565249,0.625029
4498.205903,0.640654
4498.815306,0.609403
4499.440335,0.625029
4500.159118,0.718783
4501.002906,0.843789
4501.846695,0.843789
4502.737361,0.890666
4503.518646,0.781286
4504.221804,0.703157
4504.893709,0.671906
4505.549989,0.656280
4506.221895,0.671906
4506.893801,0.671906
4507.550081,0.656280
4508.253238,0.703157
4508.847015,0.593777
4509.487670,0.640654
4510.128324,0.640654
4510.753353,0.625029
4511.409633,0.656280
4622.695977,0.593777
4623.321005,0.625029
4623.977285,0.656280
4624.617940,0.640654
4625.227343,0.609403
4625.899248,0.671906
4626.555528,0.656280
4627.211808,0.656280
4632.290166,0.687531
4644.384470,0.703157
4645.103252,0.718783
4645.806410,0.703157
4646.478315,0.671906
4647.118970,0.640654
4647.775250,0.656280
4648.400278,0.625029
4649.056558,0.656280
4649.556581,0.500023
4650.181610,0.625029
4650.712884,0.531274
4651.291036,0.578151
4651.916064,0.625029
4652.572344,0.656280
4653.291127,0.718783
4654.041162,0.750034
4654.869324,0.828163
4655.822493,0.953169
4656.666282,0.843789
4657.463193,0.796911
4658.291356,0.828163
4658.963262,0.671906
4659.682045,0.718783
4660.432079,0.750034
4661.010231,0.578151
4671.260700,0.609403
4671.885728,0.625029
4672.479506,0.593777
4673.057657,0.578151
4673.635808,0.578151
4674.213960,0.578151
4674.792111,0.578151
4675.385889,0.593777
4675.948414,0.562526
4676.542192,0.593777
4677.151594,0.609403
4677.776623,0.625029
4678.464154,0.687531
4681.948689,0.609403
4682.573718,0.625029
4683.183120,0.609403
4683.792523,0.609403
4684.386301,0.593777
4685.026955,0.640654
4685.636358,0.609403
4686.277012,0.640654
4686.933292,0.656280
4687.620824,0.687531
4688.308355,0.687531
4688.995887,0.687531
4689.683418,0.687531
4690.386575,0.703157
4691.089732,0.703157
4691.792890,0.703157
4814.048486,0.562526
4844.737391,0.625029
4845.487425,0.750034
4846.159331,0.671906
4850.893922,0.671906
4851.472074,0.578151
4852.050225,0.578151
4930.710076,0.625029
4931.397607,0.687531
4948.304631,0.687531
4980.899873,0.593777
4981.446773,0.546900
4982.024925,0.578151
5027.948902,0.562526
5028.605182,0.656280
5029.183333,0.578151
5029.761485,0.578151
5035.527374,0.734409
5045.730966,0.687531
5049.465512,0.593777
5050.153043,0.687531
5107.718178,0.593777
5108.358832,0.640654
5109.030738,0.671906
5109.733895,0.703157
5125.093973,0.640654
5125.781505,0.687531
5126.390908,0.609403
5127.078439,0.687531
5127.719094,0.640654
5128.422251,0.703157
5129.125408,0.703157
5129.766062,0.640654
5130.484845,0.718783
5131.156751,0.671906
5131.859908,0.703157
5132.563065,0.703157
5133.188094,0.625029
5133.860000,0.671906
5134.531905,0.671906
5135.172560,0.640654
5135.844465,0.671906
5136.578874,0.734409
5137.188277,0.609403
5137.860183,0.671906
5275.257097,0.687531
5275.929003,0.671906
5276.616534,0.687531
5288.382698,0.687531
5289.070230,0.687531
5289.757761,0.687531
5290.460918,0.703157
5293.961078,0.687531
5294.757990,0.796911
5295.383018,0.625029
5296.054924,0.671906
5296.836210,0.781286
5297.648747,0.812537
5298.430033,0.781286
5299.258196,0.828163
5373.011572,0.718783
5373.589723,0.578151
5374.199126,0.609403
5374.839781,0.640654
5375.449183,0.609403
5376.042961,0.593777
5376.667989,0.625029
5377.293018,0.625029
5377.871169,0.578151
5378.511824,0.640654
5405.559937,0.562526
5406.184965,0.625029
5454.452800,0.781286
5455.171583,0.718783
5455.874740,0.703157
5456.562271,0.687531
5457.249803,0.687531
5457.906083,0.656280
5458.562363,0.656280
5459.218643,0.656280
5459.843672,0.625029
5460.546829,0.703157
5461.203109,0.656280
5461.921892,0.718783
5462.593797,0.671906
5463.312580,0.718783
5464.015738,0.703157
5464.718895,0.703157
5465.359549,0.640654
5466.093958,0.734409
5466.703361,0.609403
5467.422143,0.718783
5468.062798,0.640654
5468.719078,0.656280
5469.375358,0.656280
5470.000386,0.625029
5470.656667,0.656280
5471.297321,0.640654
5471.953601,0.656280
5472.625507,0.671906
5473.328664,0.703157
5474.031821,0.703157
5474.703727,0.671906
5475.406884,0.703157
5476.094415,0.687531
5476.813198,0.718783
5477.500730,0.687531
5478.188261,0.687531
5478.860167,0.671906
5479.516447,0.656280
5480.172727,0.656280
5480.829007,0.656280
5481.454036,0.625029
5482.094690,0.640654
5482.735344,0.640654
5483.438502,0.703157
5730.512311,0.734409
5731.324848,0.812537
5785.264817,0.671906
5785.889846,0.625029
5808.937776,0.609403
5809.656559,0.718783
5810.312839,0.656280
5811.000371,0.687531
5811.687902,0.687531
5812.359808,0.671906
5812.984836,0.625029
5813.578614,0.593777
5814.172391,0.593777
5814.891174,0.718783
5815.500576,0.609403
5816.109979,0.609403
5816.750634,0.640654
5817.375662,0.625029
5818.016317,0.640654
5818.578842,0.562526
5819.266374,0.687531
5869.831188,0.593777
5870.440591,0.609403
5871.096871,0.656280
5871.753151,0.656280
5872.378180,0.625029
5873.065711,0.687531
5873.706366,0.640654
5874.347020,0.640654
5875.034552,0.687531
5875.722083,0.687531
5876.362737,0.640654
5876.956515,0.593777
5877.644046,0.687531
5878.269075,0.625029
5878.909729,0.640654
5879.566009,0.656280
5880.222289,0.656280
5880.894195,0.671906
5881.472346,0.578151
5882.159878,0.687531
5882.706778,0.546900
5889.050818,0.640654
5889.691473,0.640654
5890.379004,0.687531
5891.019658,0.640654
5891.644687,0.625029
5892.379096,0.734409
5899.020025,0.609403
5899.598176,0.578151
5900.145076,0.546900
5900.738853,0.593777
5901.301379,0.562526
5901.879530,0.578151
5902.535810,0.656280
5903.238968,0.703157
5904.020253,0.781286
5904.770288,0.750034
5905.489071,0.718783
5906.176602,0.687531
5906.864134,0.687531
5907.504788,0.640654
5908.161068,0.656280
5908.864225,0.703157
5909.551757,0.687531
5910.161160,0.609403
5910.864317,0.703157
5911.504971,0.640654
5912.176877,0.671906
5912.848783,0.671906
5913.473811,0.625029
5914.145717,0.671906
5914.786371,0.640654
5915.427026,0.640654
5916.098931,0.671906
5916.755211,0.656280
5917.427117,0.671906
5918.067771,0.640654
5918.708426,0.640654
5919.364706,0.656280
5919.989734,0.625029
5920.630389,0.640654
5921.286669,0.656280
5921.942949,0.656280
5922.630480,0.687531
5923.364889,0.734409
5924.052420,0.687531
5924.724326,0.671906
6036.995090,0.640654
6037.651370,0.656280
6038.307650,0.656280
6038.963930,0.656280
6039.635836,0.671906
6040.292116,0.656280
6040.964022,0.671906
6041.635928,0.671906
6042.276582,0.640654
6043.010991,0.734409
6043.667271,0.656280
6046.792414,0.718783
6047.448694,0.656280
6055.152171,0.640654
6055.730323,0.578151
6056.339726,0.609403
6056.949129,0.609403
6057.589783,0.640654
6058.261689,0.671906
6058.949220,0.687531
6059.589875,0.640654
6060.261780,0.671906
6060.902435,0.640654
6061.558715,0.656280
6062.199369,0.640654
6062.824398,0.625029
6063.465052,0.640654
6064.090080,0.625029
6064.730735,0.640654
6065.371389,0.640654
6066.012043,0.640654
6066.652698,0.640654
6067.308978,0.656280
6067.980884,0.671906
6068.668415,0.687531
6069.293444,0.625029
6069.965349,0.671906
6100.060477,0.656280
6100.732383,0.671906
6101.466791,0.734409
6102.248077,0.781286
6102.998111,0.750034
6103.685643,0.687531
6104.373174,0.687531
6105.029454,0.656280
6105.670109,0.640654
6106.310763,0.640654
6106.951417,0.640654
6107.576446,0.625029
6108.170223,0.593777
6108.779626,0.609403
6109.389029,0.609403
6109.998432,0.609403
6110.592209,0.593777
6111.295366,0.703157
6111.873518,0.578151
6118.498821,0.609403
6119.076972,0.578151
6119.655124,0.578151
6200.033803,0.687531
6200.721335,0.687531
6201.393240,0.671906
6202.127649,0.734409
6227.206922,0.593777
6227.816325,0.609403
6228.378851,0.562526
6228.957002,0.578151
6229.519528,0.562526
6230.082054,0.562526
6230.675831,0.593777
6231.269608,0.593777
6231.863385,0.593777
6232.504040,0.640654
6233.160320,0.656280
6233.847851,0.687531
6234.551008,0.703157
6235.222914,0.671906
6235.879194,0.656280
6236.566725,0.687531
6237.238631,0.671906
6237.910537,0.671906
6238.551191,0.640654
6239.191846,0.640654
6239.832500,0.640654
6240.488780,0.656280
6241.145060,0.656280
6241.785714,0.640654
6242.426369,0.640654
6243.098274,0.671906
6243.801432,0.703157
6244.504589,0.703157
6245.223372,0.718783
6245.926529,0.703157
6246.614060,0.687531
6247.332843,0.718783
6248.036000,0.703157
6248.754783,0.718783
6249.457941,0.703157
6250.161098,0.703157
6250.895506,0.734409
6251.598664,0.703157
6252.348698,0.750034
6253.114358,0.765660
6253.848767,0.734409
6254.583175,0.734409
6255.364461,0.781286
6256.083244,0.718783
6256.864530,0.781286
6257.630190,0.765660
6258.348973,0.718783
6259.083381,0.734409
6259.786538,0.703157
6260.536573,0.750034
6261.286607,0.750034
6262.021016,0.734409
6262.739799,0.718783
6263.505459,0.765660
6264.317996,0.812537
6265.114907,0.796911
6265.864942,0.750034
6266.583724,0.718783
6267.318133,0.734409
6268.005665,0.687531
6268.740073,0.734409
6269.443230,0.703157
6270.162013,0.718783
6270.896422,0.734409
6271.662082,0.765660
6288.162837,0.671906
6288.834743,0.671906
6289.491023,0.656280
6290.147303,0.656280
6290.881712,0.734409
6291.428612,0.546900
6292.038015,0.609403
6292.709920,0.671906
6293.319323,0.609403
6311.929550,0.687531
6312.585830,0.656280
6313.179607,0.593777
6313.835887,0.656280
6314.445290,0.609403
6315.117196,0.671906
6315.773476,0.656280
6316.445382,0.671906
6317.086036,0.640654
6317.742316,0.656280
6318.367345,0.625029
6319.039251,0.671906
6319.711156,0.671906
6320.273682,0.562526
6320.867459,0.593777
6321.570616,0.703157
6322.101891,0.531274
6322.695668,0.593777
6323.258194,0.562526
6323.836345,0.578151
6324.383245,0.546900
6324.977022,0.593777
6370.432228,0.734409
6371.119760,0.687531
6371.744788,0.625029
6374.963686,0.656280
6375.682468,0.718783
6376.448128,0.765660
6377.245040,0.796911
6398.792901,1.062549
6411.121591,0.625029
6411.762245,0.640654
6412.402899,0.640654
6413.059179,0.656280
6413.684208,0.625029
6414.324862,0.640654
6414.965517,0.640654
6415.653048,0.687531
6416.340580,0.687531
6417.028111,0.687531
6417.684391,0.656280
6418.371922,0.687531
6419.059454,0.687531
6419.746985,0.687531
6420.356388,0.609403
6515.501369,0.671906
6567.519375,0.703157
6568.253783,0.734409
6568.956940,0.703157
6569.644472,0.687531
6570.363255,0.718783
6601.005282,0.671906
6601.692814,0.687531
6602.505351,0.812537
6701.041111,0.765660
6701.931777,0.890666
6702.666186,0.734409
6703.416220,0.750034
6704.135003,0.718783
6704.900663,0.765660
6705.619446,0.718783
6706.369480,0.750034
6707.041386,0.671906
6792.685931,0.640654
6793.279709,0.593777
6802.123863,0.750034
6802.733266,0.609403
6806.952209,0.687531
6807.686618,0.734409
6808.514781,0.828163
6809.280441,0.765660
6810.030475,0.750034
6810.780510,0.750034
6811.514918,0.734409
6818.968385,0.734409
6819.765296,0.796911
6820.452827,0.687531
6836.234800,0.593777
6836.953583,0.718783
6840.094352,0.609403
6840.719380,0.625029
6841.344409,0.625029
6841.953812,0.609403
6842.500712,0.546900
6843.188243,0.687531
6902.784721,0.578151
6903.331621,0.546900
6903.909773,0.578151
6904.519176,0.609403
6905.191081,0.671906
6905.909864,0.718783
6906.581770,0.671906
6907.269301,0.687531
6907.972459,0.703157
7030.556195,0.640654
7031.196849,0.640654
7031.837503,0.640654
7042.541118,0.578151
7043.322404,0.781286
7059.776282,0.656280
7060.432562,0.656280
7061.166971,0.734409
7211.376972,0.671906
7212.064503,0.687531
7212.798912,0.734409
7213.502069,0.703157
7214.205226,0.703157
7214.908384,0.703157
7215.564664,0.656280
7216.252195,0.687531
7216.924101,0.671906
7217.611632,0.687531
7221.643067,0.687531
7222.314973,0.671906
7222.986878,0.671906
7223.643158,0.656280
7224.315064,0.671906
7224.971344,0.656280
7225.611999,0.640654
7226.237027,0.625029
7226.893307,0.656280
7227.487084,0.593777
7228.112113,0.625029
7232.784202,0.671906
7233.471733,0.687531
7234.174891,0.703157
7234.862422,0.687531
7235.549953,0.687531
7236.221859,0.671906
7236.878139,0.656280
7237.550045,0.671906
7238.190699,0.640654
7238.862605,0.671906
7239.534511,0.671906
7240.175165,0.640654
7240.847071,0.671906
7241.518977,0.671906
7242.222134,0.703157
7242.909665,0.687531
7243.597197,0.687531
7244.284728,0.687531
7244.987885,0.703157
7245.659791,0.671906
7246.362948,0.703157
7247.034854,0.671906
7247.738011,0.703157
7248.409917,0.671906
7249.081823,0.671906
7249.784980,0.703157
7250.441260,0.656280
7251.128792,0.687531
7251.800697,0.671906
7252.503855,0.703157
7253.160135,0.656280
7253.832040,0.671906
7254.503946,0.671906
7255.191478,0.687531
7255.832132,0.640654
7256.519663,0.687531
7257.207195,0.687531
7257.894726,0.687531
7258.597883,0.703157
7259.285415,0.687531
7259.957321,0.671906
7260.660478,0.703157
7261.348009,0.687531
7262.004289,0.656280
7262.691821,0.687531
7265.957595,0.640654
7266.566998,0.609403
7267.207653,0.640654
7267.832681,0.625029
7268.442084,0.609403
7269.035861,0.593777
7269.645264,0.609403
7270.239041,0.593777
7270.832819,0.593777
7271.442221,0.609403
7272.067250,0.625029
7297.896557,0.671906
7298.568463,0.671906
7299.255995,0.687531
7299.990403,0.734409
7300.771689,0.781286
7301.506098,0.734409
7302.287383,0.781286
7302.974915,0.687531
7303.709323,0.734409
7304.381229,0.671906
7305.021883,0.640654
7313.834787,0.640654
7314.475441,0.640654
7315.131721,0.656280
7315.788001,0.656280
7316.459907,0.671906
7317.116187,0.656280
7317.694339,0.578151
7318.491250,0.796911
7319.147530,0.656280
7319.881939,0.734409
7320.694476,0.812537
7321.507013,0.812537
7352.774069,0.718783
7382.025408,0.640654
7387.619414,0.593777
7479.592375,0.656280
7480.311157,0.718783
7480.983063,0.671906
7481.701846,0.718783
7482.373752,0.671906
7490.108481,0.640654
7490.749135,0.640654
7491.374164,0.625029
7491.983567,0.609403
7492.608595,0.625029
7493.311753,0.703157
7497.608824,0.734409
7498.327607,0.718783
7499.015139,0.687531
7499.687044,0.671906
7500.358950,0.671906
7501.030856,0.671906
7501.687136,0.656280
7502.327790,0.640654
7503.015322,0.687531
7530.875972,0.671906
7585.456596,0.718783
7623.708347,1.234432
7634.833856,0.718783
7735.307205,0.703157
7735.932234,0.625029
7780.903042,0.765660
7781.637451,0.734409
7837.827523,0.781286
7838.765066,0.937543
7842.077717,0.718783
7842.796500,0.718783
7843.562160,0.765660
7844.343446,0.781286
7845.077855,0.734409
7845.874766,0.796911
7846.640426,0.765660
7847.437338,0.796911
7860.406681,0.734409
7861.203593,0.796911
7861.969253,0.765660
7907.127570,0.687531
7907.799476,0.671906
7908.502633,0.703157
7916.206110,0.687531
7951.410847,0.718783
7952.020250,0.609403
7972.818077,0.875040
7973.536860,0.718783
7981.380969,0.703157
7982.177880,0.796911
8093.948622,0.718783
8094.683030,0.734409
8095.433064,0.750034
8096.292479,0.859414
8099.652008,0.734409
8100.386416,0.734409
8101.152076,0.765660
8101.948988,0.796911
8102.730273,0.781286
8103.495934,0.765660
8104.261594,0.765660
8104.996002,0.734409
8105.746037,0.750034
8106.480445,0.734409
8107.199228,0.718783
8107.871134,0.671906
8108.543040,0.671906
8109.199320,0.656280
8109.886851,0.687531
8110.590008,0.703157
8111.277540,0.687531
8111.949445,0.671906
8112.636977,0.687531
8113.355760,0.718783
8114.074543,0.718783
8114.777700,0.703157
8115.480857,0.703157
8116.184014,0.703157
8116.871546,0.687531
8117.559077,0.687531
8118.215357,0.656280
8118.887263,0.671906
8119.527917,0.640654
8120.199823,0.671906
8120.871729,0.671906
8121.528009,0.656280
8122.184289,0.656280
8122.856195,0.671906
8123.543726,0.687531
8124.215632,0.671906
8124.903163,0.687531
8125.575069,0.671906
8126.246975,0.671906
8126.903255,0.656280
8127.575161,0.671906
8128.247066,0.671906
8128.918972,0.671906
8129.575252,0.656280
8130.262784,0.687531
8130.950315,0.687531
8131.669098,0.718783
8132.387881,0.718783
8132.997284,0.609403
8133.700441,0.703157
8134.403598,0.703157
8135.075504,0.671906
8154.654525,0.671906
8155.310805,0.656280
