1530877100.000000, IBI
520.226938,0.671906
535.133870,0.625029
535.821402,0.687531
536.399553,0.578151
537.087085,0.687531
561.041306,0.687531
561.666335,0.625029
562.306989,0.640654
842.382310,0.765660
868.430377,0.718783
869.086658,0.656280
872.914958,0.750034
873.539986,0.625029
953.356140,0.671906
953.871789,0.515649
1006.421069,0.718783
1433.096850,0.609403
1443.472325,0.687531
1444.128605,0.656280
1444.816137,0.687531
1445.472417,0.656280
1589.354003,0.562526
1826.286723,0.718783
1827.099261,0.812537
1827.896172,0.796911
1828.646206,0.750034
1829.443118,0.796911
1830.333784,0.890666
1830.990064,0.656280
1848.147099,0.781286
1848.865882,0.718783
1849.631542,0.765660
1850.381576,0.750034
1851.147236,0.765660
1860.163274,0.750034
1893.274165,0.656280
2093.236443,0.703157
2094.158360,0.921917
2250.040496,0.734409
2296.261361,0.718783
2296.980144,0.718783
2297.683301,0.703157
2298.448961,0.765660
2299.167744,0.718783
2299.870902,0.703157
2300.589684,0.718783
2301.308467,0.718783
2302.011625,0.703157
2302.699156,0.687531
2306.949351,0.734409
2307.636882,0.687531
2308.324414,0.687531
2320.121829,0.734409
2320.793734,0.671906
2321.465640,0.671906
2322.121920,0.656280
2322.856329,0.734409
2323.590737,0.734409
2324.356397,0.765660
2325.043929,0.687531
2325.778337,0.734409
2326.481495,0.703157
2327.184652,0.703157
2327.903435,0.718783
2328.669095,0.765660
2329.387878,0.718783
2330.075409,0.687531
2330.903572,0.828163
2331.653606,0.750034
2332.294261,0.640654
2332.981792,0.687531
2333.669324,0.687531
2334.372481,0.703157
2335.106889,0.734409
2335.888175,0.781286
2336.638210,0.750034
2373.155506,0.781286
2373.796160,0.640654
2374.421189,0.625029
2375.093095,0.671906
2375.749375,0.656280
2376.390029,0.640654
2377.061935,0.671906
2377.749466,0.687531
2378.562004,0.812537
2379.327664,0.765660
2380.046447,0.718783
2380.749604,0.703157
2426.532949,0.734409
2427.361112,0.828163
2427.986141,0.625029
2428.704924,0.718783
2439.924187,0.812537
2539.788134,0.671906
2603.087906,0.437520
2603.587929,0.500023
2704.389418,0.906291
2705.076950,0.687531
2705.951990,0.875040
2706.702024,0.750034
2707.327053,0.625029
2708.061461,0.734409
2708.795870,0.734409
2709.483401,0.687531
2710.280313,0.796911
2710.874090,0.593777
2711.639750,0.765660
3081.156665,0.750034
3081.859822,0.703157
3082.547353,0.687531
3083.219259,0.671906
3083.875539,0.656280
3084.594322,0.718783
3085.281853,0.687531
3085.969385,0.687531
3086.688168,0.718783
3087.422576,0.734409
3088.219488,0.796911
3089.000774,0.781286
3089.766434,0.765660
3090.500842,0.734409
3091.250877,0.750034
3092.000911,0.750034
3092.672817,0.671906
3093.360348,0.687531
3094.063505,0.703157
3094.797914,0.734409
3095.579200,0.781286
3096.251106,0.671906
3096.938637,0.687531
3097.579291,0.640654
3098.282449,0.703157
3098.923103,0.640654
3099.610634,0.687531
3100.220037,0.609403
3100.876317,0.656280
3101.532597,0.656280
3102.298257,0.765660
3433.579046,0.718783
3434.297829,0.718783
3435.079115,0.781286
3435.766647,0.687531
3436.376050,0.609403
3437.047955,0.671906
3437.657358,0.609403
3438.423018,0.765660
3439.032421,0.609403
3439.735578,0.703157
3440.407484,0.671906
3441.048138,0.640654
3441.735670,0.687531
3442.470078,0.734409
3443.204487,0.734409
3443.938896,0.734409
3444.704556,0.765660
3445.438964,0.734409
3446.188999,0.750034
3446.907782,0.718783
3447.657816,0.750034
3457.439514,0.625029
3458.111419,0.671906
3458.814577,0.703157
3459.548985,0.734409
3460.236517,0.687531
3460.924048,0.687531
3461.580328,0.656280
3462.189731,0.609403
3462.783508,0.593777
3463.424163,0.640654
3464.080443,0.656280
3464.767974,0.687531
3465.455506,0.687531
3466.143037,0.687531
3466.736814,0.593777
3467.346217,0.609403
3467.971246,0.625029
3468.549397,0.578151
3469.158800,0.609403
3469.721326,0.562526
3470.361980,0.640654
3471.065137,0.703157
3471.799546,0.734409
3472.518329,0.718783
3473.299615,0.781286
3474.049649,0.750034
3474.799683,0.750034
3475.534092,0.734409
3476.299752,0.765660
3481.440612,0.718783
3482.253150,0.812537
3482.956307,0.703157
3483.596961,0.640654
3484.253241,0.656280
3484.862644,0.609403
3485.472047,0.609403
3486.143953,0.671906
3486.831484,0.687531
3487.597144,0.765660
3488.394056,0.796911
3489.190967,0.796911
3489.987879,0.796911
3490.784790,0.796911
3491.581702,0.796911
3492.378613,0.796911
3493.175524,0.796911
3593.586371,0.812537
3594.430159,0.843789
3598.367840,0.859414
3599.149125,0.781286
3600.024165,0.875040
3600.852328,0.828163
3601.664865,0.812537
3602.524280,0.859414
3603.305566,0.781286
3604.180606,0.875040
3605.008769,0.828163
3605.883809,0.875040
3606.665094,0.781286
3607.446380,0.781286
3608.243292,0.796911
3609.055829,0.812537
3609.899617,0.843789
3610.837160,0.937543
4182.285193,0.546900
4234.084439,0.828163
4234.896976,0.812537
4235.647011,0.750034
4236.443922,0.796911
4237.193957,0.750034
4237.865862,0.671906
4238.725277,0.859414
4281.383479,0.828163
4282.180391,0.796911
4283.008554,0.828163
4283.727337,0.718783
4284.477371,0.750034
4313.556827,0.781286
4365.809219,0.968794
4366.590505,0.781286
4367.324913,0.734409
4368.074948,0.750034
4368.840608,0.765660
4369.528139,0.687531
4370.340676,0.812537
4370.965705,0.625029
4380.950537,0.718783
4381.763074,0.812537
4580.475295,0.812537
4986.556383,0.406269
5292.836028,0.640654
5293.461057,0.625029
5694.698173,0.812537
5704.182982,0.421894
5704.573625,0.390643
5944.647115,0.625029
5945.256518,0.609403
5945.865921,0.609403
5946.490949,0.625029
5947.115978,0.625029
5947.725381,0.609403
5948.334784,0.609403
5949.006689,0.671906
5949.584841,0.578151
5950.319249,0.734409
6023.150708,0.718783
6023.791363,0.640654
6024.478894,0.687531
6025.135174,0.656280
6025.838331,0.703157
6026.603991,0.765660
6027.400903,0.796911
6028.229066,0.828163
6029.057229,0.828163
6029.854140,0.796911
6030.682303,0.828163
6031.432337,0.750034
6032.182372,0.750034
6032.932406,0.750034
6033.651189,0.718783
6034.416849,0.765660
6035.151258,0.734409
6141.124859,0.984420
6441.904252,0.890666
6442.623035,0.718783
6443.279315,0.656280
6449.482724,0.750034
6450.248384,0.765660
6457.733102,0.734409
6458.498762,0.765660
6459.248796,0.750034
6459.998830,0.750034
6460.764490,0.765660
6461.608279,0.843789
6503.860213,0.750034
6504.500867,0.640654
6505.157147,0.656280
6529.533263,0.812537
6592.411141,0.812537
6593.129924,0.718783
6679.633884,0.828163
