1530255558.000000, IBI
16.344498,0.687531
17.016404,0.671906
32.970259,0.578151
33.532785,0.562526
34.126562,0.593777
34.657836,0.531274
35.235988,0.578151
35.767262,0.531274
36.267285,0.500023
75.925350,0.656280
76.440999,0.515649
77.112905,0.671906
77.659805,0.546900
78.253582,0.593777
78.878611,0.625029
79.628645,0.750034
80.347428,0.718783
93.301146,0.656280
93.863672,0.562526
94.535577,0.671906
95.191857,0.656280
95.863763,0.671906
100.707735,0.578151
101.442143,0.734409
102.051546,0.609403
282.606686,0.562526
283.247341,0.640654
284.013001,0.765660
284.591152,0.578151
285.278684,0.687531
285.888087,0.609403
286.450612,0.562526
287.106892,0.656280
287.747547,0.640654
288.403827,0.656280
289.013230,0.609403
289.685135,0.671906
290.388293,0.703157
291.153953,0.765660
291.919613,0.765660
292.622770,0.703157
293.372804,0.750034
294.060336,0.687531
294.779119,0.718783
295.560404,0.781286
301.998199,0.734409
302.685730,0.687531
303.342010,0.656280
303.951413,0.609403
304.576442,0.625029
305.154593,0.578151
305.763996,0.609403
315.467566,0.750034
316.233226,0.765660
316.952008,0.718783
317.608289,0.656280
318.327071,0.718783
319.092731,0.765660
325.264889,0.671906
325.874292,0.609403
326.530572,0.656280
327.171226,0.640654
327.843132,0.671906
332.515221,0.765660
333.280881,0.765660
334.046541,0.765660
334.796575,0.750034
335.562235,0.765660
343.046953,0.812537
343.906367,0.859414
344.687653,0.781286
345.500190,0.812537
346.328353,0.828163
347.078387,0.750034
363.579143,0.734409
364.469809,0.890666
365.126089,0.656280
371.626386,0.750034
372.407672,0.781286
373.142081,0.734409
373.907741,0.765660
374.689026,0.781286
375.423435,0.734409
376.126592,0.703157
376.814124,0.687531
383.501930,0.734409
384.205087,0.703157
384.908244,0.703157
395.955625,0.625029
396.596279,0.640654
397.268185,0.671906
397.940091,0.671906
398.627622,0.687531
399.315154,0.687531
399.987059,0.671906
400.643339,0.656280
401.283994,0.640654
401.909022,0.625029
402.534051,0.625029
403.205957,0.671906
403.877862,0.671906
404.721651,0.843789
405.518563,0.796911
406.393603,0.875040
407.299894,0.906291
408.096806,0.796911
408.799963,0.703157
409.503120,0.703157
410.112523,0.609403
410.753177,0.640654
411.393831,0.640654
411.971983,0.578151
412.643889,0.671906
413.253292,0.609403
413.847069,0.593777
414.440846,0.593777
415.034623,0.593777
415.659652,0.625029
416.284680,0.625029
416.956586,0.671906
417.644118,0.687531
418.316023,0.671906
419.034806,0.718783
419.722338,0.687531
420.409869,0.687531
421.050524,0.640654
421.706804,0.656280
422.394335,0.687531
423.175621,0.781286
423.988158,0.812537
424.722567,0.734409
425.425724,0.703157
426.097630,0.671906
426.785161,0.687531
427.472692,0.687531
428.222727,0.750034
429.035264,0.812537
429.863427,0.828163
430.597836,0.734409
431.316618,0.718783
432.019776,0.703157
432.722933,0.703157
433.457341,0.734409
434.129247,0.671906
434.848030,0.718783
435.644942,0.796911
436.504356,0.859414
437.332519,0.828163
448.676788,0.671906
449.426822,0.750034
450.254985,0.828163
450.973768,0.718783
451.786305,0.812537
452.551965,0.765660
453.239497,0.687531
453.911403,0.671906
454.567683,0.656280
455.270840,0.703157
456.020874,0.750034
456.786534,0.765660
457.630323,0.843789
458.474112,0.843789
459.286649,0.812537
460.114812,0.828163
460.958600,0.843789
469.505867,0.703157
470.255901,0.750034
470.959058,0.703157
471.724718,0.765660
472.412250,0.687531
473.131032,0.718783
473.818564,0.687531
474.521721,0.703157
475.209253,0.687531
475.974913,0.765660
476.709321,0.734409
477.443730,0.734409
478.162513,0.718783
478.912547,0.750034
479.646956,0.734409
480.365739,0.718783
481.100147,0.734409
481.834556,0.734409
482.553339,0.718783
483.272122,0.718783
484.006530,0.734409
484.772190,0.765660
485.537850,0.765660
486.272259,0.734409
486.991042,0.718783
487.725451,0.734409
488.459859,0.734409
489.131765,0.671906
489.850548,0.718783
490.538079,0.687531
491.241236,0.703157
491.928768,0.687531
492.663177,0.734409
493.413211,0.750034
494.131994,0.718783
494.819525,0.687531
505.663772,0.796911
506.507560,0.843789
507.335723,0.828163
508.132635,0.796911
508.913920,0.781286
509.710832,0.796911
510.523369,0.812537
511.289029,0.765660
512.023438,0.734409
512.726595,0.703157
513.382875,0.656280
514.039155,0.656280
514.773564,0.734409
515.617352,0.843789
516.445515,0.828163
517.258052,0.812537
518.070590,0.812537
518.883127,0.812537
519.633161,0.750034
520.367570,0.734409
521.117604,0.750034
521.898890,0.781286
522.664550,0.765660
523.398958,0.734409
524.102116,0.703157
524.789647,0.687531
525.524056,0.734409
526.211587,0.687531
526.930370,0.718783
527.680404,0.750034
528.414813,0.734409
529.180473,0.765660
529.946133,0.765660
530.711793,0.765660
531.477453,0.765660
532.227488,0.750034
532.930645,0.703157
533.633802,0.703157
534.368211,0.734409
535.086993,0.718783
535.743273,0.656280
536.446431,0.703157
537.133962,0.687531
537.868371,0.734409
538.555902,0.687531
539.259059,0.703157
539.962217,0.703157
540.696625,0.734409
541.399782,0.703157
542.134191,0.734409
542.837348,0.703157
543.556131,0.718783
544.243663,0.687531
544.946820,0.703157
545.634351,0.687531
546.384386,0.750034
547.118794,0.734409
547.806326,0.687531
548.509483,0.703157
549.150137,0.640654
549.759540,0.609403
550.415820,0.656280
551.087726,0.671906
551.759632,0.671906
552.415912,0.656280
553.087817,0.671906
553.869103,0.781286
554.728518,0.859414
555.587932,0.859414
556.431720,0.843789
557.213006,0.781286
557.963041,0.750034
558.681823,0.718783
559.400606,0.718783
560.072512,0.671906
560.775669,0.703157
561.510078,0.734409
562.275738,0.765660
563.010147,0.734409
563.744555,0.734409
564.432087,0.687531
565.135244,0.703157
565.791524,0.656280
566.494681,0.703157
567.197838,0.703157
567.947873,0.750034
568.635404,0.687531
569.338561,0.703157
570.057344,0.718783
570.838630,0.781286
571.588664,0.750034
572.369950,0.781286
573.135610,0.765660
573.901270,0.765660
574.604427,0.703157
575.338836,0.734409
576.088870,0.750034
576.838905,0.750034
577.542062,0.703157
578.292096,0.750034
579.057756,0.765660
579.792165,0.734409
580.526573,0.734409
581.292233,0.765660
582.089145,0.796911
582.823554,0.734409
583.557962,0.734409
584.307997,0.750034
585.073657,0.765660
585.776814,0.703157
586.526848,0.750034
587.245631,0.718783
587.948788,0.703157
588.683197,0.734409
589.386354,0.703157
590.120763,0.734409
590.839545,0.718783
591.558328,0.718783
592.261486,0.703157
592.964643,0.703157
593.683426,0.718783
594.355331,0.671906
595.027237,0.671906
595.714769,0.687531
596.464803,0.750034
597.308592,0.843789
598.105503,0.796911
598.918040,0.812537
599.714952,0.796911
600.433735,0.718783
601.136892,0.703157
601.824423,0.687531
602.511955,0.687531
603.215112,0.703157
603.918269,0.703157
604.668303,0.750034
605.433964,0.765660
606.183998,0.750034
606.949658,0.765660
607.715318,0.765660
608.496604,0.781286
609.215387,0.718783
609.934170,0.718783
610.652952,0.718783
611.402987,0.750034
612.153021,0.750034
612.887430,0.734409
613.637464,0.750034
614.371873,0.734409
615.106281,0.734409
615.809438,0.703157
616.512596,0.703157
617.247004,0.734409
617.997039,0.750034
618.747073,0.750034
619.528359,0.781286
620.340896,0.812537
621.122182,0.781286
621.856590,0.734409
622.575373,0.718783
623.278530,0.703157
623.950436,0.671906
624.637968,0.687531
625.325499,0.687531
626.028656,0.703157
626.747439,0.718783
627.497473,0.750034
628.247508,0.750034
629.044419,0.796911
629.810079,0.765660
630.575739,0.765660
631.341399,0.765660
632.122685,0.781286
632.857094,0.734409
633.607128,0.750034
634.341537,0.734409
635.029068,0.687531
635.716600,0.687531
636.435383,0.718783
637.107288,0.671906
637.747943,0.640654
638.419848,0.671906
639.107380,0.687531
639.888666,0.781286
640.654326,0.765660
641.435611,0.781286
642.216897,0.781286
643.013809,0.796911
643.779469,0.765660
644.529503,0.750034
645.279537,0.750034
646.045197,0.765660
646.779606,0.734409
647.545266,0.765660
648.326552,0.781286
649.060961,0.734409
649.795369,0.734409
650.467275,0.671906
651.139181,0.671906
651.795461,0.656280
652.436115,0.640654
653.092395,0.656280
653.748675,0.656280
654.436207,0.687531
655.154989,0.718783
655.920650,0.765660
656.701935,0.781286
657.514472,0.812537
658.327010,0.812537
659.077044,0.750034
659.827078,0.750034
660.483358,0.656280
661.124013,0.640654
661.764667,0.640654
662.420947,0.656280
663.155356,0.734409
663.936641,0.781286
664.671050,0.734409
665.374207,0.703157
666.061739,0.687531
666.796147,0.734409
667.499305,0.703157
668.264965,0.765660
669.077502,0.812537
669.936916,0.859414
670.765079,0.828163
671.561990,0.796911
672.358902,0.796911
673.077685,0.718783
673.749591,0.671906
674.437122,0.687531
675.187156,0.750034
675.921565,0.734409
676.702851,0.781286
677.515388,0.812537
678.296674,0.781286
679.031082,0.734409
679.749865,0.718783
680.531151,0.781286
681.187431,0.656280
681.843711,0.656280
682.515617,0.671906
683.250026,0.734409
684.062563,0.812537
684.921977,0.859414
685.812643,0.890666
686.672057,0.859414
687.531471,0.859414
688.390886,0.859414
689.250300,0.859414
690.062837,0.812537
690.844123,0.781286
691.656660,0.812537
692.422320,0.765660
700.782078,0.703157
701.516487,0.734409
702.266521,0.750034
703.032181,0.765660
703.735338,0.703157
704.454121,0.718783
705.157278,0.703157
705.891687,0.734409
706.626096,0.734409
707.376130,0.750034
708.110538,0.734409
708.876199,0.765660
709.610607,0.734409
710.407519,0.796911
711.048173,0.640654
711.751330,0.703157
712.470113,0.718783
713.220147,0.750034
713.938930,0.718783
714.626462,0.687531
715.313993,0.687531
716.001525,0.687531
716.673430,0.671906
717.345336,0.671906
718.017242,0.671906
718.829779,0.812537
719.642316,0.812537
720.486105,0.843789
721.251765,0.765660
721.970548,0.718783
722.689331,0.718783
723.454991,0.765660
724.236277,0.781286
724.986311,0.750034
725.751971,0.765660
726.548882,0.796911
727.283291,0.734409
728.033325,0.750034
728.783360,0.750034
729.564646,0.781286
730.314680,0.750034
731.064714,0.750034
731.830374,0.765660
732.611660,0.781286
733.408571,0.796911
738.377549,0.828163
739.174460,0.796911
740.002623,0.828163
740.752658,0.750034
741.455815,0.703157
742.127721,0.671906
742.830878,0.703157
743.487158,0.656280
752.659453,0.640654
753.300107,0.640654
753.940761,0.640654
754.597041,0.656280
755.331450,0.734409
762.316145,0.781286
763.050553,0.734409
763.816213,0.765660
764.628751,0.812537
765.456913,0.828163
766.238199,0.781286
766.988234,0.750034
767.722642,0.734409
768.488302,0.765660
769.347717,0.859414
770.019622,0.671906
776.910563,0.671906
777.598094,0.687531
778.410631,0.812537
779.238794,0.828163
779.973203,0.734409
780.738863,0.765660
781.551400,0.812537
782.332686,0.781286
783.098346,0.765660
792.223764,0.718783
792.911295,0.687531
793.676955,0.765660
794.426990,0.750034
795.239527,0.812537
795.927058,0.687531
796.677093,0.750034
797.364624,0.687531
798.067781,0.703157
798.802190,0.734409
799.505347,0.703157
800.208504,0.703157
800.896036,0.687531
801.521064,0.625029
802.208596,0.687531
802.943004,0.734409
803.739916,0.796911
804.505576,0.765660
805.224359,0.718783
805.943142,0.718783
806.693176,0.750034
807.411959,0.718783
811.599651,0.718783
812.396562,0.796911
819.959408,0.656280
820.850074,0.890666
840.397844,0.890666
841.288510,0.890666
842.163550,0.875040
843.038590,0.875040
843.804250,0.765660
844.569910,0.765660
845.319944,0.750034
846.054353,0.734409
846.820013,0.765660
847.554421,0.734409
848.335707,0.781286
849.132619,0.796911
849.960782,0.828163
850.726442,0.765660
851.570230,0.843789
852.320265,0.750034
853.039047,0.718783
853.695328,0.656280
854.382859,0.687531
855.101642,0.718783
855.820425,0.718783
856.586085,0.765660
857.351745,0.765660
858.101779,0.750034
858.851814,0.750034
859.601848,0.750034
860.351882,0.750034
861.086291,0.734409
861.805074,0.718783
862.555108,0.750034
863.336394,0.781286
864.102054,0.765660
864.852088,0.750034
865.586497,0.734409
866.320905,0.734409
867.008437,0.687531
867.742846,0.734409
868.352248,0.609403
869.086657,0.734409
869.758563,0.671906
870.461720,0.703157
871.243006,0.781286
871.993040,0.750034
872.743074,0.750034
873.493109,0.750034
874.290020,0.796911
875.040055,0.750034
875.790089,0.750034
876.540123,0.750034
877.321409,0.781286
878.071443,0.750034
878.821478,0.750034
879.555886,0.734409
880.337172,0.781286
881.118458,0.781286
881.884118,0.765660
882.665404,0.781286
883.477941,0.812537
884.290478,0.812537
885.071764,0.781286
885.868675,0.796911
886.665587,0.796911
887.415621,0.750034
888.212533,0.796911
889.009444,0.796911
889.821981,0.812537
890.587641,0.765660
891.384553,0.796911
896.978559,0.656280
897.619213,0.640654
898.291119,0.671906
898.963025,0.671906
899.775562,0.812537
900.572473,0.796911
901.463139,0.890666
902.369431,0.906291
910.322920,0.625029
918.588923,0.625029
919.198326,0.609403
919.792103,0.593777
920.432757,0.640654
921.057786,0.625029
930.917612,0.734409
931.652021,0.734409
932.417681,0.765660
933.183341,0.765660
933.964627,0.781286
934.714661,0.750034
935.480321,0.765660
936.214730,0.734409
936.996016,0.781286
947.308988,0.734409
948.012145,0.703157
948.684051,0.671906
949.387208,0.703157
956.246897,0.703157
956.981305,0.734409
957.637585,0.656280
958.340743,0.703157
959.043900,0.703157
959.793934,0.750034
960.606471,0.812537
961.450260,0.843789
962.325300,0.875040
963.153463,0.828163
963.934749,0.781286
964.669157,0.734409
965.434817,0.765660
966.075472,0.640654
966.747377,0.671906
967.403657,0.656280
976.497824,0.750034
977.263484,0.765660
980.888650,0.718783
997.983182,0.687531
1013.827657,0.734409
1014.624569,0.796911
1015.437106,0.812537
1016.312146,0.875040
1017.124683,0.812537
1017.905969,0.781286
1018.656003,0.750034
1019.359161,0.703157
1020.046692,0.687531
1020.687346,0.640654
1021.374878,0.687531
1029.594004,0.781286
1030.344038,0.750034
1031.125324,0.781286
1031.984739,0.859414
1032.844153,0.859414
1033.703567,0.859414
1046.751040,0.750034
1047.501074,0.750034
1048.204231,0.703157
1048.907388,0.703157
1049.657423,0.750034
1050.391831,0.734409
1051.188743,0.796911
1081.018233,0.765660
1081.783893,0.765660
1082.565179,0.781286
1083.315213,0.750034
1084.018371,0.703157
1084.737154,0.718783
1085.424685,0.687531
1086.127842,0.703157
1086.799748,0.671906
1087.518531,0.718783
1088.237314,0.718783
1089.018600,0.781286
1089.753008,0.734409
1090.518668,0.765660
1091.299954,0.781286
1092.065614,0.765660
1092.815648,0.750034
1093.565683,0.750034
1094.315717,0.750034
1095.050126,0.734409
1095.753283,0.703157
1096.393937,0.640654
1097.065843,0.671906
1097.769000,0.703157
1098.503409,0.734409
1099.222192,0.718783
1100.019103,0.796911
1100.800389,0.781286
1101.550423,0.750034
1102.300457,0.750034
1103.034866,0.734409
1103.800526,0.765660
1104.534935,0.734409
1105.253718,0.718783
1106.003752,0.750034
1106.785038,0.781286
1107.519446,0.734409
1108.300732,0.781286
1109.050766,0.750034
1109.816427,0.765660
1110.535209,0.718783
1111.269618,0.734409
1112.035278,0.765660
1112.769687,0.734409
1113.488470,0.718783
1114.269755,0.781286
1115.051041,0.781286
1115.769824,0.718783
1116.566736,0.796911
1117.348021,0.781286
1118.144933,0.796911
1118.910593,0.765660
1119.691879,0.781286
1120.473164,0.781286
1121.223199,0.750034
1121.973233,0.750034
1122.707642,0.734409
1123.442050,0.734409
1124.192085,0.750034
1124.910867,0.718783
1125.645276,0.734409
1126.410936,0.765660
1127.129719,0.718783
1127.879753,0.750034
1128.614162,0.734409
1129.364196,0.750034
1130.067353,0.703157
1130.786136,0.718783
1131.489294,0.703157
1132.145574,0.656280
1132.833105,0.687531
1133.473759,0.640654
1134.161291,0.687531
1134.801945,0.640654
1135.489477,0.687531
1136.177008,0.687531
1136.895791,0.718783
1137.598948,0.703157
1138.302105,0.703157
1138.989637,0.687531
1139.692794,0.703157
1140.349074,0.656280
1141.036606,0.687531
1178.366439,0.656280
1179.022719,0.656280
1179.663374,0.640654
1192.632717,0.671906
1193.335875,0.703157
1194.039032,0.703157
1194.679686,0.640654
1195.367218,0.687531
1196.054749,0.687531
1208.836584,0.671906
1209.570993,0.734409
1210.305401,0.734409
1211.055436,0.750034
1211.867973,0.812537
1212.633633,0.765660
1216.211922,0.812537
1216.915079,0.703157
1217.727616,0.812537
1218.430773,0.703157
1219.196433,0.765660
1219.883965,0.687531
1220.587122,0.703157
1221.274653,0.687531
1222.055939,0.781286
1222.790348,0.734409
1223.649762,0.859414
1231.181357,0.828163
1250.447864,0.781286
1251.166647,0.718783
1251.885430,0.718783
1252.604213,0.718783
1253.354247,0.750034
1254.088655,0.734409
1254.823064,0.734409
1255.604350,0.781286
1256.385636,0.781286
1257.229424,0.843789
1257.979459,0.750034
1258.666990,0.687531
1259.354522,0.687531
1260.010802,0.656280
1260.698333,0.687531
1261.432742,0.734409
1262.292156,0.859414
1263.214073,0.921917
1263.932856,0.718783
1264.714142,0.781286
1265.448550,0.734409
1266.182959,0.734409
1266.886116,0.703157
1267.604899,0.718783
1268.370559,0.765660
1269.151845,0.781286
1269.964382,0.812537
1270.651914,0.687531
1271.370697,0.718783
1292.012266,0.812537
1292.793552,0.781286
1293.606089,0.812537
1294.387375,0.781286
1295.153035,0.765660
1295.965572,0.812537
1296.793735,0.828163
1297.621898,0.828163
1298.450061,0.828163
1299.246973,0.796911
1299.997007,0.750034
1300.731416,0.734409
1301.434573,0.703157
1302.153356,0.718783
1302.887764,0.734409
1303.669050,0.781286
1304.450336,0.781286
1305.278499,0.828163
1306.075410,0.796911
1306.872322,0.796911
1307.653607,0.781286
1308.372390,0.718783
1309.106799,0.734409
1309.825582,0.718783
1310.559990,0.734409
1311.278773,0.718783
1312.013182,0.734409
1312.747591,0.734409
1321.966763,0.687531
1322.669920,0.703157
1323.388703,0.718783
1324.107486,0.718783
1324.841894,0.734409
1325.591928,0.750034
1326.341963,0.750034
1327.091997,0.750034
1327.826406,0.734409
1328.545189,0.718783
1329.248346,0.703157
1329.920252,0.671906
1330.529655,0.609403
1331.154683,0.625029
1331.795337,0.640654
1332.514120,0.718783
1333.357909,0.843789
1334.201698,0.843789
1335.061112,0.859414
1335.873649,0.812537
1336.654935,0.781286
1337.420595,0.765660
1338.155004,0.734409
1338.873786,0.718783
1339.576944,0.703157
1340.217598,0.640654
1340.873878,0.656280
1341.514532,0.640654
1342.202064,0.687531
1342.998975,0.796911
1343.795887,0.796911
1344.561547,0.765660
1345.311581,0.750034
1346.108493,0.796911
1346.967907,0.859414
1347.827321,0.859414
1348.608607,0.781286
1349.343016,0.734409
1350.046173,0.703157
1350.780581,0.734409
1351.530616,0.750034
1352.280650,0.750034
1352.999433,0.718783
1353.749467,0.750034
1361.718582,0.828163
1362.499868,0.781286
1363.265528,0.765660
1364.031188,0.765660
1364.781222,0.750034
1365.562508,0.781286
1366.359420,0.796911
1367.140705,0.781286
1381.219475,0.593777
1381.891381,0.671906
1382.516409,0.625029
1383.203941,0.687531
1391.610575,0.718783
1392.329358,0.718783
1393.079393,0.750034
1393.766924,0.687531
1402.298565,0.765660
1403.079850,0.781286
1403.876762,0.796911
1404.642422,0.765660
1405.408082,0.765660
1406.173742,0.765660
1406.908151,0.734409
1407.611308,0.703157
1408.314465,0.703157
1409.017622,0.703157
1409.736405,0.718783
1410.439562,0.703157
1411.173971,0.734409
1411.924005,0.750034
1412.642788,0.718783
1413.361571,0.718783
1414.127231,0.765660
1414.908517,0.781286
1415.674177,0.765660
1416.408586,0.734409
1417.111743,0.703157
1417.799274,0.687531
1418.455554,0.656280
1419.127460,0.671906
1419.799366,0.671906
1420.486897,0.687531
1421.205680,0.718783
1421.986966,0.781286
1422.815129,0.828163
1423.596415,0.781286
1424.424577,0.828163
1425.205863,0.781286
1425.971523,0.765660
1426.721558,0.750034
1478.802067,0.718783
1479.567727,0.765660
1480.380264,0.812537
1492.380813,0.734409
1493.021467,0.640654
1493.724625,0.703157
1494.396530,0.671906
1495.084062,0.687531
1495.802845,0.718783
1496.521628,0.718783
1497.287288,0.765660
1498.084199,0.796911
1498.802982,0.718783
1499.693648,0.890666
1500.412431,0.718783
1501.146839,0.734409
1501.912499,0.765660
1512.928629,0.781286
1513.725540,0.796911
1514.538077,0.812537
1515.334989,0.796911
1516.100649,0.765660
1516.897560,0.796911
1517.678846,0.781286
1518.460132,0.781286
1519.241418,0.781286
1519.991452,0.750034
1520.741486,0.750034
1521.444643,0.703157
1522.132175,0.687531
1536.320324,0.703157
1536.976604,0.656280
1537.617259,0.640654
1538.351667,0.734409
1539.242333,0.890666
1540.117373,0.875040
1541.023665,0.906291
1541.867453,0.843789
1542.695616,0.828163
1543.430025,0.734409
1544.148808,0.718783
1544.805088,0.656280
1545.523871,0.718783
1546.133274,0.609403
1567.993649,0.640654
1568.634304,0.640654
1569.290584,0.656280
1569.978115,0.687531
1570.712524,0.734409
1571.478184,0.765660
1572.212592,0.734409
1572.947001,0.734409
1573.697035,0.750034
1574.431444,0.734409
1575.197104,0.765660
1575.900261,0.703157
1576.619044,0.718783
1635.168599,0.671906
1635.856131,0.687531
1636.528036,0.671906
1637.184316,0.656280
1637.887474,0.703157
1638.575005,0.687531
1639.262537,0.687531
1639.981319,0.718783
1640.653225,0.671906
1641.340757,0.687531
1642.012662,0.671906
1642.637691,0.625029
1643.309597,0.671906
1643.950251,0.640654
1644.590905,0.640654
1645.262811,0.671906
1645.887840,0.625029
1669.388916,0.640654
1669.998318,0.609403
1670.670224,0.671906
1671.373381,0.703157
1672.123416,0.750034
1705.015546,0.671906
1705.640575,0.625029
1706.281229,0.640654
1706.890632,0.609403
1707.500035,0.609403
1708.109438,0.609403
1708.687589,0.578151
1709.281366,0.593777
1709.828266,0.546900
1710.422044,0.593777
1711.015821,0.593777
1711.609598,0.593777
1712.187749,0.578151
1712.765901,0.578151
1713.390929,0.625029
1714.062835,0.671906
1714.750367,0.687531
1715.453524,0.703157
1727.750962,0.703157
1728.422868,0.671906
1729.094773,0.671906
1729.797930,0.703157
1738.345197,0.687531
1741.876608,0.703157
1742.564140,0.687531
1743.236046,0.671906
1743.907951,0.671906
1744.611109,0.703157
1745.392394,0.781286
1746.048674,0.656280
1746.861212,0.812537
1747.595620,0.734409
1748.423783,0.828163
1749.205069,0.781286
1749.970729,0.765660
1750.705137,0.734409
1751.423920,0.718783
1752.127078,0.703157
1752.798983,0.671906
1753.486515,0.687531
1754.189672,0.703157
1754.892829,0.703157
1755.611612,0.718783
1756.314769,0.703157
1786.956797,0.781286
1787.675580,0.718783
1788.363111,0.687531
1789.050643,0.687531
1789.769426,0.718783
1790.425706,0.656280
1791.128863,0.703157
1791.832020,0.703157
1799.535498,0.671906
1800.160526,0.625029
1800.816806,0.656280
1833.068283,0.656280
1848.475238,0.843789
1885.508183,0.765660
1886.242592,0.734409
1887.008252,0.765660
1887.789537,0.781286
1888.555197,0.765660
1889.336483,0.781286
1895.852407,0.750034
1896.649318,0.796911
1897.352475,0.703157
1905.602853,0.687531
1906.321636,0.718783
1907.040419,0.718783
1907.759202,0.718783
2005.123034,0.765660
2005.935571,0.812537
2017.451723,0.718783
2018.170506,0.718783
2018.873663,0.703157
2019.576820,0.703157
2020.264352,0.687531
2020.983135,0.718783
2021.686292,0.703157
2022.389449,0.703157
2023.076980,0.687531
2023.764512,0.687531
2024.436418,0.671906
2025.108323,0.671906
2034.843144,0.656280
2041.671582,0.687531
2042.405990,0.734409
2043.109147,0.703157
2043.812304,0.703157
2044.452959,0.640654
2045.156116,0.703157
2055.875357,0.968794
2056.781648,0.906291
2057.687940,0.906291
2058.531728,0.843789
2059.313014,0.781286
2060.078674,0.765660
2060.844334,0.765660
2061.641246,0.796911
2062.422531,0.781286
2063.141314,0.718783
2063.922600,0.781286
2064.703886,0.781286
2065.500797,0.796911
2066.500843,1.000046
2084.939187,0.906291
2085.829853,0.890666
2100.893042,0.906291
2101.783708,0.890666
2102.643122,0.859414
2103.471285,0.828163
2104.283823,0.812537
2105.080734,0.796911
2105.815143,0.734409
2106.565177,0.750034
2107.315211,0.750034
2108.127748,0.812537
2108.987163,0.859414
2109.862203,0.875040
2110.737243,0.875040
2111.612283,0.875040
2112.440446,0.828163
2113.237357,0.796911
2124.691007,0.750034
2125.472292,0.781286
2126.269204,0.796911
2127.034864,0.765660
2127.769273,0.734409
2128.534933,0.765660
2129.269341,0.734409
2130.019376,0.750034
2130.753784,0.734409
2131.535070,0.781286
2132.316356,0.781286
2133.097641,0.781286
2133.863302,0.765660
2134.660213,0.796911
2135.457124,0.796911
2136.254036,0.796911
2155.161151,0.625029
2155.817431,0.656280
2156.489337,0.671906
2157.192494,0.703157
2157.895652,0.703157
2158.598809,0.703157
2159.333217,0.734409
2160.020749,0.687531
2160.755157,0.734409
2161.442689,0.687531
2162.130220,0.687531
2162.833378,0.703157
2163.583412,0.750034
2164.427201,0.843789
2165.364743,0.937543
2166.317912,0.953169
2167.271081,0.953169
2168.146121,0.875040
2168.974284,0.828163
2169.677441,0.703157
2170.333721,0.656280
2170.958750,0.625029
2171.615030,0.656280
2172.318187,0.703157
2177.099656,0.968794
2178.021573,0.921917
2178.927864,0.906291
2179.802904,0.875040
2180.677944,0.875040
2181.474856,0.796911
2182.271767,0.796911
2183.099930,0.828163
2183.943719,0.843789
2184.725005,0.781286
2185.490665,0.765660
2186.225073,0.734409
2186.928231,0.703157
2187.693891,0.765660
2188.459551,0.765660
2189.225211,0.765660
2189.959619,0.734409
2190.584648,0.625029
2191.256554,0.671906
2191.912834,0.656280
2192.569114,0.656280
2193.287897,0.718783
2194.006680,0.718783
2194.694211,0.687531
2195.366117,0.671906
2196.084900,0.718783
2196.975565,0.890666
2197.803728,0.828163
2198.694394,0.890666
2199.444428,0.750034
2200.194463,0.750034
2200.913246,0.718783
2201.616403,0.703157
2202.272683,0.656280
2202.975840,0.703157
2203.710249,0.734409
2204.538412,0.828163
2205.350949,0.812537
2206.163486,0.812537
2206.929146,0.765660
2216.867101,0.687531
2217.601510,0.734409
2218.382795,0.781286
2219.164081,0.781286
2219.929741,0.765660
2220.648524,0.718783
2221.304804,0.656280
2227.664470,0.671906
2228.320750,0.656280
2228.992656,0.671906
2229.695813,0.703157
2230.414596,0.718783
2231.164630,0.750034
2231.930290,0.765660
2232.633448,0.703157
2233.367856,0.734409
2234.086639,0.718783
2234.852299,0.765660
2235.555456,0.703157
2236.321116,0.765660
2236.946145,0.625029
2237.633677,0.687531
2238.336834,0.703157
2239.055617,0.718783
2239.743148,0.687531
2240.446305,0.703157
2241.180714,0.734409
2241.868245,0.687531
2242.602654,0.734409
2243.368314,0.765660
2244.102723,0.734409
2244.805880,0.703157
2245.524663,0.718783
2246.243446,0.718783
2246.977854,0.734409
2247.681011,0.703157
2248.384169,0.703157
2249.102952,0.718783
2249.821734,0.718783
2250.571769,0.750034
2251.274926,0.703157
2252.024960,0.750034
2252.759369,0.734409
2253.493778,0.734409
2254.259438,0.765660
2255.040723,0.781286
2255.790758,0.750034
2256.525166,0.734409
2257.275201,0.750034
2258.025235,0.750034
2258.744018,0.718783
2259.400298,0.656280
2260.087829,0.687531
2260.775361,0.687531
2261.541021,0.765660
2270.385176,0.703157
2271.072707,0.687531
2271.760239,0.687531
2272.447770,0.687531
2273.135302,0.687531
2273.791582,0.656280
2274.432236,0.640654
2275.088516,0.656280
2275.744796,0.656280
2276.416702,0.671906
2277.119859,0.703157
2277.838642,0.718783
2278.557425,0.718783
2279.291833,0.734409
2280.026242,0.734409
2280.745025,0.718783
2281.463808,0.718783
2282.151339,0.687531
2282.838871,0.687531
2283.573279,0.734409
2284.354565,0.781286
2285.167102,0.812537
2285.948388,0.781286
2286.698422,0.750034
2287.432831,0.734409
2288.167240,0.734409
2288.932900,0.765660
2289.714185,0.781286
2290.495471,0.781286
2291.198628,0.703157
2291.901786,0.703157
2292.589317,0.687531
2293.308100,0.718783
2294.011257,0.703157
2294.698789,0.687531
2295.370694,0.671906
2296.058226,0.687531
2296.761383,0.703157
2297.480166,0.718783
2298.230200,0.750034
2298.933357,0.703157
2299.620889,0.687531
2300.324046,0.703157
2301.042829,0.718783
2301.777238,0.734409
2302.527272,0.750034
2303.246055,0.718783
2303.980464,0.734409
2304.699246,0.718783
2305.449281,0.750034
2306.183689,0.734409
2306.902472,0.718783
2307.652507,0.750034
2308.402541,0.750034
2309.183827,0.781286
2309.918235,0.734409
2310.668270,0.750034
2311.402678,0.734409
2312.168338,0.765660
2312.918373,0.750034
2313.621530,0.703157
2314.355938,0.734409
2315.090347,0.734409
2315.840381,0.750034
2316.574790,0.734409
2317.293573,0.718783
2318.012356,0.718783
2318.731139,0.718783
2319.449922,0.718783
2320.137453,0.687531
2320.824985,0.687531
2321.543767,0.718783
2322.215673,0.671906
2322.856328,0.640654
2323.528233,0.671906
2324.215765,0.687531
2324.918922,0.703157
2325.575202,0.656280
2326.231482,0.656280
2326.887762,0.656280
2327.559668,0.671906
2328.231574,0.671906
2328.887854,0.656280
2329.544134,0.656280
2330.200414,0.656280
2330.841068,0.640654
2331.497348,0.656280
2332.153628,0.656280
2332.809908,0.656280
2333.513065,0.703157
2334.294351,0.781286
2335.091263,0.796911
2335.903800,0.812537
2336.700711,0.796911
2337.497623,0.796911
2338.185154,0.687531
2338.841434,0.656280
2339.497714,0.656280
2340.169620,0.671906
2340.810274,0.640654
2341.450929,0.640654
2342.075957,0.625029
2342.716612,0.640654
2343.372892,0.656280
2344.044797,0.671906
2344.716703,0.671906
2345.388609,0.671906
2346.060515,0.671906
2346.716795,0.656280
2347.357449,0.640654
2348.044981,0.687531
2348.763763,0.718783
2349.482546,0.718783
2350.248206,0.765660
2350.998241,0.750034
2351.763901,0.765660
2352.498309,0.734409
2353.201467,0.703157
2353.857747,0.656280
2354.529652,0.671906
2355.217184,0.687531
2355.904715,0.687531
2356.545370,0.640654
2357.232901,0.687531
2357.982935,0.750034
2366.217687,0.796911
2367.014599,0.796911
2367.795885,0.781286
2368.577170,0.781286
2369.342830,0.765660
2370.108490,0.765660
2370.811648,0.703157
2371.483553,0.671906
2372.155459,0.671906
2372.827365,0.671906
2373.530522,0.703157
2374.311808,0.781286
2375.124345,0.812537
2375.936882,0.812537
2376.718168,0.781286
2377.515079,0.796911
2378.296365,0.781286
2379.093277,0.796911
2379.890188,0.796911
2380.687100,0.796911
2381.484011,0.796911
2382.249671,0.765660
2383.015331,0.765660
2383.734114,0.718783
2394.125215,0.875040
2395.000255,0.875040
2395.859669,0.859414
2396.656581,0.796911
2397.453492,0.796911
2398.281655,0.828163
2399.047315,0.765660
2399.844227,0.796911
2400.641138,0.796911
2401.438050,0.796911
2402.203710,0.765660
2402.984995,0.781286
2436.220892,0.578151
2436.814669,0.593777
2437.424072,0.609403
2438.064726,0.640654
2438.689755,0.625029
2439.299158,0.609403
2439.924186,0.625029
2440.596092,0.671906
2441.361752,0.765660
2442.174289,0.812537
2443.033704,0.859414
2443.939995,0.906291
2444.736907,0.796911
2445.424438,0.687531
2446.080718,0.656280
2446.736998,0.656280
2447.440155,0.703157
2448.158938,0.718783
2448.908973,0.750034
2449.659007,0.750034
2450.377790,0.718783
2451.221578,0.843789
2452.205998,0.984420
2453.190418,0.984420
2454.127961,0.937543
2455.034253,0.906291
2455.846790,0.812537
2456.628076,0.781286
2457.362484,0.734409
2458.065642,0.703157
2458.721922,0.656280
2459.409453,0.687531
2460.112610,0.703157
2460.925148,0.812537
2461.768936,0.843789
2462.612725,0.843789
2463.425262,0.812537
2464.222173,0.796911
2465.019085,0.796911
2465.815996,0.796911
2466.581656,0.765660
2467.316065,0.734409
2473.785111,0.765660
2474.566397,0.781286
2475.347683,0.781286
2476.097717,0.750034
2476.785249,0.687531
2477.457154,0.671906
2478.129060,0.671906
2478.832217,0.703157
2485.879415,0.687531
2486.582572,0.703157
2487.332606,0.750034
2488.082641,0.750034
2488.832675,0.750034
2489.504581,0.671906
2490.160861,0.656280
2499.630044,0.625029
2500.270699,0.640654
2500.926979,0.656280
2501.598884,0.671906
2502.270790,0.671906
2502.958322,0.687531
2503.692730,0.734409
2504.474016,0.781286
2505.286553,0.812537
2506.052213,0.765660
2514.240088,0.625029
2514.911994,0.671906
2515.646402,0.734409
2516.412062,0.765660
2517.177722,0.765660
2517.943383,0.765660
2518.709043,0.765660
2519.474703,0.765660
2520.255988,0.781286
2521.037274,0.781286
2521.834186,0.796911
2522.631097,0.796911
2523.396757,0.765660
2524.131166,0.734409
2524.818697,0.687531
2525.490603,0.671906
2526.193760,0.703157
2530.912726,0.906291
2531.756515,0.843789
2532.553426,0.796911
2533.319086,0.765660
2534.006618,0.687531
2534.647272,0.640654
2535.397306,0.750034
2535.975458,0.578151
2536.678615,0.703157
2537.366147,0.687531
2538.084929,0.718783
2538.772461,0.687531
2539.444367,0.671906
2540.100647,0.656280
2540.756927,0.656280
2541.475710,0.718783
2542.272621,0.796911
2543.085158,0.812537
2543.897696,0.812537
2544.694607,0.796911
2545.429016,0.734409
2546.147799,0.718783
2546.835330,0.687531
2547.475984,0.640654
2548.147890,0.671906
2548.819796,0.671906
2549.538579,0.718783
2550.335490,0.796911
2551.163653,0.828163
2551.976190,0.812537
2552.757476,0.781286
2553.523136,0.765660
2554.288796,0.765660
2555.023205,0.734409
2555.757613,0.734409
2556.429519,0.671906
2557.148302,0.718783
2557.882711,0.734409
2558.679622,0.796911
2559.414031,0.734409
2560.148439,0.734409
2560.914099,0.765660
2561.664134,0.750034
2562.429794,0.765660
2563.226705,0.796911
2573.399046,0.906291
2574.258460,0.859414
2575.086623,0.828163
2575.899160,0.812537
2576.649195,0.750034
2577.430480,0.781286
2578.196141,0.765660
2578.961801,0.765660
2579.696209,0.734409
2580.446244,0.750034
2581.180652,0.734409
2581.915061,0.734409
2582.633844,0.718783
2583.352627,0.718783
2584.055784,0.703157
2584.790192,0.734409
2585.524601,0.734409
2586.259010,0.734409
2586.993418,0.734409
2587.759078,0.765660
2588.509113,0.750034
2589.259147,0.750034
2589.993556,0.734409
2605.509891,0.578151
2606.088042,0.578151
2606.650568,0.562526
2607.228719,0.578151
2607.806871,0.578151
2608.385022,0.578151
2608.963174,0.578151
2609.525700,0.562526
2610.103851,0.578151
2610.666377,0.562526
2611.228903,0.562526
2611.775803,0.546900
2612.400831,0.625029
2731.593787,0.609403
2761.079512,0.750034
2761.813920,0.734409
2762.563955,0.750034
2763.329615,0.765660
2764.095275,0.765660
2764.845309,0.750034
2765.564092,0.718783
2766.298501,0.734409
2767.048535,0.750034
2767.845447,0.796911
2768.673609,0.828163
2769.548650,0.875040
2770.361187,0.812537
2771.204975,0.843789
2772.017513,0.812537
2772.798798,0.781286
2773.548833,0.750034
2774.298867,0.750034
2775.064527,0.765660
2775.767684,0.703157
2776.439590,0.671906
2777.142747,0.703157
2777.861530,0.718783
2778.549062,0.687531
2779.220967,0.671906
2779.971002,0.750034
2780.705410,0.734409
2781.502322,0.796911
2791.721539,0.750034
2792.518451,0.796911
2793.330988,0.812537
2794.127900,0.796911
2794.987314,0.859414
2804.315866,0.875040
2895.741926,0.875040
2912.945839,0.859414
2913.820879,0.875040
2914.711545,0.890666
2915.649087,0.937543
2916.539753,0.890666
2931.540440,0.812537
2932.477983,0.937543
2933.384274,0.906291
2934.259314,0.875040
2965.479493,0.796911
2982.542774,0.718783
2983.245932,0.703157
2983.995966,0.750034
2984.761626,0.765660
2985.511660,0.750034
2986.308572,0.796911
2987.121109,0.812537
2987.886769,0.765660
2988.574301,0.687531
2989.308709,0.734409
2990.011866,0.703157
2997.746595,0.718783
2998.543507,0.796911
2999.324793,0.781286
3000.074827,0.750034
3000.731107,0.656280
3001.403013,0.671906
3002.106170,0.703157
3002.840579,0.734409
3003.606239,0.765660
3004.340647,0.734409
3005.090682,0.750034
3005.887593,0.796911
3006.731382,0.843789
3007.622047,0.890666
3008.465836,0.843789
3009.293999,0.828163
3010.137788,0.843789
3115.861377,0.765660
3116.627037,0.765660
3124.205509,0.812537
3125.018046,0.812537
3125.877460,0.859414
3126.736875,0.859414
3127.627541,0.890666
3128.486955,0.859414
3129.268241,0.781286
3129.971398,0.703157
3130.705806,0.734409
3131.408964,0.703157
3132.174624,0.765660
3132.987161,0.812537
3133.846575,0.859414
3134.674738,0.828163
3135.549778,0.875040
3136.424818,0.875040
3137.237355,0.812537
3138.065518,0.828163
3138.893681,0.828163
3139.768721,0.875040
3140.612510,0.843789
3141.487550,0.875040
3142.378216,0.890666
3143.268882,0.890666
3144.097044,0.828163
3144.956459,0.859414
3145.815873,0.859414
3146.612785,0.796911
3147.409696,0.796911
3148.253485,0.843789
3149.112899,0.859414
3149.894185,0.781286
3150.722348,0.828163
3151.581762,0.859414
3152.409925,0.828163
3153.238088,0.828163
3154.050625,0.812537
3154.847537,0.796911
3155.613197,0.765660
3156.394482,0.781286
3157.175768,0.781286
3157.925802,0.750034
3158.675837,0.750034
3159.457123,0.781286
3160.222783,0.765660
3160.957191,0.734409
3161.738477,0.781286
3162.535388,0.796911
3163.301049,0.765660
3164.113586,0.812537
3164.879246,0.765660
3165.644906,0.765660
3166.379314,0.734409
3167.144974,0.765660
3167.910635,0.765660
3168.629417,0.718783
3169.441955,0.812537
3170.113860,0.671906
3170.817018,0.703157
3171.504549,0.687531
3172.192080,0.687531
3172.957741,0.765660
3173.785903,0.828163
3174.582815,0.796911
3175.395352,0.812537
3176.161012,0.765660
3176.879795,0.718783
3177.582952,0.703157
3178.286109,0.703157
3178.973641,0.687531
3179.661172,0.687531
3180.379955,0.718783
3181.129990,0.750034
3181.911275,0.781286
3182.661310,0.750034
3183.458221,0.796911
3184.302010,0.843789
3185.130173,0.828163
3185.927084,0.796911
3186.723996,0.796911
3187.536533,0.812537
3188.317819,0.781286
3189.067853,0.750034
3189.817887,0.750034
3190.567922,0.750034
3191.286705,0.718783
3192.021113,0.734409
3192.802399,0.781286
3204.662317,0.671906
3205.349848,0.687531
3206.053005,0.703157
3206.724911,0.671906
3207.412443,0.687531
3208.099974,0.687531
3208.803131,0.703157
3209.490663,0.687531
3210.225071,0.734409
3210.975106,0.750034
3211.756392,0.781286
3212.522052,0.765660
3213.240834,0.718783
3213.928366,0.687531
3214.631523,0.703157
3215.334680,0.703157
3215.990960,0.656280
3216.662866,0.671906
3217.428526,0.765660
3218.194186,0.765660
3218.944221,0.750034
3219.694255,0.750034
3220.506792,0.812537
3221.319329,0.812537
3222.116241,0.796911
3222.928778,0.812537
3223.694438,0.765660
3224.397595,0.703157
3225.132004,0.734409
3225.928915,0.796911
3226.788330,0.859414
3227.569615,0.781286
3228.382153,0.812537
3229.163438,0.781286
3229.913473,0.750034
3230.632256,0.718783
3231.351038,0.718783
3232.085447,0.734409
3232.804230,0.718783
3233.491761,0.687531
3234.226170,0.734409
3234.960579,0.734409
3235.694987,0.734409
3236.460647,0.765660
3247.226765,0.828163
3248.070554,0.843789
3248.898717,0.828163
3249.758131,0.859414
3250.586294,0.828163
3251.383205,0.796911
3252.164491,0.781286
3252.961403,0.796911
3253.773940,0.812537
3263.071240,0.796911
3263.899403,0.828163
3264.727566,0.828163
3265.586981,0.859414
3266.477646,0.890666
3267.368312,0.890666
3268.258978,0.890666
3269.071515,0.812537
3269.852801,0.781286
3270.602835,0.750034
3271.384121,0.781286
3272.243535,0.859414
3273.165452,0.921917
3274.009241,0.843789
3274.868655,0.859414
3275.712444,0.843789
3276.556233,0.843789
3277.337518,0.781286
3278.134430,0.796911
3278.962593,0.828163
3279.806381,0.843789
3280.618919,0.812537
3281.353327,0.734409
3282.072110,0.718783
3282.837770,0.765660
3283.603430,0.765660
3291.760054,0.781286
3292.572591,0.812537
3293.385128,0.812537
3294.228917,0.843789
3295.057080,0.828163
3295.900868,0.843789
3296.713405,0.812537
3297.541568,0.828163
3298.385357,0.843789
3299.276023,0.890666
3300.151063,0.875040
3301.057354,0.906291
3301.932394,0.875040
3310.526538,0.953169
3311.479706,0.953169
3312.354746,0.875040
3313.182909,0.828163
3313.917318,0.734409
3314.573598,0.656280
3315.245504,0.671906
3315.995538,0.750034
3320.870761,0.937543
3321.792678,0.921917
3322.714596,0.921917
3323.605261,0.890666
3324.464676,0.859414
3325.339716,0.875040
3326.230381,0.890666
3327.105422,0.875040
3327.964836,0.859414
3328.746122,0.781286
3329.527407,0.781286
3330.339945,0.812537
3331.152482,0.812537
3331.965019,0.812537
3332.871310,0.906291
3333.730725,0.859414
3334.558888,0.828163
3335.371425,0.812537
3336.246465,0.875040
3347.262594,0.687531
3347.997003,0.734409
3348.700160,0.703157
3349.403317,0.703157
3350.075223,0.671906
3376.357676,0.531274
3399.436857,0.562526
3399.999383,0.562526
3400.577535,0.578151
3401.171312,0.593777
3438.469894,0.578151
3465.205493,0.640654
3502.238438,0.640654
3503.035350,0.796911
3503.722881,0.687531
3504.472915,0.750034
3505.207324,0.734409
3505.941733,0.734409
3506.707393,0.765660
3507.426176,0.718783
3508.098081,0.671906
3508.769987,0.671906
3509.395016,0.625029
3510.035670,0.640654
3510.645073,0.609403
3511.238850,0.593777
3519.098585,0.671906
3574.022974,0.609403
3574.757383,0.734409
3605.258779,0.828163
3606.008813,0.750034
3606.758847,0.750034
3607.493256,0.734409
3608.274542,0.781286
3628.025446,0.640654
3628.791106,0.765660
3629.431760,0.640654
3630.041163,0.609403
3630.728695,0.687531
3631.447478,0.718783
3632.244389,0.796911
3632.994423,0.750034
3633.853838,0.859414
3634.775755,0.921917
3635.713298,0.937543
3647.385707,0.640654
3648.041987,0.656280
3648.713893,0.671906
3649.385799,0.671906
3650.026453,0.640654
3650.698359,0.671906
3651.385890,0.687531
3652.057796,0.671906
3652.714076,0.656280
3653.385982,0.671906
3654.073513,0.687531
3654.823548,0.750034
3668.339791,0.718783
3683.434232,0.640654
3684.074887,0.640654
3684.731167,0.656280
3685.496827,0.765660
3686.262487,0.765660
3687.012521,0.750034
3687.746930,0.734409
3688.496964,0.750034
3689.325127,0.828163
3690.215793,0.890666
3691.090833,0.875040
3691.965873,0.875040
3692.794036,0.828163
3693.575321,0.781286
3694.356607,0.781286
3695.169144,0.812537
3696.075436,0.906291
3697.028605,0.953169
3697.981773,0.953169
3698.888065,0.906291
3699.763105,0.875040
3700.560016,0.796911
3701.356928,0.796911
3702.231968,0.875040
3703.216388,0.984420
3704.185182,0.968794
3705.091474,0.906291
3705.935262,0.843789
3706.747799,0.812537
3707.544711,0.796911
3708.372874,0.828163
3715.904469,0.765660
3723.279806,0.812537
3724.045466,0.765660
3724.795501,0.750034
3725.529909,0.734409
3726.217441,0.687531
3726.858095,0.640654
3727.514375,0.656280
3728.170655,0.656280
3728.920689,0.750034
3729.795729,0.875040
3730.686395,0.890666
3731.530184,0.843789
3732.467727,0.937543
3733.170884,0.703157
3733.905293,0.734409
3734.608450,0.703157
3735.311607,0.703157
3736.030390,0.718783
3736.717921,0.687531
3737.374201,0.656280
3745.593328,0.812537
3746.437116,0.843789
3752.578022,0.875040
3753.468688,0.890666
3754.296851,0.828163
3755.125014,0.828163
3755.890674,0.765660
3756.593831,0.703157
3757.328240,0.734409
3758.047023,0.718783
3758.734554,0.687531
3759.390834,0.656280
3760.140868,0.750034
3761.031534,0.890666
3761.969077,0.937543
3762.828491,0.859414
3763.625403,0.796911
3764.375437,0.750034
3765.078594,0.703157
3765.813003,0.734409
3766.516160,0.703157
3767.234943,0.718783
3767.875597,0.640654
3768.610006,0.734409
3769.297538,0.687531
3769.953818,0.656280
3770.610098,0.656280
3771.297629,0.687531
3771.969535,0.671906
3772.750821,0.781286
3773.563358,0.812537
3774.407146,0.843789
3775.204058,0.796911
3775.954092,0.750034
3776.688501,0.734409
3777.376032,0.687531
3778.079190,0.703157
3778.766721,0.687531
3795.970634,0.625029
3796.642539,0.671906
3804.017877,0.593777
3804.721034,0.703157
3805.517946,0.796911
3806.377360,0.859414
3807.252400,0.875040
3808.127440,0.875040
3808.986854,0.859414
3809.783766,0.796911
3810.627554,0.843789
3811.455717,0.828163
3812.330757,0.875040
3813.205797,0.875040
3821.784315,0.859414
3822.549975,0.765660
3823.425015,0.875040
3824.362558,0.937543
3825.237598,0.875040
3826.081387,0.843789
3826.940801,0.859414
3827.753338,0.812537
3828.565876,0.812537
3829.331536,0.765660
3830.112821,0.781286
3830.925359,0.812537
3831.722270,0.796911
3832.550433,0.828163
3837.269399,0.796911
3838.050685,0.781286
3838.800719,0.750034
3839.519502,0.718783
3840.222659,0.703157
3840.894565,0.671906
3841.566471,0.671906
3842.332131,0.765660
3843.144668,0.812537
3844.019708,0.875040
3844.941625,0.921917
3845.847917,0.906291
3846.707331,0.859414
3847.519868,0.812537
3848.348031,0.828163
3849.176194,0.828163
3849.957480,0.781286
3850.770017,0.812537
3851.770063,1.000046
3852.535723,0.765660
3853.395137,0.859414
3854.254551,0.859414
3855.129591,0.875040
3855.989006,0.859414
3863.614355,0.703157
3864.317512,0.703157
3865.051921,0.734409
3865.848832,0.796911
3866.598866,0.750034
3867.395778,0.796911
3868.208315,0.812537
3869.145858,0.937543
3886.849793,0.812537
3887.709208,0.859414
3888.521745,0.812537
3889.365534,0.843789
3890.193696,0.828163
3890.990608,0.796911
3899.694131,0.875040
3900.459791,0.765660
3901.194200,0.734409
3901.866106,0.671906
3912.225955,0.875040
3913.116621,0.890666
3914.022912,0.906291
3914.866701,0.843789
3915.741741,0.875040
3916.554278,0.812537
3917.335564,0.781286
3918.163727,0.828163
3923.695230,0.828163
3924.507767,0.812537
3925.304679,0.796911
3926.132842,0.828163
3926.945379,0.812537
3927.757916,0.812537
3938.242771,0.703157
3938.945928,0.703157
3939.649085,0.703157
3940.461622,0.812537
3949.071392,0.828163
3949.915180,0.843789
3950.758969,0.843789
3951.587132,0.828163
3952.462172,0.875040
3953.321586,0.859414
3954.227878,0.906291
3955.087292,0.859414
3955.993583,0.906291
3956.790495,0.796911
3957.556155,0.765660
3967.337853,0.828163
3968.087887,0.750034
3968.869173,0.781286
3969.650459,0.781286
3970.478621,0.828163
3971.291159,0.812537
3979.854051,0.718783
3980.541582,0.687531
3981.275991,0.734409
3982.072902,0.796911
3982.869814,0.796911
3983.666725,0.796911
3984.448011,0.781286
3985.198045,0.750034
3985.932454,0.734409
3986.682488,0.750034
3987.463774,0.781286
3988.182557,0.718783
3988.901340,0.718783
3989.635748,0.734409
3990.385783,0.750034
3991.088940,0.703157
3991.776471,0.687531
3992.464003,0.687531
3993.151534,0.687531
3993.839066,0.687531
3994.526597,0.687531
3995.198503,0.671906
3995.886034,0.687531
4010.511704,0.828163
4011.324241,0.812537
4012.152404,0.828163
4012.933690,0.781286
4013.730601,0.796911
4014.574390,0.843789
4015.355676,0.781286
4016.105710,0.750034
4016.871370,0.765660
4017.699533,0.828163
4018.527696,0.828163
4019.340233,0.812537
4020.184022,0.843789
4021.043436,0.859414
4021.871599,0.828163
4022.684136,0.812537
4023.481048,0.796911
4024.231082,0.750034
4024.949865,0.718783
4025.606145,0.656280
4026.324928,0.718783
4027.106214,0.781286
4027.965628,0.859414
4028.793791,0.828163
4029.684457,0.890666
4030.590748,0.906291
4031.403285,0.812537
4032.168945,0.765660
4032.950231,0.781286
4033.747143,0.796911
4034.559680,0.812537
4035.372217,0.812537
4036.231631,0.859414
4037.153548,0.921917
4038.012963,0.859414
4038.872377,0.859414
4039.716166,0.843789
4040.544329,0.828163
4041.356866,0.812537
4042.185029,0.828163
4043.013192,0.828163
4043.794477,0.781286
4044.575763,0.781286
4045.357049,0.781286
4046.122709,0.765660
4046.888369,0.765660
4047.622778,0.734409
4048.341561,0.718783
4049.075969,0.734409
4057.060710,0.640654
4063.373499,0.796911
4064.232913,0.859414
4065.076702,0.843789
4065.873613,0.796911
4066.654899,0.781286
4067.436185,0.781286
4068.233096,0.796911
4090.265355,0.843789
4091.249775,0.984420
4120.547991,0.656280
4121.204271,0.656280
4121.891802,0.687531
4122.501205,0.609403
4123.157485,0.656280
4123.798140,0.640654
4124.454420,0.656280
4125.095074,0.640654
4125.720103,0.625029
4126.329505,0.609403
4126.923283,0.593777
4127.517060,0.593777
4128.142088,0.625029
4128.782743,0.640654
4129.454648,0.671906
4130.126554,0.671906
4130.798460,0.671906
4131.470366,0.671906
4132.157897,0.687531
4132.798552,0.640654
4133.517334,0.718783
4134.298620,0.781286
4135.158035,0.859414
4135.986197,0.828163
4136.845612,0.859414
4137.751903,0.906291
4138.689446,0.937543
4139.595738,0.906291
4140.423901,0.828163
4141.236438,0.812537
4142.095852,0.859414
4142.970892,0.875040
4143.830307,0.859414
4144.720972,0.890666
4145.596012,0.875040
4146.517930,0.921917
4147.455472,0.937543
4148.377390,0.921917
4149.205553,0.828163
4150.018090,0.812537
4150.799376,0.781286
4151.596287,0.796911
4152.455701,0.859414
4153.393244,0.937543
4154.315161,0.921917
4155.268330,0.953169
4156.065242,0.796911
4156.924656,0.859414
4157.784070,0.859414
4158.659110,0.875040
4159.502899,0.843789
4160.284185,0.781286
4161.065470,0.781286
4161.909259,0.843789
4162.815551,0.906291
4163.737468,0.921917
4164.581256,0.843789
4165.409419,0.828163
4166.253208,0.843789
4167.096997,0.843789
4167.909534,0.812537
4168.659568,0.750034
4169.425228,0.765660
4170.175262,0.750034
4170.940922,0.765660
4171.690957,0.750034
4172.456617,0.765660
4173.269154,0.812537
4174.097317,0.828163
4174.925480,0.828163
4175.644263,0.718783
4176.331794,0.687531
4177.003700,0.671906
4177.659980,0.656280
4178.316260,0.656280
4178.941289,0.625029
4179.597569,0.656280
4180.269475,0.671906
4181.019509,0.750034
4181.785169,0.765660
4182.503952,0.718783
4183.222735,0.718783
4183.972769,0.750034
4184.722803,0.750034
4185.457212,0.734409
4186.160369,0.703157
4186.863526,0.703157
4187.597935,0.734409
4188.347969,0.750034
4189.098004,0.750034
4189.816787,0.718783
4190.551195,0.734409
4191.316855,0.765660
4192.129392,0.812537
4192.957555,0.828163
4193.785718,0.828163
4194.598255,0.812537
4195.395167,0.796911
4196.207704,0.812537
4196.988990,0.781286
4197.770276,0.781286
4198.551561,0.781286
4199.223467,0.671906
4199.942250,0.718783
4200.707910,0.765660
4201.504822,0.796911
4202.317359,0.812537
4203.098644,0.781286
4203.895556,0.796911
4204.676842,0.781286
4205.348747,0.671906
4206.051905,0.703157
4206.739436,0.687531
4207.395716,0.656280
4208.067622,0.671906
4208.723902,0.656280
4209.380182,0.656280
4210.067713,0.687531
4210.755245,0.687531
4211.505279,0.750034
4212.255314,0.750034
4213.020974,0.765660
4213.771008,0.750034
4214.521042,0.750034
4215.239825,0.718783
4215.896105,0.656280
4216.583637,0.687531
4217.302420,0.718783
4218.068080,0.765660
4218.880617,0.812537
4219.646277,0.765660
4220.427563,0.781286
4221.286977,0.859414
4222.099514,0.812537
4222.912051,0.812537
4223.787091,0.875040
4224.693383,0.906291
4225.552797,0.859414
4226.412212,0.859414
4227.256000,0.843789
4228.115415,0.859414
4228.959203,0.843789
4229.740489,0.781286
4230.490523,0.750034
4231.287435,0.796911
4232.099972,0.812537
4232.865632,0.765660
4233.568789,0.703157
4234.287572,0.718783
4235.053232,0.765660
4235.818892,0.765660
4236.600178,0.781286
4237.365838,0.765660
4238.131498,0.765660
4238.881532,0.750034
4239.600315,0.718783
4240.334724,0.734409
4241.069133,0.734409
4241.803541,0.734409
4242.553576,0.750034
4243.319236,0.765660
4244.147398,0.828163
4244.991187,0.843789
4245.913104,0.921917
4246.788144,0.875040
4247.631933,0.843789
4248.460096,0.828163
4249.241382,0.781286
4250.038293,0.796911
4250.772702,0.734409
4251.538362,0.765660
4252.304022,0.765660
4253.100933,0.796911
4253.882219,0.781286
4254.694756,0.812537
4255.538545,0.843789
4256.335456,0.796911
4257.132368,0.796911
4257.898028,0.765660
4258.679314,0.781286
4259.444974,0.765660
4260.241885,0.796911
4261.070048,0.828163
4261.851334,0.781286
4262.663871,0.812537
4263.476408,0.812537
4264.257694,0.781286
4265.054605,0.796911
4265.851517,0.796911
4266.679680,0.828163
4267.492217,0.812537
4275.758220,0.640654
4276.398875,0.640654
4277.023903,0.625029
4277.680183,0.656280
4278.305212,0.625029
4278.961492,0.656280
4279.586521,0.625029
4280.258426,0.671906
4280.852204,0.593777
4281.399104,0.546900
4281.992881,0.593777
4282.586658,0.593777
4283.242938,0.656280
4283.946095,0.703157
4284.680504,0.734409
4285.430538,0.750034
4286.133695,0.703157
4300.728113,0.718783
4301.509399,0.781286
4302.337562,0.828163
4303.165725,0.828163
4303.993888,0.828163
4304.790799,0.796911
4305.650214,0.859414
4306.415874,0.765660
4307.197160,0.781286
4307.994071,0.796911
4308.775357,0.781286
4309.681648,0.906291
4310.447308,0.765660
4311.244220,0.796911
4312.025506,0.781286
4312.838043,0.812537
4313.853714,1.015671
4314.838134,0.984420
4315.775677,0.937543
4362.074672,0.734409
4372.606404,0.656280
4373.262684,0.656280
4373.934589,0.671906
4374.668998,0.734409
4375.419032,0.750034
4376.215944,0.796911
4377.028481,0.812537
4377.856644,0.828163
4378.637930,0.781286
4379.434841,0.796911
4380.184875,0.750034
4380.919284,0.734409
4381.763073,0.843789
4382.684990,0.921917
4383.606907,0.921917
4384.528824,0.921917
4385.419490,0.890666
4386.216402,0.796911
4387.013313,0.796911
4387.825850,0.812537
4388.638387,0.812537
4389.482176,0.843789
4390.279088,0.796911
4391.060373,0.781286
4391.826033,0.765660
4392.560442,0.734409
4393.263599,0.703157
4393.966756,0.703157
4394.748042,0.781286
4395.654334,0.906291
4396.544999,0.890666
4397.404414,0.859414
4404.936008,0.750034
4405.701669,0.765660
4406.514206,0.812537
4407.420497,0.906291
4408.342414,0.921917
4419.358544,0.812537
4420.124204,0.765660
4420.858612,0.734409
4435.140516,0.781286
4446.797300,0.921917
4447.687965,0.890666
4448.516128,0.828163
4449.250537,0.734409
4449.953694,0.703157
4450.656851,0.703157
4451.375634,0.718783
4452.203797,0.828163
4453.016334,0.812537
4453.938251,0.921917
4454.797666,0.859414
4455.625829,0.828163
4456.516495,0.890666
4457.235277,0.718783
4458.000937,0.765660
4458.688469,0.687531
4469.454587,0.656280
4470.126493,0.671906
4470.814024,0.687531
4471.532807,0.718783
4472.251590,0.718783
4472.970373,0.718783
4473.673530,0.703157
4477.798719,0.671906
4478.470624,0.671906
4479.142530,0.671906
4479.814436,0.671906
4480.517593,0.703157
4481.205125,0.687531
4481.861405,0.656280
4482.502059,0.640654
4483.283345,0.781286
4488.127316,0.921917
4489.033608,0.906291
4489.955525,0.921917
4490.877442,0.921917
4491.752482,0.875040
4492.658774,0.906291
4493.471311,0.812537
4494.330725,0.859414
4495.143263,0.812537
4495.862046,0.718783
4496.518326,0.656280
4497.221483,0.703157
4497.971517,0.750034
4502.674857,0.921917
4503.565523,0.890666
4504.440563,0.875040
4505.299978,0.859414
4506.128140,0.828163
4506.925052,0.796911
4507.643835,0.718783
4508.315741,0.671906
4509.003272,0.687531
4509.800184,0.796911
4510.722101,0.921917
4511.628392,0.906291
4512.550309,0.921917
4513.440975,0.890666
4514.300390,0.859414
4515.128552,0.828163
4515.941090,0.812537
4516.722375,0.781286
4517.488035,0.765660
4518.253695,0.765660
4519.003730,0.750034
4519.706887,0.703157
4520.441296,0.734409
4521.160079,0.718783
4521.863236,0.703157
4522.675773,0.812537
4523.535187,0.859414
4524.332099,0.796911
4525.191513,0.859414
4526.097805,0.906291
4526.910342,0.812537
4527.754130,0.843789
4528.676048,0.921917
4529.551088,0.875040
4530.332373,0.781286
4531.035531,0.703157
4531.754313,0.718783
4532.473096,0.718783
4533.207505,0.734409
4533.957539,0.750034
4534.691948,0.734409
4535.457608,0.765660
4536.192017,0.734409
4536.863922,0.671906
4537.488951,0.625029
4538.145231,0.656280
4538.754634,0.609403
4539.395288,0.640654
4540.082820,0.687531
4540.770351,0.687531
4541.442257,0.671906
4542.161040,0.718783
4542.926700,0.765660
4543.723611,0.796911
4544.442394,0.718783
4545.176803,0.734409
4545.895586,0.718783
4546.536240,0.640654
4547.192520,0.656280
4547.895677,0.703157
4548.661337,0.765660
4549.520752,0.859414
4550.458295,0.937543
4551.395838,0.937543
4552.255252,0.859414
4553.052163,0.796911
4553.880326,0.828163
4554.770992,0.890666
4555.661658,0.890666
4556.583575,0.921917
4557.474241,0.890666
4558.302404,0.828163
4559.052438,0.750034
4559.818098,0.765660
4560.599384,0.781286
4561.490050,0.890666
4562.458844,0.968794
4563.380761,0.921917
4564.287053,0.906291
4565.162093,0.875040
4565.927753,0.765660
4566.662161,0.734409
4567.396570,0.734409
4568.209107,0.812537
4569.084147,0.875040
4569.974813,0.890666
4570.865479,0.890666
4571.740519,0.875040
4578.850219,0.921917
4579.740885,0.890666
4580.678428,0.937543
4581.584719,0.906291
4582.381631,0.796911
4583.100414,0.718783
4583.803571,0.703157
4584.506728,0.703157
4585.256763,0.750034
4586.116177,0.859414
4586.991217,0.875040
4587.850631,0.859414
4588.694420,0.843789
4589.506957,0.812537
4590.288243,0.781286
4591.038277,0.750034
4591.710183,0.671906
4592.382089,0.671906
4593.038369,0.656280
4593.757152,0.718783
4594.632192,0.875040
4595.585360,0.953169
4596.522903,0.937543
4597.397943,0.875040
4598.288609,0.890666
4599.132398,0.843789
4599.944935,0.812537
4600.741846,0.796911
4601.507506,0.765660
4602.241915,0.734409
4602.945072,0.703157
4603.616978,0.671906
4604.304509,0.687531
4604.992041,0.687531
4605.742075,0.750034
4606.554612,0.812537
4607.367150,0.812537
4608.101558,0.734409
4608.835967,0.734409
4609.632878,0.796911
4610.461041,0.828163
4611.273578,0.812537
4612.148618,0.875040
4612.992407,0.843789
4613.789319,0.796911
4614.570604,0.781286
4615.367516,0.796911
4616.070673,0.703157
4616.789456,0.718783
4617.461362,0.671906
4618.211396,0.750034
4618.930179,0.718783
4619.648962,0.718783
4620.336493,0.687531
4621.024025,0.687531
4621.680305,0.656280
4622.352211,0.671906
4623.055368,0.703157
4623.805402,0.750034
4624.617939,0.812537
4625.399225,0.781286
4626.227388,0.828163
4627.086802,0.859414
4627.930591,0.843789
4628.774379,0.843789
4629.555665,0.781286
4630.336951,0.781286
4631.165114,0.828163
4632.071405,0.906291
4633.008948,0.937543
4633.930866,0.921917
4634.790280,0.859414
4635.665320,0.875040
4636.462231,0.796911
4637.259143,0.796911
4637.993551,0.734409
4638.696709,0.703157
4639.415492,0.718783
4640.181152,0.765660
4668.307439,1.046923
4669.338736,1.031297
4684.683189,0.703157
4685.448849,0.765660
4686.261386,0.812537
4687.120800,0.859414
4723.778728,0.843789
4724.638143,0.859414
4725.466305,0.828163
4726.341346,0.875040
4727.341391,1.000046
4732.154112,0.828163
4732.997900,0.843789
4733.841689,0.843789
4734.701103,0.859414
4735.498015,0.796911
4736.216798,0.718783
4736.966832,0.750034
4737.748118,0.781286
4750.701836,0.593777
4751.279987,0.578151
4751.905016,0.625029
4752.498793,0.593777
4753.061319,0.562526
4753.655096,0.593777
4754.217622,0.562526
4754.873902,0.656280
4755.358299,0.484397
4755.889573,0.531274
4756.514602,0.625029
4757.045876,0.531274
4757.655279,0.609403
4758.249056,0.593777
4758.874085,0.625029
4759.530365,0.656280
4760.233522,0.703157
4761.030433,0.796911
4761.796093,0.765660
4762.608631,0.812537
4763.452419,0.843789
4764.249331,0.796911
4765.061868,0.812537
4765.811902,0.750034
4766.561937,0.750034
4767.280720,0.718783
4768.062005,0.781286
4768.890168,0.828163
4769.671454,0.781286
4770.452740,0.781286
4771.249651,0.796911
4772.015311,0.765660
4783.750223,0.609403
4784.359626,0.609403
4784.984655,0.625029
4785.625309,0.640654
4786.265964,0.640654
4786.953495,0.687531
4801.657293,0.890666
4802.594836,0.937543
4803.532379,0.937543
4804.485548,0.953169
4805.423090,0.937543
4806.298131,0.875040
4807.157545,0.859414
4808.032585,0.875040
4808.813871,0.781286
4809.595156,0.781286
4810.407694,0.812537
4811.313985,0.906291
4812.173399,0.859414
4813.048440,0.875040
4813.954731,0.906291
4814.782894,0.828163
4815.579805,0.796911
4829.908586,0.765660
4830.580492,0.671906
4831.424281,0.843789
4832.127438,0.703157
4843.987356,0.781286
4844.737390,0.750034
4845.503050,0.765660
4846.253084,0.750034
4847.018744,0.765660
4847.831282,0.812537
4848.596942,0.765660
4849.425105,0.828163
4850.222016,0.796911
4851.050179,0.828163
4851.893968,0.843789
4852.722131,0.828163
4853.565919,0.843789
4854.409708,0.843789
4855.253496,0.843789
4856.081659,0.828163
4856.878571,0.796911
4868.660360,0.671906
4869.394769,0.734409
4870.097926,0.703157
4870.863586,0.765660
4871.551117,0.687531
4872.254275,0.703157
4873.035560,0.781286
4873.848098,0.812537
4874.770015,0.921917
4875.535675,0.765660
4876.348212,0.812537
4877.113872,0.765660
4877.863906,0.750034
4878.598315,0.734409
4879.379601,0.781286
4880.301518,0.921917
4881.223435,0.921917
4882.364112,1.140677
4887.504973,0.843789
4888.301884,0.796911
4889.067544,0.765660
4889.833204,0.765660
4890.723870,0.890666
4891.614536,0.890666
4892.380196,0.765660
4893.145856,0.765660
4893.880265,0.734409
4894.677176,0.796911
4895.520965,0.843789
4896.380379,0.859414
4897.255419,0.875040
4898.161711,0.906291
4903.646337,0.890666
4904.443248,0.796911
4905.302662,0.859414
4906.115200,0.812537
4906.880860,0.765660
4907.630894,0.750034
4908.474683,0.843789
4909.255968,0.781286
4910.084131,0.828163
4910.787288,0.703157
4911.584200,0.796911
4912.302983,0.718783
4913.006140,0.703157
4913.756174,0.750034
4914.631214,0.875040
4915.490629,0.859414
4916.303166,0.812537
4917.162580,0.859414
4929.397515,0.765660
4930.116298,0.718783
5099.795940,0.750034
5100.467846,0.671906
5101.092875,0.625029
5101.921037,0.828163
5107.593172,0.859414
5108.483838,0.890666
5112.296512,0.765660
5113.234055,0.937543
5114.280978,1.046923
5115.343527,1.062549
5116.390450,1.046923
5117.609256,1.218806
5121.828199,0.890666
5131.688025,0.828163
5132.547439,0.859414
5133.375602,0.828163
5134.156888,0.781286
5134.953799,0.796911
5135.735085,0.781286
5136.516371,0.781286
5137.313282,0.796911
5138.172697,0.859414
5139.047737,0.875040
5139.922777,0.875040
5140.782191,0.859414
5141.688483,0.906291
5142.594774,0.906291
5143.469814,0.875040
5144.344854,0.875040
5145.219894,0.875040
5146.063683,0.843789
5146.923097,0.859414
5147.798137,0.875040
5148.673177,0.875040
5149.532592,0.859414
5150.376380,0.843789
5151.188918,0.812537
5152.032706,0.843789
5152.923372,0.890666
5153.782786,0.859414
5154.642201,0.859414
5155.501615,0.859414
5156.361029,0.859414
5157.157941,0.796911
5157.986104,0.828163
5158.798641,0.812537
5159.626804,0.828163
5160.501844,0.875040
5161.392510,0.890666
5162.267550,0.875040
5163.126964,0.859414
5163.923876,0.796911
5164.752038,0.828163
5171.111705,0.781286
5171.892990,0.781286
5183.502897,0.765660
5184.206054,0.703157
5184.971714,0.765660
5185.784251,0.812537
5186.612414,0.828163
5187.456203,0.843789
5188.221863,0.765660
5188.987523,0.765660
5189.737557,0.750034
5190.471966,0.734409
5191.409509,0.937543
5195.019049,0.765660
5195.831586,0.812537
5196.659749,0.828163
5197.503538,0.843789
5198.316075,0.812537
5199.112986,0.796911
5199.941149,0.828163
5200.753686,0.812537
5201.534972,0.781286
5202.363135,0.828163
5203.206924,0.843789
5204.035087,0.828163
5204.863250,0.828163
5205.644535,0.781286
5206.441447,0.796911
5207.253984,0.812537
5208.050895,0.796911
5208.847807,0.796911
5209.597841,0.750034
5210.504133,0.906291
5211.394799,0.890666
5212.269839,0.875040
5213.129253,0.859414
5213.973042,0.843789
5214.785579,0.812537
5215.582490,0.796911
5216.363776,0.781286
5217.145062,0.781286
5217.895096,0.750034
5218.613879,0.718783
5219.332662,0.718783
5220.051445,0.718783
5220.801479,0.750034
5221.567139,0.765660
5222.348425,0.781286
5223.160962,0.812537
5223.942248,0.781286
5224.707908,0.765660
5225.411065,0.703157
5226.129848,0.718783
5226.848631,0.718783
5227.598665,0.750034
5228.364325,0.765660
5229.176862,0.812537
5229.989400,0.812537
5230.786311,0.796911
5231.536345,0.750034
5232.255128,0.718783
5233.005163,0.750034
5233.770823,0.765660
5234.583360,0.812537
5235.458400,0.875040
5241.677435,0.828163
5242.568100,0.890666
5243.427515,0.859414
5244.255678,0.828163
5245.068215,0.812537
5245.865126,0.796911
5246.615161,0.750034
5247.427698,0.812537
5248.318364,0.890666
5249.193404,0.875040
5250.021567,0.828163
5250.865355,0.843789
5251.662267,0.796911
5252.412301,0.750034
5258.506330,0.687531
5259.271990,0.765660
5260.068902,0.796911
5260.881439,0.812537
5261.693976,0.812537
5262.506513,0.812537
5263.334676,0.828163
5267.303608,0.781286
5272.663228,0.937543
5273.616397,0.953169
5274.507062,0.890666
5275.382102,0.875040
5276.257143,0.875040
5277.163434,0.906291
5278.022848,0.859414
5278.882263,0.859414
5279.757303,0.875040
5280.663594,0.906291
5281.554260,0.890666
5282.382423,0.828163
5283.210586,0.828163
5283.976246,0.765660
5284.710654,0.734409
5285.429437,0.718783
5286.210723,0.781286
5286.992009,0.781286
5287.867049,0.875040
5288.788966,0.921917
5289.679632,0.890666
5290.523421,0.843789
5291.367209,0.843789
5292.164121,0.796911
5292.914155,0.750034
5293.695441,0.781286
5294.476727,0.781286
5295.289264,0.812537
5296.086175,0.796911
5296.961215,0.875040
5297.898758,0.937543
5307.039802,0.750034
5307.789836,0.750034
5308.492993,0.703157
5309.227402,0.734409
5309.977436,0.750034
5310.711845,0.734409
5311.430628,0.718783
5312.165036,0.734409
5312.930696,0.765660
5313.680731,0.750034
5314.399513,0.718783
5315.118296,0.718783
5315.837079,0.718783
5316.555862,0.718783
5317.274645,0.718783
5318.040305,0.765660
5318.868468,0.828163
5319.727882,0.859414
5320.602922,0.875040
5321.493588,0.890666
5322.337377,0.843789
5323.165540,0.828163
5323.978077,0.812537
5324.790614,0.812537
5325.587526,0.796911
5326.384437,0.796911
5327.243851,0.859414
5328.118891,0.875040
5328.962680,0.843789
5329.853346,0.890666
5330.744012,0.890666
5331.556549,0.812537
5332.400337,0.843789
5333.228500,0.828163
5334.041038,0.812537
5334.869200,0.828163
5335.712989,0.843789
5336.588029,0.875040
5337.416192,0.828163
5338.275606,0.859414
5339.135021,0.859414
5339.947558,0.812537
5340.775721,0.828163
5380.840055,0.687531
5381.605715,0.765660
5382.355749,0.750034
5383.105783,0.750034
5383.887069,0.781286
5384.715232,0.828163
5385.496518,0.781286
5386.309055,0.812537
5391.090524,0.812537
5391.856184,0.765660
5392.668721,0.812537
5393.512510,0.843789
5394.340673,0.828163
5395.184461,0.843789
5396.059501,0.875040
5419.435571,0.843789
5420.279360,0.843789
5421.123149,0.843789
5421.951312,0.828163
5436.951998,0.625029
5437.592653,0.640654
5438.264558,0.671906
5438.967716,0.703157
5439.702124,0.734409
5440.436533,0.734409
5441.139690,0.703157
5506.111414,0.687531
5514.018026,0.781286
5514.721183,0.703157
5515.439966,0.718783
5533.347036,0.750034
5534.237701,0.890666
5535.206496,0.968794
5536.175290,0.968794
5537.097207,0.921917
5537.972247,0.875040
5538.784785,0.812537
5539.566070,0.781286
5540.362982,0.796911
5541.175519,0.812537
5541.894302,0.718783
5542.566208,0.671906
5543.284991,0.718783
5554.832394,0.593777
5555.426171,0.593777
5556.051200,0.625029
5556.644977,0.593777
5557.254380,0.609403
5557.863783,0.609403
5558.473186,0.609403
5559.051337,0.578151
5559.645114,0.593777
5560.223266,0.578151
5560.817043,0.593777
5561.426446,0.609403
5562.004597,0.578151
5562.614000,0.609403
5563.254655,0.640654
5563.942186,0.687531
5564.707846,0.765660
5565.504758,0.796911
5566.286043,0.781286
5567.036078,0.750034
5567.786112,0.750034
5568.504895,0.718783
5569.254929,0.750034
5570.098718,0.843789
5570.958132,0.859414
5571.817547,0.859414
5572.692587,0.875040
5573.645755,0.953169
5574.505170,0.859414
5575.380210,0.875040
5576.239624,0.859414
5577.036536,0.796911
5577.864698,0.828163
5578.755364,0.890666
5579.614779,0.859414
5580.442941,0.828163
5581.364859,0.921917
5582.255524,0.890666
5583.114939,0.859414
5584.021230,0.906291
5584.911896,0.890666
5585.724433,0.812537
5586.536970,0.812537
5587.443262,0.906291
5588.271425,0.828163
5589.130839,0.859414
5590.021505,0.890666
5590.896545,0.875040
5591.787211,0.890666
5592.662251,0.875040
5593.537291,0.875040
5594.412331,0.875040
5595.302997,0.890666
5596.193662,0.890666
5597.099954,0.906291
5597.928117,0.828163
5598.834408,0.906291
5599.709448,0.875040
5600.568863,0.859414
5601.443903,0.875040
5602.350194,0.906291
5603.209609,0.859414
5604.053397,0.843789
5604.944063,0.890666
5605.787852,0.843789
5606.631640,0.843789
5607.553557,0.921917
5608.428597,0.875040
5609.334889,0.906291
5610.256806,0.921917
5611.116220,0.859414
5611.928758,0.812537
5612.756921,0.828163
5613.647586,0.890666
5614.569504,0.921917
5615.428918,0.859414
5616.335209,0.906291
5617.257127,0.921917
5618.100915,0.843789
5618.975955,0.875040
5619.866621,0.890666
5620.726035,0.859414
5621.554198,0.828163
5622.397987,0.843789
5623.241776,0.843789
5624.038687,0.796911
5624.866850,0.828163
5625.741890,0.875040
5626.601304,0.859414
5627.507596,0.906291
5628.413887,0.906291
5629.304553,0.890666
5630.179593,0.875040
5631.039007,0.859414
5631.867170,0.828163
5632.695333,0.828163
5633.492245,0.796911
5634.320408,0.828163
5635.101693,0.781286
5635.898605,0.796911
5636.711142,0.812537
5637.476802,0.765660
5638.242462,0.765660
5639.023748,0.781286
5639.789408,0.765660
5640.523817,0.734409
5641.273851,0.750034
5642.055137,0.781286
5642.836422,0.781286
5643.570831,0.734409
5644.305240,0.734409
5645.070900,0.765660
5645.852185,0.781286
5646.586594,0.734409
5647.321003,0.734409
5648.071037,0.750034
5648.836697,0.765660
5649.571106,0.734409
5650.305514,0.734409
5651.024297,0.718783
5651.774332,0.750034
5652.493114,0.718783
5653.227523,0.734409
5653.977557,0.750034
5654.711966,0.734409
5655.446375,0.734409
5656.165158,0.718783
5656.899566,0.734409
5657.665226,0.765660
5658.430886,0.765660
5659.196546,0.765660
5659.962206,0.765660
5660.743492,0.781286
5661.477901,0.734409
5662.181058,0.703157
5662.868589,0.687531
5663.556121,0.687531
5664.212401,0.656280
5664.868681,0.656280
5665.556212,0.687531
5666.259370,0.703157
5666.993778,0.734409
5667.712561,0.718783
5668.462595,0.750034
5669.243881,0.781286
5670.025167,0.781286
5670.822078,0.796911
5671.650241,0.828163
5686.338414,0.625029
5686.979068,0.640654
5687.635348,0.656280
5688.338505,0.703157
5688.979160,0.640654
5689.713568,0.734409
5690.510480,0.796911
5691.323017,0.812537
5692.151180,0.828163
5692.994968,0.843789
5693.823131,0.828163
5694.651294,0.828163
5695.463831,0.812537
5696.276369,0.812537
5712.198972,0.937543
5713.120890,0.921917
5714.042807,0.921917
5714.933473,0.890666
5715.808513,0.875040
5716.714804,0.906291
5717.449213,0.734409
5718.261750,0.812537
5772.311099,0.875040
5773.233016,0.921917
5774.154933,0.921917
5775.092476,0.937543
5775.998768,0.906291
5776.905059,0.906291
5777.780099,0.875040
5778.577011,0.796911
5779.405174,0.828163
5780.264588,0.859414
5781.170880,0.906291
5782.092797,0.921917
5782.999088,0.906291
5783.796000,0.796911
5784.561660,0.765660
5785.389823,0.828163
5786.233611,0.843789
5787.155529,0.921917
5788.108697,0.953169
5788.999363,0.890666
5789.890029,0.890666
5790.796320,0.906291
5791.702612,0.906291
5792.562026,0.859414
5793.405815,0.843789
5794.249603,0.843789
5795.109018,0.859414
5795.999683,0.890666
5796.905975,0.906291
5797.765389,0.859414
5798.640429,0.875040
5799.515469,0.875040
5800.406135,0.890666
5801.218672,0.812537
5802.093712,0.875040
5803.000004,0.906291
5803.875044,0.875040
5804.703207,0.828163
5805.500118,0.796911
5806.281404,0.781286
5807.078315,0.796911
5819.938279,0.703157
5820.672688,0.734409
5821.391471,0.718783
5822.079002,0.687531
5822.813411,0.734409
5823.547819,0.734409
5824.266602,0.718783
5834.345189,0.828163
5835.142100,0.796911
5835.923386,0.781286
5836.673420,0.750034
5837.485957,0.812537
5838.423500,0.937543
5839.345417,0.921917
5850.970950,0.921917
5852.033498,1.062549
5852.892913,0.859414
5853.955461,1.062549
5857.955644,0.921917
5858.736930,0.781286
5859.611970,0.875040
5865.034093,1.000046
5865.768502,0.734409
5866.674793,0.906291
5867.565459,0.890666
5868.424874,0.859414
5869.315539,0.890666
5870.221831,0.906291
5871.128122,0.906291
5872.034414,0.906291
5872.878202,0.843789
5873.753242,0.875040
5874.628283,0.875040
5875.487697,0.859414
5876.331486,0.843789
5877.222151,0.890666
5878.222197,1.000046
5878.972231,0.750034
5879.862897,0.890666
5880.769189,0.906291
5881.644229,0.875040
5882.534894,0.890666
5883.425560,0.890666
5884.284975,0.859414
5885.128763,0.843789
5886.003803,0.875040
5886.847592,0.843789
5887.707006,0.859414
5888.597672,0.890666
5889.394583,0.796911
5890.175869,0.781286
5891.019658,0.843789
5891.957201,0.937543
5892.847867,0.890666
5893.754158,0.906291
5894.644824,0.890666
5895.535490,0.890666
5896.426155,0.890666
5897.301195,0.875040
5898.160610,0.859414
5898.988773,0.828163
5899.879438,0.890666
5900.801356,0.921917
5901.692021,0.890666
5902.598313,0.906291
5903.551481,0.953169
5904.426522,0.875040
5905.332813,0.906291
5906.207853,0.875040
5907.051642,0.843789
5907.832927,0.781286
5908.645465,0.812537
5909.520505,0.875040
5910.395545,0.875040
5911.254959,0.859414
5912.129999,0.875040
5913.036291,0.906291
5913.895705,0.859414
5914.786371,0.890666
5915.630159,0.843789
5916.520825,0.890666
5917.223982,0.703157
5918.067771,0.843789
5918.786554,0.718783
5919.583465,0.796911
5925.083717,0.875040
5930.693349,0.812537
5931.505886,0.812537
5932.334049,0.828163
5933.177838,0.843789
5934.037252,0.859414
5934.927918,0.890666
5935.802958,0.875040
5936.724875,0.921917
5937.693669,0.968794
5938.584335,0.890666
5939.475001,0.890666
5940.396918,0.921917
5941.334461,0.937543
5942.272004,0.937543
5943.240798,0.968794
5944.131464,0.890666
5945.069007,0.937543
5946.053427,0.984420
5947.037847,0.984420
5947.975390,0.937543
5948.928559,0.953169
5949.881727,0.953169
5956.194516,0.812537
5972.679646,0.750034
5973.554686,0.875040
5974.382849,0.828163
5975.211012,0.828163
5983.648898,0.703157
5984.398932,0.750034
5985.164592,0.765660
5985.945878,0.781286
5986.711538,0.765660
5987.492824,0.781286
5988.258484,0.765660
5989.024144,0.765660
5989.742927,0.718783
5990.492961,0.750034
5997.149516,0.890666
5998.055807,0.906291
5998.883970,0.828163
5999.743385,0.859414
6000.587173,0.843789
6001.415336,0.828163
6002.243499,0.828163
6003.087288,0.843789
6003.931076,0.843789
6004.790491,0.859414
6005.649905,0.859414
6006.478068,0.828163
6007.274979,0.796911
6008.087517,0.812537
6008.900054,0.812537
6009.618837,0.718783
6010.447000,0.828163
6011.290788,0.843789
6012.087700,0.796911
6013.009617,0.921917
6013.947160,0.937543
6014.806574,0.859414
6015.634737,0.828163
6016.416023,0.781286
6017.228560,0.812537
6017.916091,0.687531
6018.681751,0.765660
6019.400534,0.718783
6026.869626,0.781286
6027.604035,0.734409
6028.322818,0.718783
6029.057226,0.734409
6029.807261,0.750034
6043.229750,0.812537
6044.057913,0.828163
6050.011311,0.828163
6050.964479,0.953169
6051.761391,0.796911
6052.605179,0.843789
6053.448968,0.843789
6054.230254,0.781286
6055.042791,0.812537
6055.839702,0.796911
6056.574111,0.734409
6057.449151,0.875040
6058.261688,0.812537
6059.105477,0.843789
6059.839885,0.734409
6060.652423,0.812537
6061.480586,0.828163
6062.308748,0.828163
6063.168163,0.859414
6063.996326,0.828163
6064.808863,0.812537
6065.574523,0.765660
6066.371434,0.796911
6079.090767,0.890666
6080.059561,0.968794
6087.934922,0.859414
6088.856839,0.921917
6089.700627,0.843789
6090.560042,0.859414
6091.419456,0.859414
6092.372625,0.953169
6098.279145,0.796911
6099.169811,0.890666
6099.951097,0.781286
6100.841762,0.890666
6101.513668,0.671906
6102.388708,0.875040
6103.216871,0.828163
6104.060660,0.843789
6104.935700,0.875040
6105.732611,0.796911
6106.513897,0.781286
6107.279557,0.765660
6108.045217,0.765660
6108.842129,0.796911
6109.623414,0.781286
6110.420326,0.796911
6111.279740,0.859414
6112.154780,0.875040
6112.920440,0.765660
6113.732977,0.812537
6114.561140,0.828163
6115.326800,0.765660
6116.123712,0.796911
6116.920623,0.796911
6117.686283,0.765660
6118.420692,0.734409
6119.170726,0.750034
6119.905135,0.734409
6120.639544,0.734409
6121.327075,0.687531
6122.030232,0.703157
6122.764641,0.734409
6123.608429,0.843789
6124.436592,0.828163
6125.311632,0.875040
6126.202298,0.890666
6127.046087,0.843789
6127.764870,0.718783
6128.499278,0.734409
6129.233687,0.734409
6129.983721,0.750034
6130.718130,0.734409
6131.390036,0.671906
6132.124444,0.734409
6132.921356,0.796911
6133.749519,0.828163
6134.577682,0.828163
6135.437096,0.859414
6136.234007,0.796911
6137.030919,0.796911
6143.687474,0.734409
6152.359746,0.750034
6153.109780,0.750034
6153.797311,0.687531
6154.562971,0.765660
6159.063177,0.765660
6159.906966,0.843789
6160.703877,0.796911
6161.469537,0.765660
6162.188320,0.718783
6162.860226,0.671906
6163.532132,0.671906
6164.204038,0.671906
6164.891569,0.687531
6165.547849,0.656280
6166.282258,0.734409
6167.016666,0.734409
6167.829204,0.812537
6168.719869,0.890666
6169.594909,0.875040
6170.469949,0.875040
6171.407492,0.937543
6172.345035,0.937543
6173.345081,1.000046
6174.360753,1.015671
6175.392050,1.031297
6176.267090,0.875040
6177.173381,0.906291
6178.079673,0.906291
6179.032841,0.953169
6179.892256,0.859414
6180.720419,0.828163
6181.611084,0.890666
6182.517376,0.906291
6183.501796,0.984420
6184.408087,0.906291
6185.283128,0.875040
6186.189419,0.906291
6187.095711,0.906291
6187.970751,0.875040
6188.752036,0.781286
6189.627076,0.875040
6190.502116,0.875040
6191.392782,0.890666
6192.267822,0.875040
6193.095985,0.828163
6199.783791,0.937543
6200.721334,0.937543
6223.191113,0.781286
6223.988024,0.796911
6224.863064,0.875040
6225.784981,0.921917
6226.691273,0.906291
6227.581939,0.890666
6228.503856,0.921917
6260.692829,0.812537
6261.520992,0.828163
6262.286652,0.765660
6263.036687,0.750034
6263.802347,0.765660
6264.552381,0.750034
6265.271164,0.718783
6266.005573,0.734409
6266.739981,0.734409
6267.505641,0.765660
6268.240050,0.734409
6268.927581,0.687531
6269.677616,0.750034
6270.427650,0.750034
6271.208936,0.781286
6272.005847,0.796911
6272.802759,0.796911
6273.568419,0.765660
6274.334079,0.765660
6275.037236,0.703157
6275.756019,0.718783
6276.490427,0.734409
6277.256088,0.765660
6278.037373,0.781286
6278.849910,0.812537
6279.646822,0.796911
6280.412482,0.765660
6281.209394,0.796911
6282.021931,0.812537
6282.865719,0.843789
6283.756385,0.890666
6284.600174,0.843789
6285.397085,0.796911
6286.115868,0.718783
6286.834651,0.718783
6287.553434,0.718783
6288.272217,0.718783
6289.022251,0.750034
6292.522411,0.687531
6293.256820,0.734409
6294.053731,0.796911
6294.897520,0.843789
6295.756934,0.859414
6296.647600,0.890666
6297.507015,0.859414
6298.257049,0.750034
6299.007083,0.750034
6299.757118,0.750034
6300.522778,0.765660
6301.257186,0.734409
6302.022846,0.765660
6302.835383,0.812537
6303.632295,0.796911
6304.382329,0.750034
6305.132364,0.750034
6305.898024,0.765660
6306.679309,0.781286
6307.460595,0.781286
6308.195004,0.734409
6308.882535,0.687531
6309.585692,0.703157
6310.304475,0.718783
6311.038884,0.734409
6311.788918,0.750034
6312.554578,0.765660
6313.320238,0.765660
6314.070273,0.750034
6314.773430,0.703157
6315.445336,0.671906
6316.132867,0.687531
6316.836024,0.703157
6317.554807,0.718783
6318.273590,0.718783
6318.992373,0.718783
6319.789284,0.796911
6320.586196,0.796911
6321.383107,0.796911
6322.164393,0.781286
6322.914428,0.750034
6323.633210,0.718783
6324.336368,0.703157
6325.008273,0.671906
6325.648928,0.640654
6326.336459,0.687531
6327.102119,0.765660
6327.899031,0.796911
6328.680316,0.781286
6329.445976,0.765660
6330.164759,0.718783
6330.914794,0.750034
6331.696079,0.781286
6332.492991,0.796911
6333.289902,0.796911
6334.071188,0.781286
6334.821223,0.750034
6335.555631,0.734409
6336.290040,0.734409
6337.008823,0.718783
6337.711980,0.703157
6341.243392,0.765660
6342.040303,0.796911
6342.868466,0.828163
6343.681003,0.812537
6344.477915,0.796911
6345.274826,0.796911
6346.009235,0.734409
6346.743643,0.734409
6347.493678,0.750034
6348.337466,0.843789
6349.228132,0.890666
6350.134423,0.906291
6351.009464,0.875040
6351.822001,0.812537
6352.572035,0.750034
6353.259567,0.687531
6353.931472,0.671906
6354.619004,0.687531
6355.322161,0.703157
6356.087821,0.765660
6356.884732,0.796911
6357.681644,0.796911
6358.478555,0.796911
6359.275467,0.796911
6360.041127,0.765660
6360.791161,0.750034
6361.509944,0.718783
6362.213101,0.703157
6362.885007,0.671906
6363.525661,0.640654
6364.213193,0.687531
6364.963227,0.750034
6375.635591,0.656280
6391.683200,0.578151
6392.230100,0.546900
6392.808252,0.578151
6393.370778,0.562526
6393.933303,0.562526
6394.480203,0.546900
6395.058355,0.578151
6395.605255,0.546900
6396.167781,0.562526
6396.714681,0.546900
6397.277206,0.562526
6397.855358,0.578151
6398.480386,0.625029
6399.167918,0.687531
6399.886701,0.718783
6400.621109,0.734409
6401.402395,0.781286
6402.183681,0.781286
6402.964967,0.781286
6403.730627,0.765660
6404.480661,0.750034
6405.230695,0.750034
6405.965104,0.734409
6406.683887,0.718783
6407.371418,0.687531
6408.090201,0.718783
6408.887113,0.796911
6409.730901,0.843789
6410.574690,0.843789
6427.137948,0.828163
6427.966111,0.828163
6428.825526,0.859414
6429.622437,0.796911
6430.356846,0.734409
6431.060003,0.703157
6431.778786,0.718783
6432.591323,0.812537
6433.388234,0.796911
6434.310152,0.921917
6435.310197,1.000046
6436.263366,0.953169
6437.247786,0.984420
6438.216580,0.968794
6439.044743,0.828163
6439.888532,0.843789
6440.747946,0.859414
6441.607361,0.859414
6442.404272,0.796911
6443.232435,0.828163
6444.091849,0.859414
6444.951264,0.859414
6445.795052,0.843789
6446.701344,0.906291
6447.560758,0.859414
6448.388921,0.828163
6449.201458,0.812537
6450.045247,0.843789
6450.920287,0.875040
6451.732824,0.812537
6452.514110,0.781286
6453.357898,0.843789
6454.217313,0.859414
6455.123604,0.906291
6456.045521,0.921917
6456.983064,0.937543
6457.904982,0.921917
6458.795647,0.890666
6459.701939,0.906291
6460.530102,0.828163
6461.389516,0.859414
6462.264556,0.875040
6463.139596,0.875040
6463.920882,0.781286
6464.764671,0.843789
6465.530331,0.765660
6466.295991,0.765660
6467.061651,0.765660
6467.889814,0.828163
6468.671099,0.781286
6469.358631,0.687531
6470.108665,0.750034
6470.858700,0.750034
6471.608734,0.750034
6472.374394,0.765660
6473.218183,0.843789
6474.061971,0.843789
6474.874508,0.812537
6475.655794,0.781286
6476.421454,0.765660
6477.202740,0.781286
6478.015277,0.812537
6478.827814,0.812537
6479.687229,0.859414
6480.577894,0.890666
6481.468560,0.890666
6482.312349,0.843789
6483.187389,0.875040
6484.031178,0.843789
6484.859340,0.828163
6485.703129,0.843789
6486.531292,0.828163
6487.343829,0.812537
6488.187618,0.843789
6489.062658,0.875040
6489.875195,0.812537
6490.656481,0.781286
6491.469018,0.812537
6492.265929,0.796911
6493.031590,0.765660
6493.750372,0.718783
6494.484781,0.734409
6495.156687,0.671906
6495.812967,0.656280
6496.516124,0.703157
6497.281784,0.765660
6498.125573,0.843789
6498.969361,0.843789
6499.828776,0.859414
6500.672564,0.843789
6501.485101,0.812537
6502.266387,0.781286
6503.047673,0.781286
6503.813333,0.765660
6504.547742,0.734409
6505.297776,0.750034
6506.079062,0.781286
6506.860348,0.781286
6517.063940,0.734409
6517.845225,0.781286
6518.626511,0.781286
6519.407797,0.781286
6520.189083,0.781286
6520.970368,0.781286
6521.736028,0.765660
6522.486063,0.750034
6523.220471,0.734409
6523.939254,0.718783
6524.673663,0.734409
6525.361194,0.687531
6526.095603,0.734409
6526.923766,0.828163
6527.767555,0.843789
6528.533215,0.765660
6529.361377,0.828163
6530.205166,0.843789
6531.033329,0.828163
6531.814615,0.781286
6532.611526,0.796911
6539.236830,0.734409
6539.955612,0.718783
6540.643144,0.687531
6626.225186,0.812537
6627.053349,0.828163
6627.912764,0.859414
6628.725301,0.812537
6629.615967,0.890666
6630.334749,0.718783
6631.006655,0.671906
6631.756690,0.750034
6632.584852,0.828163
6642.522807,0.921917
6643.554105,1.031297
6644.522899,0.968794
6645.538570,1.015671
6646.569868,1.031297
6647.538662,0.968794
6648.476205,0.937543
6649.382496,0.906291
6650.304414,0.921917
6651.226331,0.921917
6652.148248,0.921917
6653.070165,0.921917
6654.023334,0.953169
6655.226514,1.203180
6665.258223,0.859414
6666.117637,0.859414
6667.008303,0.890666
6667.914595,0.906291
6678.165064,0.734409
6678.930724,0.765660
6679.727635,0.796911
6713.760443,0.953169
6714.682360,0.921917
6715.541775,0.859414
6734.339510,1.000046
6735.323930,0.984420
6736.339602,1.015671
6737.277145,0.937543
6738.183436,0.906291
6738.917845,0.734409
6739.683505,0.765660
6740.542919,0.859414
6741.199199,0.656280
6741.933608,0.734409
6742.605514,0.671906
6749.652711,0.765660
6750.449623,0.796911
6751.340288,0.890666
6752.121574,0.781286
6752.996614,0.875040
6753.902906,0.906291
6754.684191,0.781286
6755.590483,0.906291
6756.278014,0.687531
6757.106177,0.828163
6758.012469,0.906291
6758.934386,0.921917
6759.809426,0.875040
6760.700092,0.890666
6761.715763,1.015671
6765.997209,0.875040
6772.122490,0.859414
6773.028781,0.906291
6781.497919,0.937543
6782.419836,0.921917
6792.482797,0.859414
6793.310960,0.828163
6794.092245,0.781286
6794.936034,0.843789
6809.764838,0.671906
6810.608626,0.843789
6815.624481,0.953169
6858.626449,0.640654
6859.204601,0.578151
6859.798378,0.593777
6860.360904,0.562526
6861.017184,0.656280
6861.532832,0.515649
6862.173487,0.640654
6862.767264,0.593777
6863.486047,0.718783
6864.111075,0.625029
6864.814233,0.703157
6865.361133,0.546900
6866.126793,0.765660
6887.705905,0.671906
6888.377811,0.671906
6889.002840,0.625029
