,EDA,rise_time,max_deriv,amp,decay_time,SCR_width,AUC
2018-06-30 08:10:00.250000,3.012655,4.0,0.892791168786923,2.173737,,,
2018-06-30 08:10:49.625000,2.6297499999999996,1.0,0.5646313015508326,0.29551399999999983,,,
2018-06-30 08:11:12.625000,2.6079765,1.0,0.08051953408822854,0.031379499999999894,0.75,1.75,0.054914124999999814
2018-06-30 08:11:40.875000,2.04699,0.75,0.10137887714634619,0.02113300000000029,0.25,1.0,0.02113300000000029
2018-06-30 08:12:26.375000,1.475266,1.125,0.02885060605428791,0.022413999999999934,,,
2018-06-30 08:12:38.750000,1.697483,4.0,0.15088933245226777,0.14472899999999989,,,
2018-06-30 08:12:46.375000,1.438123,1.625,0.01072223978178144,0.02113300000000007,0.625,2.0,0.04226600000000014
2018-06-30 08:14:18.250000,0.926348,4.0,0.06698563201257235,0.055073999999999956,,,
2018-06-30 08:14:28.500000,0.8392540000000001,1.375,0.04489935290482183,0.03778350000000008,0.75,1.875,0.07084406250000015
2018-06-30 08:14:46.750000,0.6060810000000001,1.125,0.029454074580274714,0.022414000000000045,,,
2018-06-30 08:15:06.500000,0.586869,1.625,0.053308930371658736,0.052512,0.75,1.875,0.09846
2018-06-30 08:15:31.375000,0.5228295000000001,4.0,0.05945406595137159,0.04995100000000008,0.375,1.5,0.07492650000000012
2018-06-30 08:15:34.500000,0.5599729999999999,1.5,0.10812869918951229,0.10886799999999991,,,
2018-06-30 08:16:12.250000,0.534357,1.0,0.05865538941160353,0.023054999999999937,1.75,2.625,0.060519374999999834
2018-06-30 08:16:59,0.8353430000000001,4.0,0.052015085229478064,0.08965600000000007,,,
2018-06-30 08:17:18.625000,0.7924359999999999,4.0,0.03782017184719866,0.08004949999999988,,,
2018-06-30 08:17:31.125000,0.8788895000000001,4.0,0.05328534371824123,0.10310350000000013,,,
2018-06-30 08:17:50.375000,1.1645750000000001,4.0,0.0929869764866762,0.12619250000000015,1.625,2.875,0.36280343750000044
2018-06-30 08:17:58,1.463098,4.0,0.03724719495719686,0.13458199999999998,,,
2018-06-30 08:18:00.250000,1.51433,1.125,0.07227794386604192,0.04546799999999984,,,
2018-06-30 08:18:02.750000,1.6641830000000002,1.875,0.11614302640787866,0.14088750000000005,,,
2018-06-30 08:18:08.125000,2.4536415,4.0,0.3460950261512661,0.7273405,,,
2018-06-30 08:18:45.875000,2.8654155,4.0,0.10066063198284425,0.3989665000000002,,,
2018-06-30 08:18:54.250000,3.193246,4.0,0.2984178178931671,0.5385200000000001,1.625,3.0,1.6155600000000003
2018-06-30 08:18:57.875000,3.0196994999999998,1.25,0.09178820843407642,0.07044399999999973,0.5,1.625,0.11447149999999956
2018-06-30 08:19:25.875000,3.2291084999999997,4.0,0.23875174416201794,0.4764545,,,
2018-06-30 08:19:28,3.367434,1.125,0.170607081174456,0.09990199999999971,0.25,1.25,0.12487749999999964
2018-06-30 08:19:35.375000,3.127926,1.875,0.0854515966908096,0.15369499999999992,,,
2018-06-30 08:19:39.500000,3.6885230000000004,1.625,0.37736025939693363,0.5445870000000004,0.875,2.125,1.1572473750000007
2018-06-30 08:19:51.500000,3.266252,1.75,0.27493204890153855,0.445716,1.75,3.0,1.337148
2018-06-30 08:19:59.500000,2.769305,1.625,0.01409617252552664,0.02113350000000036,0.125,1.75,0.03698362500000063
2018-06-30 08:20:42.125000,2.5490605,1.875,0.14736157731461397,0.4437945000000001,1.5,3.0,1.3313835000000003
2018-06-30 08:20:54.625000,2.2493555,1.75,0.05266263338609889,0.12359650000000011,1.0,2.375,0.29354168750000026
2018-06-30 08:21:00.625000,3.5950254999999998,4.0,0.2857444473636104,0.35695149999999964,0.5,2.0,0.7139029999999993
2018-06-30 08:21:06.625000,3.69941,4.0,0.22081929697905878,0.3998579999999996,0.5,2.0,0.7997159999999992
2018-06-30 08:21:17.875000,3.2002905000000004,4.0,0.1747180572582323,0.31955700000000054,,,
2018-06-30 08:21:19.875000,3.3181235,1.25,0.09993868582291832,0.0742860000000003,0.375,1.5,0.11142900000000044
2018-06-30 08:21:28.125000,3.2009315000000003,1.75,0.04677885617004307,0.09990200000000016,1.5,3.0,0.29970600000000047
2018-06-30 08:21:39.625000,4.9739845,4.0,0.7768324297564142,1.2777770000000004,1.625,3.0,3.833331000000001
2018-06-30 08:21:48,3.4848769999999996,1.125,0.047492771633525166,0.03970449999999959,,,
2018-06-30 08:21:51.250000,3.509212,1.375,0.034257163892670306,0.032660000000000355,0.625,1.75,0.05715500000000062
2018-06-30 08:21:58.250000,3.652661,4.0,0.01646939530084346,0.11655200000000043,0.375,2.25,0.262242000000001
2018-06-30 08:22:02.125000,3.511774,1.625,0.07801537957833737,0.11014799999999969,,,
2018-06-30 08:22:09.750000,4.752783999999999,4.0,0.5027301847709218,1.1961819999999994,1.375,2.875,3.439023249999998
2018-06-30 08:22:15.250000,4.274376,1.5,0.2459413445891947,0.31635500000000016,,,
2018-06-30 08:22:17.375000,4.321125,1.0,0.17880813557975372,0.02625650000000057,0.125,1.125,0.029538562500000642
2018-06-30 08:22:40.125000,4.1687104999999995,4.0,0.12917929634919645,0.4085719999999995,,,
2018-06-30 08:22:59,4.684525,1.75,0.4375600285178294,0.6752729999999998,0.75,2.125,1.4349551249999997
2018-06-30 08:23:17.375000,4.072011,1.75,0.14397488514574341,0.2145324999999998,,,
2018-06-30 08:23:23.125000,4.1424544999999995,4.0,0.06867238956339605,0.09541950000000021,0.5,2.25,0.21469387500000048
2018-06-30 08:23:27.625000,4.2461985,4.0,0.11705369893632067,0.22798050000000014,1.625,3.0,0.6839415000000004
2018-06-30 08:23:40.375000,4.038069999999999,4.0,0.044691912901040354,0.05827599999999933,0.25,1.625,0.09469849999999891
2018-06-30 08:24:01,4.097626999999999,4.0,0.15522424169600768,0.395014999999999,1.75,3.25,1.2837987499999968
2018-06-30 08:24:09,4.549138,4.0,0.24760292589477828,0.703827,1.25,2.875,2.023502625
2018-06-30 08:24:16.625000,4.4223395,1.875,0.2053321101035408,0.44510749999999977,0.75,2.25,1.0014918749999995
2018-06-30 08:24:34.375000,4.580517500000001,1.875,0.33201827994988875,0.7249605000000008,1.25,2.625,1.9030213125000022
2018-06-30 08:24:44.750000,4.7284489999999995,1.75,0.39378598102623386,0.7005929999999996,1.5,2.875,2.014204874999999
2018-06-30 08:25:00.500000,4.245591,1.375,0.054176599812812753,0.044188000000000116,0.5,1.625,0.07180550000000019
2018-06-30 08:25:18.875000,4.041271999999999,1.625,0.0847791562343474,0.12807899999999917,1.0,2.375,0.304187624999998
2018-06-30 08:25:44.125000,3.4919215,0.875,0.7396861860344526,0.17059550000000012,,,
2018-06-30 08:26:59.375000,2.3396505,1.0,0.09540738358515632,0.03522150000000002,,,
2018-06-30 08:27:18.750000,2.2551189999999997,1.0,0.10541665039396264,0.04482799999999987,,,
2018-06-30 08:27:30.750000,2.7277310000000003,4.0,0.11166493057487692,0.37527200000000027,,,
2018-06-30 08:27:52.125000,3.4310840000000002,4.0,0.05093016032843778,0.0777385000000006,0.375,1.75,0.13604237500000105
2018-06-30 08:27:59.625000,3.2953205000000003,4.0,0.04611389711214642,0.11271000000000031,,,
2018-06-30 08:28:06.875000,3.411872,4.0,0.0792317732438228,0.16009899999999977,,,
2018-06-30 08:28:08.875000,3.736553,1.5,0.20884108571024917,0.27665149999999983,0.875,2.125,0.5878844374999996
2018-06-30 08:28:47.125000,3.257537,4.0,0.03916140335198115,0.13192150000000025,1.0,2.625,0.34629393750000065
2018-06-30 08:29:03.500000,3.4771919999999996,4.0,0.16053176816152082,0.4649269999999994,1.75,3.25,1.5110127499999981
2018-06-30 08:29:19,3.8511839999999995,4.0,0.017827312071117873,0.19340000000000002,0.5,2.375,0.45932500000000004
2018-06-30 08:29:23.250000,4.981669,4.0,0.2846817322134143,1.326447,,,
2018-06-30 08:29:25.875000,4.646478,1.0,0.3078764892235277,0.08133000000000035,0.125,1.125,0.09149625000000039
2018-06-30 08:29:33.750000,5.053393,4.0,0.6309196960614578,1.0812840000000001,1.0,2.375,2.5680495000000003
2018-06-30 08:29:41.125000,5.098221000000001,1.75,0.5181454292253491,0.8321380000000005,1.125,2.375,1.9763277500000012
2018-06-30 08:29:46.125000,5.8834735,4.0,0.603313781746202,1.1041689999999997,,,
2018-06-30 08:29:48.625000,6.056380000000001,1.25,0.4647567034850226,0.28305450000000043,0.375,1.5,0.42458175000000065
2018-06-30 08:29:50.625000,6.326711,1.0,0.5293935835401271,0.1223995000000011,0.125,1.125,0.13769943750000124
2018-06-30 08:29:55.125000,5.515670500000001,1.25,0.2538916443766439,0.22221700000000055,0.5,1.625,0.3611026250000009
2018-06-30 08:30:07.250000,5.778873,1.625,0.5115160888904065,0.7364544999999998,0.875,2.125,1.5649658124999997
2018-06-30 08:30:14,6.0960849999999995,4.0,0.5564023916115381,0.870512999999999,0.75,2.0,1.741025999999998
2018-06-30 08:30:19.125000,6.5341995,1.875,0.7980293167174146,1.1600564999999996,0.875,2.125,2.465120062499999
2018-06-30 08:30:36.750000,5.182024,1.875,0.03885328767519525,0.08709349999999993,,,
2018-06-30 08:30:57.250000,5.297296,4.0,0.09285498973116546,0.2164540000000006,,,
2018-06-30 08:31:10.625000,5.209562,1.5,0.07576304925734334,0.10246399999999944,,,
2018-06-30 08:31:12.625000,5.561779,1.5,0.2120346939391382,0.2856164999999997,0.875,2.125,0.6069350624999994
2018-06-30 08:31:36.750000,4.589747,4.0,0.1005264346386312,0.04317100000000007,,,
2018-06-30 08:31:40.250000,5.702026,4.0,0.4045338447714002,0.6665640000000002,0.75,2.125,1.4164485000000004
2018-06-30 08:31:56.625000,4.909305,1.875,0.007734714364875828,0.02241499999999963,0.875,2.5,0.056037499999999074
2018-06-30 08:32:28.750000,4.434475,1.25,0.7128388884072372,0.8068989999999996,,,
2018-06-30 08:32:31.125000,5.3460545,4.0,0.46550937135913273,0.8529674999999992,1.875,3.25,2.772144374999997
2018-06-30 08:32:35.250000,4.6067730000000005,0.75,0.6964570017472731,0.057635000000000325,,,
2018-06-30 08:32:52.750000,3.267143,0.875,0.11212967658818762,0.028818000000000232,0.375,1.25,0.03602250000000029
2018-06-30 08:32:55.750000,3.3068470000000003,1.0,0.1445625746213608,0.09221700000000022,,,
2018-06-30 08:33:00.250000,3.162118,1.125,0.12375780892727839,0.044187500000000046,0.125,1.25,0.05523437500000006
2018-06-30 08:33:12.500000,1.598862,1.625,0.05488472203331085,0.16906450000000017,,,
2018-06-30 08:33:18.875000,1.829405,1.375,0.2308359978309884,0.23694700000000002,,,
2018-06-30 08:33:30.625000,1.41699,0.75,0.22931599311726814,0.029457999999999984,,,
2018-06-30 08:35:05.250000,0.762407,1.25,0.06634022504851256,0.08068999999999993,,,
2018-06-30 08:35:25.500000,0.62152,1.625,0.022934836927323676,0.03778349999999997,,,
2018-06-30 08:35:33.750000,0.941717,1.125,0.2828737432055548,0.2670450000000001,0.25,1.25,0.3338062500000001
2018-06-30 08:35:37.750000,1.195314,4.0,0.030431394446473803,0.10374399999999984,,,
2018-06-30 08:35:52,1.219649,1.125,0.032405175090998384,0.02561549999999979,,,
2018-06-30 08:37:43.125000,0.5407605,1.0,0.06802729604878976,0.03326599999999991,,,
2018-06-30 08:39:19.250000,0.457509,1.125,0.08264077973866213,0.06596050000000003,1.625,2.625,0.1731463125000001
2018-06-30 08:39:44.750000,0.348642,0.875,0.13820340383185536,0.054433500000000024,0.625,1.5,0.08165025000000004
2018-06-30 08:39:47.500000,0.32943,1.125,0.049494999972963694,0.030738500000000002,1.125,2.25,0.069161625
2018-06-30 08:40:00.250000,0.353765,4.0,0.02594320014175544,0.03970399999999996,,,
2018-06-30 08:40:18.125000,0.3727105,0.75,0.41076769804127655,0.03714299999999998,,,
2018-06-30 08:43:57.375000,0.432267,1.5,0.039084477319589084,0.04162600000000005,,,
2018-06-30 08:44:04.625000,0.4931045,1.25,0.05614459245916237,0.055713999999999986,0.25,1.25,0.06964249999999998
2018-06-30 08:44:17.500000,0.527686,4.0,0.021849935707396462,0.02945800000000004,,,
2018-06-30 08:44:20.500000,0.580198,1.5,0.04997373170552688,0.052512,1.625,2.75,0.144408
2018-06-30 08:45:40.500000,0.6368199999999999,4.0,0.027306007427212897,0.060196999999999945,,,
2018-06-30 08:45:59.250000,0.643224,1.0,0.09329795936201757,0.047389000000000014,0.5,1.5,0.07108350000000002
2018-06-30 08:46:22.750000,0.529234,1.5,0.06132940601654058,0.08837499999999998,,,
2018-06-30 08:46:30.875000,0.711106,1.75,0.04987014413587465,0.06980300000000006,,,
2018-06-30 08:47:03,0.720071,1.875,0.03899250894778472,0.076847,,,
2018-06-30 08:47:32.375000,0.761057,1.875,0.015102288135424136,0.023054999999999937,,,
2018-06-30 08:47:54,0.758495,1.75,0.03686034303913832,0.052512,,,
2018-06-30 08:48:02.125000,1.1460035,0.875,0.2634612026091716,0.04297549999999983,0.625,1.25,0.05371937499999979
2018-06-30 08:48:07.875000,1.305462,4.0,0.01902257070344593,0.07620749999999976,1.0,2.75,0.20957062499999934
2018-06-30 08:48:12.125000,1.6962025,4.0,0.13233087019043221,0.3830555,1.75,3.25,1.244930375
2018-06-30 08:48:19.375000,1.6872369999999999,4.0,0.08240376329333365,0.18571499999999985,,,
2018-06-30 08:48:27.500000,2.03325,1.875,0.16806990760046858,0.44719549999999986,0.375,1.75,0.7825921249999997
2018-06-30 08:48:37.125000,0.1933995,1.875,0.06687171015309279,0.0717245,,,
2018-06-30 08:48:39.875000,0.21901500000000002,4.0,0.010261011704799317,0.023693999999999993,,,
2018-06-30 08:48:42.375000,0.252956,1.0,0.04324261358030412,0.020492500000000025,,,
2018-06-30 08:48:49.375000,0.318917,4.0,0.04787143984367015,0.07876850000000002,,,
2018-06-30 08:48:53.875000,0.32532099999999997,4.0,0.02365321390730557,0.03586199999999995,0.75,2.125,0.07620674999999989
2018-06-30 08:48:57.500000,0.455962,1.125,0.16360371064563095,0.10118299999999997,1.0,2.125,0.21501387499999994
2018-06-30 08:49:03.250000,0.45852299999999996,1.25,0.04942818382789538,0.05891599999999997,,,
2018-06-30 08:49:05.125000,0.536011,1.375,0.09215571334333972,0.08132999999999996,,,
2018-06-30 08:49:07,0.789303,1.375,0.5636296917701888,0.2347205,0.5,1.75,0.410760875
2018-06-30 08:49:10.125000,1.7412290000000001,1.375,0.9757617462039683,1.0851970000000002,,,
2018-06-30 08:49:16.500000,3.7038919999999997,4.0,0.1896336988191596,1.1147789999999995,,,
2018-06-30 08:49:21.125000,4.1936865,1.625,0.3362174458393845,0.5256555000000005,0.75,2.0,1.051311000000001
2018-06-30 08:49:26.250000,3.929843,1.375,0.1282137937245018,0.14408900000000013,,,
2018-06-30 08:49:29.625000,4.4287434999999995,4.0,0.22247059937610558,0.34072250000000004,0.75,2.125,0.7240353125000001
2018-06-30 08:49:33.125000,4.614458,1.5,0.30862922335970566,0.3554190000000004,0.625,1.875,0.6664106250000007
2018-06-30 08:49:39.125000,4.4063300000000005,4.0,0.12635956771146795,0.17738999999999994,0.75,2.0,0.3547799999999999
2018-06-30 08:49:43.750000,4.3583,1.125,0.06787435718515766,0.04162599999999994,0.375,1.375,0.05723574999999992
2018-06-30 08:49:49.625000,5.0040830000000005,4.0,0.3483732491500753,0.6380985000000008,1.0,2.375,1.5154839375000018
2018-06-30 08:49:58.125000,5.266005,4.0,0.537730059820948,0.7572119999999991,0.875,2.125,1.609075499999998
2018-06-30 08:50:05.125000,5.517592,1.5,0.7711044745554112,1.1022969999999992,1.0,2.25,2.4801682499999984
2018-06-30 08:50:13.500000,4.927876,4.0,0.3687717564359261,0.6220880000000006,0.75,2.0,1.2441760000000013
2018-06-30 08:50:22.500000,4.5632269999999995,4.0,0.047991592642624425,0.16009899999999977,1.0,2.625,0.4202598749999994
2018-06-30 08:50:29.750000,4.916348999999999,4.0,0.11463079891610661,0.38257999999999903,1.0,2.625,1.0042724999999975
2018-06-30 08:50:38.875000,5.774606,1.875,0.5273192909956528,1.061903,1.0,2.5,2.6547575
2018-06-30 08:50:57.750000,4.761373000000001,4.0,0.056763509308673576,0.11014800000000058,1.0,2.625,0.2891385000000015
2018-06-30 08:51:01.875000,4.6986145,1.25,0.030610344760507502,0.021773999999999738,,,
2018-06-30 08:51:03.875000,4.9611765000000005,1.625,0.1643135469049426,0.23822650000000056,,,
2018-06-30 08:51:09.500000,5.807051,1.75,0.5194269353444128,0.9637070000000003,1.125,2.5,2.409267500000001
2018-06-30 08:51:24,4.990635,1.625,0.11912545155297494,0.1594585000000004,0.75,2.0,0.3189170000000008
2018-06-30 08:51:39.750000,4.5679739999999995,1.5,0.03160160786019972,0.038423999999999126,0.375,1.625,0.06243899999999858
2018-06-30 08:51:58.625000,4.26096,1.75,0.05944400814863471,0.11783300000000008,1.0,2.375,0.2798533750000002
2018-06-30 08:52:02.625000,4.769434,1.75,0.307090427852863,0.5571440000000001,,,
2018-06-30 08:52:09,4.39032,1.125,0.051541548789657554,0.03009850000000025,0.375,1.5,0.045147750000000375
2018-06-30 08:52:24.250000,4.000287,1.375,0.02705136277883291,0.024334999999999773,0.625,1.875,0.045628124999999575
2018-06-30 08:52:36.875000,4.2500409999999995,4.0,0.19213280912624597,0.4341884999999994,1.75,3.25,1.4111126249999981
2018-06-30 08:52:49.375000,4.193686,1.875,0.14839965351434614,0.3406899999999995,,,
2018-06-30 08:52:52.125000,4.726527,1.75,0.24984303997701574,0.468801,0.75,2.125,0.996202125
2018-06-30 08:52:56.750000,4.827974,1.75,0.2259664783091786,0.4914480000000001,0.75,2.25,1.1057580000000002
2018-06-30 08:53:07.375000,5.396557,4.0,0.17729004184039,0.2520389999999999,0.375,1.75,0.44106824999999983
2018-06-30 08:53:12.500000,5.038024,1.375,0.27737101465363523,0.2843355000000001,1.125,2.25,0.6397548750000002
2018-06-30 08:53:17.625000,4.6915695,4.0,0.035171803156874404,0.02305400000000013,0.25,2.125,0.048989750000000276
2018-06-30 08:53:19.750000,5.341571,1.5,0.4400593362244116,0.5840399999999999,1.125,2.375,1.3870949999999997
2018-06-30 08:53:24.500000,6.230568,1.625,0.8029274835308691,1.1650070000000001,1.0,2.25,2.62126575
2018-06-30 08:53:31,5.2639949999999995,1.0,0.11321576461319438,0.04610799999999937,0.625,1.625,0.07492549999999898
2018-06-30 08:53:36.500000,5.032172,1.125,0.0790803809799634,0.03458149999999982,0.375,1.5,0.05187224999999973
2018-06-30 08:53:47.125000,5.068763000000001,1.75,0.11426530579803185,0.2234980000000002,1.25,2.625,0.5866822500000005
2018-06-30 08:53:50.875000,6.523312499999999,1.75,0.9088768713137512,1.3981949999999994,,,
2018-06-30 08:54:04.375000,5.2121235,1.0,0.08174084574681473,0.04162599999999994,,,
2018-06-30 08:54:06.250000,5.233256,1.25,0.043798352382452777,0.02305400000000013,,,
2018-06-30 08:54:08.500000,5.283207,1.5,0.057742541144058634,0.052512000000000114,0.25,1.625,0.08533200000000019
2018-06-30 08:54:13.750000,6.254903,4.0,0.48564605871725774,0.7193799999999992,0.75,2.125,1.5286824999999984
2018-06-30 08:54:31.750000,5.804489,1.75,0.32799023781520376,0.575075,1.25,2.625,1.509571875
2018-06-30 08:54:40.500000,7.435796000000001,4.0,1.1126846729858961,1.945101000000001,,,
2018-06-30 08:54:42.250000,7.715008999999999,0.875,0.8315702232273274,0.16330049999999918,0.125,1.0,0.16330049999999918
2018-06-30 08:54:48.500000,5.8006470000000006,1.25,0.39141776045262944,0.3650260000000003,0.625,1.75,0.6387955000000005
2018-06-30 08:54:52.875000,5.315227,1.0,0.054891284002398066,0.02753700000000059,0.75,1.75,0.04818975000000103
2018-06-30 08:55:03.875000,5.417690500000001,1.75,0.17101748915897375,0.2817745000000009,1.125,2.5,0.7044362500000023
2018-06-30 08:55:17,6.165247,4.0,0.34834522650135824,1.183026,,,
2018-06-30 08:55:22.750000,7.342299000000001,4.0,0.8078769487125861,1.4985300000000006,0.875,2.25,3.3716925000000013
2018-06-30 08:55:29.375000,6.092966499999999,1.375,0.03330537944084355,0.037142499999999856,0.25,1.5,0.055713749999999784
2018-06-30 08:55:37,3.3264489999999998,0.875,1.3356167642870158,0.4906374999999996,0.625,1.5,0.7359562499999994
2018-06-30 08:55:42.375000,6.858934499999999,1.875,1.1202494462612442,2.1958064999999998,,,
2018-06-30 08:55:47,5.021374,1.0,0.6550500786219153,0.12514099999999928,,,
2018-06-30 08:55:48,5.011127,0.5,0.07136900524045942,0.04226599999999969,0.125,0.25,0.010566499999999923
2018-06-30 08:55:54.250000,4.684902,1.125,0.38899790646134136,0.18827599999999922,,,
2018-06-30 08:56:16.250000,4.728073,1.0,0.05366346292016644,0.02305500000000027,,,
2018-06-30 08:56:29.750000,4.681964,1.125,0.05611545943022378,0.04738949999999953,,,
2018-06-30 08:56:31.750000,4.731915,1.375,0.03833866001474817,0.03137999999999952,,,
2018-06-30 08:56:35.375000,4.884329,1.875,0.040464658030632705,0.10374400000000072,,,
2018-06-30 08:56:40.500000,4.856152,1.0,0.12019404574670389,0.03970499999999966,0.125,1.125,0.044668124999999614
2018-06-30 08:56:49.500000,5.675129,4.0,0.23488894561030094,0.6985830000000002,,,
2018-06-30 08:56:59.125000,4.751127,1.125,0.1321662653925948,0.020493000000000983,0.125,1.25,0.02561625000000123
2018-06-30 08:57:18,3.7825519999999995,1.625,0.07488365835852306,0.065320499999999,0.25,1.75,0.11431087499999826
2018-06-30 08:57:34.375000,3.903587,0.75,0.27875767568998633,0.045468500000000134,,,
2018-06-30 08:57:42.875000,3.6174394999999997,0.875,0.8194492733808705,0.21030049999999978,,,
2018-06-30 08:57:59.250000,3.442611,0.5,0.12947585532266537,0.03586200000000028,,,
2018-06-30 08:58:01,3.478473,1.375,0.028109104457236356,0.028817500000000162,0.875,2.125,0.061237187500000345
2018-06-30 08:58:12.250000,3.5079309999999997,1.25,0.22014506009022305,0.14088699999999932,,,
2018-06-30 08:58:20.750000,3.1035909999999998,0.875,1.2841749585224154,0.26009499999999974,,,
2018-06-30 08:58:23.125000,3.1810790000000004,1.0,0.1777006048245262,0.0806900000000006,0.75,1.75,0.14120750000000104
2018-06-30 08:58:29.375000,3.471429,1.75,0.27765341704786906,0.39473449999999977,0.375,1.5,0.5921017499999996
2018-06-30 08:58:45.625000,2.7277310000000003,1.25,0.3978691583739433,0.31123250000000047,,,
2018-06-30 08:58:54,3.010093,4.0,0.03106205003516216,0.13891399999999976,1.375,3.0,0.4167419999999993
2018-06-30 08:58:57.125000,3.2278279999999997,1.125,0.24416942750786497,0.13960599999999967,,,
2018-06-30 08:58:59,3.289306,1.375,0.036487549341920555,0.04354699999999978,0.25,1.25,0.054433749999999725
2018-06-30 08:59:10.875000,3.1215219999999997,1.0,0.1816895427560219,0.07684749999999951,,,
2018-06-30 08:59:15,3.131768,1.375,0.024424647182106796,0.02497499999999997,0.25,1.5,0.037462499999999954
2018-06-30 08:59:42.500000,2.742408,1.125,0.11321385389118888,0.09990200000000016,0.25,1.25,0.1248775000000002
2018-06-30 09:00:00,2.8410290000000002,1.875,0.030399632780110153,0.03842400000000046,0.375,1.5,0.05763600000000069
2018-06-30 09:00:08.750000,2.74625,1.375,0.03220677129703908,0.02753649999999963,1.375,2.625,0.07228331249999903
2018-06-30 09:00:42,2.502311,1.875,0.038542741939942005,0.07684700000000033,1.125,2.5,0.19211750000000083
2018-06-30 09:01:05.500000,2.312754,1.0,0.0293215293088398,0.038424000000000014,0.5,0.75,0.02881800000000001
2018-06-30 09:01:55.125000,1.9730525,1.5,0.022307567879847667,0.026896500000000323,,,
2018-06-30 09:02:07.125000,2.041575,4.0,0.016968980734752392,0.03778349999999975,0.375,2.25,0.08501287499999943
2018-06-30 09:02:37.875000,2.0511805,4.0,0.06800606066585502,0.17290649999999985,1.75,3.25,0.5619461249999995
2018-06-30 09:03:08.750000,1.8257619999999999,1.75,0.015930085783694814,0.025616000000000083,0.5,1.875,0.048030000000000156
2018-06-30 09:03:15.750000,1.8155150000000002,4.0,0.012629906489324938,0.029458000000000206,,,
2018-06-30 09:03:19,1.834727,4.0,0.010342908902954306,0.03073899999999985,1.125,2.5,0.07684749999999962
2018-06-30 09:03:27.375000,1.853939,4.0,0.029077670755733642,0.059556500000000234,1.625,3.125,0.18611406250000073
2018-06-30 09:03:50.500000,2.142117,4.0,0.08080435138630016,0.30610899999999974,,,
2018-06-30 09:03:56.125000,2.0127569999999997,1.25,0.05556879978010709,0.04162549999999965,1.0,2.125,0.08845418749999925
2018-06-30 09:04:02.125000,2.003151,1.5,0.03068155829008301,0.028176999999999897,0.625,1.875,0.052831874999999806
2018-06-30 09:04:08.625000,2.2176834999999997,1.75,0.1282603009128529,0.23310399999999953,,,
2018-06-30 09:04:15.625000,2.4798975,4.0,0.13486607162707287,0.3569924999999996,,,
2018-06-30 09:04:26.875000,2.696351,1.375,0.07636489606789176,0.09285699999999997,0.875,2.0,0.18571399999999993
2018-06-30 09:04:35.875000,3.022261,4.0,0.224644375603809,0.5615749999999999,,,
2018-06-30 09:04:44,3.3776800000000002,4.0,0.15973856001849462,0.2702469999999999,1.75,3.0,0.8107409999999997
2018-06-30 09:04:52.250000,3.266252,1.625,0.07111206466639608,0.06660150000000042,,,
2018-06-30 09:04:58.750000,3.32901,4.0,0.03371094294739585,0.08325099999999974,,,
2018-06-30 09:05:03.625000,3.8832035,1.625,0.2902131156396024,0.46197650000000046,1.125,2.375,1.097194187500001
2018-06-30 09:05:16.875000,4.1373315,4.0,0.2801749412736214,0.6210750000000003,,,
2018-06-30 09:05:25.750000,5.146891,4.0,0.585054526996089,1.3540920000000005,1.75,3.25,4.400799000000002
2018-06-30 09:05:45,5.453551999999999,4.0,0.8047168092055372,1.4980929999999995,1.375,2.625,3.9324941249999985
2018-06-30 09:05:59.625000,5.1084675,1.875,0.44776016538962793,0.9307585000000005,,,
2018-06-30 09:06:02.125000,5.103344,1.125,0.24041152107116304,0.08837399999999995,0.25,1.375,0.12151424999999993
2018-06-30 09:06:30.750000,5.381828,1.875,0.40726567654429147,0.7209969999999997,,,
2018-06-30 09:06:38.250000,4.8715209999999995,0.5,0.05596228450040641,0.025615999999999417,,,
2018-06-30 09:06:46.750000,4.299992,1.125,1.4854592495853325,0.9418179999999996,,,
2018-06-30 09:06:53.375000,4.4037679999999995,1.625,0.08043117440233516,0.129999999999999,0.625,1.75,0.22749999999999826
2018-06-30 09:06:58.875000,5.063639500000001,1.5,0.4101608483131969,0.5996740000000003,0.375,1.625,0.9744702500000004
2018-06-30 09:07:37.125000,5.0482705,4.0,0.1843659747206594,0.3601669999999997,0.875,2.25,0.8103757499999993
2018-06-30 09:07:41.375000,5.422173,4.0,0.2183809167700943,0.5205534999999992,0.875,2.5,1.301383749999998
2018-06-30 09:07:44.375000,5.859779,1.5,0.4672853119695546,0.5688869999999993,0.625,1.875,1.0666631249999985
2018-06-30 09:07:50.125000,5.351729499999999,1.125,0.13419449503605207,0.11335049999999924,,,
2018-06-30 09:07:52.625000,6.674446,1.875,0.8603828945016261,1.3054259999999998,0.875,2.125,2.7740302499999996
2018-06-30 09:08:06.500000,5.211483,1.5,0.05561219517347027,0.07684800000000003,0.75,2.0,0.15369600000000005
2018-06-30 09:08:13.125000,5.347887,1.75,0.10545367286034946,0.20236500000000035,,,
2018-06-30 09:08:25.500000,6.014114,4.0,0.4006164937867496,0.8372130000000002,1.625,3.125,2.6162906250000004
2018-06-30 09:08:31.625000,5.8006465,1.625,0.21065614552421863,0.3163545000000001,1.0,2.25,0.7117976250000002
2018-06-30 09:08:43.375000,5.357493,1.0,0.19908616889949116,0.08389199999999963,,,
2018-06-30 09:08:49.625000,5.475326,4.0,0.09815342156229434,0.1453699999999989,1.125,2.375,0.34525374999999736
2018-06-30 09:08:58.125000,5.3952765,1.5,0.047471880921083454,0.061477999999999255,1.125,2.375,0.14601024999999823
2018-06-30 09:09:10.500000,6.795535000000001,4.0,0.6355468880418762,1.0768590000000007,1.0,2.375,2.557540125000002
2018-06-30 09:09:15.750000,6.691096000000001,4.0,0.2660893203660635,0.8383610000000008,0.75,2.375,1.991107375000002
2018-06-30 09:09:28.125000,5.9193355,4.0,0.07216576791642026,0.2068474999999994,1.25,2.875,0.5946865624999983
2018-06-30 09:09:32.500000,6.106331,1.375,0.22806324401024725,0.2363059999999999,,,
2018-06-30 09:09:34.500000,6.393952,1.5,0.144968794427065,0.12880299999999956,0.5,1.875,0.24150562499999917
2018-06-30 09:09:47.125000,7.0516935,1.875,0.6289360639366066,1.0471015000000001,1.125,2.5,2.6177537500000003
2018-06-30 09:09:53.375000,8.101454,1.375,0.9684694806386354,1.0261200000000006,0.5,1.625,1.667445000000001
2018-06-30 09:10:07.625000,5.934065,1.5,0.055443875255395625,0.07172450000000019,,,
2018-06-30 09:10:11,7.189885,1.75,0.7761147246177913,0.632715000000001,0.75,2.0,1.265430000000002
2018-06-30 09:10:17.625000,6.3529675,1.75,0.24949144146161117,0.3702325000000002,,,
2018-06-30 09:10:20,7.248935,1.375,0.6987853534377457,0.7640460000000004,0.375,1.5,1.1460690000000007
2018-06-30 09:10:24.125000,5.2570395,0.75,0.7654556834346771,0.0798615000000007,,,
2018-06-30 09:10:26.500000,5.581632,1.875,0.20419809285955992,0.2650359999999994,0.75,1.875,0.49694249999999884
2018-06-30 09:10:32.500000,6.327351999999999,1.75,0.6475593264174968,1.1312389999999999,0.75,2.125,2.403882875
2018-06-30 09:10:38.125000,5.962242,4.0,0.4724847238456604,0.6502169999999996,,,
2018-06-30 09:10:40.375000,6.315824500000001,1.25,0.5517177509470734,0.4323510000000006,0.375,1.5,0.6485265000000009
2018-06-30 09:10:47.125000,5.824341,1.75,0.2853240835562936,0.4899020000000007,0.875,2.125,1.0410417500000015
2018-06-30 09:11:07.125000,2.2970925,4.0,0.06520299733467638,0.23374400000000017,,,
2018-06-30 09:11:19.500000,2.2099990000000003,4.0,0.04492387175529444,0.11655199999999999,,,
2018-06-30 09:11:20.875000,2.3239894999999997,1.0,0.14369796265259893,0.04546849999999969,,,
2018-06-30 09:11:23.875000,2.962064,4.0,0.16651173206447822,0.3740854999999996,0.5,2.0,0.7481709999999993
2018-06-30 09:11:32.375000,2.9915215,4.0,0.021327147138762825,0.04157350000000015,,,
2018-06-30 09:11:37.500000,4.381962000000001,4.0,0.06184642777673943,0.3073890000000006,,,
2018-06-30 09:11:40,4.809139,1.75,0.26722878475202094,0.43101900000000004,1.0,2.375,1.0236701250000002
2018-06-30 09:11:43,4.760468,1.25,0.13781803238561352,0.1165510000000003,0.5,1.625,0.18939537500000048
2018-06-30 09:11:46.375000,4.7425375,1.75,0.028757535202608153,0.06468050000000058,,,
2018-06-30 09:11:49.500000,5.6328629999999995,4.0,0.4323439819597823,0.8250049999999991,1.25,2.625,2.1656381249999974
2018-06-30 09:11:57,5.231976,4.0,0.08044033493838043,0.11014800000000058,,,
2018-06-30 09:11:58.750000,6.338879,1.375,0.8260036614691693,0.8404989999999994,0.5,1.625,1.365810874999999
2018-06-30 09:12:02.625000,4.278218,0.75,0.7002590466041472,0.036126999999999576,,,
2018-06-30 09:12:04.625000,5.109748,1.625,0.1776960483560579,0.3223829999999994,,,
2018-06-30 09:12:17.125000,5.919336,1.5,0.4218750309310195,0.6616559999999998,1.75,2.875,1.9022609999999993
2018-06-30 09:12:22,6.345839,1.5,0.4625278876795811,0.6288689999999999,0.75,2.0,1.2577379999999998
2018-06-30 09:12:29,6.016676,1.75,0.29025424658403054,0.2945820000000001,,,
2018-06-30 09:12:31.500000,6.719274,1.875,0.5801683652954637,0.6071790000000004,0.625,1.875,1.1384606250000007
2018-06-30 09:12:51,4.608054,1.5,0.6207612731048826,0.8196289999999999,1.125,2.375,1.946618875
2018-06-30 09:12:57.250000,4.217413,4.0,0.06696096231388537,0.09605899999999945,,,
2018-06-30 09:12:59.625000,4.3121915,1.5,0.10207835415611655,0.08389199999999963,,,
2018-06-30 09:13:02,5.2908919999999995,1.875,0.5980475633027069,0.8711139999999995,0.875,2.125,1.8511172499999988
2018-06-30 09:13:07.125000,4.5276285000000005,1.75,0.04343985516847226,0.0493105000000007,,,
2018-06-30 09:13:08.250000,4.730633999999999,0.75,0.19160224113905855,0.024334999999999773,,,
2018-06-30 09:13:30.625000,5.3268425,1.875,1.0110332017762325,1.5038364999999998,,,
2018-06-30 09:13:33.875000,5.981454,4.0,0.3184044711021876,0.47090600000000027,,,
2018-06-30 09:13:41.500000,6.501539,4.0,0.31531823662438185,0.4618089999999997,0.875,2.125,0.9813441249999993
2018-06-30 09:13:48.375000,7.0497724999999996,1.25,0.7258879404439433,0.5828149999999992,0.5,1.625,0.9470743749999987
2018-06-30 09:13:54.500000,5.687512,0.75,0.11311685323426701,0.02433500000000066,0.375,1.0,0.02433500000000066
2018-06-30 09:14:02.375000,6.052537999999999,0.75,0.3110441190573354,0.0275369999999997,,,
2018-06-30 09:14:04.500000,6.682131,1.75,0.24779554282397953,0.5284110000000002,1.125,2.5,1.3210275000000005
2018-06-30 09:14:12.500000,6.283804,1.375,0.102110698717361,0.11591100000000054,0.625,1.875,0.21733312500000102
2018-06-30 09:14:18.625000,6.6789285000000005,1.625,0.3526772397937208,0.5155185000000007,1.0,2.25,1.1599166250000015
2018-06-30 09:14:39.500000,6.646267999999999,1.75,0.18536089931555821,0.2266989999999991,,,
2018-06-30 09:14:51.875000,6.7352834999999995,1.75,0.011877914794936828,0.02305400000000013,0.75,2.125,0.048989750000000276
2018-06-30 09:14:56.250000,7.286078,1.875,0.09297074259875515,0.23374450000000024,1.375,2.75,0.6427973750000007
2018-06-30 09:15:02.375000,6.2242475,1.25,0.7765035830674805,0.16402499999999964,0.125,1.375,0.2255343749999995
2018-06-30 09:15:09.250000,5.116152,4.0,0.08141526080803274,1.0139329999999998,,,
2018-06-30 09:15:12.625000,5.850597500000001,4.0,0.13114327503749124,0.3608190000000011,,,
2018-06-30 09:15:14.500000,5.878775,1.0,0.04679161626327755,0.020491999999999955,0.25,1.25,0.025614999999999943
2018-06-30 09:15:22.125000,5.9776115,1.0,0.12479043078867491,0.044186999999999976,0.625,1.5,0.06628049999999996
2018-06-30 09:15:27.875000,6.5995194999999995,4.0,0.3433141969367597,0.5309720000000002,1.25,2.5,1.3274300000000006
2018-06-30 09:15:32.500000,6.21208,1.0,0.05649167024835222,0.020493000000000094,0.375,1.25,0.025616250000000118
2018-06-30 09:15:35.125000,6.210158999999999,1.375,0.025666408490714332,0.021132999999998958,0.25,1.5,0.03169949999999844
2018-06-30 09:15:46.375000,6.555332000000001,4.0,0.00963313050011294,0.03073850000000089,0.25,1.875,0.05763468750000167
2018-06-30 09:15:49.500000,6.482327,1.0,0.08083647012394835,0.03329999999999966,0.875,1.75,0.05827499999999941
2018-06-30 09:15:56.500000,7.594614999999999,4.0,0.529805894861358,0.810020999999999,0.625,1.875,1.518789374999998
2018-06-30 09:16:00,7.636881,1.125,0.46954794336395267,0.2696069999999997,0.375,1.375,0.3707096249999996
2018-06-30 09:16:08.375000,6.8134665000000005,1.0,0.09279654601714782,0.04098550000000056,,,
2018-06-30 09:16:17.875000,6.889672999999999,4.0,0.04683343110608007,0.08325149999999848,0.5,1.875,0.15609656249999715
2018-06-30 09:16:24.875000,6.9031215,1.25,0.028245819827120044,0.023054499999999756,,,
2018-06-30 09:16:28.500000,7.391103,4.0,0.20431359418066108,0.35990200000000083,1.125,2.375,0.854767250000002
2018-06-30 09:16:37,6.839668,4.0,0.09028671827406498,0.3560599999999994,,,
2018-06-30 09:16:45,8.22997,1.75,0.81224149321217,1.1757149999999994,0.75,2.0,2.351429999999999
2018-06-30 09:16:54.625000,6.7475055,0.875,0.243903021362474,0.04418750000000049,,,
2018-06-30 09:16:56.750000,7.398654,1.75,0.297916410285211,0.5557289999999995,0.875,2.25,1.2503902499999988
2018-06-30 09:17:11.250000,7.051692999999999,4.0,0.0381448639654387,0.0947779999999998,,,
2018-06-30 09:17:20.125000,7.629196,4.0,0.2422843957512164,0.593512500000001,,,
2018-06-30 09:17:27.875000,7.8584575,1.625,0.2107502522942859,0.4008875000000005,1.125,2.5,1.0022187500000013
2018-06-30 09:17:32.375000,9.2044565,1.625,0.963292072437504,1.4727974999999995,0.75,2.0,2.945594999999999
2018-06-30 09:17:43.250000,7.375599,1.125,0.05277285545900057,0.04021000000000097,,,
2018-06-30 09:17:50.500000,7.6432850000000006,1.375,0.23999094986646696,0.25743950000000115,0.875,2.0,0.5148790000000023
2018-06-30 09:18:03.500000,8.172538000000001,4.0,0.38089924435615075,0.8007810000000006,1.375,2.75,2.2021477500000017
2018-06-30 09:18:10.500000,8.363375999999999,1.625,0.435704394091438,0.6647309999999989,,,
2018-06-30 09:18:13.125000,9.4458855,4.0,0.6057687804951115,0.7407424999999996,0.625,1.875,1.3888921874999993
2018-06-30 09:18:18.500000,8.285044000000001,1.375,0.24904098995157398,0.2503945000000005,0.5,1.625,0.40689106250000084
2018-06-30 09:18:26.875000,8.1813,1.375,0.08556787421175471,0.07684700000000078,0.75,2.0,0.15369400000000155
2018-06-30 09:18:35.625000,8.9017935,1.625,0.6325635641442915,0.8701425,0.75,2.0,1.740285
2018-06-30 09:18:40.250000,8.482286,4.0,0.2118013671108585,0.21773500000000112,0.5,1.875,0.4082531250000021
2018-06-30 09:18:43.500000,8.031651,0.875,0.28995934792207123,0.0461090000000004,0.125,1.0,0.0461090000000004
2018-06-30 09:18:47.125000,8.0572665,1.125,0.4061043472101602,0.2382275000000007,0.625,1.625,0.38711968750000114
2018-06-30 09:18:51,7.9445570000000005,1.5,0.7111589721735179,1.0375930000000002,,,
2018-06-30 09:18:55.625000,7.271349,1.0,0.6501491439932714,0.3240400000000001,,,
2018-06-30 09:18:57.375000,8.113621,1.375,0.6513365766282107,0.6456710000000001,0.375,1.625,1.0492153750000002
2018-06-30 09:19:01.500000,7.907413,1.875,0.6631017011642761,0.7873315000000005,0.375,1.625,1.2794136875000008
2018-06-30 09:19:07.875000,7.525452,4.0,0.3244127854070449,0.647305499999999,0.375,1.875,1.2136978124999982
2018-06-30 09:19:13.625000,5.3728625,1.375,0.20698412849884562,0.02049250000000047,,,
2018-06-30 09:19:15.750000,6.598878999999999,0.875,1.0733507649607041,0.28036499999999887,0.75,1.625,0.45559312499999816
2018-06-30 09:19:21.750000,7.058097,0.875,1.1156897183211747,0.27322500000000094,,,
2018-06-30 09:19:30.250000,6.270272,4.0,0.015190900104688154,0.09990100000000002,,,
2018-06-30 09:19:34.625000,6.375938,4.0,0.014320885592841393,0.04802999999999891,,,
2018-06-30 09:19:40.125000,6.4047555,1.875,0.009779751110478685,0.024334500000000148,,,
2018-06-30 09:19:45.500000,6.484889,1.25,0.0431303774797982,0.04811399999999999,,,
2018-06-30 09:20:17.625000,6.555972499999999,0.75,0.33024363366507714,0.047388999999999015,0.5,1.125,0.05331262499999889
2018-06-30 09:20:29.750000,6.381145,1.875,0.010478751532385644,0.024335500000000287,0.625,2.25,0.05475487500000065
2018-06-30 09:20:32.750000,6.441342,1.375,0.07145401355024816,0.06916299999999875,0.5,1.625,0.11238987499999797
2018-06-30 09:20:51.250000,6.230011,4.0,0.008415214991774889,0.06531999999999982,0.5,2.25,0.1469699999999996
2018-06-30 09:21:07.625000,6.886471500000001,4.0,0.47282538862230084,0.7499580000000012,1.375,2.625,1.9686397500000032
2018-06-30 09:21:15.500000,5.7417300000000004,1.25,0.5182438418521045,0.4226610000000006,1.0,2.125,0.8981546250000013
2018-06-30 09:21:29.375000,3.6724040000000002,1.375,0.0639522142981086,0.07940900000000051,1.0,2.125,0.16874412500000108
2018-06-30 09:22:08.375000,3.897292,4.0,0.03266050382373287,0.27793199999999985,1.0,2.75,0.7643129999999996
2018-06-30 09:22:14.250000,3.805075,1.625,0.057287568346689355,0.10822699999999985,0.5,1.875,0.20292562499999972
2018-06-30 09:22:29.125000,3.7672920000000003,4.0,0.1474985316518449,0.271528,1.375,2.625,0.712761
2018-06-30 09:23:34.750000,2.895514,1.0,0.4977690904480312,0.22029599999999983,0.625,1.5,0.33044399999999974
2018-06-30 09:23:38.500000,2.5817200000000002,1.875,0.12381807470770312,0.2055665000000002,0.75,2.125,0.43682881250000044
2018-06-30 09:23:44.625000,3.6372915,1.5,0.8535081952297077,1.1196104999999998,,,
2018-06-30 09:23:57.750000,3.646257,4.0,0.007805716573018984,0.07172399999999968,0.625,2.375,0.17034449999999923
2018-06-30 09:24:02.375000,2.788568,1.0,0.8355978649068163,0.40694300000000005,,,
2018-06-30 09:24:04.125000,3.002408,1.375,0.1179032144159553,0.13507099999999994,0.375,1.5,0.2026064999999999
2018-06-30 09:24:11.125000,2.7629005,1.5,0.06418451358084809,0.06532000000000027,,,
2018-06-30 09:24:21.250000,3.55404,1.0,0.09308813230092383,0.028178000000000036,,,
2018-06-30 09:24:25.125000,3.6827595,4.0,0.02975289232172429,0.10246350000000026,,,
2018-06-30 09:24:27.250000,4.032307,1.625,0.17954484268161153,0.2880695000000002,,,
2018-06-30 09:24:33.875000,3.9676264999999997,1.5,0.11459373484262514,0.16575349999999966,,,
2018-06-30 09:24:35.625000,4.643276,1.25,0.4982896483794548,0.47008199999999967,,,
2018-06-30 09:24:42,4.845001,4.0,0.12808554561462415,0.3522179999999997,0.5,2.0,0.7044359999999994
2018-06-30 09:24:52,5.223739,4.0,0.2303100603077155,0.403073,,,
2018-06-30 09:24:58.625000,6.2055925,4.0,0.3709861013461868,1.0920015000000003,1.375,2.875,3.1395043125000006
2018-06-30 09:25:04,5.568398999999999,1.75,0.04939402614306587,0.07172399999999968,0.625,1.875,0.1344824999999994
2018-06-30 09:25:12.125000,6.211356,4.0,0.2958303816453913,0.5547979999999999,1.5,2.875,1.5950442499999997
2018-06-30 09:25:18,5.946232,1.25,0.11918345630613913,0.11783199999999994,0.75,1.875,0.22093499999999988
2018-06-30 09:25:26.750000,6.099927,1.75,0.18820067900311344,0.33044399999999996,,,
2018-06-30 09:25:31.750000,6.8102100000000005,4.0,0.22678130725407186,0.3112320000000004,0.5,1.75,0.5446560000000007
2018-06-30 09:25:36.500000,7.5049589999999995,1.5,0.7048108451137978,0.8958329999999997,0.625,1.875,1.6796868749999994
2018-06-30 09:25:42.625000,7.861946,4.0,0.8159668868007302,1.561491499999999,1.0,2.375,3.7085423124999974
2018-06-30 09:25:52.500000,6.520751000000001,1.625,0.14384539788198225,0.2343850000000005,1.0,2.25,0.5273662500000011
2018-06-30 09:25:57.625000,8.0835225,1.875,0.9162229230395873,1.7036585000000013,1.375,2.75,4.685060875000003
2018-06-30 09:26:18,6.600160000000001,1.375,0.025609052821195633,0.03330100000000069,0.875,2.125,0.07076462500000147
2018-06-30 09:26:23.375000,6.586712,1.875,0.012857844067308832,0.021134000000000874,1.75,2.875,0.060760250000002514
2018-06-30 09:26:34.875000,6.685973,1.875,0.06050726664872741,0.12295600000000029,,,
2018-06-30 09:26:42.125000,7.647767,4.0,0.4578193670645554,0.9630749999999999,,,
2018-06-30 09:26:49,7.302594,4.0,0.0480441973688599,0.10630499999999987,0.375,1.875,0.19932187499999976
2018-06-30 09:26:53.375000,9.2232725,4.0,0.8868533718889466,1.7003820000000003,,,
2018-06-30 09:26:59.625000,8.454749,1.25,0.817270791154094,0.5572274999999998,0.375,1.5,0.8358412499999996
2018-06-30 09:27:14,7.90101,4.0,0.7801241364686113,1.1451790000000006,0.75,2.0,2.2903580000000012
2018-06-30 09:27:28.750000,7.695797,1.0,0.6206638278127272,0.24975400000000025,0.25,1.25,0.3121925000000003
2018-06-30 09:27:37.375000,7.116373,4.0,0.3588415671127976,0.5648285,1.25,2.5,1.41207125
2018-06-30 09:27:48,7.052974000000001,4.0,0.03587861582533591,0.12551700000000032,,,
2018-06-30 09:27:51.750000,7.3667679999999995,4.0,0.03901321653446388,0.083251999999999,,,
2018-06-30 09:27:57.375000,7.5324965,4.0,0.05995885467910966,0.1612454999999997,,,
2018-06-30 09:28:01,7.985542,4.0,0.21090921168481458,0.44343999999999895,,,
2018-06-30 09:28:08.375000,8.9850445,4.0,0.5903710584054593,1.1448725,1.0,2.375,2.7190721875
2018-06-30 09:28:13.375000,8.3324335,1.625,0.09365139528188138,0.1626605000000012,0.75,2.125,0.34565356250000256
2018-06-30 09:28:18.375000,8.4797245,4.0,0.15098426195805814,0.27921249999999986,,,
2018-06-30 09:28:21.625000,8.4496255,1.875,0.013174210415932919,0.030098499999999362,0.5,1.75,0.05267237499999888
2018-06-30 09:28:30,8.537360000000001,4.0,0.012987711122185885,0.04098500000000094,,,
2018-06-30 09:28:32.375000,8.619971,1.875,0.029648187254956326,0.07108400000000081,,,
2018-06-30 09:28:52.750000,7.539541000000001,4.0,0.8739281081730361,2.4422240000000013,,,
2018-06-30 09:28:57,8.053424,1.125,0.8560418588253071,0.8007809999999997,,,
2018-06-30 09:28:58.250000,8.122586,0.75,0.12195359472745793,0.03201900000000002,,,
2018-06-30 09:29:01.125000,8.199434499999999,1.375,0.04730142148743255,0.0576364999999992,,,
2018-06-30 09:29:04,8.237858000000001,1.375,0.04570148867457391,0.032019500000000534,0.25,1.375,0.044026812500000734
2018-06-30 09:29:10,8.318547,4.0,0.051832359638055436,0.061477000000000004,,,
2018-06-30 09:29:26.250000,4.339696,1.25,1.042693062566192,1.117381,,,
2018-06-30 09:29:31.250000,5.995626000000001,1.75,1.0974870093812576,1.6072600000000001,1.25,2.5,4.01815
2018-06-30 09:29:38.875000,6.102489,1.25,0.8992396433940506,1.0075580000000004,,,
2018-06-30 09:29:44.500000,6.284361,4.0,0.012646473640426592,0.025616000000000305,,,
2018-06-30 09:29:49.875000,6.4227705,1.375,0.13006961689072227,0.10638950000000058,,,
2018-06-30 09:30:05.750000,5.8006470000000006,1.625,0.14587541025695927,0.18443400000000043,,,
2018-06-30 09:30:20.250000,4.038101999999999,1.875,0.022732401444205408,0.04802949999999928,0.625,2.0,0.09605899999999856
2018-06-30 09:30:28.125000,3.916395,4.0,0.04180860935901798,0.03842400000000046,0.75,2.125,0.08165100000000097
2018-06-30 09:30:38.500000,3.52202,1.375,0.706737246187652,0.8045874999999998,,,
2018-06-30 09:30:54.125000,3.5239414999999994,4.0,0.04346282077192143,0.08132999999999946,1.0,2.25,0.18299249999999878
2018-06-30 09:31:12.375000,4.218021,1.0,1.1277541467104655,0.4402879999999998,,,
2018-06-30 09:31:17,4.836035,4.0,0.016797531443682345,0.12167499999999976,,,
2018-06-30 09:31:20.375000,5.112309999999999,4.0,0.19156049113785656,0.298688499999999,1.0,2.25,0.6720491249999978
2018-06-30 09:31:24.375000,5.012408499999999,1.5,0.14126621170610676,0.188917,,,
2018-06-30 09:31:29.750000,5.046989,4.0,0.03758707166071318,0.06403900000000018,,,
2018-06-30 09:31:39.250000,5.027778,1.625,0.2047978731864788,0.2807579999999996,,,
2018-06-30 09:31:54,4.988073,1.125,0.056955013451258196,0.041249000000000535,,,
2018-06-30 09:31:57.750000,4.551323,0.625,0.1564607693475999,0.030738500000000002,0.125,0.625,0.0192115625
2018-06-30 09:32:03.750000,1.3798469999999998,1.5,0.2369788901795511,0.5447709999999998,0.25,1.625,0.8852528749999996
2018-06-30 09:32:09.500000,1.164575,1.0,0.741861289276248,0.6174099999999999,0.75,1.0,0.6174099999999999
2018-06-30 09:32:17.250000,1.110782,1.125,1.0862750154205552,0.7079734999999999,0.125,1.25,0.8849668749999999
2018-06-30 09:32:21.500000,0.640662,1.5,0.5267566005339426,0.5945539999999999,,,
2018-06-30 09:32:31.875000,0.5260315,1.0,0.594913143051701,0.3012525,,,
2018-06-30 09:32:35.250000,1.236299,1.875,0.11027280338200462,0.4528285000000001,,,
2018-06-30 09:32:39.250000,1.498961,4.0,0.030142648816584128,0.02699600000000002,1.125,2.125,0.05736650000000004
2018-06-30 09:32:46.375000,1.4906355000000002,1.875,0.016339795828026915,0.026256500000000127,,,
2018-06-30 09:32:53.750000,1.568123,4.0,0.040007532372412946,0.04866999999999977,,,
2018-06-30 09:33:01.625000,1.9049715,1.375,0.2819710888665501,0.3752715,,,
2018-06-30 09:33:53.875000,1.2793045,4.0,0.043874364088584805,0.07492600000000005,0.375,2.0,0.1498520000000001
2018-06-30 09:34:07.375000,0.9795005000000001,1.0,0.2292366520096425,0.14857150000000008,0.375,1.375,0.2042858125000001
2018-06-30 09:34:13.500000,0.770091,1.0,0.0912287853060425,0.03970399999999996,0.5,1.375,0.05459299999999995
2018-06-30 09:34:16.375000,0.7937859999999999,1.5,0.04479211329040078,0.04482799999999987,0.375,1.5,0.0672419999999998
2018-06-30 09:34:20.250000,0.8430270000000001,0.875,0.40034064181313944,0.10310350000000013,,,
2018-06-30 09:34:24,0.860958,1.0,0.17156043232729612,0.04482699999999995,,,
2018-06-30 09:34:33.375000,1.1280725,1.25,0.1876746864922243,0.19731100000000001,,,
2018-06-30 09:34:43.250000,1.054427,1.875,0.024621127172161472,0.02881749999999994,,,
2018-06-30 09:35:25.625000,0.7675295,1.875,0.008897263427811275,0.04738949999999997,,,
2018-06-30 09:37:39.500000,0.45622799999999997,1.25,0.02225910837312961,0.02049200000000001,,,
2018-06-30 09:37:55.250000,0.311232,1.875,0.26893949332274436,0.297143,0.5,1.5,0.4457145
2018-06-30 09:37:59.750000,0.586869,1.0,0.6154636766940198,0.12066099999999996,,,
2018-06-30 09:38:40.375000,0.680367,4.0,0.011243293736788562,0.024335000000000107,,,
2018-06-30 09:38:53.750000,0.762338,4.0,0.01922865303994792,0.04482799999999998,1.0,2.375,0.10646649999999995
2018-06-30 09:38:57.375000,0.657313,1.125,0.31269590471826847,0.27409000000000006,,,
2018-06-30 09:38:59.500000,0.707263,1.625,0.03524020500241454,0.042265499999999956,,,
2018-06-30 09:39:33.875000,0.6342585000000001,1.75,0.01659787648277744,0.025616000000000083,,,
2018-06-30 09:39:58.875000,0.46583449999999993,1.375,0.019369744298525005,0.021133499999999916,1.125,2.25,0.04755037499999981
2018-06-30 09:40:17.125000,0.6099235000000001,1.625,0.22200749318708368,0.25871950000000005,,,
2018-06-30 09:41:52.625000,0.657953,4.0,0.016935702935113817,0.03778349999999997,,,
2018-06-30 09:42:01.625000,0.5093815,0.5,0.2309885813900916,0.05315300000000006,0.625,0.75,0.039864750000000046
2018-06-30 09:42:04,0.577637,0.875,0.5729727747756517,0.08773449999999994,0.125,1.0,0.08773449999999994
2018-06-30 09:42:13.375000,0.6040265,1.375,0.2555094300990801,0.23643950000000002,0.5,1.625,0.3842141875
2018-06-30 09:42:36.875000,0.915392,4.0,0.03547732834087203,0.0717239999999999,,,
2018-06-30 09:42:53.250000,0.848151,1.625,0.012142888939100871,0.03650299999999995,1.375,2.75,0.10038324999999987
2018-06-30 09:43:27.875000,0.97822,4.0,0.0334594786321496,0.05066000000000004,0.5,2.25,0.11398500000000009
2018-06-30 09:43:38.500000,1.044181,4.0,0.06071435986631224,0.14216800000000007,,,
2018-06-30 09:43:49.625000,1.8069905,4.0,0.081469897020094,0.3016755,0.625,2.25,0.678769875
2018-06-30 09:44:19.625000,0.8808799999999999,1.75,0.030220990203067455,0.08837499999999987,0.375,1.875,0.16570312499999976
2018-06-30 09:45:11,0.8379040000000001,1.0,0.6351866158134392,0.3627300000000001,,,
2018-06-30 09:45:16.375000,0.7905150000000001,1.25,0.7088282948105649,0.7187910000000001,,,
2018-06-30 09:45:19,0.7815489999999999,1.0,0.1169947708305985,0.055073999999999956,,,
2018-06-30 09:45:56.750000,0.500789,1.25,0.43361452946921686,0.48413900000000004,,,
2018-06-30 09:46:09.625000,0.452119,1.0,0.2307227704124304,0.13,,,
2018-06-30 09:46:12.125000,0.561627,1.0,0.08592284787581184,0.03970499999999999,0.875,1.875,0.07444687499999998
2018-06-30 09:46:41.250000,0.61478,4.0,0.014469747314949988,0.092217,,,
2018-06-30 09:46:54,0.70086,4.0,0.12025246945031487,0.262563,,,
2018-06-30 09:46:56.750000,0.740564,1.125,0.039112283287281,0.03970450000000003,,,
2018-06-30 09:47:04.250000,0.6854899999999999,4.0,0.023032028395602033,0.029457999999999984,,,
2018-06-30 09:47:06.625000,0.7373620000000001,1.0,0.056423979925440904,0.03009850000000014,,,
2018-06-30 09:47:08.625000,0.7924359999999999,1.625,0.02789335792765968,0.04290599999999989,1.25,2.375,0.10190174999999974
2018-06-30 09:47:17.500000,1.0915700000000002,1.875,0.16525271887004633,0.28952800000000023,,,
2018-06-30 09:47:28.375000,1.0960524999999999,4.0,0.008275473351279317,0.033941,,,
2018-06-30 09:47:36.625000,1.20492,4.0,0.025216232044312115,0.0813299999999999,,,
2018-06-30 09:47:50.750000,1.103097,4.0,0.0019494910620680983,0.043547,,,
2018-06-30 09:48:28.625000,0.7976285,1.75,0.058977552007723144,0.03201999999999994,,,
2018-06-30 09:49:35.125000,0.3127795,1.0,0.07432906151201868,0.026256,0.25,1.25,0.03282
2018-06-30 09:49:39.250000,0.823816,1.25,0.6216320731542373,0.605815,,,
2018-06-30 09:49:40.500000,1.457876,0.875,0.632758241244944,0.18190649999999997,,,
2018-06-30 09:49:49.625000,1.6737885000000001,4.0,0.0417781460068154,0.1376845000000002,,,
2018-06-30 09:50:34.875000,1.334379,1.75,0.04563830375866029,0.06532050000000011,,,
2018-06-30 09:50:54.875000,1.6219165,4.0,0.07293800792548133,0.2747299999999999,,,
2018-06-30 09:52:15.625000,1.1101415000000001,4.0,0.19264916606425153,0.3349270000000002,,,
2018-06-30 09:52:24.125000,0.766249,4.0,0.12484542078917471,0.20428599999999997,,,
2018-06-30 09:52:25.875000,1.185708,1.375,0.3469760397618056,0.41689699999999996,,,
2018-06-30 09:52:34.375000,1.2234915000000002,4.0,0.007508720688396586,0.03330100000000025,1.875,3.625,0.1207161250000009
2018-06-30 09:52:52,0.9225049999999999,0.875,0.7604378301461385,0.08460099999999993,,,
2018-06-30 09:52:57.875000,1.133196,1.5,0.30299631379330805,0.16906500000000002,0.25,1.375,0.23246437500000003
2018-06-30 09:53:01.500000,0.476721,1.25,0.15255192393768047,0.03201999999999999,0.125,1.375,0.04402749999999999
2018-06-30 09:53:03.375000,1.0115205,1.0,0.8053411878774064,0.2773604999999999,,,
2018-06-30 09:53:11,1.460537,4.0,0.2538937089752631,0.235765,0.875,1.875,0.44205937500000003
2018-06-30 09:53:22.500000,1.3798469999999998,4.0,0.06404467180797102,0.05635499999999971,,,
2018-06-30 09:53:28.125000,1.3779255,1.0,0.03408047261557989,0.020491999999999955,,,
2018-06-30 09:53:30.625000,1.4963989999999998,1.875,0.10873283193658434,0.11783299999999985,,,
2018-06-30 09:53:33.125000,1.9339884999999999,4.0,0.115677423902528,0.32487999999999984,,,
2018-06-30 09:53:35.625000,2.083841,1.75,0.053823774721182716,0.06275849999999972,0.5,2.125,0.1333618124999994
2018-06-30 09:53:44.500000,2.332955,4.0,0.03447681042584705,0.16394100000000034,0.375,2.25,0.36886725000000076
2018-06-30 09:53:49.750000,2.0319689999999997,1.875,0.03219027732162694,0.1402464999999995,,,
2018-06-30 09:53:53.125000,2.2016735,1.75,0.1726661553672777,0.15561550000000013,1.25,2.375,0.3695868125000003
2018-06-30 09:53:57.125000,2.2458609999999997,1.25,0.2260735580725246,0.19403999999999932,0.625,1.75,0.3395699999999988
2018-06-30 09:54:10.875000,1.7288625,1.375,0.57185633977842,0.6973905,,,
2018-06-30 09:54:12.750000,1.892363,1.375,0.21867700649755495,0.13276149999999998,,,
