,Binary,Multiclass
2018-07-06 12:13:01,1.0,1.0
2018-07-06 12:13:06,1.0,1.0
2018-07-06 12:13:11,1.0,1.0
2018-07-06 12:13:16,1.0,1.0
2018-07-06 12:13:21,1.0,1.0
2018-07-06 12:13:26,1.0,1.0
2018-07-06 12:13:31,1.0,1.0
2018-07-06 12:13:36,1.0,0.0
2018-07-06 12:13:41,1.0,0.0
2018-07-06 12:13:46,-1.0,0.0
2018-07-06 12:13:51,1.0,1.0
2018-07-06 12:13:56,1.0,1.0
2018-07-06 12:14:01,1.0,1.0
2018-07-06 12:14:06,1.0,1.0
2018-07-06 12:14:11,-1.0,-1.0
2018-07-06 12:14:16,1.0,1.0
2018-07-06 12:14:21,1.0,1.0
2018-07-06 12:14:26,1.0,1.0
2018-07-06 12:14:31,1.0,1.0
2018-07-06 12:14:36,1.0,1.0
2018-07-06 12:14:41,1.0,1.0
2018-07-06 12:14:46,1.0,1.0
2018-07-06 12:14:51,1.0,1.0
2018-07-06 12:14:56,1.0,1.0
2018-07-06 12:15:01,1.0,1.0
2018-07-06 12:15:06,1.0,1.0
2018-07-06 12:15:11,1.0,1.0
2018-07-06 12:15:16,1.0,1.0
2018-07-06 12:15:21,1.0,1.0
2018-07-06 12:15:26,1.0,1.0
2018-07-06 12:15:31,1.0,1.0
2018-07-06 12:15:36,1.0,1.0
2018-07-06 12:15:41,1.0,1.0
2018-07-06 12:15:46,1.0,1.0
2018-07-06 12:15:51,1.0,1.0
2018-07-06 12:15:56,1.0,1.0
2018-07-06 12:16:01,1.0,1.0
2018-07-06 12:16:06,1.0,1.0
2018-07-06 12:16:11,1.0,1.0
2018-07-06 12:16:16,1.0,1.0
2018-07-06 12:16:21,1.0,1.0
2018-07-06 12:16:26,1.0,1.0
2018-07-06 12:16:31,1.0,1.0
2018-07-06 12:16:36,1.0,1.0
2018-07-06 12:16:41,1.0,1.0
2018-07-06 12:16:46,1.0,1.0
2018-07-06 12:16:51,1.0,1.0
2018-07-06 12:16:56,1.0,1.0
2018-07-06 12:17:01,1.0,1.0
2018-07-06 12:17:06,1.0,1.0
2018-07-06 12:17:11,1.0,1.0
2018-07-06 12:17:16,1.0,1.0
2018-07-06 12:17:21,1.0,1.0
2018-07-06 12:17:26,-1.0,1.0
2018-07-06 12:17:31,1.0,1.0
2018-07-06 12:17:36,1.0,1.0
2018-07-06 12:17:41,1.0,1.0
2018-07-06 12:17:46,1.0,1.0
2018-07-06 12:17:51,1.0,1.0
2018-07-06 12:17:56,1.0,1.0
2018-07-06 12:18:01,1.0,1.0
2018-07-06 12:18:06,1.0,1.0
2018-07-06 12:18:11,1.0,1.0
2018-07-06 12:18:16,1.0,1.0
2018-07-06 12:18:21,1.0,1.0
2018-07-06 12:18:26,1.0,1.0
2018-07-06 12:18:31,1.0,1.0
2018-07-06 12:18:36,1.0,1.0
2018-07-06 12:18:41,1.0,1.0
2018-07-06 12:18:46,1.0,1.0
2018-07-06 12:18:51,1.0,1.0
2018-07-06 12:18:56,1.0,1.0
2018-07-06 12:19:01,1.0,1.0
2018-07-06 12:19:06,1.0,1.0
2018-07-06 12:19:11,1.0,1.0
2018-07-06 12:19:16,1.0,1.0
2018-07-06 12:19:21,-1.0,1.0
2018-07-06 12:19:26,1.0,1.0
2018-07-06 12:19:31,1.0,1.0
2018-07-06 12:19:36,1.0,1.0
2018-07-06 12:19:41,1.0,1.0
2018-07-06 12:19:46,1.0,1.0
2018-07-06 12:19:51,1.0,1.0
2018-07-06 12:19:56,1.0,1.0
2018-07-06 12:20:01,1.0,1.0
2018-07-06 12:20:06,1.0,1.0
2018-07-06 12:20:11,1.0,1.0
2018-07-06 12:20:16,1.0,1.0
2018-07-06 12:20:21,1.0,1.0
2018-07-06 12:20:26,1.0,1.0
2018-07-06 12:20:31,1.0,1.0
2018-07-06 12:20:36,1.0,1.0
2018-07-06 12:20:41,1.0,1.0
2018-07-06 12:20:46,1.0,1.0
2018-07-06 12:20:51,1.0,1.0
2018-07-06 12:20:56,1.0,1.0
2018-07-06 12:21:01,1.0,1.0
2018-07-06 12:21:06,1.0,1.0
2018-07-06 12:21:11,1.0,1.0
2018-07-06 12:21:16,1.0,1.0
2018-07-06 12:21:21,1.0,1.0
2018-07-06 12:21:26,1.0,1.0
2018-07-06 12:21:31,1.0,1.0
2018-07-06 12:21:36,1.0,1.0
2018-07-06 12:21:41,1.0,1.0
2018-07-06 12:21:46,1.0,1.0
2018-07-06 12:21:51,1.0,1.0
2018-07-06 12:21:56,1.0,1.0
2018-07-06 12:22:01,1.0,1.0
2018-07-06 12:22:06,1.0,1.0
2018-07-06 12:22:11,1.0,1.0
2018-07-06 12:22:16,1.0,1.0
2018-07-06 12:22:21,1.0,1.0
2018-07-06 12:22:26,1.0,1.0
2018-07-06 12:22:31,1.0,1.0
2018-07-06 12:22:36,1.0,1.0
2018-07-06 12:22:41,1.0,1.0
2018-07-06 12:22:46,1.0,1.0
2018-07-06 12:22:51,1.0,1.0
2018-07-06 12:22:56,1.0,1.0
2018-07-06 12:23:01,1.0,1.0
2018-07-06 12:23:06,1.0,1.0
2018-07-06 12:23:11,-1.0,1.0
2018-07-06 12:23:16,1.0,1.0
2018-07-06 12:23:21,1.0,1.0
2018-07-06 12:23:26,1.0,1.0
2018-07-06 12:23:31,1.0,1.0
2018-07-06 12:23:36,1.0,1.0
2018-07-06 12:23:41,-1.0,1.0
2018-07-06 12:23:46,1.0,1.0
2018-07-06 12:23:51,1.0,1.0
2018-07-06 12:23:56,1.0,1.0
2018-07-06 12:24:01,1.0,1.0
2018-07-06 12:24:06,1.0,1.0
2018-07-06 12:24:11,1.0,1.0
2018-07-06 12:24:16,1.0,1.0
2018-07-06 12:24:21,1.0,1.0
2018-07-06 12:24:26,1.0,1.0
2018-07-06 12:24:31,1.0,1.0
2018-07-06 12:24:36,1.0,1.0
2018-07-06 12:24:41,1.0,1.0
2018-07-06 12:24:46,1.0,1.0
2018-07-06 12:24:51,1.0,1.0
2018-07-06 12:24:56,1.0,1.0
2018-07-06 12:25:01,1.0,1.0
2018-07-06 12:25:06,1.0,1.0
2018-07-06 12:25:11,1.0,1.0
2018-07-06 12:25:16,1.0,1.0
2018-07-06 12:25:21,1.0,1.0
2018-07-06 12:25:26,1.0,1.0
2018-07-06 12:25:31,1.0,1.0
2018-07-06 12:25:36,1.0,1.0
2018-07-06 12:25:41,1.0,1.0
2018-07-06 12:25:46,1.0,1.0
2018-07-06 12:25:51,1.0,1.0
2018-07-06 12:25:56,1.0,1.0
2018-07-06 12:26:01,-1.0,-1.0
2018-07-06 12:26:06,1.0,1.0
2018-07-06 12:26:11,1.0,1.0
2018-07-06 12:26:16,1.0,1.0
2018-07-06 12:26:21,1.0,1.0
2018-07-06 12:26:26,1.0,1.0
2018-07-06 12:26:31,1.0,1.0
2018-07-06 12:26:36,1.0,1.0
2018-07-06 12:26:41,1.0,1.0
2018-07-06 12:26:46,1.0,1.0
2018-07-06 12:26:51,1.0,1.0
2018-07-06 12:26:56,1.0,1.0
2018-07-06 12:27:01,1.0,1.0
2018-07-06 12:27:06,1.0,1.0
2018-07-06 12:27:11,1.0,1.0
2018-07-06 12:27:16,1.0,1.0
2018-07-06 12:27:21,1.0,1.0
2018-07-06 12:27:26,1.0,1.0
2018-07-06 12:27:31,1.0,1.0
2018-07-06 12:27:36,1.0,1.0
2018-07-06 12:27:41,1.0,1.0
2018-07-06 12:27:46,1.0,1.0
2018-07-06 12:27:51,1.0,1.0
2018-07-06 12:27:56,1.0,1.0
2018-07-06 12:28:01,1.0,1.0
2018-07-06 12:28:06,1.0,1.0
2018-07-06 12:28:11,1.0,1.0
2018-07-06 12:28:16,1.0,1.0
2018-07-06 12:28:21,1.0,1.0
2018-07-06 12:28:26,1.0,1.0
2018-07-06 12:28:31,1.0,1.0
2018-07-06 12:28:36,1.0,1.0
2018-07-06 12:28:41,1.0,1.0
2018-07-06 12:28:46,1.0,1.0
2018-07-06 12:28:51,1.0,1.0
2018-07-06 12:28:56,1.0,1.0
2018-07-06 12:29:01,1.0,1.0
2018-07-06 12:29:06,1.0,1.0
2018-07-06 12:29:11,1.0,1.0
2018-07-06 12:29:16,1.0,1.0
2018-07-06 12:29:21,1.0,1.0
2018-07-06 12:29:26,1.0,1.0
2018-07-06 12:29:31,1.0,1.0
2018-07-06 12:29:36,1.0,1.0
2018-07-06 12:29:41,1.0,1.0
2018-07-06 12:29:46,1.0,1.0
2018-07-06 12:29:51,1.0,1.0
2018-07-06 12:29:56,1.0,1.0
2018-07-06 12:30:01,1.0,1.0
2018-07-06 12:30:06,1.0,1.0
2018-07-06 12:30:11,1.0,1.0
2018-07-06 12:30:16,1.0,0.0
2018-07-06 12:30:21,1.0,1.0
2018-07-06 12:30:26,1.0,1.0
2018-07-06 12:30:31,1.0,1.0
2018-07-06 12:30:36,1.0,1.0
2018-07-06 12:30:41,1.0,1.0
2018-07-06 12:30:46,1.0,1.0
2018-07-06 12:30:51,1.0,1.0
2018-07-06 12:30:56,1.0,1.0
2018-07-06 12:31:01,1.0,0.0
2018-07-06 12:31:06,1.0,1.0
2018-07-06 12:31:11,1.0,1.0
2018-07-06 12:31:16,1.0,1.0
2018-07-06 12:31:21,1.0,1.0
2018-07-06 12:31:26,1.0,1.0
2018-07-06 12:31:31,1.0,1.0
2018-07-06 12:31:36,1.0,1.0
2018-07-06 12:31:41,1.0,1.0
2018-07-06 12:31:46,1.0,1.0
2018-07-06 12:31:51,1.0,1.0
2018-07-06 12:31:56,1.0,1.0
2018-07-06 12:32:01,1.0,1.0
2018-07-06 12:32:06,1.0,1.0
2018-07-06 12:32:11,1.0,1.0
2018-07-06 12:32:16,1.0,1.0
2018-07-06 12:32:21,1.0,1.0
2018-07-06 12:32:26,1.0,1.0
2018-07-06 12:32:31,1.0,1.0
2018-07-06 12:32:36,1.0,1.0
2018-07-06 12:32:41,1.0,1.0
2018-07-06 12:32:46,1.0,1.0
2018-07-06 12:32:51,1.0,1.0
2018-07-06 12:32:56,1.0,1.0
2018-07-06 12:33:01,1.0,1.0
2018-07-06 12:33:06,1.0,1.0
2018-07-06 12:33:11,1.0,1.0
2018-07-06 12:33:16,1.0,1.0
2018-07-06 12:33:21,1.0,1.0
2018-07-06 12:33:26,1.0,1.0
2018-07-06 12:33:31,1.0,1.0
2018-07-06 12:33:36,1.0,1.0
2018-07-06 12:33:41,1.0,1.0
2018-07-06 12:33:46,1.0,1.0
2018-07-06 12:33:51,1.0,1.0
2018-07-06 12:33:56,1.0,1.0
2018-07-06 12:34:01,1.0,1.0
2018-07-06 12:34:06,1.0,1.0
2018-07-06 12:34:11,1.0,1.0
2018-07-06 12:34:16,1.0,1.0
2018-07-06 12:34:21,1.0,1.0
2018-07-06 12:34:26,1.0,1.0
2018-07-06 12:34:31,1.0,1.0
2018-07-06 12:34:36,1.0,1.0
2018-07-06 12:34:41,1.0,1.0
2018-07-06 12:34:46,1.0,1.0
2018-07-06 12:34:51,1.0,1.0
2018-07-06 12:34:56,1.0,1.0
2018-07-06 12:35:01,1.0,1.0
2018-07-06 12:35:06,1.0,1.0
2018-07-06 12:35:11,1.0,1.0
2018-07-06 12:35:16,1.0,1.0
2018-07-06 12:35:21,1.0,1.0
2018-07-06 12:35:26,1.0,1.0
2018-07-06 12:35:31,1.0,1.0
2018-07-06 12:35:36,1.0,1.0
2018-07-06 12:35:41,1.0,1.0
2018-07-06 12:35:46,1.0,1.0
2018-07-06 12:35:51,1.0,1.0
2018-07-06 12:35:56,1.0,1.0
2018-07-06 12:36:01,1.0,1.0
2018-07-06 12:36:06,1.0,1.0
2018-07-06 12:36:11,1.0,1.0
2018-07-06 12:36:16,1.0,1.0
2018-07-06 12:36:21,1.0,1.0
2018-07-06 12:36:26,-1.0,1.0
2018-07-06 12:36:31,-1.0,0.0
2018-07-06 12:36:36,1.0,1.0
2018-07-06 12:36:41,1.0,1.0
2018-07-06 12:36:46,1.0,1.0
2018-07-06 12:36:51,1.0,1.0
2018-07-06 12:36:56,1.0,1.0
2018-07-06 12:37:01,1.0,1.0
2018-07-06 12:37:06,1.0,1.0
2018-07-06 12:37:11,1.0,1.0
2018-07-06 12:37:16,1.0,1.0
2018-07-06 12:37:21,1.0,1.0
2018-07-06 12:37:26,1.0,1.0
2018-07-06 12:37:31,1.0,1.0
2018-07-06 12:37:36,1.0,1.0
2018-07-06 12:37:41,1.0,1.0
2018-07-06 12:37:46,1.0,1.0
2018-07-06 12:37:51,1.0,1.0
2018-07-06 12:37:56,1.0,1.0
2018-07-06 12:38:01,1.0,1.0
2018-07-06 12:38:06,1.0,1.0
2018-07-06 12:38:11,1.0,1.0
2018-07-06 12:38:16,1.0,1.0
2018-07-06 12:38:21,1.0,1.0
2018-07-06 12:38:26,1.0,1.0
2018-07-06 12:38:31,1.0,1.0
2018-07-06 12:38:36,1.0,1.0
2018-07-06 12:38:41,1.0,1.0
2018-07-06 12:38:46,1.0,1.0
2018-07-06 12:38:51,1.0,1.0
2018-07-06 12:38:56,1.0,1.0
2018-07-06 12:39:01,1.0,1.0
2018-07-06 12:39:06,1.0,1.0
2018-07-06 12:39:11,1.0,1.0
2018-07-06 12:39:16,1.0,1.0
2018-07-06 12:39:21,1.0,1.0
2018-07-06 12:39:26,1.0,1.0
2018-07-06 12:39:31,1.0,1.0
2018-07-06 12:39:36,1.0,1.0
2018-07-06 12:39:41,1.0,1.0
2018-07-06 12:39:46,1.0,1.0
2018-07-06 12:39:51,1.0,1.0
2018-07-06 12:39:56,1.0,1.0
2018-07-06 12:40:01,1.0,1.0
2018-07-06 12:40:06,1.0,1.0
2018-07-06 12:40:11,1.0,1.0
2018-07-06 12:40:16,1.0,1.0
2018-07-06 12:40:21,1.0,1.0
2018-07-06 12:40:26,1.0,1.0
2018-07-06 12:40:31,1.0,1.0
2018-07-06 12:40:36,1.0,1.0
2018-07-06 12:40:41,-1.0,1.0
2018-07-06 12:40:46,1.0,1.0
2018-07-06 12:40:51,1.0,1.0
2018-07-06 12:40:56,-1.0,-1.0
2018-07-06 12:41:01,1.0,1.0
2018-07-06 12:41:06,1.0,1.0
2018-07-06 12:41:11,1.0,1.0
2018-07-06 12:41:16,1.0,1.0
2018-07-06 12:41:21,1.0,1.0
2018-07-06 12:41:26,1.0,1.0
2018-07-06 12:41:31,1.0,1.0
2018-07-06 12:41:36,1.0,1.0
2018-07-06 12:41:41,1.0,1.0
2018-07-06 12:41:46,1.0,1.0
2018-07-06 12:41:51,1.0,1.0
2018-07-06 12:41:56,1.0,1.0
2018-07-06 12:42:01,1.0,1.0
2018-07-06 12:42:06,1.0,1.0
2018-07-06 12:42:11,1.0,1.0
2018-07-06 12:42:16,1.0,1.0
2018-07-06 12:42:21,1.0,1.0
2018-07-06 12:42:26,1.0,1.0
2018-07-06 12:42:31,1.0,1.0
2018-07-06 12:42:36,1.0,1.0
2018-07-06 12:42:41,1.0,1.0
2018-07-06 12:42:46,1.0,1.0
2018-07-06 12:42:51,1.0,1.0
2018-07-06 12:42:56,1.0,1.0
2018-07-06 12:43:01,1.0,1.0
2018-07-06 12:43:06,1.0,1.0
2018-07-06 12:43:11,1.0,1.0
2018-07-06 12:43:16,1.0,1.0
2018-07-06 12:43:21,1.0,1.0
2018-07-06 12:43:26,1.0,1.0
2018-07-06 12:43:31,1.0,1.0
2018-07-06 12:43:36,1.0,1.0
2018-07-06 12:43:41,1.0,1.0
2018-07-06 12:43:46,1.0,1.0
2018-07-06 12:43:51,1.0,1.0
2018-07-06 12:43:56,1.0,1.0
2018-07-06 12:44:01,1.0,1.0
2018-07-06 12:44:06,1.0,1.0
2018-07-06 12:44:11,1.0,1.0
2018-07-06 12:44:16,1.0,1.0
2018-07-06 12:44:21,1.0,1.0
2018-07-06 12:44:26,1.0,1.0
2018-07-06 12:44:31,1.0,1.0
2018-07-06 12:44:36,1.0,1.0
2018-07-06 12:44:41,1.0,1.0
2018-07-06 12:44:46,1.0,1.0
2018-07-06 12:44:51,1.0,1.0
2018-07-06 12:44:56,1.0,1.0
2018-07-06 12:45:01,1.0,1.0
2018-07-06 12:45:06,1.0,1.0
2018-07-06 12:45:11,1.0,1.0
2018-07-06 12:45:16,1.0,1.0
2018-07-06 12:45:21,1.0,1.0
2018-07-06 12:45:26,1.0,1.0
2018-07-06 12:45:31,1.0,1.0
2018-07-06 12:45:36,1.0,1.0
2018-07-06 12:45:41,1.0,1.0
2018-07-06 12:45:46,1.0,1.0
2018-07-06 12:45:51,1.0,1.0
2018-07-06 12:45:56,1.0,1.0
2018-07-06 12:46:01,1.0,1.0
2018-07-06 12:46:06,1.0,1.0
2018-07-06 12:46:11,1.0,1.0
2018-07-06 12:46:16,1.0,1.0
2018-07-06 12:46:21,1.0,1.0
2018-07-06 12:46:26,1.0,1.0
2018-07-06 12:46:31,1.0,1.0
2018-07-06 12:46:36,1.0,1.0
2018-07-06 12:46:41,1.0,1.0
2018-07-06 12:46:46,1.0,1.0
2018-07-06 12:46:51,1.0,1.0
2018-07-06 12:46:56,1.0,1.0
2018-07-06 12:47:01,1.0,1.0
2018-07-06 12:47:06,1.0,1.0
2018-07-06 12:47:11,1.0,1.0
2018-07-06 12:47:16,1.0,1.0
2018-07-06 12:47:21,1.0,1.0
2018-07-06 12:47:26,1.0,1.0
2018-07-06 12:47:31,1.0,1.0
2018-07-06 12:47:36,1.0,1.0
2018-07-06 12:47:41,1.0,1.0
2018-07-06 12:47:46,1.0,1.0
2018-07-06 12:47:51,1.0,1.0
2018-07-06 12:47:56,1.0,1.0
2018-07-06 12:48:01,-1.0,1.0
2018-07-06 12:48:06,1.0,1.0
2018-07-06 12:48:11,1.0,1.0
2018-07-06 12:48:16,1.0,1.0
2018-07-06 12:48:21,-1.0,-1.0
2018-07-06 12:48:26,1.0,1.0
2018-07-06 12:48:31,1.0,1.0
2018-07-06 12:48:36,1.0,1.0
2018-07-06 12:48:41,1.0,1.0
2018-07-06 12:48:46,1.0,1.0
2018-07-06 12:48:51,1.0,1.0
2018-07-06 12:48:56,1.0,1.0
2018-07-06 12:49:01,1.0,1.0
2018-07-06 12:49:06,1.0,1.0
2018-07-06 12:49:11,1.0,1.0
2018-07-06 12:49:16,1.0,1.0
2018-07-06 12:49:21,1.0,1.0
2018-07-06 12:49:26,1.0,1.0
2018-07-06 12:49:31,1.0,1.0
2018-07-06 12:49:36,1.0,1.0
2018-07-06 12:49:41,1.0,1.0
2018-07-06 12:49:46,1.0,1.0
2018-07-06 12:49:51,1.0,1.0
2018-07-06 12:49:56,1.0,1.0
2018-07-06 12:50:01,1.0,1.0
2018-07-06 12:50:06,1.0,1.0
2018-07-06 12:50:11,1.0,1.0
2018-07-06 12:50:16,1.0,1.0
2018-07-06 12:50:21,1.0,1.0
2018-07-06 12:50:26,1.0,1.0
2018-07-06 12:50:31,1.0,1.0
2018-07-06 12:50:36,1.0,1.0
2018-07-06 12:50:41,1.0,1.0
2018-07-06 12:50:46,1.0,1.0
2018-07-06 12:50:51,1.0,1.0
2018-07-06 12:50:56,1.0,1.0
2018-07-06 12:51:01,1.0,1.0
2018-07-06 12:51:06,1.0,1.0
2018-07-06 12:51:11,1.0,1.0
2018-07-06 12:51:16,1.0,1.0
2018-07-06 12:51:21,1.0,1.0
2018-07-06 12:51:26,1.0,1.0
2018-07-06 12:51:31,1.0,1.0
2018-07-06 12:51:36,1.0,1.0
2018-07-06 12:51:41,1.0,1.0
2018-07-06 12:51:46,1.0,1.0
2018-07-06 12:51:51,1.0,1.0
2018-07-06 12:51:56,1.0,1.0
2018-07-06 12:52:01,1.0,1.0
2018-07-06 12:52:06,1.0,1.0
2018-07-06 12:52:11,1.0,1.0
2018-07-06 12:52:16,1.0,1.0
2018-07-06 12:52:21,1.0,1.0
2018-07-06 12:52:26,-1.0,-1.0
2018-07-06 12:52:31,1.0,1.0
2018-07-06 12:52:36,1.0,1.0
2018-07-06 12:52:41,1.0,1.0
2018-07-06 12:52:46,1.0,1.0
2018-07-06 12:52:51,1.0,1.0
2018-07-06 12:52:56,1.0,1.0
2018-07-06 12:53:01,1.0,1.0
2018-07-06 12:53:06,1.0,1.0
2018-07-06 12:53:11,1.0,1.0
2018-07-06 12:53:16,1.0,1.0
2018-07-06 12:53:21,1.0,1.0
2018-07-06 12:53:26,1.0,1.0
2018-07-06 12:53:31,1.0,1.0
2018-07-06 12:53:36,1.0,1.0
2018-07-06 12:53:41,1.0,1.0
2018-07-06 12:53:46,1.0,1.0
2018-07-06 12:53:51,1.0,1.0
2018-07-06 12:53:56,1.0,1.0
2018-07-06 12:54:01,1.0,1.0
2018-07-06 12:54:06,1.0,1.0
2018-07-06 12:54:11,1.0,1.0
2018-07-06 12:54:16,1.0,1.0
2018-07-06 12:54:21,1.0,1.0
2018-07-06 12:54:26,1.0,1.0
2018-07-06 12:54:31,1.0,1.0
2018-07-06 12:54:36,1.0,1.0
2018-07-06 12:54:41,1.0,1.0
2018-07-06 12:54:46,1.0,1.0
2018-07-06 12:54:51,1.0,1.0
2018-07-06 12:54:56,1.0,1.0
2018-07-06 12:55:01,1.0,1.0
2018-07-06 12:55:06,1.0,1.0
2018-07-06 12:55:11,1.0,1.0
2018-07-06 12:55:16,1.0,1.0
2018-07-06 12:55:21,-1.0,1.0
2018-07-06 12:55:26,1.0,1.0
2018-07-06 12:55:31,1.0,1.0
2018-07-06 12:55:36,1.0,1.0
2018-07-06 12:55:41,1.0,1.0
2018-07-06 12:55:46,1.0,1.0
2018-07-06 12:55:51,-1.0,1.0
2018-07-06 12:55:56,-1.0,-1.0
2018-07-06 12:56:01,1.0,1.0
2018-07-06 12:56:06,1.0,1.0
2018-07-06 12:56:11,1.0,1.0
2018-07-06 12:56:16,1.0,1.0
2018-07-06 12:56:21,1.0,1.0
2018-07-06 12:56:26,1.0,1.0
2018-07-06 12:56:31,1.0,1.0
2018-07-06 12:56:36,1.0,1.0
2018-07-06 12:56:41,1.0,1.0
2018-07-06 12:56:46,1.0,1.0
2018-07-06 12:56:51,1.0,1.0
2018-07-06 12:56:56,1.0,1.0
2018-07-06 12:57:01,1.0,1.0
2018-07-06 12:57:06,1.0,1.0
2018-07-06 12:57:11,1.0,1.0
2018-07-06 12:57:16,1.0,1.0
2018-07-06 12:57:21,1.0,1.0
2018-07-06 12:57:26,1.0,1.0
2018-07-06 12:57:31,1.0,1.0
2018-07-06 12:57:36,-1.0,1.0
2018-07-06 12:57:41,1.0,1.0
2018-07-06 12:57:46,1.0,1.0
2018-07-06 12:57:51,1.0,1.0
2018-07-06 12:57:56,1.0,1.0
2018-07-06 12:58:01,1.0,1.0
2018-07-06 12:58:06,1.0,1.0
2018-07-06 12:58:11,1.0,1.0
2018-07-06 12:58:16,1.0,1.0
2018-07-06 12:58:21,1.0,1.0
2018-07-06 12:58:26,1.0,1.0
2018-07-06 12:58:31,1.0,1.0
2018-07-06 12:58:36,1.0,1.0
2018-07-06 12:58:41,1.0,1.0
2018-07-06 12:58:46,1.0,1.0
2018-07-06 12:58:51,1.0,1.0
2018-07-06 12:58:56,1.0,1.0
2018-07-06 12:59:01,1.0,1.0
2018-07-06 12:59:06,1.0,1.0
2018-07-06 12:59:11,1.0,1.0
2018-07-06 12:59:16,1.0,1.0
2018-07-06 12:59:21,1.0,1.0
2018-07-06 12:59:26,1.0,1.0
2018-07-06 12:59:31,1.0,1.0
2018-07-06 12:59:36,1.0,1.0
2018-07-06 12:59:41,1.0,1.0
2018-07-06 12:59:46,1.0,1.0
2018-07-06 12:59:51,1.0,1.0
2018-07-06 12:59:56,1.0,1.0
2018-07-06 13:00:01,1.0,1.0
2018-07-06 13:00:06,1.0,1.0
2018-07-06 13:00:11,1.0,1.0
2018-07-06 13:00:16,1.0,1.0
2018-07-06 13:00:21,1.0,1.0
2018-07-06 13:00:26,1.0,1.0
2018-07-06 13:00:31,1.0,1.0
2018-07-06 13:00:36,1.0,1.0
2018-07-06 13:00:41,1.0,1.0
2018-07-06 13:00:46,1.0,1.0
2018-07-06 13:00:51,1.0,1.0
2018-07-06 13:00:56,1.0,1.0
2018-07-06 13:01:01,1.0,1.0
2018-07-06 13:01:06,1.0,1.0
2018-07-06 13:01:11,1.0,1.0
2018-07-06 13:01:16,1.0,1.0
2018-07-06 13:01:21,1.0,1.0
2018-07-06 13:01:26,1.0,1.0
2018-07-06 13:01:31,1.0,1.0
2018-07-06 13:01:36,1.0,1.0
2018-07-06 13:01:41,1.0,1.0
2018-07-06 13:01:46,1.0,1.0
2018-07-06 13:01:51,1.0,1.0
2018-07-06 13:01:56,1.0,1.0
2018-07-06 13:02:01,1.0,1.0
2018-07-06 13:02:06,1.0,1.0
2018-07-06 13:02:11,1.0,1.0
2018-07-06 13:02:16,1.0,1.0
2018-07-06 13:02:21,1.0,1.0
2018-07-06 13:02:26,1.0,1.0
2018-07-06 13:02:31,1.0,1.0
2018-07-06 13:02:36,1.0,1.0
2018-07-06 13:02:41,1.0,1.0
2018-07-06 13:02:46,1.0,1.0
2018-07-06 13:02:51,1.0,1.0
2018-07-06 13:02:56,1.0,1.0
2018-07-06 13:03:01,1.0,1.0
2018-07-06 13:03:06,1.0,1.0
2018-07-06 13:03:11,1.0,1.0
2018-07-06 13:03:16,1.0,1.0
2018-07-06 13:03:21,1.0,1.0
2018-07-06 13:03:26,1.0,1.0
2018-07-06 13:03:31,1.0,1.0
2018-07-06 13:03:36,1.0,1.0
2018-07-06 13:03:41,1.0,1.0
2018-07-06 13:03:46,1.0,1.0
2018-07-06 13:03:51,1.0,1.0
2018-07-06 13:03:56,1.0,1.0
2018-07-06 13:04:01,1.0,1.0
2018-07-06 13:04:06,1.0,1.0
2018-07-06 13:04:11,1.0,1.0
2018-07-06 13:04:16,1.0,1.0
2018-07-06 13:04:21,1.0,1.0
2018-07-06 13:04:26,1.0,1.0
2018-07-06 13:04:31,1.0,1.0
2018-07-06 13:04:36,1.0,1.0
2018-07-06 13:04:41,1.0,1.0
2018-07-06 13:04:46,1.0,1.0
2018-07-06 13:04:51,1.0,1.0
2018-07-06 13:04:56,1.0,1.0
2018-07-06 13:05:01,1.0,1.0
2018-07-06 13:05:06,1.0,1.0
2018-07-06 13:05:11,1.0,1.0
2018-07-06 13:05:16,1.0,1.0
2018-07-06 13:05:21,1.0,1.0
2018-07-06 13:05:26,1.0,1.0
2018-07-06 13:05:31,1.0,1.0
2018-07-06 13:05:36,1.0,1.0
2018-07-06 13:05:41,1.0,1.0
2018-07-06 13:05:46,1.0,1.0
2018-07-06 13:05:51,1.0,1.0
2018-07-06 13:05:56,1.0,1.0
2018-07-06 13:06:01,1.0,1.0
2018-07-06 13:06:06,1.0,1.0
2018-07-06 13:06:11,1.0,1.0
2018-07-06 13:06:16,1.0,1.0
2018-07-06 13:06:21,1.0,1.0
2018-07-06 13:06:26,1.0,1.0
2018-07-06 13:06:31,1.0,1.0
2018-07-06 13:06:36,1.0,1.0
2018-07-06 13:06:41,1.0,1.0
2018-07-06 13:06:46,1.0,1.0
2018-07-06 13:06:51,1.0,1.0
2018-07-06 13:06:56,1.0,1.0
2018-07-06 13:07:01,1.0,1.0
2018-07-06 13:07:06,1.0,1.0
2018-07-06 13:07:11,1.0,1.0
2018-07-06 13:07:16,1.0,1.0
2018-07-06 13:07:21,1.0,1.0
2018-07-06 13:07:26,1.0,1.0
2018-07-06 13:07:31,1.0,1.0
2018-07-06 13:07:36,1.0,1.0
2018-07-06 13:07:41,1.0,1.0
2018-07-06 13:07:46,1.0,1.0
2018-07-06 13:07:51,1.0,1.0
2018-07-06 13:07:56,1.0,1.0
2018-07-06 13:08:01,1.0,1.0
2018-07-06 13:08:06,-1.0,-1.0
2018-07-06 13:08:11,-1.0,-1.0
2018-07-06 13:08:16,1.0,1.0
2018-07-06 13:08:21,1.0,1.0
2018-07-06 13:08:26,-1.0,1.0
2018-07-06 13:08:31,1.0,1.0
2018-07-06 13:08:36,1.0,1.0
2018-07-06 13:08:41,1.0,1.0
2018-07-06 13:08:46,1.0,1.0
2018-07-06 13:08:51,1.0,1.0
2018-07-06 13:08:56,1.0,1.0
2018-07-06 13:09:01,1.0,1.0
2018-07-06 13:09:06,1.0,1.0
2018-07-06 13:09:11,1.0,1.0
2018-07-06 13:09:16,-1.0,1.0
2018-07-06 13:09:21,1.0,1.0
2018-07-06 13:09:26,1.0,1.0
2018-07-06 13:09:31,1.0,1.0
2018-07-06 13:09:36,1.0,1.0
2018-07-06 13:09:41,1.0,1.0
2018-07-06 13:09:46,1.0,1.0
2018-07-06 13:09:51,1.0,1.0
2018-07-06 13:09:56,1.0,1.0
2018-07-06 13:10:01,1.0,1.0
2018-07-06 13:10:06,1.0,1.0
2018-07-06 13:10:11,-1.0,1.0
2018-07-06 13:10:16,1.0,1.0
2018-07-06 13:10:21,1.0,1.0
2018-07-06 13:10:26,1.0,1.0
2018-07-06 13:10:31,1.0,1.0
2018-07-06 13:10:36,1.0,1.0
2018-07-06 13:10:41,1.0,1.0
2018-07-06 13:10:46,1.0,1.0
2018-07-06 13:10:51,1.0,1.0
2018-07-06 13:10:56,1.0,1.0
2018-07-06 13:11:01,-1.0,-1.0
2018-07-06 13:11:06,1.0,1.0
2018-07-06 13:11:11,-1.0,1.0
2018-07-06 13:11:16,1.0,1.0
2018-07-06 13:11:21,-1.0,-1.0
2018-07-06 13:11:26,1.0,1.0
2018-07-06 13:11:31,1.0,1.0
2018-07-06 13:11:36,1.0,1.0
2018-07-06 13:11:41,1.0,1.0
2018-07-06 13:11:46,1.0,1.0
2018-07-06 13:11:51,1.0,1.0
2018-07-06 13:11:56,1.0,1.0
2018-07-06 13:12:01,1.0,1.0
2018-07-06 13:12:06,1.0,1.0
2018-07-06 13:12:11,1.0,1.0
2018-07-06 13:12:16,1.0,1.0
2018-07-06 13:12:21,1.0,1.0
2018-07-06 13:12:26,1.0,1.0
2018-07-06 13:12:31,1.0,1.0
2018-07-06 13:12:36,1.0,1.0
2018-07-06 13:12:41,1.0,1.0
2018-07-06 13:12:46,1.0,1.0
2018-07-06 13:12:51,1.0,1.0
2018-07-06 13:12:56,-1.0,1.0
2018-07-06 13:13:01,1.0,1.0
2018-07-06 13:13:06,1.0,1.0
2018-07-06 13:13:11,1.0,1.0
2018-07-06 13:13:16,1.0,1.0
2018-07-06 13:13:21,1.0,1.0
2018-07-06 13:13:26,-1.0,1.0
2018-07-06 13:13:31,-1.0,-1.0
2018-07-06 13:13:36,-1.0,-1.0
2018-07-06 13:13:41,-1.0,1.0
2018-07-06 13:13:46,1.0,1.0
2018-07-06 13:13:51,1.0,1.0
2018-07-06 13:13:56,1.0,1.0
2018-07-06 13:14:01,1.0,1.0
2018-07-06 13:14:06,1.0,1.0
2018-07-06 13:14:11,1.0,1.0
2018-07-06 13:14:16,1.0,1.0
2018-07-06 13:14:21,1.0,1.0
2018-07-06 13:14:26,1.0,1.0
2018-07-06 13:14:31,1.0,1.0
2018-07-06 13:14:36,1.0,1.0
2018-07-06 13:14:41,1.0,1.0
2018-07-06 13:14:46,1.0,1.0
2018-07-06 13:14:51,1.0,1.0
2018-07-06 13:14:56,1.0,1.0
2018-07-06 13:15:01,1.0,1.0
2018-07-06 13:15:06,1.0,1.0
2018-07-06 13:15:11,1.0,1.0
2018-07-06 13:15:16,1.0,1.0
2018-07-06 13:15:21,1.0,1.0
2018-07-06 13:15:26,1.0,1.0
2018-07-06 13:15:31,1.0,1.0
2018-07-06 13:15:36,1.0,1.0
2018-07-06 13:15:41,1.0,1.0
2018-07-06 13:15:46,1.0,1.0
2018-07-06 13:15:51,1.0,1.0
2018-07-06 13:15:56,1.0,1.0
2018-07-06 13:16:01,1.0,1.0
2018-07-06 13:16:06,1.0,1.0
2018-07-06 13:16:11,1.0,1.0
2018-07-06 13:16:16,-1.0,0.0
2018-07-06 13:16:21,-1.0,0.0
2018-07-06 13:16:26,1.0,1.0
2018-07-06 13:16:31,1.0,1.0
2018-07-06 13:16:36,1.0,1.0
2018-07-06 13:16:41,1.0,1.0
2018-07-06 13:16:46,1.0,1.0
2018-07-06 13:16:51,1.0,1.0
2018-07-06 13:16:56,1.0,1.0
2018-07-06 13:17:01,1.0,1.0
2018-07-06 13:17:06,1.0,1.0
2018-07-06 13:17:11,1.0,1.0
2018-07-06 13:17:16,1.0,1.0
2018-07-06 13:17:21,1.0,1.0
2018-07-06 13:17:26,1.0,1.0
2018-07-06 13:17:31,1.0,1.0
2018-07-06 13:17:36,1.0,1.0
2018-07-06 13:17:41,1.0,1.0
2018-07-06 13:17:46,-1.0,-1.0
2018-07-06 13:17:51,-1.0,1.0
2018-07-06 13:17:56,-1.0,1.0
2018-07-06 13:18:01,1.0,1.0
2018-07-06 13:18:06,1.0,1.0
2018-07-06 13:18:11,1.0,1.0
2018-07-06 13:18:16,1.0,1.0
2018-07-06 13:18:21,-1.0,1.0
2018-07-06 13:18:26,1.0,1.0
2018-07-06 13:18:31,-1.0,1.0
2018-07-06 13:18:36,1.0,1.0
2018-07-06 13:18:41,1.0,1.0
2018-07-06 13:18:46,1.0,1.0
2018-07-06 13:18:51,1.0,1.0
2018-07-06 13:18:56,1.0,1.0
2018-07-06 13:19:01,1.0,1.0
2018-07-06 13:19:06,1.0,1.0
2018-07-06 13:19:11,1.0,1.0
2018-07-06 13:19:16,1.0,1.0
2018-07-06 13:19:21,1.0,0.0
2018-07-06 13:19:26,1.0,0.0
2018-07-06 13:19:31,1.0,1.0
2018-07-06 13:19:36,1.0,1.0
2018-07-06 13:19:41,1.0,1.0
2018-07-06 13:19:46,1.0,0.0
2018-07-06 13:19:51,1.0,0.0
2018-07-06 13:19:56,1.0,1.0
2018-07-06 13:20:01,1.0,0.0
2018-07-06 13:20:06,1.0,0.0
2018-07-06 13:20:11,1.0,0.0
2018-07-06 13:20:16,1.0,0.0
2018-07-06 13:20:21,1.0,0.0
2018-07-06 13:20:26,1.0,0.0
2018-07-06 13:20:31,1.0,0.0
2018-07-06 13:20:36,-1.0,0.0
2018-07-06 13:20:41,1.0,0.0
2018-07-06 13:20:46,-1.0,0.0
2018-07-06 13:20:51,-1.0,0.0
2018-07-06 13:20:56,1.0,0.0
2018-07-06 13:21:01,-1.0,1.0
2018-07-06 13:21:06,1.0,1.0
2018-07-06 13:21:11,1.0,1.0
2018-07-06 13:21:16,-1.0,1.0
2018-07-06 13:21:21,1.0,1.0
2018-07-06 13:21:26,1.0,1.0
2018-07-06 13:21:31,1.0,1.0
2018-07-06 13:21:36,1.0,1.0
2018-07-06 13:21:41,1.0,1.0
2018-07-06 13:21:46,1.0,1.0
2018-07-06 13:21:51,1.0,1.0
2018-07-06 13:21:56,-1.0,1.0
2018-07-06 13:22:01,1.0,1.0
2018-07-06 13:22:06,1.0,1.0
2018-07-06 13:22:11,1.0,1.0
2018-07-06 13:22:16,1.0,0.0
2018-07-06 13:22:21,1.0,1.0
2018-07-06 13:22:26,1.0,1.0
2018-07-06 13:22:31,1.0,1.0
2018-07-06 13:22:36,1.0,1.0
2018-07-06 13:22:41,1.0,1.0
2018-07-06 13:22:46,1.0,1.0
2018-07-06 13:22:51,1.0,1.0
2018-07-06 13:22:56,1.0,1.0
2018-07-06 13:23:01,1.0,1.0
2018-07-06 13:23:06,1.0,1.0
2018-07-06 13:23:11,1.0,1.0
2018-07-06 13:23:16,1.0,1.0
2018-07-06 13:23:21,1.0,1.0
2018-07-06 13:23:26,1.0,1.0
2018-07-06 13:23:31,1.0,1.0
2018-07-06 13:23:36,1.0,1.0
2018-07-06 13:23:41,1.0,1.0
2018-07-06 13:23:46,1.0,1.0
2018-07-06 13:23:51,1.0,1.0
2018-07-06 13:23:56,1.0,1.0
2018-07-06 13:24:01,1.0,1.0
2018-07-06 13:24:06,1.0,1.0
2018-07-06 13:24:11,1.0,1.0
2018-07-06 13:24:16,1.0,1.0
2018-07-06 13:24:21,1.0,1.0
2018-07-06 13:24:26,1.0,1.0
2018-07-06 13:24:31,1.0,1.0
2018-07-06 13:24:36,1.0,1.0
2018-07-06 13:24:41,1.0,1.0
2018-07-06 13:24:46,1.0,1.0
2018-07-06 13:24:51,1.0,1.0
2018-07-06 13:24:56,1.0,1.0
2018-07-06 13:25:01,1.0,1.0
2018-07-06 13:25:06,1.0,1.0
2018-07-06 13:25:11,1.0,1.0
2018-07-06 13:25:16,1.0,1.0
2018-07-06 13:25:21,1.0,1.0
2018-07-06 13:25:26,1.0,1.0
2018-07-06 13:25:31,1.0,1.0
2018-07-06 13:25:36,1.0,1.0
2018-07-06 13:25:41,1.0,1.0
2018-07-06 13:25:46,1.0,1.0
2018-07-06 13:25:51,1.0,1.0
2018-07-06 13:25:56,1.0,1.0
2018-07-06 13:26:01,1.0,1.0
2018-07-06 13:26:06,1.0,1.0
2018-07-06 13:26:11,1.0,1.0
2018-07-06 13:26:16,1.0,1.0
2018-07-06 13:26:21,1.0,1.0
2018-07-06 13:26:26,1.0,1.0
2018-07-06 13:26:31,1.0,1.0
2018-07-06 13:26:36,1.0,1.0
2018-07-06 13:26:41,1.0,1.0
2018-07-06 13:26:46,1.0,1.0
2018-07-06 13:26:51,1.0,1.0
2018-07-06 13:26:56,1.0,1.0
2018-07-06 13:27:01,-1.0,-1.0
2018-07-06 13:27:06,1.0,1.0
2018-07-06 13:27:11,1.0,1.0
2018-07-06 13:27:16,1.0,1.0
2018-07-06 13:27:21,1.0,1.0
2018-07-06 13:27:26,1.0,1.0
2018-07-06 13:27:31,1.0,1.0
2018-07-06 13:27:36,1.0,1.0
2018-07-06 13:27:41,1.0,1.0
2018-07-06 13:27:46,1.0,1.0
2018-07-06 13:27:51,1.0,1.0
2018-07-06 13:27:56,1.0,1.0
2018-07-06 13:28:01,1.0,1.0
2018-07-06 13:28:06,1.0,1.0
2018-07-06 13:28:11,1.0,1.0
2018-07-06 13:28:16,1.0,1.0
2018-07-06 13:28:21,1.0,1.0
2018-07-06 13:28:26,1.0,1.0
2018-07-06 13:28:31,1.0,1.0
2018-07-06 13:28:36,1.0,1.0
2018-07-06 13:28:41,1.0,1.0
2018-07-06 13:28:46,1.0,1.0
2018-07-06 13:28:51,1.0,1.0
2018-07-06 13:28:56,1.0,1.0
2018-07-06 13:29:01,1.0,1.0
2018-07-06 13:29:06,1.0,1.0
2018-07-06 13:29:11,1.0,1.0
2018-07-06 13:29:16,1.0,1.0
2018-07-06 13:29:21,1.0,1.0
2018-07-06 13:29:26,1.0,1.0
2018-07-06 13:29:31,1.0,1.0
2018-07-06 13:29:36,1.0,1.0
2018-07-06 13:29:41,1.0,1.0
2018-07-06 13:29:46,1.0,1.0
2018-07-06 13:29:51,1.0,1.0
2018-07-06 13:29:56,1.0,1.0
2018-07-06 13:30:01,1.0,1.0
2018-07-06 13:30:06,1.0,1.0
2018-07-06 13:30:11,1.0,1.0
2018-07-06 13:30:16,1.0,1.0
2018-07-06 13:30:21,1.0,1.0
2018-07-06 13:30:26,1.0,1.0
2018-07-06 13:30:31,1.0,1.0
2018-07-06 13:30:36,1.0,1.0
2018-07-06 13:30:41,1.0,1.0
2018-07-06 13:30:46,1.0,1.0
2018-07-06 13:30:51,1.0,1.0
2018-07-06 13:30:56,1.0,1.0
2018-07-06 13:31:01,1.0,1.0
2018-07-06 13:31:06,1.0,1.0
2018-07-06 13:31:11,1.0,1.0
2018-07-06 13:31:16,1.0,1.0
2018-07-06 13:31:21,1.0,1.0
2018-07-06 13:31:26,1.0,1.0
2018-07-06 13:31:31,1.0,1.0
2018-07-06 13:31:36,1.0,1.0
2018-07-06 13:31:41,1.0,1.0
2018-07-06 13:31:46,1.0,1.0
2018-07-06 13:31:51,1.0,1.0
2018-07-06 13:31:56,1.0,1.0
2018-07-06 13:32:01,1.0,1.0
2018-07-06 13:32:06,1.0,1.0
2018-07-06 13:32:11,1.0,1.0
2018-07-06 13:32:16,1.0,1.0
2018-07-06 13:32:21,1.0,1.0
2018-07-06 13:32:26,1.0,1.0
2018-07-06 13:32:31,1.0,1.0
2018-07-06 13:32:36,1.0,1.0
2018-07-06 13:32:41,1.0,1.0
2018-07-06 13:32:46,1.0,1.0
2018-07-06 13:32:51,1.0,1.0
2018-07-06 13:32:56,1.0,1.0
2018-07-06 13:33:01,1.0,1.0
2018-07-06 13:33:06,1.0,1.0
2018-07-06 13:33:11,1.0,1.0
2018-07-06 13:33:16,1.0,1.0
2018-07-06 13:33:21,1.0,1.0
2018-07-06 13:33:26,1.0,1.0
2018-07-06 13:33:31,1.0,1.0
2018-07-06 13:33:36,1.0,1.0
2018-07-06 13:33:41,1.0,1.0
2018-07-06 13:33:46,1.0,1.0
2018-07-06 13:33:51,-1.0,-1.0
2018-07-06 13:33:56,1.0,1.0
2018-07-06 13:34:01,1.0,-1.0
2018-07-06 13:34:06,-1.0,-1.0
2018-07-06 13:34:11,-1.0,1.0
