,EDA,rise_time,max_deriv,amp,decay_time,SCR_width,AUC
2018-07-06 12:13:10.875000,7.2591585,1.375,0.05896979401606117,0.026264499999999913,0.375,1.375,0.03611368749999988
2018-07-06 12:13:28.125000,7.253393,1.375,0.067980935335342,0.06533999999999995,,,
2018-07-06 12:13:49.875000,7.3802295,0.625,0.5261333294572559,0.026904500000000553,,,
2018-07-06 12:13:51.125000,7.464219,0.75,0.14283753754100204,0.020855000000000068,0.75,1.5,0.0312825000000001
2018-07-06 12:14:01.750000,7.471907000000001,4.0,0.3574380936764925,0.529840000000001,0.25,1.625,0.8609900000000016
2018-07-06 12:14:07.875000,5.905272500000001,1.375,0.09007282221322654,0.12171150000000086,0.625,1.875,0.2282090625000016
2018-07-06 12:14:14.375000,6.2691275,0.75,0.6079566688838121,0.1390084999999992,,,
2018-07-06 12:14:18.750000,6.005205,1.5,0.13692736846405396,0.15886600000000062,,,
2018-07-06 12:14:32.125000,5.9373025,1.5,0.15767151330750195,0.09865100000000115,0.25,1.375,0.1356451250000016
2018-07-06 12:14:36.750000,6.106418,4.0,0.0529954542945994,0.18448999999999938,,,
2018-07-06 12:14:38.875000,6.5544085,1.375,0.26791936964880136,0.29937450000000076,0.5,1.75,0.5239053750000013
2018-07-06 12:14:44.750000,6.13162,1.125,0.1072680101455461,0.027545499999999556,0.125,1.25,0.034431874999999446
2018-07-06 12:14:46.750000,6.294329,1.125,0.3080500776288666,0.09352550000000015,0.25,1.375,0.1285975625000002
2018-07-06 12:14:53.125000,7.2399404999999994,1.75,0.28673675835971935,0.6221139999999998,1.5,3.0,1.8663419999999995
2018-07-06 12:15:02.500000,6.916442999999999,1.375,0.05729862405734565,0.06982399999999966,,,
2018-07-06 12:15:08.250000,7.170116,4.0,0.1473742066293795,0.2921079999999998,,,
2018-07-06 12:15:13.750000,7.091964999999999,4.0,0.019938665489199536,0.12427499999999991,1.5,3.25,0.4038937499999997
2018-07-06 12:15:25.500000,7.69355,4.0,0.31808376276307015,0.6413020000000005,1.375,2.75,1.7635805000000013
2018-07-06 12:15:34.625000,7.0170885,1.125,0.0423351186696479,0.02562350000000002,0.5,1.5,0.03843525000000003
2018-07-06 12:15:38.375000,7.283574,4.0,0.09486038357229276,0.15438200000000002,0.625,1.875,0.28946625000000004
2018-07-06 12:15:45.250000,7.114458,1.5,0.07551880869446848,0.09352599999999889,0.5,1.875,0.17536124999999791
2018-07-06 12:15:53.750000,6.951035000000001,1.375,0.04292603473927059,0.04996600000000129,0.5,1.625,0.08119475000000209
2018-07-06 12:16:06.625000,6.825480000000001,1.5,0.047055072217354166,0.06277750000000015,0.75,2.0,0.1255550000000003
2018-07-06 12:16:20.625000,6.828042,1.875,0.08473051436593693,0.18064500000000017,1.25,2.75,0.49677375000000046
2018-07-06 12:16:28.625000,6.6819880000000005,1.25,0.04459974814988499,0.037154500000000645,0.5,1.625,0.06037606250000105
2018-07-06 12:16:40.875000,6.525685,1.125,0.03506525448113962,0.025624000000000535,0.875,1.875,0.048045000000001004
2018-07-06 12:17:02,6.369919,4.0,0.043311430803239404,0.13964900000000036,,,
2018-07-06 12:17:07.750000,6.672275999999999,4.0,0.057401880690235885,0.0973689999999987,0.25,2.125,0.20690912499999725
2018-07-06 12:17:11.625000,6.5608145,0.75,0.12964366722975385,0.02049950000000056,,,
2018-07-06 12:17:13,6.706867999999999,1.0,0.16166195869929467,0.047403000000000084,0.125,1.125,0.053328375000000094
2018-07-06 12:17:22.125000,6.704305999999999,4.0,0.18290078038943847,0.3267004999999994,1.0,2.375,0.7759136874999986
2018-07-06 12:17:30.125000,5.7915125,0.875,0.365890583174572,0.058293499999999554,0.25,1.0,0.058293499999999554
2018-07-06 12:17:39.125000,5.141732,4.0,0.17071782173184147,0.28634250000000083,1.375,2.625,0.7516490625000022
2018-07-06 12:17:51.500000,6.123073000000001,4.0,0.2153878676123142,0.40010300000000054,,,
2018-07-06 12:17:54.875000,6.220442,1.5,0.17086685023179982,0.2037065000000009,0.625,1.875,0.3819496875000017
2018-07-06 12:18:01.250000,6.907475,4.0,0.456746539287046,0.6793459999999998,0.875,2.125,1.4436102499999994
2018-07-06 12:18:14.375000,6.449992,1.625,0.1689100594523545,0.25303200000000015,1.125,2.375,0.6009510000000003
2018-07-06 12:18:42.750000,5.617913,1.75,0.14042797424158238,0.24086099999999977,0.5,1.875,0.45161437499999957
2018-07-06 12:19:08,4.496681,4.0,0.02159294179324789,0.0602159999999996,0.375,2.25,0.1354859999999991
2018-07-06 12:19:16.125000,4.363438,4.0,0.16736981608130463,0.2350954999999999,,,
2018-07-06 12:19:19.750000,4.656827,1.0,0.26591302477259404,0.17039600000000021,,,
2018-07-06 12:19:27.250000,5.151982,1.125,0.4516252324638934,0.18128650000000057,0.75,1.75,0.317251375000001
2018-07-06 12:19:31.625000,5.5109345,4.0,0.19343032718839837,0.5902050000000001,,,
2018-07-06 12:19:34.250000,5.878368,4.0,0.04837974410878587,0.10543300000000055,0.125,2.0,0.2108660000000011
2018-07-06 12:19:44.250000,5.271996,1.75,0.0353887848027874,0.038435999999999915,0.375,1.5,0.05765399999999987
2018-07-06 12:19:49.500000,5.558979,4.0,0.27594509627179065,0.43688099999999963,1.5,2.75,1.201422749999999
2018-07-06 12:19:54.500000,5.469296,1.0,0.28644087135762675,0.19089499999999937,,,
2018-07-06 12:20:01.625000,6.191616,4.0,0.2678889483967204,0.572421499999999,1.625,3.125,1.788817187499997
2018-07-06 12:20:22,5.675942,1.375,0.026307661841499907,0.02049849999999953,0.375,1.75,0.03587237499999918
2018-07-06 12:20:37.875000,5.8123875,4.0,0.11469169730804296,0.28698400000000035,1.625,3.125,0.8968250000000011
2018-07-06 12:20:55.250000,5.661849,1.625,0.07110295730494443,0.11274350000000055,0.875,2.25,0.25367287500000124
2018-07-06 12:20:58.750000,5.6259760000000005,1.25,0.030605849854726586,0.029467000000001242,0.25,1.25,0.03683375000000155
2018-07-06 12:21:29,5.370646,1.75,0.008488667945670159,0.020499000000000045,0.75,2.25,0.0461227500000001
2018-07-06 12:21:37,5.397551,1.75,0.05344474601910676,0.08840100000000017,1.0,2.125,0.18785212500000037
2018-07-06 12:21:55.625000,4.8317084999999995,1.0,0.3295761839226081,0.1383674999999993,,,
2018-07-06 12:22:03.750000,5.585884,1.25,0.27492304601289064,0.23019500000000015,0.5,1.625,0.37406687500000024
2018-07-06 12:22:09.750000,5.007209,1.625,0.018100513405066465,0.046762999999999444,,,
2018-07-06 12:22:24.125000,5.072549,1.875,0.053752867030450346,0.10121300000000044,1.25,2.625,0.26568412500000116
2018-07-06 12:22:32,5.03027,1.0,0.07867516873699643,0.029467000000000354,,,
2018-07-06 12:22:37.250000,5.071268,1.875,0.01748957317713362,0.03202999999999978,0.125,1.625,0.052048749999999644
2018-07-06 12:22:48.875000,4.5953315,4.0,0.02729341128133811,0.13003950000000053,,,
2018-07-06 12:23:09.500000,4.446714,1.0,0.11248392766846393,0.042277999999999594,,,
2018-07-06 12:23:16.750000,4.431341000000001,1.0,0.5163478427768524,0.16700400000000037,0.375,1.125,0.18787950000000042
2018-07-06 12:23:24.750000,4.114439,4.0,0.0842445863779453,0.1114620000000004,1.375,2.625,0.29258775000000103
2018-07-06 12:23:33.625000,3.8594850000000003,4.0,0.02582687847833043,0.06277800000000022,,,
2018-07-06 12:23:37.875000,4.185544500000001,4.0,0.17070194528049143,0.244704500000001,,,
2018-07-06 12:23:48,3.724962,1.5,0.06418152255745824,0.06277800000000067,,,
2018-07-06 12:23:52.500000,3.878703,4.0,0.06171902442575039,0.131961,1.75,3.25,0.42887325
2018-07-06 12:24:26.625000,4.052302,1.75,0.1002366760444744,0.19281650000000017,1.375,2.75,0.5302453750000005
2018-07-06 12:24:49,4.1029089999999995,1.75,0.014157223068153257,0.025623999999999647,0.875,2.25,0.057653999999999206
2018-07-06 12:24:52.125000,4.143905999999999,1.375,0.0539677349128489,0.05380899999999933,,,
2018-07-06 12:24:59.875000,4.297648000000001,4.0,0.048827851360940144,0.15182000000000073,,,
2018-07-06 12:25:04.500000,4.318146,4.0,0.010707648347732857,0.06405899999999942,0.5,2.25,0.1441327499999987
2018-07-06 12:25:23.125000,4.1925915,1.625,0.1675239915648028,0.23189349999999953,,,
2018-07-06 12:25:31.250000,4.254087,1.375,0.052306406928714466,0.05124650000000042,0.5,1.625,0.08327556250000068
2018-07-06 12:25:37.125000,4.2848355,1.375,0.07688093463374912,0.0730265000000001,0.5,1.75,0.12779637500000018
2018-07-06 12:25:42,4.216933,1.375,0.05270542237787268,0.05380900000000022,0.375,1.625,0.08743962500000035
2018-07-06 12:25:54.250000,4.022194,4.0,0.02203823962495477,0.035871999999999904,0.375,1.75,0.06277599999999983
2018-07-06 12:25:59.125000,4.1298135,1.5,0.07043204931704494,0.09929150000000053,,,
2018-07-06 12:26:06.125000,3.783269,0.875,0.5570282620479201,0.11786800000000008,,,
2018-07-06 12:26:08.250000,3.921636,1.75,0.018567376879424558,0.07943299999999986,,,
2018-07-06 12:26:15.500000,3.964542,1.625,0.0693352026836358,0.0909639999999996,,,
2018-07-06 12:26:17.750000,4.123407,1.5,0.09647432925253696,0.12811700000000004,,,
2018-07-06 12:26:19.625000,4.51782,1.375,0.2356020115758959,0.2944800000000001,1.375,2.625,0.7730100000000002
2018-07-06 12:26:23.500000,4.4108410000000005,1.375,0.07232785586525381,0.08007250000000088,0.625,1.75,0.14012687500000154
2018-07-06 12:26:29.250000,4.492837000000001,4.0,0.08041546019985191,0.14861600000000053,1.5,2.875,0.4272710000000015
2018-07-06 12:26:39.500000,4.4210910000000005,1.375,0.06581672042445774,0.07430800000000026,0.75,1.875,0.1393275000000005
2018-07-06 12:26:55.375000,4.2122589999999995,1.5,0.07502974935013285,0.09865049999999975,0.875,2.125,0.20963231249999947
2018-07-06 12:27:02.750000,4.1264199999999995,1.75,0.01479286837353655,0.020497999999999017,0.5,1.875,0.03843374999999816
2018-07-06 12:27:08,4.31091,1.875,0.09238466396968548,0.19922299999999993,,,
2018-07-06 12:27:17.750000,3.877422,1.0,0.245180899911281,0.12043099999999995,,,
2018-07-06 12:27:24.375000,3.895358,1.125,0.06427115139141826,0.02434199999999942,0.25,1.375,0.0334702499999992
2018-07-06 12:27:32.250000,4.045256,1.625,0.03942110706172741,0.07943350000000038,,,
2018-07-06 12:27:35.750000,4.190029,4.0,0.04592039225705946,0.14477299999999982,1.0,2.625,0.3800291249999995
2018-07-06 12:27:53.250000,4.081129,4.0,0.043449542303942934,0.11786899999999978,,,
2018-07-06 12:28:02.750000,4.005539,1.375,0.033216079681524846,0.03459149999999944,0.75,2.0,0.06918299999999888
2018-07-06 12:28:23.125000,3.939559,1.875,0.027973679453630496,0.06341899999999967,,,
2018-07-06 12:28:26.375000,3.9626200000000003,1.375,0.025506822788692318,0.0249830000000002,0.25,1.5,0.0374745000000003
2018-07-06 12:28:29.750000,4.07216,4.0,0.06331810536139315,0.052528000000000574,,,
2018-07-06 12:28:40.500000,4.600455999999999,4.0,0.0727331892961196,0.3241379999999996,,,
2018-07-06 12:28:43.375000,4.6299225,1.25,0.1374663502003841,0.0948064999999998,0.625,1.75,0.16591137499999964
2018-07-06 12:28:57.375000,4.889981000000001,4.0,0.09913799339568641,0.38945700000000016,,,
2018-07-06 12:29:01.750000,5.210916,1.875,0.19474994287667968,0.44648999999999983,,,
2018-07-06 12:29:03.500000,5.368501,1.125,0.13974493371779673,0.08263599999999993,0.25,1.25,0.10329499999999991
2018-07-06 12:29:09.750000,5.278818,1.75,0.11240574827878547,0.19858200000000004,0.75,2.125,0.4219867500000001
2018-07-06 12:29:20.375000,5.292911500000001,1.75,0.21408392838856116,0.3548860000000005,,,
2018-07-06 12:29:24.125000,5.4443135,1.75,0.10556720024331767,0.2289134999999991,1.375,2.875,0.6581263124999974
2018-07-06 12:29:31.375000,5.703752,1.625,0.24827860791522838,0.42919399999999985,,,
2018-07-06 12:29:36.500000,6.331483,4.0,0.19665510138880649,0.7596920000000003,1.25,2.875,2.1841145000000006
2018-07-06 12:29:42.125000,5.8181525,1.25,0.07620009874182898,0.04227850000000011,0.25,1.375,0.05813293750000015
2018-07-06 12:29:45.375000,5.7374385,1.125,0.04153196954780469,0.02434249999999949,,,
2018-07-06 12:29:48.125000,5.877727500000001,4.0,0.07299130213191063,0.1261960000000002,0.625,2.0,0.2523920000000004
2018-07-06 12:29:52.500000,6.3827300000000005,4.0,0.24907306253492578,0.6158240000000008,,,
2018-07-06 12:29:55.875000,6.878008,4.0,0.34365882429755246,0.5811165000000003,0.875,2.25,1.3075121250000006
2018-07-06 12:30:00.875000,6.318672,1.125,0.12014894917790642,0.07815200000000022,0.375,1.375,0.1074590000000003
2018-07-06 12:30:05.750000,6.744022,1.625,0.42727707454041663,0.6168864999999997,1.125,2.375,1.4651054374999992
2018-07-06 12:30:10.375000,6.9612845,1.5,0.4023961156954101,0.5068079999999995,1.0,2.25,1.1403179999999988
2018-07-06 12:30:16.625000,7.2373780000000005,1.625,0.5464864909879559,0.8597720000000004,1.375,2.625,2.256901500000001
2018-07-06 12:30:19.875000,7.4930455,1.25,0.545031647277991,0.4593745,0.5,1.625,0.7464835625
2018-07-06 12:30:23.625000,6.9273335,1.0,0.12341504367244482,0.025623499999999133,0.125,1.125,0.028826437499999025
2018-07-06 12:30:27,6.925412,1.25,0.16804534982247432,0.1575849999999992,0.5,1.625,0.2560756249999987
2018-07-06 12:30:40.375000,7.257236499999999,1.5,0.3673510929647392,0.44584949999999957,,,
2018-07-06 12:30:42,7.478312,1.0,0.24680879705463354,0.07373999999999992,0.125,1.125,0.0829574999999999
2018-07-06 12:30:46.750000,7.544933,1.5,0.4634873348962891,0.5657119999999995,0.625,1.875,1.0607099999999992
2018-07-06 12:30:51.750000,7.295672,1.375,0.29734414483649374,0.28890550000000026,0.5,1.75,0.5055846250000005
2018-07-06 12:30:55.625000,6.974095999999999,1.125,0.10908640915213397,0.057653000000000176,0.375,1.5,0.08647950000000026
2018-07-06 12:31:00.125000,7.5603075,1.625,0.4416989090034953,0.6784555000000001,1.0,2.375,1.6113318125000002
2018-07-06 12:31:05.250000,7.751203,1.625,0.438070814114333,0.7130479999999997,0.875,2.25,1.6043579999999993
2018-07-06 12:31:21.125000,7.148977,1.625,0.2232025659251491,0.33630900000000086,1.0,2.25,0.7566952500000019
2018-07-06 12:31:31.750000,6.751709,4.0,0.30528049796648205,0.5585929999999992,1.75,3.0,1.6757789999999977
2018-07-06 12:31:38.375000,6.603093,4.0,0.15317453347698162,0.30812300000000015,,,
2018-07-06 12:31:41.375000,6.7734895,1.875,0.12454326165282481,0.1947385000000006,0.75,2.125,0.41381931250000126
2018-07-06 12:32:00.375000,6.532628,4.0,0.06676999948325246,0.10761850000000006,,,
2018-07-06 12:32:03.125000,7.227128499999999,1.625,0.43095115903945924,0.6368474999999991,1.125,2.375,1.512512812499998
2018-07-06 12:32:10.500000,6.690956,1.5,0.07006354270445314,0.09480699999999942,0.75,2.0,0.18961399999999884
2018-07-06 12:32:24.625000,6.581953499999999,1.625,0.08193523754146526,0.14413249999999955,0.875,2.25,0.324298124999999
2018-07-06 12:32:27.500000,6.531347,1.125,0.04964782195160922,0.027545500000000445,0.25,1.375,0.03787506250000061
2018-07-06 12:32:47.125000,6.1598055,4.0,0.01698311813405695,0.03971649999999993,0.5,2.125,0.08439756249999986
2018-07-06 12:33:03.125000,5.8873365,1.5,0.02121328939281142,0.03395150000000058,0.5,1.75,0.05941512500000101
2018-07-06 12:33:15.625000,5.613804999999999,1.875,0.02818643820003075,0.05060599999999926,0.625,2.0,0.10121199999999853
2018-07-06 12:33:31.500000,5.341179,1.5,0.04556715010486201,0.05380900000000022,1.75,3.0,0.16142700000000065
2018-07-06 12:33:52.125000,5.14644,4.0,0.012783859065642389,0.026904500000000553,1.375,2.75,0.07398737500000152
2018-07-06 12:33:57.125000,5.2611055,1.75,0.0670712768483206,0.12299300000000013,1.0,2.375,0.2921083750000003
2018-07-06 12:34:04,5.196406,4.0,0.015276923965007683,0.03202899999999964,0.5,2.0,0.06405799999999928
2018-07-06 12:34:10,5.172064,1.625,0.04677960751578425,0.0691834999999994,0.75,2.125,0.14701493749999872
2018-07-06 12:34:32.625000,4.9988815,1.75,0.03064613434788299,0.06405899999999942,1.0,2.5,0.16014749999999855
2018-07-06 12:34:38.875000,5.012974,1.375,0.05271771837917427,0.04932499999999962,0.5,1.625,0.08015312499999938
2018-07-06 12:34:45.125000,5.0257855,1.75,0.060817784011959475,0.10953999999999908,0.875,2.25,0.24646499999999794
2018-07-06 12:34:48.750000,5.0930480000000005,1.5,0.07334977873162529,0.10890000000000022,,,
2018-07-06 12:34:52,5.181449,1.375,0.08256203246853389,0.08776099999999953,0.5,1.625,0.14261162499999924
2018-07-06 12:35:05.625000,5.018739,1.625,0.056629608394235476,0.09480600000000017,1.5,2.75,0.26071650000000046
2018-07-06 12:35:13.375000,4.9687735,1.625,0.039647089490159715,0.06021549999999998,1.375,2.75,0.16559262499999994
2018-07-06 12:35:20,4.925212999999999,1.375,0.023177576135065436,0.021138999999999797,0.75,1.875,0.03963562499999962
2018-07-06 12:35:28.875000,5.041159499999999,4.0,0.04562609548857921,0.0550904999999986,0.5,1.75,0.09640837499999755
2018-07-06 12:35:45.750000,5.07383,4.0,0.05960572586612045,0.1973010000000004,1.375,3.0,0.5919030000000012
2018-07-06 12:36:03.500000,4.958524,4.0,0.05987591344076648,0.14861699999999978,1.75,3.25,0.4830052499999993
2018-07-06 12:36:11,4.882935,1.375,0.04323741750395982,0.05060649999999978,0.625,1.75,0.08856137499999961
2018-07-06 12:36:14.125000,5.0123334999999996,1.625,0.06962681881837085,0.12939849999999975,0.75,2.125,0.27497181249999947
2018-07-06 12:36:18.125000,4.902793,1.25,0.027474682065157907,0.021780500000000202,0.375,1.5,0.032670750000000304
2018-07-06 12:36:25.750000,4.971336,4.0,0.04532958591101277,0.09865100000000027,1.5,2.875,0.28362162500000077
2018-07-06 12:36:35,4.6927,1.75,0.3437397614335289,0.5052339999999997,,,
2018-07-06 12:36:38,5.07383,4.0,0.3336119150343677,0.34909999999999997,1.0,2.125,0.7418374999999999
2018-07-06 12:36:46,5.187855,4.0,0.09622124396912568,0.21395699999999973,0.5,2.0,0.42791399999999946
2018-07-06 12:36:54.375000,4.9252135,4.0,0.17365571309557026,0.2606990000000007,,,
2018-07-06 12:36:56.250000,5.003366000000001,1.125,0.14564191766579526,0.07879300000000011,0.625,1.625,0.12803862500000018
2018-07-06 12:37:11.875000,4.888059500000001,4.0,0.037120019129151416,0.06469950000000146,,,
2018-07-06 12:37:42.125000,4.656166000000001,1.5,0.018050340921533348,0.02754500000000082,0.625,1.875,0.051646875000001535
2018-07-06 12:38:38,4.1507629999999995,1.875,0.03944111974718112,0.0813549999999994,1.125,2.5,0.2033874999999985
2018-07-06 12:38:41.875000,4.1238585,1.5,0.01781434695993056,0.021139499999999423,0.375,1.625,0.03435168749999906
2018-07-06 12:38:57.250000,4.075173,4.0,0.02122569885355219,0.06662100000000049,,,
2018-07-06 12:39:00.250000,4.227633,4.0,0.08519337653737225,0.16270900000000044,0.875,2.25,0.366095250000001
2018-07-06 12:39:10.625000,4.059158500000001,1.625,0.04619747407523889,0.07622950000000062,1.125,2.375,0.18104506250000146
2018-07-06 12:39:21,4.141795,4.0,0.060496590492327584,0.15886600000000017,,,
2018-07-06 12:39:26.125000,4.1783079999999995,4.0,0.043240632373169774,0.09096349999999909,1.125,2.5,0.22740874999999772
2018-07-06 12:39:41.500000,4.130264,4.0,0.030680690247823605,0.057653000000000176,1.125,2.375,0.13692587500000042
2018-07-06 12:39:46,4.262225,4.0,0.07781531982658052,0.14092899999999986,1.25,2.625,0.36993862499999963
2018-07-06 12:40:15.625000,4.134748500000001,4.0,0.007618550138548841,0.028186500000000336,1.0,2.625,0.07398956250000088
2018-07-06 12:40:23.750000,4.167418,4.0,0.0252391210053311,0.0358729999999996,,,
2018-07-06 12:40:37.875000,4.151403500000001,1.5,0.08791620406614697,0.1236335000000004,0.75,1.875,0.23181281250000074
2018-07-06 12:40:59.250000,5.623037999999999,1.375,1.3139360369404436,1.4714444999999987,,,
2018-07-06 12:41:21.125000,4.207775,1.0,0.04183433698197092,0.021779499999999175,0.625,1.625,0.03539168749999866
2018-07-06 12:41:32.750000,4.034176,1.5,0.041036759440103765,0.05252900000000027,0.75,2.0,0.10505800000000054
2018-07-06 12:41:38.625000,4.0546745,1.5,0.08687024971932544,0.06469949999999969,0.375,1.5,0.09704924999999953
2018-07-06 12:41:44.500000,4.135389,1.875,0.052167234015009,0.1287585,1.125,2.5,0.32189625
2018-07-06 12:41:48.625000,4.1392325,1.375,0.07379243872389196,0.08968250000000033,0.875,2.0,0.17936500000000066
2018-07-06 12:41:56,4.032895,1.375,0.040075967074884034,0.027545500000000445,0.25,1.5,0.04131825000000067
2018-07-06 12:42:03.250000,4.0439739999999995,1.75,0.0637734486899646,0.10121199999999941,1.0,2.25,0.22772699999999868
2018-07-06 12:42:19.625000,4.059989,4.0,0.07787935673323432,0.19217649999999953,,,
2018-07-06 12:42:27.125000,3.9895245,1.75,0.04214130058527488,0.08776049999999991,0.875,2.375,0.20843118749999978
2018-07-06 12:42:31.375000,4.1105955,1.625,0.08894782677723612,0.16270949999999962,1.0,2.375,0.3864350624999991
2018-07-06 12:42:37.250000,4.20284,1.5,0.0970938573356932,0.13324200000000008,0.75,2.0,0.26648400000000017
2018-07-06 12:42:45.750000,4.468494000000001,4.0,0.11673457067882964,0.20800100000000032,0.875,2.375,0.49400237500000077
2018-07-06 12:42:50.875000,4.5786755,4.0,0.09060522114680225,0.19409800000000033,1.5,2.875,0.5580317500000009
2018-07-06 12:42:54.750000,4.652984,1.625,0.09268053840319723,0.14477299999999982,1.25,2.625,0.3800291249999995
2018-07-06 12:43:00.750000,4.65939,1.375,0.061177235109504124,0.05445000000000011,0.875,2.125,0.11570625000000023
2018-07-06 12:43:08.500000,4.774696,4.0,0.03770738752699643,0.1217119999999996,1.25,2.875,0.34992199999999885
2018-07-06 12:43:13.750000,4.733698,1.75,0.022701398256369743,0.05124700000000004,0.75,2.125,0.10889987500000009
2018-07-06 12:43:20.875000,4.8541285,4.0,0.025947628704866332,0.1832079999999996,,,
2018-07-06 12:43:55.750000,4.6536040000000005,1.875,0.03541880518532636,0.1358050000000004,1.75,3.375,0.45834187500000134
2018-07-06 12:44:07.750000,4.635667,1.75,0.05681909360298931,0.12683599999999995,1.25,2.625,0.33294449999999987
2018-07-06 12:44:14.125000,4.8649985000000004,4.0,0.11547722263555116,0.3350275000000007,,,
2018-07-06 12:44:25,4.689477,4.0,0.0444957767148928,0.116587,0.75,2.25,0.26232075
2018-07-06 12:44:32.750000,4.567145,1.0,0.034323111434009235,0.020497999999999905,0.375,1.375,0.02818474999999987
2018-07-06 12:44:37,4.7132,1.5,0.07854626934556919,0.12555599999999956,0.375,1.625,0.20402849999999928
2018-07-06 12:44:50.625000,4.683092,4.0,0.0676976847629227,0.15566350000000018,,,
2018-07-06 12:45:18.750000,4.70295,1.75,0.07742325034455533,0.15374100000000102,1.25,2.75,0.4227877500000028
2018-07-06 12:45:23.875000,4.796476,1.625,0.12713867498079168,0.202426,1.0,2.375,0.48076175
2018-07-06 12:46:31.125000,3.6685894999999995,4.0,0.0036180686549442953,0.021779499999999175,1.625,3.25,0.07078337499999732
2018-07-06 12:46:37.375000,3.6890885000000004,4.0,0.01497238563039538,0.021780000000000577,1.375,2.625,0.057172500000001514
2018-07-06 12:46:43.750000,3.7710839999999997,4.0,0.03839162341609992,0.10249399999999964,,,
2018-07-06 12:46:48.500000,3.781333,1.625,0.04032223768581744,0.05637150000000002,1.125,2.375,0.13388231250000004
2018-07-06 12:47:01.875000,3.8940770000000002,4.0,0.13092438829225728,0.18769250000000026,,,
2018-07-06 12:47:05.500000,4.109314,4.0,0.09470354566650485,0.19089500000000026,1.375,2.75,0.5249612500000007
2018-07-06 12:47:09.875000,4.1567185,1.75,0.11648710729457434,0.2049884999999998,,,
2018-07-06 12:47:27.625000,3.2451749999999997,1.125,0.07782607914400508,0.04355999999999938,,,
2018-07-06 12:47:30.375000,3.6269649999999998,4.0,0.060687873574844176,0.12171149999999997,,,
2018-07-06 12:47:35.500000,3.5936550000000005,1.0,0.061865051605710875,0.025624000000000535,,,
2018-07-06 12:47:40.750000,3.798643,4.0,0.09521829798873682,0.09096400000000004,0.125,1.375,0.12507550000000006
2018-07-06 12:47:46,3.3937910000000002,1.25,0.14286628808772583,0.12171200000000004,0.5,1.625,0.19778200000000007
2018-07-06 12:47:57,4.6043,4.0,0.07896618387512078,0.1644420000000002,1.125,2.625,0.4316602500000005
2018-07-06 12:48:01.750000,4.64914,1.625,0.12667737116744604,0.14605349999999984,0.625,2.0,0.2921069999999997
2018-07-06 12:48:13.375000,3.8248935,1.875,0.18180872668859216,0.24598649999999989,,,
2018-07-06 12:48:15.375000,4.2521655,1.625,0.22797589131544882,0.3158095000000003,,,
2018-07-06 12:48:20,3.9145760000000003,1.375,0.02798267932546139,0.030108000000000246,,,
2018-07-06 12:48:22.750000,4.310459,0.75,0.5997131536719635,0.052527999999999686,,,
2018-07-06 12:48:25.875000,4.362988,1.625,0.021801048129471923,0.03202999999999978,,,
2018-07-06 12:48:30.625000,5.1782455,4.0,0.12085566224032007,0.21234399999999898,0.625,2.0,0.42468799999999796
2018-07-06 12:48:49,5.128921,4.0,0.1230323612404618,0.33182500000000026,,,
2018-07-06 12:48:52.250000,5.1340449999999995,1.625,0.03399653629004007,0.06790199999999924,0.625,2.0,0.13580399999999848
2018-07-06 12:49:25.875000,5.0450035,4.0,0.10517326679395822,0.3228565000000003,,,
2018-07-06 12:49:29.875000,5.191698000000001,1.5,0.15610024833717517,0.21523750000000064,0.875,2.125,0.45737968750000135
2018-07-06 12:49:41.625000,5.1032969999999995,4.0,0.048450109473243685,0.13644549999999978,0.625,2.125,0.2899466874999995
2018-07-06 12:49:55.500000,5.1545440000000005,4.0,0.0884099119295172,0.19602000000000075,1.625,3.0,0.5880600000000022
2018-07-06 12:50:09.250000,5.061018,4.0,0.02989312948973577,0.04868499999999987,0.875,2.375,0.11562687499999968
2018-07-06 12:50:28.250000,4.816313,1.875,0.008282368903099524,0.026263499999999773,0.25,2.0,0.052526999999999546
2018-07-06 12:51:10.125000,4.5421625,4.0,0.03480027573555233,0.0787924999999996,,,
2018-07-06 12:51:28.125000,4.5562555,1.625,0.04452186422449955,0.07751149999999996,,,
2018-07-06 12:51:31.750000,4.599174,4.0,0.033250790725862345,0.04612199999999955,0.125,1.5,0.06918299999999933
2018-07-06 12:52:14.125000,4.4409495,4.0,0.04205296369744005,0.07494900000000015,1.0,2.25,0.16863525000000035
2018-07-06 12:52:19.375000,4.478104,1.625,0.057302454721579466,0.09288600000000002,0.875,2.125,0.19738275000000005
2018-07-06 12:52:30.500000,4.923933,1.5,0.37758058494063107,0.45671899999999965,,,
2018-07-06 12:52:33.125000,4.998881,1.75,0.1301558335416253,0.20242549999999948,1.5,2.875,0.5819733124999985
2018-07-06 12:52:53.250000,4.774035,4.0,0.030899971855046005,0.1076189999999988,0.875,2.5,0.269047499999997
2018-07-06 12:52:59.125000,4.7259905,1.625,0.06252486390038925,0.04676349999999996,0.125,1.5,0.07014524999999994
2018-07-06 12:53:07.375000,4.8169535,4.0,0.07581697845815327,0.17616150000000008,1.25,2.75,0.4844441250000002
2018-07-06 12:53:14.250000,4.640792,1.125,0.030222719284935806,0.021779500000000063,,,
2018-07-06 12:53:28.625000,4.5780145,1.5,0.018930485274363917,0.02562350000000002,0.625,1.875,0.04804406250000004
2018-07-06 12:53:32.625000,4.716381999999999,4.0,0.070685246827221,0.11786899999999889,1.5,2.75,0.32413974999999695
2018-07-06 12:54:00.875000,4.6881955,4.0,0.06030686932852092,0.16975549999999995,,,
2018-07-06 12:54:07.500000,4.729193,1.625,0.0895793801542375,0.13708550000000042,,,
2018-07-06 12:54:12.875000,4.947634000000001,1.625,0.13578568214057896,0.20947200000000077,0.875,2.125,0.44512800000000163
2018-07-06 12:54:17.875000,4.855389499999999,1.625,0.05079748581135135,0.07238649999999947,,,
2018-07-06 12:54:20.125000,4.8867785,1.25,0.041349942956351526,0.028186500000000336,0.5,1.625,0.045803062500000546
2018-07-06 12:54:31.125000,4.8784505,4.0,0.031251807617135086,0.04420049999999964,0.625,2.0,0.08840099999999929
2018-07-06 12:54:37.750000,4.920089,1.375,0.06403864643545631,0.07687099999999969,0.75,1.875,0.14413312499999942
2018-07-06 12:54:49.625000,5.1154685,1.375,0.061312449765694055,0.07110550000000071,,,
2018-07-06 12:54:54.250000,5.298036,1.625,0.12836716231620926,0.20755049999999997,,,
2018-07-06 12:55:05.250000,5.854931,1.75,0.20606869921421378,0.43688099999999963,1.375,2.75,1.201422749999999
2018-07-06 12:55:13.500000,5.803684,4.0,0.03863699652228192,0.07943299999999898,0.625,2.25,0.1787242499999977
2018-07-06 12:55:18.500000,6.2370980000000005,4.0,0.2763791963557196,0.5397520000000009,1.875,3.25,1.754194000000003
2018-07-06 12:55:22.375000,5.901429,0.75,0.39809124457966405,0.037153500000000506,,,
2018-07-06 12:55:39.625000,5.6528805,1.875,0.021043913621792143,0.023060500000000594,,,
2018-07-06 12:55:42,6.351122,1.875,0.22239845729334462,0.5951065,1.25,2.75,1.636542875
2018-07-06 12:55:46.250000,6.32678,1.25,0.28368665042550134,0.34591800000000017,,,
2018-07-06 12:55:54,5.850182,1.0,0.27679106376888996,0.07686999999999955,0.625,1.625,0.12491374999999927
2018-07-06 12:55:58.750000,6.04364,1.875,0.4906499249491425,0.7081189999999999,,,
2018-07-06 12:56:01.125000,6.8497195,0.875,0.7642127977482112,0.04420049999999964,0.25,1.125,0.0497255624999996
2018-07-06 12:56:18.625000,6.161087,4.0,0.06809507282878613,0.11210300000000029,0.75,2.0,0.22420600000000057
2018-07-06 12:56:30,5.9142410000000005,1.5,0.09100085676850256,0.03715400000000013,,,
2018-07-06 12:56:32.625000,5.9840655,1.875,0.037163607419604006,0.06341850000000004,0.625,2.125,0.1347643125000001
2018-07-06 12:56:59.500000,5.613164,4.0,0.02703645230602092,0.1370849999999999,,,
2018-07-06 12:57:04.625000,5.73872,1.75,0.06417801339681262,0.1217119999999996,,,
2018-07-06 12:57:07.125000,5.813028,1.25,0.09019084137797506,0.0736675,0.5,1.625,0.1197096875
2018-07-06 12:57:09.500000,5.873243,1.25,0.09357260193047168,0.06790200000000013,0.625,1.75,0.11882850000000023
2018-07-06 12:57:22.375000,5.6503185,4.0,0.09247248050806078,0.1358050000000004,1.25,2.5,0.339512500000001
2018-07-06 12:57:31.500000,5.700284,1.375,0.1038848669423551,0.12875749999999897,1.0,2.125,0.2736096874999978
2018-07-06 12:57:37.625000,5.561542,1.0,0.2578526434996178,0.04996650000000091,0.125,1.125,0.05621231250000103
2018-07-06 12:58:15.750000,5.219467,1.125,0.027423725017726497,0.022420499999999066,0.5,1.5,0.0336307499999986
2018-07-06 12:58:18.375000,5.2860885,1.625,0.032376917166693886,0.05509049999999949,0.625,2.0,0.11018099999999897
2018-07-06 12:58:24.250000,5.433424,4.0,0.027388511655868086,0.09736999999999973,0.5,2.375,0.23125374999999937
2018-07-06 12:58:50.375000,5.170142,1.5,0.0442755774426864,0.055090500000000375,1.5,2.625,0.14461256250000099
2018-07-06 12:58:59.625000,5.214983,1.625,0.06188583298744277,0.09800999999999949,1.125,2.375,0.23277374999999878
2018-07-06 12:59:04.625000,5.161814,1.75,0.025748375015243852,0.030106999999999218,0.875,1.875,0.05645062499999853
2018-07-06 12:59:10.875000,5.0507685,4.0,0.009705922682609724,0.0877605000000008,0.625,2.375,0.2084311875000019
2018-07-06 12:59:13.125000,5.1583875,0.875,0.18428942985353203,0.02562350000000002,0.25,0.625,0.016014687500000013
2018-07-06 12:59:18.250000,5.210916,1.375,0.047323447206007785,0.0525285000000002,0.5,1.75,0.09192487500000035
2018-07-06 12:59:37.750000,5.058456,4.0,0.01754951003591998,0.04484099999999991,1.25,2.875,0.12891787499999974
2018-07-06 12:59:45.250000,5.164793,4.0,0.03549487852833977,0.12171100000000035,,,
2018-07-06 13:00:39.875000,4.918167,1.75,0.0427916314424337,0.085839,,,
2018-07-06 13:00:43,4.99824,1.625,0.03285780146499562,0.07174549999999957,1.5,2.875,0.20626831249999877
2018-07-06 13:00:55.375000,4.994397,1.75,0.0472063457699754,0.09352599999999978,1.5,2.875,0.26888724999999936
2018-07-06 13:01:05.375000,5.035394500000001,1.625,0.07741640268969974,0.128117500000001,1.25,2.5,0.3202937500000025
2018-07-06 13:01:09.750000,5.035394999999999,1.5,0.049160979659447435,0.06533999999999907,,,
2018-07-06 13:01:13.750000,5.121233,4.0,0.045140807042152176,0.08968199999999982,1.375,2.75,0.2466254999999995
2018-07-06 13:01:40.875000,4.9124015,1.875,0.023447815746010292,0.06277750000000015,1.625,3.125,0.19617968750000048
2018-07-06 13:01:50,4.955962,1.875,0.019639789842408106,0.058294000000000956,0.75,2.375,0.13844825000000227
2018-07-06 13:02:02.250000,5.16095,4.0,0.11862644386712518,0.2792969999999997,,,
2018-07-06 13:02:31.250000,5.126358,4.0,0.08353389387162835,0.24854799999999955,1.625,3.125,0.7767124999999986
2018-07-06 13:02:36.375000,5.0827985,1.625,0.04754086356245679,0.0884014999999998,,,
2018-07-06 13:02:38.375000,5.207072,1.5,0.074142259940853,0.08583849999999948,0.5,1.75,0.1502173749999991
2018-07-06 13:02:46.375000,5.0578155,1.5,0.02357804420867282,0.03138900000000078,0.625,1.875,0.05885437500000146
2018-07-06 13:02:53.125000,5.0962505,1.75,0.03165342245779712,0.06534049999999958,0.875,2.25,0.14701612499999905
2018-07-06 13:02:57,5.081517,1.375,0.03048564141515442,0.030748499999999623,1.125,2.25,0.06918412499999915
2018-07-06 13:03:01.750000,5.176324,1.5,0.0715597624980191,0.10249400000000009,0.625,1.875,0.19217625000000016
2018-07-06 13:03:15.250000,5.146857,1.625,0.0655628418472105,0.09672899999999895,0.875,2.125,0.20554912499999778
2018-07-06 13:03:19.750000,5.192979,1.625,0.06363038186169945,0.10057200000000055,0.625,2.0,0.2011440000000011
2018-07-06 13:03:30,5.168637,4.0,0.0836427769692989,0.21267499999999995,,,
2018-07-06 13:03:35.625000,5.1519815,4.0,0.048155008298572,0.08327599999999968,1.375,2.75,0.22900899999999913
2018-07-06 13:03:50.750000,5.143013,4.0,0.04851817061894437,0.11914900000000017,,,
2018-07-06 13:03:55.375000,5.361454,1.75,0.11297100782472214,0.23381449999999937,1.375,2.75,0.6429898749999983
2018-07-06 13:04:03.500000,5.447516,1.0,0.2073196066809011,0.020081000000000238,0.125,1.125,0.022591125000000267
2018-07-06 13:04:08.250000,5.8694,4.0,0.18200407213982217,0.49106699999999925,1.25,2.75,1.350434249999998
2018-07-06 13:04:15.750000,5.823277,1.75,0.16779581571912772,0.32029399999999963,1.25,2.625,0.840771749999999
2018-07-06 13:04:33.125000,5.637131,4.0,0.05305126695446205,0.17744300000000024,,,
2018-07-06 13:04:40.625000,5.7383435,1.75,0.12208811747068893,0.20562850000000044,,,
2018-07-06 13:04:48.375000,5.661473,1.0,0.08987069928444313,0.08968199999999982,,,
2018-07-06 13:05:01.125000,5.906554,4.0,0.13119406274349643,0.32003000000000004,1.125,2.625,0.8400787500000001
2018-07-06 13:05:23.250000,5.5132330000000005,1.625,0.03626386111927005,0.05445050000000062,,,
2018-07-06 13:05:57.500000,5.257903,1.75,0.035714641108356204,0.06405899999999942,,,
2018-07-06 13:06:56.625000,5.098813,1.25,0.19133240537667007,0.15630349999999993,0.25,1.375,0.2149173124999999
2018-07-06 13:06:59.375000,4.949555500000001,1.5,0.04923715513329441,0.04355950000000064,1.125,2.375,0.10345381250000152
2018-07-06 13:07:07.125000,4.9591645,4.0,0.028029001825728983,0.07110499999999931,,,
2018-07-06 13:07:19.500000,4.909839,1.5,0.15915511058531706,0.21779999999999955,1.25,2.375,0.5172749999999989
2018-07-06 13:07:24.375000,4.906636499999999,1.5,0.03528501010919172,0.04868449999999935,,,
2018-07-06 13:07:34.750000,4.252806,0.875,0.3934428508071939,0.09993099999999977,,,
2018-07-06 13:07:36.875000,4.300209499999999,1.5,0.040885715766066255,0.04420049999999964,0.375,1.75,0.07735087499999937
2018-07-06 13:07:40.500000,4.403154,4.0,0.024892475391812496,0.13625500000000024,,,
2018-07-06 13:07:43.250000,4.576114,1.75,0.07707882828772128,0.15886599999999884,1.0,2.5,0.3971649999999971
2018-07-06 13:07:52.750000,4.3083480000000005,1.375,0.1156734854691912,0.03203000000000067,,,
2018-07-06 13:07:58.875000,4.4640105000000005,4.0,0.09590781535959891,0.12363300000000077,,,
2018-07-06 13:08:06.125000,4.6318445,1.25,0.09195165286151408,0.07366749999999911,0.75,1.875,0.13812656249999833
2018-07-06 13:08:09,4.387119,1.125,0.6086107136698082,0.24404350000000008,,,
2018-07-06 13:08:15.375000,3.0017575,1.5,0.1375289633904,0.21523700000000012,,,
2018-07-06 13:08:18.875000,3.2304474999999995,4.0,0.10131405925084636,0.17231799999999975,,,
2018-07-06 13:08:21,3.3431919999999997,1.625,0.0344800487603969,0.07430849999999944,,,
2018-07-06 13:08:30.875000,3.5802025000000004,1.25,0.36379924519262374,0.3260525000000003,,,
2018-07-06 13:08:38,3.3925099999999997,1.875,0.07472931383455794,0.11402499999999982,,,
2018-07-06 13:08:50.625000,4.533194,4.0,0.120214080591456,0.27013849999999984,,,
2018-07-06 13:08:59.625000,4.5383185,1.75,0.05966999320350652,0.12875799999999948,,,
2018-07-06 13:09:13,4.563301999999999,4.0,0.029579776218376708,0.11018099999999897,0.25,2.0,0.22036199999999795
2018-07-06 13:09:19.500000,4.610705,1.0,0.5675931593725423,0.37922800000000034,,,
2018-07-06 13:09:23.875000,4.873346,4.0,0.09474748401654765,0.28634249999999994,,,
2018-07-06 13:09:31.625000,4.7855859999999995,1.75,0.06861418824849963,0.13196149999999918,,,
2018-07-06 13:09:35.250000,4.972617,4.0,0.09947694831613418,0.11592599999999909,,,
2018-07-06 13:09:37.125000,5.047566,1.25,0.05427573776591643,0.04099800000000009,0.25,1.375,0.056372250000000124
2018-07-06 13:09:49.500000,5.548729,4.0,0.15466236003571865,0.308762999999999,1.875,3.25,1.0034797499999968
2018-07-06 13:10:03.500000,5.247653,1.5,0.0551634137594732,0.07943299999999986,1.125,2.375,0.18865337499999968
2018-07-06 13:10:10.375000,4.2431975,1.625,0.21399405607449395,0.3465585,,,
2018-07-06 13:10:12.750000,4.497962,4.0,0.1155285471481946,0.1490670000000005,0.125,2.0,0.298134000000001
2018-07-06 13:10:20.375000,4.85541,1.375,0.3649680637609727,0.42964499999999983,,,
2018-07-06 13:10:34.750000,4.84516,4.0,0.035845277856996205,0.05637100000000039,0.875,2.25,0.12683475000000088
2018-07-06 13:10:40.625000,4.7919915,1.5,0.04994867988259699,0.04868450000000024,0.375,1.75,0.08519787500000042
2018-07-06 13:10:47.625000,5.1814485,1.75,0.2406807611654287,0.43173550000000027,1.75,3.0,1.2952065000000008
2018-07-06 13:10:53.500000,5.007209,4.0,0.08594164237361568,0.33182500000000026,1.125,2.75,0.9125187500000007
2018-07-06 13:10:59.125000,4.720866,1.125,0.013756397830409384,0.028826999999999714,,,
2018-07-06 13:11:01.250000,4.963649,1.625,0.21429143233395465,0.22100350000000013,0.25,1.5,0.3315052500000002
2018-07-06 13:11:07,5.535918,4.0,0.18223115936552503,0.3442199999999991,0.625,2.125,0.731467499999998
2018-07-06 13:11:11.500000,5.318535,1.0,0.44162410171779953,0.2857029999999998,0.25,1.25,0.3571287499999998
2018-07-06 13:11:18.875000,5.590368,4.0,0.19509783598546804,0.3032219999999999,0.875,2.25,0.6822494999999997
2018-07-06 13:11:22.625000,5.493639,0.75,0.3232514100796813,0.04227850000000011,0.125,0.875,0.036993687500000094
2018-07-06 13:11:29.500000,5.234841,0.625,0.06612383922003673,0.02498250000000013,,,
2018-07-06 13:11:38.875000,5.513496999999999,4.0,0.15965374438633972,0.6068604999999998,,,
2018-07-06 13:11:47.125000,5.2489345,1.75,0.1355357017462957,0.270969,1.25,2.625,0.711293625
2018-07-06 13:12:00.625000,4.9316195,1.375,0.052972635763797626,0.06149649999999962,0.625,1.75,0.10761887499999934
2018-07-06 13:12:04.500000,5.125077,1.75,0.13231557616383327,0.23829900000000048,1.0,2.375,0.5659601250000011
2018-07-06 13:12:12.500000,4.754817,4.0,0.018326675818471472,0.11274300000000004,,,
2018-07-06 13:12:22.750000,4.650422,4.0,0.045015930348522915,0.17295900000000053,,,
2018-07-06 13:12:44.500000,4.515898,1.875,0.08701965003368883,0.26007849999999966,,,
2018-07-06 13:12:56.750000,4.39803,4.0,0.016638791450262147,0.057653000000001065,0.375,2.25,0.1297192500000024
2018-07-06 13:13:07.875000,4.3051449999999996,1.625,0.06494601328098071,0.09929199999999927,0.875,2.25,0.22340699999999836
2018-07-06 13:13:11.375000,4.295536,1.375,0.04383552701520088,0.0448410000000008,,,
2018-07-06 13:13:13.500000,4.462089,1.625,0.09113400252400439,0.1377265000000003,0.625,2.0,0.2754530000000006
2018-07-06 13:13:16.875000,4.580598,1.625,0.08449321333577586,0.1761619999999997,1.875,3.25,0.572526499999999
2018-07-06 13:13:26,4.555614,1.5,0.15424986621573922,0.2177990000000003,1.125,2.375,0.5172726250000007
2018-07-06 13:13:35.125000,5.8269105,1.375,0.8643978690051632,0.7408885000000005,,,
2018-07-06 13:13:40,5.4683910000000004,1.25,0.7149097638792554,0.14899200000000068,0.375,1.375,0.20486400000000093
2018-07-06 13:14:22.125000,4.565843,1.875,0.010464031844009014,0.03651300000000024,0.75,2.25,0.08215425000000054
2018-07-06 13:14:50.750000,4.262225,4.0,0.018600546508825033,0.03971600000000031,0.5,2.0,0.07943200000000061
2018-07-06 13:14:54.250000,4.2840050000000005,4.0,0.012069882741801763,0.04099699999999995,,,
2018-07-06 13:14:59.750000,4.359595,1.25,0.03726581740267676,0.038435999999999915,,,
2018-07-06 13:15:06.250000,4.423654,1.125,0.03677548477415726,0.02306200000000036,0.375,1.375,0.031710250000000495
2018-07-06 13:15:17.875000,4.210978,1.75,0.009019815117859764,0.024982999999999755,,,
2018-07-06 13:15:20.625000,4.2333985,1.375,0.02203977618518138,0.028826500000000088,,,
2018-07-06 13:15:23.500000,4.341658,4.0,0.03707745929347084,0.08071399999999951,,,
2018-07-06 13:15:28.250000,4.39803,1.75,0.02186268562131488,0.06662100000000049,1.25,2.75,0.18320775000000133
2018-07-06 13:15:33.375000,4.385218500000001,4.0,0.0053272448428565156,0.0313895000000004,0.875,2.75,0.08632112500000111
2018-07-06 13:15:36.750000,4.56074,4.0,0.04187679948332601,0.15758600000000023,,,
2018-07-06 13:15:42.250000,4.619673000000001,1.5,0.04270587451465602,0.0653390000000007,,,
2018-07-06 13:15:44.375000,4.7003875,1.375,0.0519842841803424,0.05765249999999966,0.75,2.0,0.11530499999999932
2018-07-06 13:15:48.875000,4.8214595,4.0,0.046422186769536466,0.07687099999999969,0.75,2.125,0.16335087499999934
2018-07-06 13:15:56,4.8848769999999995,4.0,0.08114200905952629,0.11018099999999986,1.0,2.25,0.2479072499999997
2018-07-06 13:16:00.125000,4.950837,1.75,0.05852375114318065,0.1223314999999996,1.875,3.375,0.4128688124999986
2018-07-06 13:16:09,4.8906220000000005,4.0,0.03140265912761464,0.06021600000000049,0.75,2.0,0.12043200000000098
2018-07-06 13:16:22.125000,4.8348905,1.25,0.22186272646218086,0.06085550000000062,0.125,1.375,0.08367631250000085
2018-07-06 13:16:24.750000,5.002084,1.875,0.051738712275248844,0.09160400000000024,,,
2018-07-06 13:16:36.250000,5.2237279999999995,4.0,0.030273518020550227,0.1575849999999992,,,
2018-07-06 13:16:40.125000,5.2391015,1.75,0.027754018455720342,0.06213699999999989,,,
2018-07-06 13:16:41.750000,5.342877,1.25,0.07675833314295488,0.07430799999999937,0.875,1.875,0.13932749999999883
2018-07-06 13:16:48.875000,5.3787505,1.75,0.08157040519434844,0.15053850000000057,0.5,1.875,0.2822596875000011
2018-07-06 13:16:52.125000,5.347360999999999,1.875,0.05301236541048837,0.08519799999999922,0.375,1.5,0.12779699999999883
2018-07-06 13:16:55.250000,4.963649,0.75,0.11128060025164643,0.025624000000000535,,,
2018-07-06 13:17:00.625000,4.994397,4.0,0.03327337902383576,0.09993199999999991,,,
2018-07-06 13:17:16.250000,5.09561,1.75,0.06954523788926181,0.14477299999999982,,,
2018-07-06 13:17:20.750000,5.31341,4.0,0.09928495535882575,0.22548700000000022,,,
2018-07-06 13:17:27.125000,5.495561,1.875,0.11453717227754368,0.25902200000000075,,,
2018-07-06 13:17:33.250000,5.448798,4.0,0.005616398746361995,0.07046499999999956,,,
2018-07-06 13:17:38.125000,5.4853115,1.5,0.03535834957202866,0.04996599999999951,1.25,2.5,0.12491499999999878
2018-07-06 13:17:46.625000,6.1993030000000005,4.0,0.13908864460087855,0.4225235000000005,0.5,2.125,0.897862437500001
2018-07-06 13:17:48.500000,6.296032,0.625,0.6780909465454066,0.07751149999999996,,,
2018-07-06 13:17:53.875000,6.33853,1.125,0.15149845054257582,0.053169000000000466,1.0,1.875,0.09969187500000087
2018-07-06 13:17:59.375000,5.2423044999999995,1.875,0.297587468082984,0.6508174999999996,,,
2018-07-06 13:18:03.625000,5.443033,1.75,0.0711425536472845,0.2128994999999998,,,
2018-07-06 13:18:05.750000,5.685815,0.875,0.29228913581249216,0.061495999999999995,0.125,1.0,0.061495999999999995
2018-07-06 13:18:12.125000,5.876070500000001,4.0,0.06375276241258732,0.18513050000000053,1.0,2.625,0.4859675625000014
2018-07-06 13:18:16.625000,5.980862500000001,4.0,0.07558112941745065,0.22202000000000055,,,
2018-07-06 13:18:26.125000,6.102574000000001,1.625,0.19108703827101436,0.386915000000001,1.375,2.75,1.0640162500000028
2018-07-06 13:18:33.750000,6.369919,1.75,0.4082876990157729,0.6119820000000002,,,
2018-07-06 13:18:49.250000,7.126556,4.0,0.13063755490861695,0.5029640000000004,,,
2018-07-06 13:19:01.750000,7.221364,1.625,0.17532397891030982,0.27545350000000024,1.25,2.5,0.6886337500000006
2018-07-06 13:19:04.875000,7.201504999999999,1.25,0.08884227203050798,0.06598049999999844,0.375,1.5,0.09897074999999766
2018-07-06 13:19:09.500000,7.127838000000001,1.75,0.04105809100964919,0.06790300000000027,0.625,1.875,0.1273181250000005
2018-07-06 13:19:15.750000,7.519310000000001,1.875,0.22416899325577688,0.46834300000000084,,,
2018-07-06 13:19:22.875000,7.408488,1.5,0.13206744166550166,0.16783400000000093,0.375,1.625,0.2727302500000015
2018-07-06 13:19:27.750000,7.543653,1.5,0.13887199704221942,0.20370800000000067,1.625,2.75,0.5601970000000018
2018-07-06 13:19:35.375000,7.634616499999999,1.875,0.2483793003013659,0.5516204999999985,1.5,3.0,1.6548614999999955
2018-07-06 13:19:45.125000,7.516107,4.0,0.16876720772392062,0.4900500000000001,1.375,2.875,1.4088937500000003
2018-07-06 13:19:49.250000,7.371974000000001,1.375,0.08920109700583723,0.10505550000000152,0.25,1.375,0.1444513125000021
2018-07-06 13:19:51.375000,7.591696499999999,1.25,0.23185264652121518,0.16975549999999906,0.5,1.625,0.2758526874999985
2018-07-06 13:19:55.625000,7.5622295,1.5,0.16419939052554255,0.1992225000000003,0.625,1.875,0.37354218750000057
2018-07-06 13:20:06.250000,7.345638,0.625,0.465275439368515,0.060215500000000866,0.125,0.25,0.015053875000000216
2018-07-06 13:20:12.875000,7.9452545,1.875,0.16888527776315598,0.43690749999999934,,,
2018-07-06 13:20:25.375000,7.7345475,4.0,0.3012834940826714,0.523360499999999,,,
2018-07-06 13:20:30.625000,7.796044,1.5,0.10563701514204737,0.17744300000000024,0.375,1.75,0.3105252500000004
2018-07-06 13:20:35.375000,7.8210275,1.25,0.34579826044408435,0.3478394999999992,1.875,3.0,1.0435184999999976
2018-07-06 13:20:39.750000,8.294375,1.625,0.3602712277524418,0.5489370000000005,1.25,2.375,1.303725375000001
2018-07-06 13:20:53,7.488562,1.125,0.44191934597188265,0.2639224999999996,,,
2018-07-06 13:20:55.125000,7.816543,1.625,0.02743237538144072,0.14349200000000106,1.375,2.875,0.41253950000000306
2018-07-06 13:21:07.625000,6.2953915,1.625,0.033763809064854655,0.09160449999999987,1.375,2.625,0.24046181249999965
2018-07-06 13:21:14.250000,6.211474,1.125,0.05369541110654552,0.03138899999999989,1.0,2.0,0.06277799999999978
2018-07-06 13:21:28.750000,7.088121000000001,4.0,0.15379640490365531,0.4107200000000013,0.75,2.25,0.9241200000000029
2018-07-06 13:21:43.625000,6.7171175000000005,4.0,0.06751259490846806,0.24662649999999964,0.625,2.375,0.5857379374999991
2018-07-06 13:21:46.750000,6.535191,0.875,0.21041379211991185,0.053809499999999844,,,
2018-07-06 13:22:02.500000,5.955239,1.875,0.07229418258455311,0.14925750000000004,0.625,1.875,0.2798578125000001
2018-07-06 13:22:06.125000,6.180726,1.25,0.3269007478014494,0.3158099999999999,,,
2018-07-06 13:22:11,6.4788190000000005,4.0,0.14919004115391843,0.39930600000000105,,,
2018-07-06 13:22:13.375000,6.7497875,1.5,0.15233509926445876,0.20306650000000026,,,
2018-07-06 13:22:15.625000,7.080434,1.25,0.29282874261473424,0.2729935000000001,,,
2018-07-06 13:22:34.250000,6.075248,1.5,0.03821736632510664,0.043560000000000265,,,
2018-07-06 13:22:38.500000,6.158525,1.25,0.19728417236309426,0.08840199999999943,,,
2018-07-06 13:22:44.375000,6.2031465,1.625,0.2923820337373648,0.38627449999999985,,,
2018-07-06 13:22:46.500000,6.527503,1.375,0.21311779034641276,0.250048500000001,0.75,1.875,0.4688409375000019
2018-07-06 13:22:51.375000,6.038735,1.25,0.058940051962668605,0.0403570000000002,0.375,1.5,0.0605355000000003
2018-07-06 13:22:58.500000,6.396823,4.0,0.0835946238961256,0.2929680000000001,1.625,3.25,0.9521460000000004
2018-07-06 13:23:03.875000,6.4775375,4.0,0.11498908585149792,0.3087635000000004,1.875,3.375,1.0420768125000013
2018-07-06 13:23:12.375000,6.1976005,4.0,0.034237377991978235,0.11274399999999929,0.625,2.375,0.2677669999999983
2018-07-06 13:23:15.750000,6.419885,1.75,0.08866275058844764,0.23061199999999982,,,
2018-07-06 13:23:24.625000,6.376965500000001,1.625,0.12578813395118615,0.2504705000000014,,,
2018-07-06 13:23:35.750000,6.1290569999999995,1.125,0.02787423100509301,0.024341999999999864,0.875,1.875,0.045641249999999745
2018-07-06 13:23:41,6.144432,4.0,0.07893707916095849,0.08199500000000004,0.875,2.25,0.1844887500000001
2018-07-06 13:24:32.500000,4.918808,1.375,0.11841674845025096,0.14733600000000013,0.75,1.875,0.27625500000000025
2018-07-06 13:24:40.875000,4.6888365,1.0,0.08882969503451221,0.04996599999999951,0.5,1.5,0.07494899999999927
2018-07-06 13:24:44.125000,4.8227195,1.75,0.023740105983655724,0.1332424999999997,,,
2018-07-06 13:24:49.125000,4.9482745,4.0,0.06194604583265573,0.10825900000000033,1.25,2.625,0.28417987500000086
2018-07-06 13:24:58.875000,4.865639,4.0,0.014275975119090845,0.025623999999999647,0.625,2.125,0.05445099999999925
2018-07-06 13:25:06.375000,4.9354629999999995,4.0,0.033743589734374524,0.10441599999999962,,,
2018-07-06 13:25:09,5.126358,4.0,0.04739204219474402,0.16527199999999986,,,
2018-07-06 13:25:11.375000,5.204510000000001,1.375,0.06928857059437377,0.06277800000000067,0.375,1.625,0.10201425000000108
2018-07-06 13:25:16.625000,5.176323999999999,1.625,0.06051456830268265,0.10121299999999955,0.375,1.75,0.17712274999999922
2018-07-06 13:25:37.500000,4.868842,1.75,0.016612105904588503,0.038435999999999915,1.0,2.375,0.0912854999999998
2018-07-06 13:25:59.375000,4.7516145000000005,1.875,0.008047911816785103,0.023702500000000626,0.5,2.125,0.05036781250000133
2018-07-06 13:26:03,4.897027,4.0,0.023753134009655952,0.10121199999999941,1.125,2.875,0.2909844999999983
2018-07-06 13:26:08.375000,4.833609,1.375,0.028394778811069443,0.03266900000000028,0.75,1.875,0.06125437500000053
2018-07-06 13:26:13.625000,4.857310999999999,1.75,0.034792488417014766,0.06021499999999946,1.0,2.375,0.14301062499999873
2018-07-06 13:26:26.875000,4.7298335,1.625,0.021839050832276996,0.03907550000000004,0.75,2.0,0.07815100000000008
2018-07-06 13:26:42.625000,5.1193115,1.75,0.15756200747706828,0.12235250000000075,0.25,1.5,0.18352875000000113
2018-07-06 13:26:49.750000,5.2057910000000005,4.0,0.14542494879659884,0.22738800000000037,0.5,2.0,0.45477600000000074
2018-07-06 13:26:53.625000,4.7708315,1.625,0.07100043613079521,0.1095404999999996,1.0,2.125,0.23277356249999914
2018-07-06 13:27:05.750000,4.579957,1.625,0.08432289053781261,0.1185084999999999,,,
2018-07-06 13:27:55,3.9837589999999996,4.0,0.07058420206174176,0.21908099999999964,,,
2018-07-06 13:28:00.500000,3.9658230000000003,4.0,0.028477726436335615,0.032030000000000225,0.5,1.75,0.056052500000000394
2018-07-06 13:28:03.500000,4.026038,1.75,0.03786250083995313,0.044840999999999465,0.25,1.375,0.061656374999999264
2018-07-06 13:28:58.750000,3.62503,4.0,0.022338378096156575,0.05124700000000004,,,
2018-07-06 13:29:04.625000,3.627592,4.0,0.012739612533538391,0.03266999999999953,1.625,3.0,0.0980099999999986
2018-07-06 13:29:11.250000,3.7236800000000003,1.75,0.04063287645194791,0.08968199999999982,,,
2018-07-06 13:29:58.375000,3.1952085,1.5,0.022828512217911268,0.02498250000000013,,,
2018-07-06 13:30:13.250000,3.3233260000000002,4.0,0.04946807917189133,0.070465,1.625,2.75,0.19377875
2018-07-06 13:30:17.500000,3.3117959999999997,1.75,0.022998639746489857,0.024343000000000004,,,
2018-07-06 13:30:44.500000,3.383542,4.0,0.008510659603940596,0.02177999999999969,,,
2018-07-06 13:30:47.875000,3.4367105,4.0,0.009176296320061894,0.0301079999999998,1.625,3.25,0.09785099999999936
2018-07-06 13:30:55,3.571875,4.0,0.007341063492175337,0.02946699999999991,1.125,2.875,0.08471762499999974
2018-07-06 13:31:19.500000,3.439914,1.625,0.020632233866258787,0.02562400000000009,,,
2018-07-06 13:31:27.250000,3.496285,4.0,0.014904254839636977,0.032029000000000085,,,
2018-07-06 13:31:33.500000,3.519346,1.75,0.029452542708114038,0.02946699999999991,0.5,1.5,0.044200499999999865
2018-07-06 13:31:58.250000,3.537283,1.875,0.0315312448328271,0.04612249999999962,0.875,2.25,0.10377562499999915
2018-07-06 13:32:03.375000,3.557782,1.5,0.033647756599844314,0.03907650000000018,0.75,1.875,0.07326843750000034
2018-07-06 13:32:09.875000,3.5661095,1.375,0.03525679679325755,0.0429195,1.375,2.5,0.10729875
2018-07-06 13:32:34.125000,3.169585,1.25,0.18657917808680757,0.12299250000000006,,,
2018-07-06 13:32:36.375000,3.3598399999999997,1.5,0.16157104248661902,0.19666049999999968,,,
2018-07-06 13:32:47.375000,3.4437565,1.0,0.11843394558952802,0.0685425000000004,,,
2018-07-06 13:32:50.500000,3.5834050000000004,4.0,0.0293961648320078,0.08071399999999995,,,
2018-07-06 13:33:01,3.606466,1.375,0.03166022076327124,0.034591499999999886,1.125,2.25,0.07783087499999974
2018-07-06 13:33:05.750000,3.498847,1.5,0.05522347953786699,0.08455699999999977,,,
2018-07-06 13:33:10.875000,3.5443295,4.0,0.019816770277781615,0.03523250000000022,,,
2018-07-06 13:33:14.250000,3.694868,4.0,0.02212018950179484,0.06918400000000036,,,
2018-07-06 13:33:23.500000,3.865264,4.0,0.049019845438483145,0.09993199999999991,,,
2018-07-06 13:33:32.750000,3.7448330000000003,1.5,0.0785856485249532,0.12299300000000013,,,
2018-07-06 13:33:35.750000,3.788393,0.75,0.13773887769796822,0.03330999999999973,0.125,0.25,0.008327499999999932
2018-07-06 13:33:42.625000,4.1913095,1.375,0.10687185887685047,0.06918250000000015,0.875,2.125,0.1470128125000003
2018-07-06 13:33:47.250000,4.360425,4.0,0.036514006194373394,0.27673400000000026,,,
2018-07-06 13:33:52.875000,4.4050765,0.75,0.22558716601227147,0.027545499999999556,0.125,0.875,0.024102312499999612
