,EDA,rise_time,max_deriv,amp,decay_time,SCR_width,AUC
2018-07-03 08:11:46.125000,0.1927935,1.125,0.18474188227741528,0.1927935,,,
2018-07-03 08:12:24.125000,0.379183,4.0,0.08334977885912798,0.1755,,,
2018-07-03 08:12:25.875000,0.42017550000000004,1.125,0.03150385326695826,0.02049650000000003,0.5,1.5,0.030744750000000043
2018-07-03 08:14:51.375000,0.14988,1.5,0.030722224140371956,0.032666500000000015,,,
2018-07-03 08:15:29.625000,0.28694899999999995,4.0,0.017927360488247945,0.03779049999999995,0.25,1.375,0.05196193749999993
2018-07-03 08:15:56.375000,0.3689345,4.0,0.07350094972829635,0.13771,,,
2018-07-03 08:16:09.875000,0.6008,4.0,0.02472408229363321,0.04483599999999999,1.75,3.125,0.14011249999999997
2018-07-03 08:16:29.500000,0.470135,4.0,0.032058722369318504,0.074299,,,
2018-07-03 08:16:41.375000,0.5232975,4.0,0.02440910710767019,0.07493949999999999,1.625,3.25,0.24355337499999996
2018-07-03 08:17:11.375000,0.5946615,4.0,0.06439300183290442,0.054710499999999995,0.125,1.625,0.08890456249999999
2018-07-03 08:17:34.750000,0.5216430000000001,4.0,0.03243643129431106,0.06020800000000004,1.0,2.375,0.1429940000000001
2018-07-03 08:17:56.875000,0.48385249999999996,4.0,0.041945604569084693,0.07045599999999996,,,
2018-07-03 08:17:58.625000,0.553669,0.875,0.10569356322718049,0.020496999999999987,0.375,1.25,0.025621249999999984
2018-07-03 08:18:09.500000,0.601066,4.0,0.02732722267490395,0.07301800000000003,,,
2018-07-03 08:18:39.625000,0.520362,4.0,0.027075942907129225,0.0845475,,,
2018-07-03 08:20:33,0.18446700000000002,1.125,0.12462644971643938,0.11003450000000002,,,
2018-07-03 08:21:41.375000,0.16076849999999998,1.875,0.011943185526699263,0.023699499999999984,,,
2018-07-03 08:21:52.375000,0.19855850000000003,4.0,0.016251122962340325,0.02946350000000003,,,
2018-07-03 08:22:08.250000,0.216493,1.25,0.04192589871008978,0.02434,0.625,1.875,0.0456375
2018-07-03 08:24:41.375000,0.1966365,1.875,0.007881524847541788,0.024979499999999988,,,
2018-07-03 08:25:04.250000,0.25108,1.375,0.12527279108333245,0.14219350000000003,,,
2018-07-03 08:25:15.500000,0.234427,1.125,0.050839671388939967,0.040352,,,
2018-07-03 08:25:21.375000,0.3016805,4.0,0.008836883689805397,0.02818200000000004,,,
2018-07-03 08:26:49,0.518814,4.0,0.005461594708583206,0.02177699999999999,,,
2018-07-03 08:26:53.375000,0.567493,1.75,0.02754786430241518,0.04931950000000007,0.75,2.125,0.10480393750000015
2018-07-03 08:26:57.375000,0.6138765,4.0,0.05760673428695062,0.06752000000000014,0.25,1.875,0.12660000000000027
2018-07-03 08:27:04,0.659993,1.75,0.07876069857044987,0.1550030000000001,,,
2018-07-03 08:27:10.125000,1.016187,4.0,0.0741802279296282,0.2524305,,,
2018-07-03 08:27:11.875000,1.115466,1.25,0.04669144702235695,0.0473975000000002,,,
2018-07-03 08:27:18.625000,1.277515,1.125,0.05928555203671859,0.04355399999999987,,,
2018-07-03 08:27:25.500000,1.397932,4.0,0.04486812541703422,0.13450800000000007,,,
2018-07-03 08:27:28.625000,1.4434075,1.5,0.036105057123410056,0.048038000000000025,,,
2018-07-03 08:27:31,1.536381,1.875,0.035980576677880016,0.08720850000000002,1.125,2.625,0.22892231250000006
2018-07-03 08:27:42.125000,1.795788,1.25,0.04606193518435031,0.03458749999999977,0.375,1.5,0.05188124999999966
2018-07-03 08:27:57.500000,1.729815,1.75,0.02589581826995513,0.04867800000000022,1.0,2.375,0.11561025000000053
2018-07-03 08:28:02.875000,1.9471479999999999,4.0,0.06109876465626485,0.1955555,,,
2018-07-03 08:28:08.875000,2.1091975,4.0,0.11985008601850389,0.2568450000000002,1.5,2.875,0.7384293750000006
2018-07-03 08:28:31.625000,1.8600385,4.0,0.053201256076634174,0.1460364999999999,,,
2018-07-03 08:28:56.250000,1.590383,1.625,0.03859708087334468,0.06084850000000008,1.0,2.25,0.1369091250000002
2018-07-03 08:29:06.250000,1.546629,1.75,0.03559880312907904,0.07814199999999993,,,
2018-07-03 08:29:13.750000,2.160438,4.0,0.06756162881948491,0.28714799999999996,,,
2018-07-03 08:29:16.500000,2.311599,1.5,0.136080215753271,0.17293800000000026,0.5,1.75,0.30264150000000045
2018-07-03 08:29:24.500000,2.1130400000000003,1.5,0.047585338051568726,0.07814200000000016,0.625,1.875,0.1465162500000003
2018-07-03 08:29:41.375000,2.1610785000000003,1.125,0.042889198747506185,0.026260500000000242,0.25,1.25,0.0328256250000003
2018-07-03 08:29:44.875000,2.1623595,1.375,0.04534518428014955,0.051881499999999914,0.625,1.75,0.09079262499999985
2018-07-03 08:29:55,2.115602,1.75,0.07001832418101372,0.12297799999999981,1.25,2.625,0.3228172499999995
2018-07-03 08:30:02.125000,2.128413,1.875,0.06525807933580552,0.13963199999999998,1.75,3.125,0.4363499999999999
2018-07-03 08:30:12.250000,2.075891,1.75,0.052957063924898407,0.11785400000000013,1.0,2.375,0.27990325000000027
2018-07-03 08:30:17.625000,2.3135205,1.875,0.14364367451080007,0.3132105000000003,,,
2018-07-03 08:30:19.625000,2.3788525,1.25,0.041819331471380394,0.030744499999999952,0.25,1.375,0.042273687499999935
2018-07-03 08:30:26.750000,2.232176,1.625,0.04567787173810878,0.07173799999999986,0.625,2.0,0.14347599999999971
2018-07-03 08:30:30.625000,2.4489605,4.0,0.09272931932235906,0.2436860000000003,1.25,2.75,0.6701365000000008
2018-07-03 08:30:38.625000,2.5514419999999998,1.875,0.16629531999373803,0.3561239999999999,,,
2018-07-03 08:30:42.375000,2.487391,1.375,0.07392237118356348,0.08711000000000002,0.5,1.625,0.14155375000000003
2018-07-03 08:30:50.375000,2.7935555,4.0,0.21638428140356325,0.5060039999999999,,,
2018-07-03 08:31:05.750000,2.865293,4.0,0.2079142881761218,0.47269799999999984,,,
2018-07-03 08:31:32.750000,2.282428,4.0,0.05136195546575095,0.14859899999999993,1.5,3.0,0.4457969999999998
2018-07-03 08:31:54.875000,1.833137,1.375,0.030781973952455743,0.032666000000000084,0.5,1.625,0.053082250000000136
2018-07-03 08:32:27.250000,1.436461,1.625,0.018925795596865136,0.03330600000000006,0.875,2.25,0.07493850000000013
2018-07-03 08:32:40.875000,1.3877825,4.0,0.018618941464179528,0.07942349999999987,,,
2018-07-03 08:32:48.375000,1.6279745,4.0,0.09200464657919571,0.22546050000000006,,,
2018-07-03 08:32:53.375000,1.981095,4.0,0.05760697839367879,0.1449545000000001,0.75,2.25,0.3261476250000002
2018-07-03 08:32:56.750000,2.3679639999999997,1.875,0.146725714669806,0.39135249999999955,,,
2018-07-03 08:33:19.375000,1.0181084999999999,4.0,0.008205366467941566,0.07173749999999979,1.375,3.125,0.22417968749999934
2018-07-03 08:33:24.625000,1.436461,1.625,0.06413713074840999,0.240931,,,
2018-07-03 08:33:27.875000,1.530567,0.75,0.6038963225913561,0.11918450000000003,,,
2018-07-03 08:33:31.875000,1.9631610000000002,1.375,0.24900768340827195,0.29976000000000025,0.625,1.75,0.5245800000000005
2018-07-03 08:33:34.375000,1.820967,0.875,0.21513708195565773,0.06405100000000008,0.125,1.0,0.06405100000000008
2018-07-03 08:33:39.375000,1.311562,4.0,0.17288705436503093,0.04163399999999995,0.125,2.0,0.0832679999999999
2018-07-03 08:33:48.375000,0.9668675,1.0,0.06140099521979092,0.024980000000000002,0.25,1.25,0.031225000000000003
2018-07-03 08:33:59.250000,0.78176,1.625,0.020345958232095285,0.037150000000000016,0.625,2.0,0.07430000000000003
2018-07-03 08:34:05.375000,0.6510955,1.125,0.052166853513587075,0.038430500000000034,,,
2018-07-03 08:34:19.500000,0.716428,1.5,0.1389825934401263,0.14988,,,
2018-07-03 08:34:21.375000,1.1923275,1.5,0.1781509191682531,0.298478,,,
2018-07-03 08:34:25.625000,1.1173875,1.75,0.16038886367171745,0.4080055,,,
2018-07-03 08:34:34.625000,0.4966635,1.625,0.013970251552780866,0.03522849999999994,,,
2018-07-03 08:34:37.875000,0.6696015,0.625,0.20128218421592514,0.022418500000000008,,,
2018-07-03 08:34:39.875000,0.739417,1.5,0.027488471933887038,0.04035250000000001,0.625,2.0,0.08070500000000003
2018-07-03 08:35:15.375000,0.456311,1.875,0.051217177777662215,0.07045600000000002,,,
2018-07-03 08:35:24,0.7522270000000001,4.0,0.04705043352244287,0.08967100000000006,,,
2018-07-03 08:35:38.250000,1.096891,4.0,0.06522309481597954,0.21528100000000006,1.625,3.375,0.7265733750000002
2018-07-03 08:35:43,1.1378840000000001,1.625,0.044431874092281554,0.2831060000000001,,,
2018-07-03 08:35:45,1.3992129999999998,1.5,0.15095943612256413,0.23314699999999977,,,
2018-07-03 08:36:11.875000,0.66832,0.875,0.2868943038167395,0.08518800000000004,,,
2018-07-03 08:36:28.750000,0.45631099999999997,1.875,0.01798111492488741,0.03202599999999994,,,
2018-07-03 08:36:36.875000,0.48129049999999995,4.0,0.020885922663127277,0.02818199999999993,,,
2018-07-03 08:36:42.500000,0.7611939999999999,4.0,0.0526996674145459,0.22930299999999992,,,
2018-07-03 08:36:44.750000,1.580135,1.5,0.7195378115283688,0.5922000000000001,,,
2018-07-03 08:36:49.375000,1.6512315000000002,1.75,0.04434298284550309,0.11593200000000037,0.875,2.375,0.2753385000000009
2018-07-03 08:36:53.750000,1.546829,1.25,0.04248939918719419,0.033306999999999976,0.75,1.875,0.062450624999999954
2018-07-03 08:37:00.750000,2.072048,4.0,0.1603734218965016,0.47526000000000024,,,
2018-07-03 08:37:05.750000,2.211679,1.75,0.14578941675433832,0.2626090000000001,1.25,2.625,0.6893486250000003
2018-07-03 08:37:22.125000,1.806876,4.0,0.00646857531285594,0.029463499999999865,0.375,2.125,0.06260993749999971
2018-07-03 08:37:26,2.2911029999999997,4.0,0.16657089392396962,0.47269799999999984,,,
2018-07-03 08:37:46.625000,2.2142410000000003,4.0,0.15293392363877523,0.40031900000000054,,,
2018-07-03 08:37:57,2.318004,1.875,0.16289422210179083,0.3567650000000002,,,
2018-07-03 08:37:59.750000,2.52326,1.625,0.1222405158163209,0.2071774999999998,0.75,2.125,0.44025218749999956
2018-07-03 08:38:06.750000,2.418216,1.75,0.0762228691406488,0.1575660000000001,0.875,2.25,0.3545235000000002
2018-07-03 08:38:11.750000,2.656486,1.75,0.18291448762601092,0.3689339999999999,1.25,2.625,0.9684517499999996
2018-07-03 08:38:19,2.9260900000000003,4.0,0.16368119234509138,0.42845100000000036,0.875,2.375,1.0175711250000008
2018-07-03 08:38:24.125000,2.7979875,1.5,0.1852708331691879,0.23570849999999988,0.75,2.0,0.47141699999999975
2018-07-03 08:38:29.500000,3.042663,1.75,0.2614898083275996,0.4791030000000003,1.125,2.5,1.1977575000000007
2018-07-03 08:38:37.125000,2.621206,1.25,0.04048356086117799,0.02049650000000014,0.25,1.5,0.03074475000000021
2018-07-03 08:38:42.500000,3.146425,4.0,0.22088511383959464,0.36637200000000014,1.375,2.625,0.9617265000000004
2018-07-03 08:38:54.500000,2.8889400000000003,0.875,0.5324424495558411,0.060797000000000434,,,
2018-07-03 08:38:59.250000,3.1771700000000003,1.625,0.18063978708710238,0.2831060000000001,1.125,2.5,0.7077650000000002
2018-07-03 08:39:13.250000,3.1822939999999997,4.0,0.2720658059982366,0.5431539999999995,1.25,2.625,1.4257792499999986
2018-07-03 08:39:18.875000,2.78902,1.5,0.06434490759025557,0.06276999999999955,0.375,1.75,0.10984749999999921
2018-07-03 08:39:30.625000,2.9683634999999997,1.75,0.16557838407236325,0.2760604999999998,0.75,2.125,0.5866285624999996
2018-07-03 08:39:36.250000,2.691662,1.5,0.03464924114664747,0.04611699999999974,0.375,1.75,0.08070474999999955
2018-07-03 08:39:41.375000,3.2117575,1.75,0.3553373443279195,0.6123285000000003,1.25,2.625,1.6073623125000007
2018-07-03 08:39:55.750000,2.760249,4.0,0.12077994727431296,0.30872699999999975,,,
2018-07-03 08:40:07.375000,3.0689235,1.75,0.270173574688636,0.4655999999999998,1.75,3.125,1.4549999999999994
2018-07-03 08:40:12.625000,3.0650804999999997,1.5,0.21981514806070912,0.2927134999999996,0.75,2.0,0.5854269999999993
2018-07-03 08:40:21.750000,2.878692,1.75,0.14356525697250078,0.25364299999999984,0.75,2.125,0.5389913749999997
2018-07-03 08:40:30.750000,3.613609,4.0,0.33476293465543705,0.6862379999999999,1.0,2.5,1.7155949999999998
2018-07-03 08:40:39.875000,3.4624485,1.75,0.3004055733919948,0.5049739999999998,1.0,2.375,1.1993132499999994
2018-07-03 08:40:44.375000,3.3913520000000004,1.5,0.2258842156530303,0.27285800000000027,0.75,2.0,0.5457160000000005
2018-07-03 08:40:52.750000,3.7429919999999997,1.75,0.4191987004883231,0.6866279999999998,1.0,2.375,1.6307414999999996
2018-07-03 08:40:57.750000,3.7455540000000003,1.75,0.29848460946186783,0.5072850000000004,0.875,2.25,1.141391250000001
2018-07-03 08:41:09.625000,3.449638,4.0,0.12245368368532539,0.17742150000000034,0.625,2.0,0.3548430000000007
2018-07-03 08:41:14.875000,3.2799025000000004,1.375,0.05811847095776024,0.05444350000000053,0.375,1.625,0.08847068750000087
2018-07-03 08:41:17.750000,3.4509190000000003,1.5,0.13121559439084685,0.1678139999999999,0.625,1.875,0.3146512499999998
2018-07-03 08:41:29.250000,3.880593,4.0,0.3557110925292868,0.7384,1.625,3.0,2.2152
2018-07-03 08:41:36.625000,4.384707499999999,1.75,0.5365922454678831,0.9555654999999996,1.25,2.5,2.388913749999999
2018-07-03 08:41:48.375000,3.857644,1.875,0.14628012337199614,0.3682940000000001,1.125,2.625,0.9667717500000004
2018-07-03 08:41:53.125000,3.7308225,1.5,0.0985478349300184,0.1293829999999998,0.625,1.875,0.24259312499999963
2018-07-03 08:41:57.500000,4.042002,1.75,0.24165171759226034,0.42198800000000025,0.75,2.125,0.8967245000000006
2018-07-03 08:42:18.625000,4.0016495,4.0,0.25466824595934234,0.6711465000000003,,,
2018-07-03 08:42:26.625000,4.4404319999999995,1.875,0.6821369960267951,0.8173239999999993,,,
2018-07-03 08:42:46.625000,4.311657,4.0,0.14031780779232506,0.45156050000000025,1.125,2.75,1.2417913750000007
2018-07-03 08:42:58.125000,4.670376,1.875,0.21119478006934145,0.5630420000000003,1.375,2.875,1.6187457500000009
2018-07-03 08:43:04.375000,4.2181750000000005,1.375,0.11529840505497191,0.07429899999999989,0.5,1.625,0.12073587499999983
2018-07-03 08:43:07.750000,4.182306,1.25,0.14562335359831025,0.09351499999999913,0.5,1.625,0.15196187499999858
2018-07-03 08:43:10.625000,5.029966999999999,1.875,0.43722319546983357,0.8066679999999993,1.125,2.5,2.016669999999998
2018-07-03 08:43:13.750000,4.618759,1.0,0.09393329179727417,0.038431000000000104,,,
2018-07-03 08:43:15.375000,4.9127535,1.25,0.2423966381234628,0.20944750000000045,0.375,1.5,0.3141712500000007
2018-07-03 08:43:19.250000,5.222119999999999,1.625,0.5011964683493346,0.7567075000000001,0.75,2.0,1.5134150000000002
2018-07-03 08:43:26.875000,4.9178774999999995,1.625,0.32071869840386213,0.44349749999999943,0.625,1.875,0.8315578124999989
2018-07-03 08:43:34.500000,5.119638,1.75,0.390657057054014,0.5991420000000005,0.375,1.625,0.9736057500000008
2018-07-03 08:43:40.625000,5.225875,4.0,0.333687493757747,0.41394650000000066,0.625,2.375,0.9831229375000016
2018-07-03 08:43:44.250000,5.0158760000000004,1.375,0.20100385846588864,0.17101700000000086,0.5,1.75,0.2992797500000015
2018-07-03 08:43:50,5.39433,1.375,0.4168548962388847,0.4348194999999997,0.5,1.625,0.7065816874999995
2018-07-03 08:43:54.750000,4.909551,1.375,0.12285724214460814,0.11529250000000069,0.5,1.625,0.18735031250000111
2018-07-03 08:43:57.875000,5.0139545,1.5,0.11234896054845223,0.15884749999999936,1.0,2.25,0.35740687499999857
2018-07-03 08:44:06.125000,5.435963,1.5,0.46573178024730666,0.5943065000000001,0.75,2.0,1.1886130000000001
2018-07-03 08:44:12.875000,5.0594304999999995,1.625,0.2085910703749967,0.30360249999999933,0.75,2.0,0.6072049999999987
2018-07-03 08:44:19.375000,4.884571,1.5,0.07808663144087191,0.10504400000000036,0.75,1.875,0.19695750000000067
2018-07-03 08:44:33.625000,4.735972,1.625,0.08399551089398827,0.1248990000000001,0.625,2.0,0.2497980000000002
2018-07-03 08:44:41.125000,5.1561475,4.0,0.11991638277908478,0.1934345000000004,0.375,1.75,0.3385103750000007
2018-07-03 08:44:44.875000,5.581999,1.5,0.4382823269970828,0.5757309999999993,0.75,2.0,1.1514619999999987
2018-07-03 08:44:56.750000,5.269518,1.75,0.27909973087340134,0.5662120000000002,,,
2018-07-03 08:45:09.875000,2.200442,1.0,0.07348063513083325,0.030744499999999952,0.25,1.25,0.03843062499999994
2018-07-03 08:45:17.125000,1.975971,1.125,0.05222089457885648,0.02690099999999984,0.375,1.375,0.03698887499999978
2018-07-03 08:45:23.125000,2.836418,0.75,1.2964443923282936,0.0577399999999999,0.125,0.875,0.050522499999999915
2018-07-03 08:45:25.875000,2.896626,0.75,0.38350886400844786,0.09927899999999967,,,
2018-07-03 08:45:36.125000,3.9311935,4.0,0.09319455265919352,0.3150219999999999,,,
2018-07-03 08:45:45,4.671657,1.25,0.5511317689165622,0.7346989999999995,0.125,1.125,0.8265363749999994
2018-07-03 08:45:53.125000,2.8639595,4.0,0.03923842020623347,0.03330600000000006,,,
2018-07-03 08:46:01.875000,2.8229675,0.75,0.14361287059861993,0.02882349999999967,0.875,1.375,0.039632312499999545
2018-07-03 08:46:12.625000,2.9389,1.75,0.048446776244624346,0.1184949999999998,,,
2018-07-03 08:46:35.250000,3.12721,4.0,0.10481334120484753,0.3746469999999995,,,
2018-07-03 08:46:43.125000,3.095184,4.0,0.07587610913358489,0.21772150000000012,,,
2018-07-03 08:46:48.500000,3.110557,1.375,0.07328913454211872,0.08198550000000004,0.5,1.625,0.13322643750000007
2018-07-03 08:46:52.875000,3.2066334999999997,1.75,0.10747394834010571,0.20496349999999985,1.0,2.375,0.48678831249999965
2018-07-03 08:47:06.500000,3.211757,4.0,0.1432974952988033,0.39071100000000003,,,
2018-07-03 08:47:28.125000,2.919044,4.0,0.059913001564591895,0.19855899999999993,1.5,3.125,0.6204968749999997
2018-07-03 08:47:58.500000,2.443836,1.875,0.03369192030394075,0.09735750000000021,1.0,2.5,0.24339375000000052
2018-07-03 08:48:04.625000,2.5508015,4.0,0.0488704443301593,0.17485949999999972,1.625,3.25,0.5682933749999991
2018-07-03 08:48:12.875000,2.593716,4.0,0.07394448694860678,0.21265000000000045,1.75,3.25,0.6911125000000015
2018-07-03 08:48:28.250000,2.465614,4.0,0.04672742623995241,0.11401100000000008,0.5,2.0,0.22802200000000017
2018-07-03 08:48:36.375000,0.620015,1.125,0.5759372967475855,0.5982379999999999,,,
2018-07-03 08:48:51,1.254457,1.25,0.5792253400795411,0.5242739999999999,0.25,1.25,0.6553424999999999
2018-07-03 08:48:55.375000,1.7246915,0.75,0.7956839004103955,0.1954060000000002,,,
2018-07-03 08:49:00.625000,2.4880315,4.0,0.08182367577664529,0.32759349999999987,,,
2018-07-03 08:49:14.375000,2.529665,4.0,0.06690771508548465,0.21521200000000018,1.875,3.5,0.7532420000000006
2018-07-03 08:49:53.625000,2.4790645000000002,4.0,0.20937756413072428,0.6196665000000001,,,
2018-07-03 08:50:06.875000,2.2331085,1.625,0.03852200417383678,0.06084850000000053,0.75,2.0,0.12169700000000105
2018-07-03 08:50:16.125000,2.5181354999999996,4.0,0.12930524838342983,0.21072799999999958,0.5,1.875,0.3951149999999992
2018-07-03 08:50:19.750000,2.689793,4.0,0.07456779318931517,0.1511610000000001,1.625,3.0,0.4534830000000003
2018-07-03 08:50:38.875000,2.541194,4.0,0.047710586166147095,0.14347449999999995,,,
2018-07-03 08:50:41.625000,2.7237395,1.75,0.07318792161805199,0.16333000000000064,1.25,2.625,0.4287412500000017
2018-07-03 08:50:52.250000,2.6488,1.875,0.05854982351615412,0.13578849999999987,1.375,2.75,0.37341837499999964
2018-07-03 08:51:04.125000,2.4758620000000002,1.875,0.022504653641377104,0.051241000000000536,0.75,2.125,0.10888712500000114
2018-07-03 08:51:25.375000,2.415013,4.0,0.08603618254586642,0.25364200000000015,,,
2018-07-03 08:51:37.375000,2.3957975,1.75,0.07112643993866108,0.14731700000000014,1.125,2.5,0.36829250000000036
2018-07-03 08:51:50.500000,1.347972,1.375,0.48775831946119563,0.5297034999999999,,,
2018-07-03 08:51:52.500000,1.451734,1.125,0.11934703344523889,0.10248150000000011,,,
2018-07-03 08:51:55.250000,1.538943,1.5,0.054712910188446706,0.08080299999999996,0.375,1.625,0.13130487499999993
2018-07-03 08:52:08.625000,0.4300495,1.0,0.3318250874725768,0.09159249999999997,0.125,1.125,0.10304156249999996
2018-07-03 08:52:12.750000,0.45374899999999996,4.0,0.04779169643461767,0.08710999999999997,,,
2018-07-03 08:52:16,0.46271599999999996,1.375,0.031272137151690416,0.03650949999999992,,,
2018-07-03 08:52:19,0.6959310000000001,1.375,0.38071390166033225,0.18581750000000008,,,
2018-07-03 08:52:21.875000,0.7401264999999999,1.125,0.04957228578559025,0.02882349999999989,,,
2018-07-03 08:52:24.250000,2.07461,1.625,0.8806461204753973,1.3171895,,,
2018-07-03 08:52:25.875000,2.4707375000000003,1.125,0.3741700504236736,0.06306150000000033,0.125,1.25,0.07882687500000041
2018-07-03 08:52:43.375000,2.5559255,4.0,0.028893851187364206,0.1713079999999998,,,
2018-07-03 08:53:00.625000,1.8137219999999998,1.625,0.28718175709114213,0.40159999999999996,,,
2018-07-03 08:53:03.250000,2.1553139999999997,1.625,0.11321112118741716,0.2544819999999999,0.875,2.125,0.5407742499999997
2018-07-03 08:53:09,1.540224,1.0,1.0631773296850975,0.36397800000000013,,,
2018-07-03 08:53:10.875000,1.636301,1.375,0.07112288383795473,0.057646000000000086,0.625,1.875,0.10808625000000016
2018-07-03 08:53:22.625000,0.5476375,1.375,0.3909603713631422,0.5437945,,,
2018-07-03 08:53:25.375000,0.904028,4.0,0.08517032023679194,0.17691400000000002,0.25,2.0,0.35382800000000003
2018-07-03 08:53:35.750000,0.7419789999999999,1.375,0.2837883302939268,0.15820649999999992,,,
2018-07-03 08:53:39.625000,1.427395,4.0,0.16464362930079268,0.42665,1.0,2.5,1.066625
2018-07-03 08:53:51.125000,0.9630245,4.0,0.18950591932913197,0.24147300000000005,1.875,3.0,0.7244190000000001
2018-07-03 08:53:55.625000,1.0430885,1.625,0.26555932362854584,0.24339450000000018,,,
2018-07-03 08:53:58.125000,1.1474915,1.125,0.11807397633935235,0.09159250000000019,0.75,1.75,0.16028687500000033
2018-07-03 08:54:06.375000,1.919606,1.875,0.034473956607198986,0.129583,1.875,3.5,0.4535405
2018-07-03 08:54:13.625000,2.1988689999999997,4.0,0.09246261170311065,0.3516404999999998,0.875,2.5,0.8791012499999995
2018-07-03 08:54:24.125000,1.8617605,0.75,0.6160893527316054,0.06661299999999981,0.5,0.75,0.04995974999999986
2018-07-03 08:54:29.625000,1.8098795,1.375,0.03418761458101116,0.02882349999999989,0.25,1.5,0.043235249999999836
2018-07-03 08:54:47,0.689457,1.0,0.09314930639601027,0.024339,0.5,1.5,0.0365085
2018-07-03 08:55:27.125000,0.4121155,4.0,0.00843435547111726,0.037790500000000005,0.75,2.375,0.0897524375
2018-07-03 08:55:34.750000,0.90595,1.125,0.4400945431944363,0.40032,,,
2018-07-03 08:55:39.250000,1.308359,4.0,0.08504022630115582,0.12179600000000024,,,
2018-07-03 08:55:44.250000,1.914482,4.0,0.12724928684061076,0.33070299999999997,,,
2018-07-03 08:55:54.625000,2.2680445000000002,1.875,0.14635140823231296,0.3240985000000003,,,
2018-07-03 08:56:03,2.244986,4.0,0.024191616054487497,0.0730179999999998,1.25,2.75,0.20079949999999946
2018-07-03 08:56:13.250000,2.107916,1.5,0.02849651110999929,0.040991999999999695,0.625,1.875,0.07685999999999943
2018-07-03 08:56:18.500000,2.232176,1.875,0.08151956817802741,0.19279449999999976,,,
2018-07-03 08:56:22.625000,2.7211775,4.0,0.07100424838822583,0.11337049999999982,0.5,1.875,0.21256968749999966
2018-07-03 08:56:32.625000,2.5745005,1.625,0.09635668184762913,0.15244150000000012,0.875,2.125,0.32393818750000025
2018-07-03 08:56:36.500000,2.765373,1.625,0.1695996312588779,0.27157649999999967,1.125,2.375,0.6449941874999991
2018-07-03 08:56:44.375000,2.7519225,1.0,0.7595687882641027,0.29364650000000037,0.25,1.125,0.3303523125000004
2018-07-03 08:56:48.500000,3.166922,1.875,0.19380090115850201,0.6378974999999998,1.375,2.875,1.8339553124999994
2018-07-03 08:56:52.500000,3.3116769999999995,1.75,0.2881381699418668,0.5405909999999996,,,
2018-07-03 08:56:54.125000,3.434266,1.125,0.5059763366616057,0.2519720000000003,0.125,1.25,0.3149650000000004
2018-07-03 08:57:00.500000,3.323206,1.125,0.20930183527745427,0.1184940000000001,0.625,1.625,0.19255275000000016
2018-07-03 08:57:16.125000,3.8518795000000003,1.5,0.22439046509731675,0.28630900000000015,0.625,1.875,0.5368293750000003
2018-07-03 08:57:25.375000,4.2181425,1.625,0.21163294798634524,0.5238285,,,
2018-07-03 08:57:46.875000,0.74326,1.125,0.722220596387201,0.7342930000000001,,,
2018-07-03 08:58:00.500000,0.7907270000000001,4.0,0.23075262432298072,0.39361000000000007,,,
2018-07-03 08:58:03.125000,0.952067,0.625,0.8830714400160589,0.061489999999999934,,,
2018-07-03 08:58:05.250000,1.6772939999999998,1.75,0.2435923854454769,0.643173,,,
2018-07-03 08:58:07.375000,1.8316569999999999,1.125,0.18356922127480857,0.06084899999999971,0.125,1.25,0.07606124999999964
2018-07-03 08:58:09.125000,2.114962,0.75,0.9158652472851028,0.1064244999999997,,,
2018-07-03 08:58:10.250000,2.169405,0.625,0.13327333900402039,0.021136499999999447,0.875,1.5,0.03170474999999917
2018-07-03 08:58:43.750000,0.873993,4.0,0.0390298602042245,0.11913499999999999,1.375,2.875,0.342513125
2018-07-03 08:58:53.375000,0.7542175,1.375,0.038187665382476865,0.04547650000000003,1.125,2.25,0.10232212500000007
2018-07-03 08:58:57.625000,0.7285975,1.25,0.02974005705859062,0.026261499999999938,0.5,1.625,0.0426749374999999
2018-07-03 08:59:06.375000,0.7804789999999999,1.75,0.02662269363394909,0.05444349999999987,1.0,2.5,0.13610874999999967
2018-07-03 08:59:11.750000,0.859902,1.375,0.08354250931875473,0.08967150000000002,0.625,1.75,0.15692512500000003
2018-07-03 08:59:16.375000,0.8374845,1.5,0.06772192574975655,0.06853549999999997,,,
2018-07-03 08:59:23.500000,0.99569,1.875,0.0713193135400263,0.16781350000000006,,,
2018-07-03 08:59:37.625000,1.0206705,1.75,0.07745953982050846,0.1594875,1.25,2.625,0.4186546875
2018-07-03 08:59:49.375000,0.864957,0.5,0.12018728690682412,0.02241749999999998,,,
2018-07-03 09:00:09.625000,0.6132365,1.625,0.02238470650508706,0.035228499999999996,0.625,2.0,0.07045699999999999
2018-07-03 09:00:49.125000,0.5581525,4.0,0.011603488934478712,0.07494000000000006,1.125,2.875,0.21545250000000019
2018-07-03 09:01:11.875000,1.2666270000000002,0.875,0.5038643754894863,0.1325860000000001,0.5,1.375,0.18230575000000013
2018-07-03 09:01:15.375000,1.05782,0.875,0.40113069562785464,0.06981599999999988,,,
2018-07-03 09:01:20.875000,1.412023,4.0,0.03114033360925017,0.2638910000000001,,,
2018-07-03 09:01:38.500000,0.9841610000000001,0.875,0.3415061549404208,0.08774949999999992,,,
2018-07-03 09:01:49,1.636301,4.0,0.3257913450982697,0.2434940000000001,,,
2018-07-03 09:02:29.750000,0.8675879999999999,1.625,0.44710469219022775,0.3593264999999999,,,
2018-07-03 09:02:33.500000,1.3557569999999999,4.0,0.25745657508489295,0.1858479999999998,0.625,1.875,0.3484649999999996
2018-07-03 09:02:48.375000,1.8760515,1.875,0.06753998825204732,0.3140505,1.375,3.0,0.9421515
2018-07-03 09:02:55,1.5351,4.0,0.05434416024009625,0.05124099999999987,,,
2018-07-03 09:03:10.125000,1.507558,0.875,0.1279646988931633,0.0429139999999999,0.75,1.625,0.06973524999999983
2018-07-03 09:03:29.625000,1.2680064999999998,1.375,0.04251088949575177,0.03266549999999979,1.125,2.375,0.0775805624999995
2018-07-03 09:03:55.875000,1.1104415,4.0,0.0160197775995492,0.044195500000000054,1.5,3.0,0.13258650000000016
2018-07-03 09:04:21.250000,0.993128,1.25,0.09280978404500306,0.11016799999999993,0.5,1.625,0.17902299999999988
2018-07-03 09:06:21.625000,0.3423,4.0,0.01326980290452262,0.040993,,,
2018-07-03 09:06:24.125000,0.3608745,1.375,0.024436222664959928,0.024979499999999988,1.0,2.125,0.053081437499999974
2018-07-03 09:07:13.250000,0.320522,4.0,0.017309109339886053,0.038429999999999964,,,
2018-07-03 09:07:38.125000,0.39711699999999994,0.75,0.42483285777111457,0.035227999999999926,,,
2018-07-03 09:07:41.375000,0.49511550000000004,1.75,0.03720359295630549,0.05444349999999998,,,
2018-07-03 09:07:48.375000,0.6065645,4.0,0.04544849766447445,0.09479599999999999,,,
2018-07-03 09:07:57.500000,0.594394,1.875,0.026765761241998476,0.06276999999999999,,,
2018-07-03 09:08:07.375000,0.6270605,4.0,0.036182629291125146,0.0839065,,,
2018-07-03 09:08:15.250000,0.607472,4.0,0.03376181597907202,0.032293000000000016,0.125,1.875,0.06054937500000003
2018-07-03 09:08:19.500000,0.571603,4.0,0.025902999312891417,0.07301799999999992,,,
2018-07-03 09:08:23.750000,0.570322,1.625,0.016630053650885213,0.027542500000000025,,,
2018-07-03 09:08:29.375000,0.63053,4.0,0.014712930580473849,0.0416335000000001,,,
2018-07-03 09:08:32,0.7868149999999999,4.0,0.03237175789979041,0.14603699999999997,,,
2018-07-03 09:08:36.875000,0.8636759999999999,1.75,0.052185394539832064,0.09927949999999996,,,
2018-07-03 09:08:41.750000,1.003377,1.625,0.08877035538665234,0.12817199999999995,,,
2018-07-03 09:08:43.875000,1.0257945,1.25,0.03378984966540788,0.02497999999999978,0.25,1.375,0.0343474999999997
2018-07-03 09:08:47.500000,1.203216,4.0,0.13739376233922052,0.22289800000000004,,,
2018-07-03 09:08:52.500000,1.922168,4.0,0.20489083063479274,0.6203130000000001,,,
2018-07-03 09:08:57.500000,2.139942,4.0,0.10312060133555434,0.29719699999999993,,,
2018-07-03 09:09:12.125000,2.5117304999999996,1.875,0.18605862523445715,0.4486494999999997,1.75,3.25,1.4581108749999991
2018-07-03 09:09:17.375000,2.6366300000000003,4.0,0.04268492739196894,0.12425900000000034,0.5,2.125,0.2640503750000007
2018-07-03 09:09:21.375000,2.554004,1.25,0.0603318330901601,0.0506000000000002,0.5,1.625,0.08222500000000033
2018-07-03 09:09:26.250000,2.773059,1.75,0.16411121621941227,0.2997589999999999,1.125,2.5,0.7493974999999997
2018-07-03 09:09:30.375000,2.817895,1.5,0.15776040736784758,0.20624449999999994,,,
2018-07-03 09:09:33.750000,3.250188,4.0,0.2282746703453089,0.24979900000000033,0.5,1.75,0.43714825000000057
2018-07-03 09:09:39.250000,3.2770900000000003,4.0,0.3926985469858426,0.5213770000000002,,,
2018-07-03 09:09:44.625000,3.8422715,1.75,0.26233296901612313,0.6308084999999997,,,
2018-07-03 09:09:50.375000,3.8012785000000004,1.875,0.35628254299990303,0.6911115000000008,,,
2018-07-03 09:09:56.125000,2.9690035,1.625,0.43141150864065736,0.2856155,1.125,2.5,0.71403875
2018-07-03 09:09:59.375000,2.9216059999999997,1.25,0.16061863813568067,0.14603649999999968,0.5,1.625,0.23730931249999948
2018-07-03 09:10:04.125000,3.000389,1.5,0.23492757061483793,0.29591650000000014,0.625,1.875,0.5548434375000002
2018-07-03 09:10:13,2.6757009999999997,1.5,0.2886248841301171,0.3061639999999999,1.75,2.875,0.8802214999999997
2018-07-03 09:10:22.500000,2.682106,1.5,0.13047216942789497,0.15884600000000004,0.125,1.5,0.23826900000000006
2018-07-03 09:10:35.375000,2.092544,1.875,0.21737176630908195,0.18446700000000016,0.125,1.375,0.2536421250000002
2018-07-03 09:10:42.750000,1.779775,1.875,0.15450715161307738,0.2530015000000001,,,
2018-07-03 09:10:49.500000,2.073329,4.0,0.12042163348375823,0.33967000000000014,,,
2018-07-03 09:11:04.125000,1.4947475,4.0,0.05911453562262281,0.10760550000000002,,,
2018-07-03 09:11:06.500000,1.532538,1.25,0.11948491768733582,0.025620999999999894,,,
2018-07-03 09:11:08.875000,1.8431855,1.875,0.10291068694481087,0.1825454999999998,,,
2018-07-03 09:11:14.875000,1.941383,1.125,0.11046794660293457,0.06809299999999996,0.5,0.625,0.042558124999999974
2018-07-03 09:11:18.125000,1.6909435,1.625,0.0990248225320558,0.18254550000000003,,,
2018-07-03 09:11:20.875000,2.2520315,4.0,0.2942547068761403,0.46501150000000013,,,
2018-07-03 09:11:24,2.8153330000000003,0.875,0.6754835241718471,0.09671700000000039,0.25,1.125,0.10880662500000043
2018-07-03 09:11:26.875000,2.0169635,1.0,0.3010146922023811,0.08070399999999989,,,
2018-07-03 09:11:38.125000,2.111119,4.0,0.37227977720070005,0.5190134999999998,0.5,1.625,0.8433969374999997
2018-07-03 09:11:41.125000,1.8843779999999999,1.5,0.11250582041177903,0.12874249999999998,0.375,1.5,0.19311374999999997
2018-07-03 09:11:49.625000,2.2936645,1.5,0.051071834558873874,0.13322600000000007,0.375,1.625,0.2164922500000001
2018-07-03 09:11:51.500000,2.49892,1.0,0.24077601385869052,0.07331000000000021,0.5,1.25,0.09163750000000026
2018-07-03 09:11:56,2.779464,4.0,0.16324699715728208,0.32153699999999974,1.375,2.75,0.8842267499999993
2018-07-03 09:12:05.500000,2.6026830000000003,1.625,0.047440395107381406,0.07237750000000043,0.75,2.125,0.1538021875000009
2018-07-03 09:12:15,2.6398330000000003,1.875,0.07174578513638785,0.15308250000000045,0.5,1.875,0.28702968750000085
2018-07-03 09:12:19.125000,2.2200055,1.625,0.39477356363328475,0.5028014999999999,,,
2018-07-03 09:12:26.375000,2.8262219999999996,4.0,0.07036294440249158,0.2318654999999996,0.5,2.25,0.5216973749999991
2018-07-03 09:12:31.250000,2.6385520000000002,1.375,0.06569827236973502,0.03394750000000046,0.125,1.375,0.04667781250000064
2018-07-03 09:12:35.125000,2.8832269999999998,1.5,0.1674245653933788,0.20560399999999968,0.375,1.375,0.28270549999999955
2018-07-03 09:12:42.125000,3.204071,4.0,0.14438641084737291,0.2836945000000002,0.25,1.75,0.4964653750000003
2018-07-03 09:13:14.750000,2.670577,1.125,0.12267598697955862,0.08262599999999987,0.625,1.625,0.13426724999999978
2018-07-03 09:13:18.375000,2.091263,1.625,0.3222117895014769,0.12297800000000025,0.25,1.375,0.16909475000000035
2018-07-03 09:13:22.625000,2.3871795000000002,0.75,0.5602322860868707,0.04291450000000019,0.375,1.0,0.04291450000000019
2018-07-03 09:13:34,2.215522,1.875,0.12533284996563054,0.19919850000000006,,,
2018-07-03 09:13:40,2.029774,1.0,0.16904277213152774,0.05124100000000009,,,
2018-07-03 09:13:41.750000,2.1617189999999997,1.0,0.20376300478768883,0.02433899999999989,,,
2018-07-03 09:13:44.125000,2.6814660000000003,1.75,0.47483900633344334,0.4556955000000005,0.875,2.125,0.9683529375000011
2018-07-03 09:13:47,2.623179,1.0,0.2586833401613653,0.11272999999999955,,,
2018-07-03 09:13:51.875000,3.0907004999999996,0.875,0.3094714883160261,0.05828649999999991,,,
2018-07-03 09:14:00.125000,2.90175,1.125,0.15666801086642757,0.03202499999999997,0.25,1.125,0.036028124999999966
2018-07-03 09:14:18,1.9208869999999998,1.0,0.04650728061756482,0.03202499999999997,,,
2018-07-03 09:14:50.875000,9.2582445,4.0,1.0068268620021215,2.209468,,,
2018-07-03 09:14:59.250000,7.083711999999999,4.0,0.9293056629762688,1.3985899999999996,,,
2018-07-03 09:15:03,6.172766,1.0,0.42958103561562666,0.14859799999999979,,,
2018-07-03 09:15:28.750000,2.991032,1.25,0.36010440002646327,0.05981800000000037,,,
2018-07-03 09:15:33.250000,4.093243,0.625,0.1393717895751827,0.04931899999999967,0.125,0.375,0.018494624999999876
2018-07-03 09:15:39,4.686653,1.875,0.22131374460692754,0.9447464999999999,,,
2018-07-03 09:15:47,5.782479,4.0,0.5051227563212031,0.6551540000000005,0.125,1.25,0.8189425000000006
2018-07-03 09:15:50.250000,7.317009,4.0,0.9655836116968324,2.3827419999999995,,,
2018-07-03 09:16:04.125000,3.63848,1.0,1.2580098682983838,0.28482350000000034,0.5,1.5,0.4272352500000005
2018-07-03 09:16:12.125000,2.8581955,0.875,1.1735408057408723,0.2737384999999999,,,
2018-07-03 09:16:18.625000,3.0849365,0.875,0.27937608961255656,0.06020849999999989,,,
2018-07-03 09:17:14.375000,1.6202885,0.875,0.23170765430583895,0.028823500000000113,,,
2018-07-03 09:17:28.125000,1.3455085,1.5,0.052930639470305074,0.10504350000000007,,,
2018-07-03 09:17:53.875000,1.225634,0.875,0.15554575018996353,0.044194999999999984,,,
2018-07-03 09:17:57.500000,1.39537,4.0,0.07722934773836432,0.16269,,,
2018-07-03 09:18:02.375000,1.6010725,4.0,0.031082899667739916,0.11977549999999981,,,
2018-07-03 09:18:37.875000,1.0648654999999998,0.75,0.34364093018288466,0.04355449999999994,0.25,0.875,0.03811018749999995
2018-07-03 09:18:40.125000,1.0872835,1.375,0.05889917441621595,0.021136500000000114,0.25,1.5,0.03170475000000017
2018-07-03 09:18:53.875000,1.0584605,4.0,0.045013847470331214,0.04163300000000025,0.25,1.375,0.05724537500000035
2018-07-03 09:19:00.375000,1.0104224999999998,1.75,0.014557541767945104,0.0339474999999998,0.75,2.125,0.07213843749999957
2018-07-03 09:19:08.500000,1.196811,4.0,0.004407393869898968,0.038431000000000104,,,
2018-07-03 09:19:14,1.318508,4.0,0.03119894087921704,0.09479599999999988,,,
2018-07-03 09:19:20.125000,1.29545,1.5,0.013222829650645807,0.040352500000000235,,,
2018-07-03 09:19:22.375000,1.326194,1.75,0.028562174281892894,0.028822499999999973,,,
2018-07-03 09:19:31.125000,1.1936084999999999,4.0,0.030202499593679377,0.06341049999999981,,,
2018-07-03 09:19:44.875000,1.1711905,1.375,0.031763062410952614,0.020496499999999918,0.625,1.625,0.033306812499999866
2018-07-03 09:19:56.125000,1.32107,1.875,0.17827444644495216,0.31000700000000014,,,
2018-07-03 09:20:51.625000,0.640847,1.75,0.013320652986303472,0.025620000000000087,,,
2018-07-03 09:21:33.375000,0.6920189999999999,4.0,0.11047557171103861,0.12682099999999996,,,
2018-07-03 09:21:36.500000,0.766318,4.0,0.012372941772593293,0.04355399999999998,,,
2018-07-03 09:21:52.875000,0.754789,4.0,0.016261035160220594,0.026901000000000064,,,
2018-07-03 09:21:57.125000,0.8015464999999999,1.125,0.06599398893723851,0.055724499999999955,,,
2018-07-03 09:21:59.625000,0.8239639999999999,1.125,0.025053389080772703,0.02433899999999989,0.375,1.375,0.03346612499999985
2018-07-03 09:22:11.250000,0.991778,4.0,0.02769904209983798,0.08070400000000011,,,
2018-07-03 09:22:16.250000,0.9866540000000001,1.375,0.04576744368788521,0.06020800000000015,,,
2018-07-03 09:22:26.500000,0.939256,1.75,0.017723643053234817,0.03202500000000008,0.375,1.625,0.05204062500000013
2018-07-03 09:22:36.625000,1.2230715,4.0,0.027003305311455783,0.1402715000000001,,,
2018-07-03 09:22:41.500000,1.1404459999999998,1.625,0.10327832570590001,0.03202550000000004,0.125,1.625,0.052041437500000065
2018-07-03 09:22:44,1.1225120000000002,1.25,0.18503535354252643,0.19855900000000015,,,
2018-07-03 09:22:47.500000,1.169909,4.0,0.003761489486273639,0.030744000000000105,1.375,3.125,0.09607500000000033
2018-07-03 09:23:01,1.378716,1.875,0.2223204432807222,0.2734985000000003,1.125,2.25,0.6153716250000008
2018-07-03 09:23:08.250000,1.2941690000000001,4.0,0.007564570602486498,0.030745000000000244,1.0,2.75,0.08454875000000067
2018-07-03 09:23:33.875000,0.9963310000000001,1.5,0.12656637975486174,0.17486000000000002,,,
2018-07-03 09:24:35.250000,0.7048979999999999,4.0,0.004191828502918327,0.020495999999999848,,,
2018-07-03 09:24:39.500000,0.734362,4.0,0.004039423776300399,0.025621000000000005,1.125,2.75,0.07045775000000001
2018-07-03 09:24:50.750000,0.961103,4.0,0.0059144280473995,0.11785400000000001,1.5,3.25,0.3830255
2018-07-03 09:24:58,0.962384,1.125,0.0888072135552136,0.05892749999999991,,,
2018-07-03 09:25:01,1.281358,4.0,0.08760119628545304,0.2562039999999999,,,
2018-07-03 09:25:04.250000,1.381278,1.25,0.06888632710496889,0.04867899999999992,0.25,1.375,0.06693362499999989
2018-07-03 09:25:17,1.2595809999999998,1.375,0.08681077711611263,0.10184149999999992,,,
2018-07-03 09:25:37.125000,3.116321,4.0,0.03309300327442877,0.18569600000000008,0.5,2.375,0.4410280000000002
2018-07-03 09:25:45,3.807575,1.5,0.927495494700592,1.223118,,,
2018-07-03 09:25:50.500000,4.0343160000000005,4.0,0.2141112913480896,0.4834770000000006,,,
2018-07-03 09:25:53.250000,4.276429,1.375,0.3094388343629326,0.3061645000000004,0.5,1.75,0.5357878750000007
2018-07-03 09:25:58.750000,4.57558,4.0,0.27504272407630737,0.7974690000000004,0.75,2.375,1.8939888750000011
2018-07-03 09:26:04.500000,4.072747,1.375,0.21346010989754838,0.24403499999999978,0.625,1.75,0.4270612499999996
2018-07-03 09:26:09.625000,3.996526,1.5,0.15393374997483988,0.19407549999999985,1.0,2.25,0.43666987499999965
2018-07-03 09:26:32,3.9446440000000003,1.875,0.1969997278531963,0.4137700000000004,1.625,3.0,1.2413100000000012
2018-07-03 09:26:37.250000,3.6986879999999998,1.125,0.10313049733066393,0.03522799999999915,,,
2018-07-03 09:26:40.500000,4.188038,1.625,0.2514627251080199,0.39519499999999974,0.875,2.25,0.8891887499999994
2018-07-03 09:26:47,4.370616,1.375,0.16121545524548964,0.17742099999999983,0.5,1.625,0.2883091249999997
2018-07-03 09:27:01.500000,4.281553,4.0,0.23617098708181672,0.3958360000000001,1.0,2.25,0.8906310000000002
2018-07-03 09:27:38.625000,3.5066435,4.0,0.07679850183401982,0.26901449999999993,1.625,3.125,0.8406703124999998
2018-07-03 09:27:54.125000,2.8633195,0.875,0.11811972877381294,0.04739749999999976,0.625,1.5,0.07109624999999964
2018-07-03 09:28:00.875000,2.8524305,1.875,0.06117055204816779,0.16204950000000018,1.0,2.5,0.40512375000000045
2018-07-03 09:28:08.375000,2.1328965,1.75,0.32194469597327213,0.3811045000000002,1.625,2.75,1.0480373750000005
2018-07-03 09:28:19.875000,1.5999910000000002,1.25,0.051726440018006414,0.023699000000000137,,,
2018-07-03 09:28:37.625000,1.460801,1.125,0.05103734234402335,0.033306999999999976,,,
2018-07-03 09:28:59.750000,1.488983,1.375,0.29654858701569076,0.35035949999999993,,,
2018-07-03 09:29:17.250000,1.299392,4.0,0.04565340401730822,0.13450800000000007,,,
2018-07-03 09:29:47.875000,1.0111620000000001,1.75,0.011468388519639383,0.02434000000000003,1.25,2.75,0.06693500000000008
2018-07-03 09:29:53.125000,1.4383825,4.0,0.12771202017279837,0.3048829999999998,,,
2018-07-03 09:29:54.500000,1.5043549999999999,1.0,0.0752972057905712,0.021776999999999713,0.25,1.25,0.02722124999999964
2018-07-03 09:30:27.125000,1.0963495,1.875,0.031645814709521325,0.10055950000000013,1.125,2.625,0.26396868750000035
2018-07-03 09:30:31,1.257118,4.0,0.09929851309914905,0.1870290000000001,,,
2018-07-03 09:30:33.625000,1.6497514999999998,4.0,0.21231769076299756,0.38943099999999964,,,
2018-07-03 09:30:36.375000,1.938181,4.0,0.06835275218472603,0.24295349999999982,1.0,2.625,0.6377529374999995
2018-07-03 09:30:40.750000,1.9887810000000001,1.625,0.1312395805375033,0.21328999999999998,1.75,3.125,0.6665312499999999
2018-07-03 09:30:50.750000,1.791504,1.875,0.09178657037996185,0.11208949999999995,0.375,1.625,0.18214543749999992
2018-07-03 09:31:01.125000,2.1059945,4.0,0.12064808677091676,0.3266605,,,
2018-07-03 09:31:05.625000,1.986219,1.625,0.01590028740997429,0.030743999999999883,,,
2018-07-03 09:31:20.250000,1.9721279999999999,1.875,0.044849575458846935,0.10888699999999996,0.875,2.375,0.25860662499999987
2018-07-03 09:31:42,1.1431069999999999,4.0,0.027650964022083002,0.08326599999999984,,,
2018-07-03 09:32:09.625000,1.2718495,4.0,0.02260409145733,0.04483499999999996,,,
2018-07-03 09:32:14.875000,1.684339,4.0,0.039961589343032955,0.22546,,,
2018-07-03 09:32:17,1.8235290000000002,1.0,0.23350403260114838,0.054002000000000105,0.125,1.125,0.06075225000000012
2018-07-03 09:32:30.625000,2.081015,4.0,0.265512701114873,0.5728164999999998,,,
2018-07-03 09:32:41.875000,2.07461,0.875,0.09237032491458841,0.03586899999999993,,,
2018-07-03 09:32:47.625000,2.1341775,1.875,0.09198539969373698,0.10696549999999982,,,
2018-07-03 09:32:52.250000,2.6577669999999998,4.0,0.08916197527679515,0.2885219999999995,,,
2018-07-03 09:32:54.500000,3.002951,1.5,0.22225702858656682,0.2580739999999997,1.5,2.75,0.7097034999999992
2018-07-03 09:33:00.625000,3.1541115,4.0,0.0486073402944438,0.1646114999999999,,,
2018-07-03 09:33:09.250000,3.8959650000000003,4.0,0.2910042050367885,0.8699560000000002,1.625,3.125,2.7186125000000008
2018-07-03 09:33:45,3.067002,4.0,0.16346914859873252,0.31315800000000005,0.375,1.875,0.5871712500000001
2018-07-03 09:33:49.375000,2.8146925,1.125,0.37844019583450184,0.2581264999999999,,,
2018-07-03 09:33:54.750000,2.952991,4.0,0.18328923472900982,0.3477459999999999,1.5,3.0,1.0432379999999997
2018-07-03 09:34:00.500000,2.915841,1.5,0.1308884496766236,0.17165699999999973,1.375,2.375,0.40768537499999935
2018-07-03 09:34:26.500000,1.9605990000000002,1.375,0.06799732275787829,0.04739800000000027,,,
2018-07-03 09:34:31.875000,2.2584365,4.0,0.04398779586022172,0.15628449999999994,1.5,3.125,0.4883890624999998
2018-07-03 09:34:38.375000,2.2481885,4.0,0.14306035407821938,0.17614099999999988,0.25,1.625,0.2862291249999998
2018-07-03 09:34:40.250000,2.289822,0.875,0.2603992379895761,0.0448360000000001,0.125,1.0,0.0448360000000001
2018-07-03 09:34:42.750000,1.760759,1.125,0.09462439951125479,0.0429139999999999,0.25,1.25,0.05364249999999987
2018-07-03 09:34:56.125000,2.364413,4.0,0.07647032649428098,0.25393449999999973,0.875,2.5,0.6348362499999993
2018-07-03 09:35:06,1.844026,1.25,0.21063572153752297,0.25364299999999984,,,
2018-07-03 09:35:08.375000,1.8875804999999999,4.0,0.008910873290001398,0.03010400000000013,0.25,2.0,0.06020800000000026
2018-07-03 09:35:14.375000,2.0701264999999998,4.0,0.23325140570326575,0.1498799999999998,,,
2018-07-03 09:35:18.875000,1.9791735000000001,0.625,0.1251846155674654,0.023698500000000067,0.5,0.625,0.014811562500000042
2018-07-03 09:35:24.625000,2.1565950000000003,1.0,0.1244775969820271,0.05444300000000002,,,
2018-07-03 09:35:32.625000,2.3365789999999995,1.375,0.133144039206897,0.2606879999999996,,,
2018-07-03 09:35:34.500000,2.518136,1.5,0.11696458042179891,0.11686500000000022,0.375,1.5,0.17529750000000033
2018-07-03 09:35:42.125000,2.5341484999999997,1.375,0.17928562323451658,0.24275349999999962,0.625,1.875,0.4551628124999993
2018-07-03 09:35:47.250000,2.418216,1.5,0.1980661608680787,0.16525200000000018,0.25,1.5,0.24787800000000026
2018-07-03 09:35:52.625000,2.513652,4.0,0.18509702879026513,0.22994349999999963,0.625,1.875,0.4311440624999993
2018-07-03 09:35:54.875000,2.331106,0.75,0.11924182926393279,0.03458749999999977,0.25,0.625,0.021617187499999857
2018-07-03 09:35:59.250000,2.097668,1.125,0.3076662655772955,0.19023199999999996,0.75,1.75,0.3329059999999999
2018-07-03 09:36:10.500000,2.17453,4.0,0.03349372403915396,0.14091299999999984,,,
2018-07-03 09:36:14.125000,2.4169345,1.375,0.17825166350507438,0.2014125,1.75,3.0,0.6042375
2018-07-03 09:36:18,2.381066,1.375,0.05099194891414349,0.04291450000000019,0.625,1.875,0.08046468750000035
2018-07-03 09:36:20.250000,2.480986,0.75,0.17157137516432108,0.025621000000000116,,,
2018-07-03 09:36:25.500000,2.568095,1.75,0.03202615102205719,0.08838999999999997,1.125,2.5,0.22097499999999992
2018-07-03 09:36:32.250000,2.6078069999999998,1.625,0.07885356575835623,0.1351479999999996,1.125,2.375,0.32097649999999905
2018-07-03 09:36:41.625000,2.677623,4.0,0.11254294569014611,0.26837449999999974,,,
2018-07-03 09:36:52,3.0759689999999997,4.0,0.19719887163388705,0.5834539999999997,,,
2018-07-03 09:36:57.500000,2.956834,1.75,0.10364471319995516,0.18959100000000007,0.75,2.125,0.40288087500000014
2018-07-03 09:37:03.250000,3.132334,4.0,0.14411168721675693,0.38174500000000045,1.875,3.375,1.2883893750000015
2018-07-03 09:37:11.750000,3.725058,4.0,0.407419023863671,0.8950450000000001,,,
2018-07-03 09:37:17.625000,3.352921,1.375,0.10782377266236232,0.11977599999999988,,,
2018-07-03 09:37:19.750000,3.4637290000000003,1.125,0.108010722320655,0.08006400000000014,,,
2018-07-03 09:37:21.500000,3.6738169999999997,1.375,0.15465107172228265,0.13514799999999916,0.375,1.625,0.21961549999999863
2018-07-03 09:37:24.875000,3.8703449999999995,1.625,0.2477112973148312,0.3451269999999993,,,
2018-07-03 09:37:27.250000,4.425701,1.375,0.44624877975879684,0.4676065000000005,,,
2018-07-03 09:37:35,4.030473000000001,1.625,0.20740739640756622,0.28182550000000095,0.75,2.0,0.5636510000000019
2018-07-03 09:37:50.750000,3.342032,1.25,0.022672343943538564,0.029462999999999795,0.625,1.875,0.055243124999999615
2018-07-03 09:37:58.125000,3.306804,1.75,0.0582386773479282,0.09671700000000039,0.375,1.75,0.16925475000000068
2018-07-03 09:38:10.750000,3.116572,1.25,0.08717613026939475,0.09095200000000014,0.75,1.875,0.17053500000000027
2018-07-03 09:38:20.375000,3.0125585,1.625,0.020864455648563762,0.031384499999999704,0.875,2.0,0.06276899999999941
2018-07-03 09:38:26.625000,3.000389,1.625,0.029246721090009586,0.0448360000000001,0.625,2.0,0.0896720000000002
2018-07-03 09:38:36.375000,3.3507485,4.0,0.17906913636861077,0.5111280000000002,,,
2018-07-03 09:38:45.875000,3.7007185,4.0,0.1983532392005003,0.5991289999999996,,,
2018-07-03 09:38:52.625000,3.656523,1.75,0.1560354582882315,0.28566799999999937,1.0,2.375,0.6784614999999985
2018-07-03 09:39:15,3.129772,1.875,0.0713351782845848,0.1678139999999999,1.125,2.625,0.44051174999999976
2018-07-03 09:39:20.500000,3.198947,1.75,0.08778843559529115,0.18959100000000007,1.0,2.5,0.47397750000000016
2018-07-03 09:39:34.500000,2.7621189999999998,1.5,0.07671762307938934,0.16525199999999973,1.375,2.75,0.45444299999999926
2018-07-03 09:39:39,3.314239,4.0,0.19821708834172647,0.6174530000000003,1.5,3.0,1.8523590000000008
2018-07-03 09:39:49.625000,2.9811735,1.625,0.12136076463220746,0.19983949999999995,1.0,2.25,0.4496388749999999
2018-07-03 09:39:59.500000,3.172046,4.0,0.17677318276475162,0.40864600000000006,,,
2018-07-03 09:40:05.375000,3.7039210000000002,4.0,0.30334936589846073,0.6574154999999999,1.375,2.75,1.8078926249999998
2018-07-03 09:40:19.375000,3.200479,1.75,0.0832340930944806,0.16525200000000018,1.125,2.5,0.41313000000000044
2018-07-03 09:40:25.875000,3.904292,4.0,0.3923448988936933,0.8357579999999998,,,
2018-07-03 09:40:30.750000,3.513689,1.25,0.0830381747226685,0.05252200000000018,0.25,1.375,0.07221775000000025
2018-07-03 09:40:56.875000,3.9894800000000004,4.0,0.42789607270497676,0.9728275000000002,,,
2018-07-03 09:41:00.750000,3.5744290000000003,1.0,0.07697234963987043,0.025621000000000116,0.25,1.25,0.032026250000000145
2018-07-03 09:41:05.250000,3.705093,1.25,0.11428151895055727,0.09863899999999992,0.375,1.5,0.14795849999999988
2018-07-03 09:41:11.125000,3.954892,1.75,0.3587641953522933,0.6173435,0.875,2.25,1.3890228750000002
2018-07-03 09:41:17.125000,3.8102460000000002,4.0,0.23137914069454624,0.4381095000000004,1.0,2.375,1.040510062500001
2018-07-03 09:41:22.875000,3.5316235000000002,1.375,0.10451584195885921,0.09351450000000039,0.375,1.625,0.15196106250000063
2018-07-03 09:41:28,3.645635,4.0,0.42628273206973155,0.7387609999999998,,,
2018-07-03 09:41:30.625000,4.456445,1.375,0.7336387211621762,0.7621310000000006,0.875,2.0,1.5242620000000011
2018-07-03 09:41:35.375000,3.7185435,1.125,0.07230120509979265,0.04675649999999987,,,
2018-07-03 09:41:37.250000,4.1534510000000004,1.375,0.3389256798517053,0.3202555000000009,0.625,1.875,0.6004790625000017
2018-07-03 09:41:43.625000,4.7196955,1.75,0.6014903494861272,1.0254910000000002,1.0,2.375,2.4355411250000003
2018-07-03 09:41:55.375000,3.945285,1.75,0.16801211487829804,0.2779820000000002,1.0,2.25,0.6254595000000004
2018-07-03 09:42:15.750000,4.687029,1.25,0.7737982770940128,0.6194059999999997,0.75,1.875,1.1613862499999994
2018-07-03 09:42:24.375000,2.6839765,1.75,0.9153443852230563,0.5693630000000001,0.625,1.75,0.9963852500000001
2018-07-03 09:42:30.500000,2.689793,1.125,0.6408593771786375,0.5303439999999999,,,
2018-07-03 09:42:35.375000,3.6264195,4.0,0.3108603938485057,0.5779920000000001,1.375,2.75,1.5894780000000002
2018-07-03 09:42:44.625000,3.3061635,1.625,0.09483962675288105,0.15500349999999985,0.875,2.125,0.3293824374999997
2018-07-03 09:43:02.375000,3.018323,1.625,0.059464758320235234,0.08838999999999997,0.75,2.0,0.17677999999999994
2018-07-03 09:44:04.500000,1.913201,4.0,0.01157437540327777,0.06533200000000017,1.875,3.625,0.2368285000000006
2018-07-03 09:44:14.125000,1.8715674999999998,4.0,0.03686565671993236,0.08903099999999986,0.5,2.125,0.1891908749999997
2018-07-03 09:44:19,1.981095,4.0,0.04318492145983388,0.1306639999999999,1.75,3.375,0.44099099999999963
2018-07-03 09:44:25.125000,1.945227,1.0,0.06747755506821385,0.037150500000000086,,,
2018-07-03 09:44:39.500000,2.5655330000000003,4.0,0.16393764348333661,0.4307150000000002,,,
2018-07-03 09:45:11.625000,1.8523524999999998,1.75,0.016683146432916907,0.03458799999999984,0.875,2.375,0.08214649999999962
2018-07-03 09:45:57.375000,1.9401025,4.0,0.06977003700819928,0.24743700000000013,,,
2018-07-03 09:46:00,2.007997,1.375,0.07645493487124533,0.0781425,,,
2018-07-03 09:46:02.375000,2.666734,1.75,0.257534266561704,0.54921,,,
2018-07-03 09:46:07.875000,2.61101,1.5,0.17054171703671273,0.19791849999999966,0.5,1.75,0.3463573749999994
2018-07-03 09:46:11.125000,2.8268625,1.5,0.2514557172374676,0.33755000000000024,0.75,2.0,0.6751000000000005
2018-07-03 09:46:20.250000,2.835829,1.875,0.18877408374370042,0.41376999999999997,,,
2018-07-03 09:46:33.750000,2.669296,4.0,0.05070625122591643,0.13706899999999989,1.625,3.125,0.42834062499999964
2018-07-03 09:46:39.750000,2.679544,1.625,0.056828128612501416,0.09415499999999977,1.125,2.5,0.23538749999999942
2018-07-03 09:46:43.500000,2.982455,1.75,0.1666910308099947,0.3208449999999998,1.25,2.625,0.8422181249999996
2018-07-03 09:46:51.250000,3.4291419999999997,1.875,0.34516281921145975,0.6554944999999996,1.25,2.625,1.720673062499999
2018-07-03 09:47:07.500000,2.827451,4.0,0.015192403013141842,0.05380299999999982,,,
2018-07-03 09:47:10.625000,3.2988670000000004,4.0,0.10545885423016266,0.38110400000000055,,,
2018-07-03 09:47:19.375000,2.9331354999999997,0.5,0.31799497550819567,0.02882349999999967,,,
2018-07-03 09:47:27.625000,3.82679,1.375,0.39413299930320456,0.44465699999999986,0.5,1.625,0.7225676249999997
2018-07-03 09:47:35.250000,3.286948,1.875,0.19623186355630295,0.23186450000000036,1.25,2.75,0.637627375000001
2018-07-03 09:47:39.750000,3.5277809999999996,4.0,0.11093644796461177,0.21136899999999947,0.875,2.25,0.4755802499999988
2018-07-03 09:47:49.750000,3.28951,1.875,0.1385867481889811,0.2818244999999999,1.25,2.625,0.7397893124999998
2018-07-03 09:48:01.250000,3.306553,4.0,0.16106586455562066,0.3855879999999998,,,
2018-07-03 09:48:11.500000,3.247626,4.0,0.1095330325804138,0.3548429999999998,,,
2018-07-03 09:48:27,3.2514689999999997,1.875,0.1402490293722014,0.33114399999999966,,,
2018-07-03 09:48:32.375000,3.4355465,1.375,0.3130692381736182,0.3544535,0.625,1.75,0.620293625
2018-07-03 09:48:56.125000,3.099668,4.0,0.0866362922619821,0.269015,,,
2018-07-03 09:49:17.375000,2.8620905,4.0,0.09180274387790455,0.3503599999999998,,,
2018-07-03 09:49:42.375000,1.6760125000000001,1.125,0.22525453529298645,0.21649249999999998,,,
2018-07-03 09:49:44.875000,1.8444669999999999,1.25,0.1418914656248358,0.11016799999999982,1.25,2.375,0.2616489999999996
2018-07-03 09:50:02.500000,1.4095600000000001,0.875,0.2881976201210472,0.053803500000000115,,,
2018-07-03 09:50:05.500000,1.951632,4.0,0.09725178175805738,0.35888600000000004,,,
2018-07-03 09:50:15.375000,2.109197,4.0,0.027194235163936042,0.0762204999999998,,,
2018-07-03 09:50:28.750000,2.416935,1.875,0.20376285474941902,0.4185460000000001,1.0,2.375,0.9940467500000002
2018-07-03 09:50:36.250000,2.116884,1.625,0.1151016294635685,0.17934350000000032,0.75,2.125,0.3811049375000007
2018-07-03 09:50:45.625000,1.8939855,4.0,0.021529997596561934,0.05764600000000031,,,
2018-07-03 09:50:52.625000,2.4034839999999997,4.0,0.160816934593214,0.37050749999999955,,,
2018-07-03 09:51:15.250000,1.337823,1.5,0.02637123926598761,0.02690199999999998,0.375,1.625,0.04371574999999997
2018-07-03 09:51:22.125000,1.271209,1.625,0.02714358898161251,0.03971100000000005,0.625,1.875,0.0744581250000001
2018-07-03 09:52:08.875000,0.947012,1.875,0.061738423001865605,0.11016799999999993,,,
2018-07-03 09:52:18.500000,2.171968,4.0,0.39919230502192704,1.037927,,,
2018-07-03 09:52:26.250000,2.227051,4.0,0.1413477279490234,0.3215359999999998,,,
2018-07-03 09:52:45.875000,2.0617995000000002,4.0,0.009916811062439024,0.026901500000000134,1.875,3.375,0.09079256250000045
2018-07-03 09:52:57.500000,2.5104490000000004,4.0,0.1650950505619928,0.42431000000000063,,,
2018-07-03 09:53:01.875000,2.5860295000000004,1.625,0.13982636008458904,0.22033550000000046,,,
2018-07-03 09:53:11.625000,2.5751410000000003,1.5,0.11561625188878288,0.15628500000000045,0.875,2.125,0.33210562500000096
2018-07-03 09:53:33.625000,2.3772230000000003,4.0,0.0915066134845457,0.21713300000000046,1.625,3.125,0.6785406250000015
2018-07-03 09:53:38.875000,2.567455,1.75,0.1575491949759531,0.28758950000000016,1.125,2.5,0.7189737500000004
2018-07-03 09:53:48.500000,2.482267,1.75,0.115523231123273,0.21265,1.0,2.375,0.50504375
2018-07-03 09:54:03.375000,2.0842175000000003,4.0,0.07061619144133857,0.0979985000000001,1.0,2.25,0.22049662500000022
2018-07-03 09:54:08.375000,2.273168,1.375,0.08076085834167834,0.09735700000000014,1.0,2.125,0.2068836250000003
2018-07-03 09:54:12.750000,2.924809,4.0,0.30336598764525924,0.6811040000000004,,,
2018-07-03 09:54:21.125000,2.1940370000000002,0.875,0.13350898272139133,0.03202600000000011,,,
2018-07-03 09:54:24.500000,3.011918,4.0,0.33227809103384587,0.6628769999999999,,,
2018-07-03 09:54:29.250000,3.2540310000000003,1.75,0.23408511783771324,0.39327400000000035,1.0,2.375,0.9340257500000009
2018-07-03 09:54:47.375000,2.7313739999999997,1.5,0.042798746864901815,0.054443499999999645,0.75,2.0,0.10888699999999929
2018-07-03 09:54:50.375000,2.8921425,1.75,0.06593475312118358,0.15244149999999967,,,
2018-07-03 09:54:54.750000,3.51497,1.75,0.28179753132654817,0.6016909999999998,1.5,2.875,1.7298616249999994
2018-07-03 09:54:58.625000,3.6430724999999997,1.5,0.28247566005815017,0.3823849999999993,,,
2018-07-03 09:55:06.250000,3.668693,1.875,0.150899598735446,0.2920734999999999,1.0,2.375,0.6936745624999997
2018-07-03 09:55:17.500000,4.144483999999999,1.75,0.34731602947771023,0.6333569999999997,1.0,2.375,1.5042228749999993
2018-07-03 09:55:24.375000,4.0817135,4.0,0.14333159596269596,0.4195350000000002,,,
2018-07-03 09:55:26.875000,4.1502485,1.125,0.2330454327360698,0.12874250000000043,0.25,1.25,0.16092812500000053
2018-07-03 09:55:33.250000,4.576861,4.0,0.09134880832957748,0.24662900000000043,1.375,3.125,0.7707156250000013
2018-07-03 09:55:38.375000,4.4231385,1.25,0.26101187842881046,0.2036825000000011,0.5,1.625,0.3309840625000018
2018-07-03 09:55:44.125000,4.1867575,1.375,0.1919945804107499,0.21649249999999975,0.625,1.75,0.37886187499999957
2018-07-03 09:55:47.750000,4.150889,1.375,0.1551786428257067,0.15244150000000012,0.5,1.625,0.2477174375000002
2018-07-03 09:55:53,4.234155,1.5,0.22258074536854267,0.2984780000000007,,,
2018-07-03 09:55:59.125000,4.2565729999999995,4.0,0.02571196969211087,0.07557999999999954,0.375,2.125,0.16060749999999901
2018-07-03 09:56:04.125000,4.442994,1.5,0.2595134876721481,0.302994,0.625,1.875,0.56811375
2018-07-03 09:56:07.250000,4.284788,1.25,0.0799863335956097,0.04867899999999992,0.25,1.375,0.06693362499999989
2018-07-03 09:56:12.375000,4.6345075,1.5,0.3830713598008977,0.4957564999999997,0.875,2.125,1.0534825624999993
2018-07-03 09:56:19.875000,4.2988795,4.0,0.12789871820492849,0.19919900000000013,0.75,2.125,0.42329787500000027
2018-07-03 09:56:29.500000,4.008087000000001,1.25,0.035330633243813026,0.03715000000000046,,,
2018-07-03 09:56:37.750000,3.9997279999999997,1.5,0.03371639203076704,0.05380299999999982,,,
2018-07-03 09:56:40.250000,4.281553,1.625,0.15098887189417454,0.23826950000000036,0.75,2.125,0.5063226875000008
2018-07-03 09:56:45,4.434668,1.875,0.21446234602131042,0.3817770000000005,0.875,2.25,0.8589982500000011
2018-07-03 09:56:58.625000,4.2482465,1.75,0.20379568536343484,0.3631694999999997,1.375,2.75,0.9987161249999992
2018-07-03 09:57:15.125000,4.2841155,1.875,0.2845261291348784,0.5662125000000007,1.5,2.875,1.627860937500002
2018-07-03 09:57:33.625000,3.93952,1.0,0.08470725595996598,0.032025499999999596,0.25,1.25,0.040031874999999495
2018-07-03 09:57:57.125000,3.9024795,4.0,0.16977520432923576,0.42850199999999994,1.75,3.25,1.3926314999999998
2018-07-03 09:58:05.375000,3.9203045000000003,1.75,0.16949813643616451,0.3412830000000002,0.875,2.25,0.7678867500000005
2018-07-03 09:58:10.750000,3.817823,1.625,0.12891121859568777,0.20624449999999994,0.875,2.25,0.46405012499999987
2018-07-03 09:58:19.875000,3.7653015000000005,4.0,0.09959309641558534,0.2107290000000006,1.0,2.5,0.5268225000000015
2018-07-03 09:58:37.875000,3.6815035,1.875,0.1366108883973638,0.3407524999999998,,,
2018-07-03 09:58:40.375000,3.8006385000000003,1.375,0.13129001272147356,0.14219350000000075,0.5,1.625,0.23106443750000122
2018-07-03 09:58:51.500000,3.531624,1.625,0.05852106876401386,0.09415549999999984,0.625,2.0,0.18831099999999967
2018-07-03 09:58:57.750000,3.7314629999999998,1.75,0.1619753460191884,0.3164119999999997,1.25,2.625,0.8305814999999992
2018-07-03 09:59:01.750000,3.5674919999999997,1.125,0.037470816799107354,0.025619999999999976,,,
2018-07-03 09:59:03.750000,3.620014,1.25,0.05501096560503527,0.033305999999999614,0.25,1.375,0.04579574999999947
2018-07-03 09:59:19.250000,3.409926,1.625,0.05846648542110522,0.09287350000000005,0.875,2.125,0.1973561875000001
2018-07-03 09:59:28,3.568773,1.125,0.3630353175461707,0.15564450000000019,,,
2018-07-03 09:59:35.250000,3.148598,1.0,0.14045318388597927,0.052521999999999736,,,
2018-07-03 09:59:38.875000,3.671255,1.875,0.23055801092336559,0.47910200000000014,,,
2018-07-03 09:59:45.250000,3.7032809999999996,1.875,0.2119893853457313,0.3369095,1.5,2.875,0.9686148124999999
2018-07-03 10:00:33.750000,2.4733,1.625,0.03194283393766817,0.0448360000000001,0.625,2.0,0.0896720000000002
2018-07-03 10:00:54,2.2978,1.75,0.07182810667598005,0.1409130000000003,1.125,2.5,0.3522825000000007
2018-07-03 10:01:01,2.240154,1.875,0.04014466775636194,0.08839100000000011,,,
2018-07-03 10:01:03.375000,2.318296,1.625,0.048560620176271385,0.07557999999999998,1.375,2.625,0.19839749999999995
2018-07-03 10:01:23.625000,2.2113305,1.125,0.18603917865642572,0.10440349999999965,,,
2018-07-03 10:01:27.125000,2.5520825,1.875,0.15697595268732734,0.3349875,,,
2018-07-03 10:01:34.500000,2.454084,1.75,0.0637175687732725,0.10376199999999969,0.75,2.125,0.22049424999999934
2018-07-03 10:01:45,2.625741,1.875,0.14808600863061194,0.329863,1.75,3.125,1.030821875
2018-07-03 10:02:19.875000,2.419497,4.0,0.1092801055605701,0.2709364999999999,,,
2018-07-03 10:02:25.750000,2.688512,4.0,0.11951086272233802,0.37149699999999974,,,
2018-07-03 10:02:40.875000,2.833908,4.0,0.11305863230709257,0.37534,,,
2018-07-03 10:02:46.875000,3.7583645,4.0,0.25287856317287805,0.7159959999999996,,,
2018-07-03 10:02:50.250000,4.127831,1.5,0.39545164887943507,0.4898819999999997,0.5,1.75,0.8572934999999995
2018-07-03 10:02:55.500000,3.783985,1.5,0.20682111634709166,0.2907919999999997,1.0,2.25,0.6542819999999994
2018-07-03 10:03:37.375000,3.2790109999999997,4.0,0.12700450976680067,0.3548429999999998,,,
2018-07-03 10:03:57.750000,2.8633189999999997,1.625,0.029224979131313944,0.05508349999999984,0.625,2.0,0.11016699999999968
2018-07-03 10:04:04.500000,3.186137,4.0,0.15835470678279684,0.3804639999999999,,,
2018-07-03 10:04:11.875000,3.9433635,4.0,0.26453403225698224,0.650261,0.5,2.0,1.300522
2018-07-03 10:04:13.875000,3.8966060000000002,0.875,0.3304906906114464,0.03522800000000048,0.125,1.0,0.03522800000000048
2018-07-03 10:04:17,4.321265,1.0,0.5103736852185854,0.3240989999999999,,,
2018-07-03 10:04:24.375000,5.115795500000001,4.0,0.4824901955354477,0.7644265000000008,0.75,2.125,1.6244063125000017
2018-07-03 10:04:28.250000,5.168317,1.625,0.38080649049963355,0.5959389999999996,0.75,2.125,1.266370374999999
2018-07-03 10:05:12.375000,3.817932,4.0,0.10840201789724624,0.3183340000000001,,,
2018-07-03 10:05:15.625000,3.7180125,1.125,0.03675981205615564,0.02113649999999989,0.25,1.25,0.026420624999999864
2018-07-03 10:06:08.125000,2.7710859999999995,4.0,0.051097903027692126,0.16525249999999936,1.375,3.0,0.4957574999999981
2018-07-03 10:06:16,2.6135200000000003,1.375,0.033251480875531314,0.03715000000000046,0.625,1.75,0.0650125000000008
2018-07-03 10:06:26.875000,2.727583,4.0,0.07906958720954016,0.23314650000000015,1.5,3.125,0.7285828125000005
2018-07-03 10:06:31.750000,2.7833069999999998,1.75,0.0805422345167024,0.18190499999999954,1.0,2.375,0.4320243749999989
2018-07-03 10:06:49.500000,2.516855,4.0,0.05942461813271116,0.156285,,,
2018-07-03 10:06:51.750000,2.577063,1.375,0.05282673108601621,0.05188199999999954,0.375,1.625,0.08430824999999925
2018-07-03 10:07:28.750000,2.2811470000000003,1.625,0.04771737450984048,0.09031250000000002,1.25,2.5,0.22578125000000004
2018-07-03 10:08:01.250000,2.2565150000000003,4.0,0.08530005727104495,0.23314600000000052,,,
2018-07-03 10:08:05,2.392303,4.0,0.058608026114397305,0.12553999999999998,1.0,2.5,0.31384999999999996
2018-07-03 10:08:08.875000,2.4470389999999997,1.625,0.0828146025003278,0.13031599999999965,0.75,2.125,0.27692149999999927
2018-07-03 10:08:15.500000,2.906874,1.375,0.08542578359510422,0.06207750000000001,0.25,1.5,0.09311625000000001
2018-07-03 10:08:31.500000,2.864012,4.0,0.1389270012110817,0.3676539999999995,,,
2018-07-03 10:08:33.875000,3.308475,1.625,0.24483846235996154,0.3983460000000001,,,
2018-07-03 10:08:49.750000,2.955553,1.5,0.040307090856135375,0.057646000000000086,0.75,2.0,0.11529200000000017
2018-07-03 10:08:57.250000,3.379571,4.0,0.08516035633097374,0.21264899999999987,1.0,2.625,0.5582036249999996
2018-07-03 10:09:06.625000,3.424658,4.0,0.13585483088959727,0.29936950000000007,1.5,3.0,0.8981085000000002
2018-07-03 10:09:11.250000,3.245955,1.25,0.031185672610572368,0.02049600000000007,0.25,1.375,0.028182000000000096
2018-07-03 10:09:24.875000,3.290791,4.0,0.10956744251846828,0.26324950000000014,,,
2018-07-03 10:09:29.250000,4.596076,4.0,0.7100971766686861,1.168215,,,
2018-07-03 10:09:35.125000,5.842687,4.0,0.5492088404207145,1.5828790000000001,,,
2018-07-03 10:09:40.625000,5.754512,1.5,0.766823281485923,0.6098935000000001,0.375,1.625,0.9910769375000001
2018-07-03 10:09:42.375000,5.972927,0.75,0.7296119306794253,0.15393850000000064,0.25,0.5,0.07696925000000032
2018-07-03 10:09:53.875000,6.2406605,1.625,0.36794785413210107,0.7540975000000003,1.125,2.625,1.9795059375000008
2018-07-03 10:09:59.125000,5.0555875,1.25,0.27624469231384907,0.08875499999999903,0.125,1.25,0.11094374999999879
2018-07-03 10:10:07.375000,5.4430084999999995,1.0,0.6474498606892105,0.2708479999999991,0.625,1.625,0.4401279999999985
