,EDA,rise_time,max_deriv,amp,decay_time,SCR_width,AUC
2018-08-01 05:07:22.250000,0.41758999999999996,4.0,0.008978590846265844,0.038429999999999964,,,
2018-08-01 05:07:31.875000,0.44000500000000003,4.0,0.017770023901486187,0.04931500000000005,,,
2018-08-01 05:07:39.500000,0.4842,1.875,0.05073531019824129,0.04035000000000005,,,
2018-08-01 05:07:46.250000,0.5649,4.0,0.04820534891140049,0.07685999999999998,,,
2018-08-01 05:08:02.125000,0.58566,4.0,0.05723077801170273,0.09799499999999994,,,
2018-08-01 05:08:10.500000,0.6343300000000001,1.875,0.026559519294749645,0.09927000000000008,,,
2018-08-01 05:08:12.375000,0.685575,1.5,0.02927311543386013,0.029465000000000074,0.375,1.75,0.05156375000000013
2018-08-01 05:08:17.125000,0.69966,1.875,0.04238727035488976,0.06403999999999999,,,
2018-08-01 05:08:22.500000,0.9571299999999999,4.0,0.03707555064000623,0.12168999999999996,1.0,2.625,0.3194362499999999
2018-08-01 05:08:25.625000,0.932795,1.375,0.01740645147588893,0.028185000000000016,0.5,1.625,0.045800625000000025
2018-08-01 05:08:29.875000,1.19485,4.0,0.09495010697818174,0.247965,,,
2018-08-01 05:08:32.125000,1.1961,1.125,0.05197919220480962,0.023699999999999832,0.375,1.5,0.03554999999999975
2018-08-01 05:08:46.250000,1.1891,4.0,0.03867763667169477,0.10380000000000011,1.0,2.5,0.2595000000000003
2018-08-01 05:08:51,1.2006,1.0,0.07327273340889207,0.025599999999999845,,,
2018-08-01 05:08:54.375000,1.5382,4.0,0.147977776528875,0.23770000000000002,1.375,2.625,0.6239625000000001
2018-08-01 05:09:00.750000,1.5542,1.875,0.08099382853963455,0.2125999999999999,1.0,2.5,0.5314999999999998
2018-08-01 05:09:14.250000,1.3915,4.0,0.09906188545260708,0.06529999999999991,0.875,2.125,0.13876249999999982
2018-08-01 05:09:19.500000,1.6695,1.625,0.12159898363992738,0.20879999999999987,1.875,3.25,0.6785999999999996
2018-08-01 05:09:27.375000,1.7187999999999999,1.5,0.13763747499638512,0.1812499999999999,0.75,2.0,0.3624999999999998
2018-08-01 05:09:39.625000,1.59455,1.625,0.0764051200708522,0.14924999999999988,,,
2018-08-01 05:09:42.375000,2.0968999999999998,4.0,0.16366838099045644,0.44784999999999986,1.5,3.0,1.3435499999999996
2018-08-01 05:09:50.125000,1.8183,4.0,0.06388751060868891,0.19855,1.375,3.0,0.59565
2018-08-01 05:09:55.125000,1.79265,1.5,0.0742148180778539,0.10309999999999997,0.75,2.0,0.20619999999999994
2018-08-01 05:10:01.750000,1.8657,4.0,0.036110068888742575,0.19979999999999998,,,
2018-08-01 05:10:03.375000,1.9739499999999999,1.125,0.0791214435084715,0.055749999999999966,0.5,1.5,0.08362499999999995
2018-08-01 05:10:11.625000,2.12255,1.125,0.1244633696173647,0.07624999999999993,0.5,1.5,0.1143749999999999
2018-08-01 05:10:21.625000,1.9022000000000001,1.75,0.04011935843278991,0.06660000000000021,,,
2018-08-01 05:10:27.250000,1.9054,1.375,0.01662362032835496,0.020499999999999963,0.5,1.625,0.03331249999999994
2018-08-01 05:10:36,1.8721,1.625,0.04994670155863723,0.08010000000000028,0.875,2.125,0.1702125000000006
2018-08-01 05:10:51.375000,1.7882,4.0,0.04098865277045505,0.15375000000000005,1.25,2.875,0.44203125000000015
2018-08-01 05:11:04.750000,1.5147,1.375,0.036963696788836486,0.028799999999999937,0.25,1.375,0.03959999999999991
2018-08-01 05:11:19.250000,1.2865,1.75,0.020634672475003057,0.025600000000000067,0.5,1.75,0.04480000000000012
2018-08-01 05:13:18.625000,0.6017399999999999,4.0,0.009443325011913473,0.02625999999999995,,,
2018-08-01 05:15:22.875000,0.71382,4.0,0.0067188107324351876,0.02049500000000004,0.5,2.125,0.04355187500000009
2018-08-01 05:15:50.375000,0.72215,4.0,0.003255501068977207,0.03907499999999997,,,
2018-08-01 05:16:07.750000,0.82911,4.0,0.005540223891383089,0.037150000000000016,,,
2018-08-01 05:16:11.500000,1.0251,4.0,0.03936490878968302,0.13322999999999985,,,
2018-08-01 05:16:24.500000,1.1711,1.75,0.04876148201407382,0.09220000000000006,1.125,2.5,0.23050000000000015
2018-08-01 05:16:29,1.23,4.0,0.03299426366530689,0.11270000000000002,1.625,3.125,0.3521875000000001
2018-08-01 05:16:34.375000,1.22685,1.625,0.04062187438544562,0.0646500000000001,1.25,2.5,0.16162500000000024
2018-08-01 05:17:01.875000,1.9598499999999999,1.875,0.18035663459700402,0.4030499999999999,1.375,2.75,1.1083874999999996
2018-08-01 05:17:06.625000,1.99955,1.625,0.16791751702415247,0.2747499999999998,1.125,2.375,0.6525312499999996
2018-08-01 05:17:10.750000,1.9643,1.5,0.12027868999936508,0.15500000000000003,0.75,2.0,0.31000000000000005
2018-08-01 05:17:18.125000,2.1424000000000003,4.0,0.12927629930016415,0.3362500000000004,1.625,3.125,1.050781250000001
2018-08-01 05:17:24.625000,2.50135,4.0,0.05515513322104049,0.27380000000000004,0.75,2.5,0.6845000000000001
2018-08-01 05:17:30.375000,2.6403,1.75,0.18144076248495544,0.34330000000000016,,,
2018-08-01 05:17:37.625000,2.7287,1.75,0.24208274761678972,0.3785499999999997,,,
2018-08-01 05:17:41.625000,2.6818999999999997,1.25,0.12467041008675928,0.09024999999999972,0.25,1.375,0.12409374999999961
2018-08-01 05:17:46.375000,2.5583,1.25,0.12451231231137783,0.10055000000000014,0.5,1.625,0.16339375000000023
2018-08-01 05:17:49.625000,2.6037999999999997,1.375,0.13084263693625253,0.14599999999999946,0.625,1.75,0.25549999999999906
2018-08-01 05:17:54.125000,2.81065,4.0,0.20489071919137203,0.367,,,
2018-08-01 05:18:01,2.8408,1.5,0.2124964204420987,0.2716000000000003,0.75,2.0,0.5432000000000006
2018-08-01 05:18:03.375000,3.0380000000000003,1.125,0.27183675483431813,0.16900000000000048,0.5,1.5,0.2535000000000007
2018-08-01 05:18:10,3.0617,1.25,0.2756290214232884,0.26259999999999994,0.625,1.75,0.4595499999999999
2018-08-01 05:18:14.625000,2.8875,1.375,0.2029469611323229,0.21910000000000007,0.625,1.75,0.3834250000000001
2018-08-01 05:18:24,2.7863,1.75,0.17707658560268058,0.2985000000000002,1.0,2.25,0.6716250000000005
2018-08-01 05:18:32.750000,2.7767,4.0,0.1483783768071305,0.2984,1.0,2.375,0.7087
2018-08-01 05:18:38.250000,2.7037,1.5,0.08355684374028449,0.1177999999999999,0.75,2.0,0.2355999999999998
2018-08-01 05:18:44.875000,3.0546499999999996,1.875,0.22848717547987718,0.48924999999999974,1.125,2.5,1.2231249999999994
2018-08-01 05:19:12.250000,3.1245,1.625,0.18793868716819517,0.3170499999999996,,,
2018-08-01 05:19:17.750000,2.8939,1.125,0.12423107539840395,0.08325000000000005,0.375,1.375,0.11446875000000006
2018-08-01 05:19:31.750000,3.332,4.0,0.2867665604374192,0.7185999999999999,1.5,3.0,2.1557999999999997
2018-08-01 05:19:40,3.1027,1.625,0.18359306660400776,0.25939999999999985,0.5,1.75,0.45394999999999974
2018-08-01 05:19:46.250000,2.9656,1.5,0.062936608994141,0.10249999999999959,0.875,2.125,0.21781249999999913
2018-08-01 05:19:56.375000,3.15775,1.75,0.16640998511277516,0.3369,1.0,2.375,0.8001375
2018-08-01 05:20:05.250000,2.8401,1.75,0.049045578949003854,0.09989999999999988,0.5,2.0,0.19979999999999976
2018-08-01 05:20:23.125000,2.36615,1.75,0.017681778054933872,0.03135000000000021,0.5,1.875,0.058781250000000396
2018-08-01 05:21:01.250000,1.7107,1.625,0.02871188214338538,0.04614999999999991,0.625,1.875,0.08653124999999984
2018-08-01 05:21:22.875000,1.49405,1.75,0.02213805738548924,0.05190000000000006,0.75,2.25,0.11677500000000013
2018-08-01 05:22:41.125000,0.9744950000000001,4.0,0.013041743701105002,0.02626000000000006,,,
2018-08-01 05:22:45.125000,1.0808,4.0,0.0048229946906772625,0.04289999999999994,1.125,3.0,0.12869999999999981
2018-08-01 05:22:49.875000,1.43705,4.0,0.14574692635566322,0.3146,,,
2018-08-01 05:26:51.375000,0.54083,1.125,0.0674866773250109,0.06781999999999999,,,
2018-08-01 05:31:05.500000,0.48318,1.75,0.012623346092552223,0.02433000000000002,1.25,2.5,0.060825000000000046
2018-08-01 05:31:32,0.68685,4.0,0.02738119697341901,0.07813000000000003,,,
2018-08-01 05:32:27.500000,0.60487,4.0,0.018585437085488543,0.04866999999999999,,,
2018-08-01 05:32:54.375000,0.691975,4.0,0.02712458742306456,0.08774499999999996,,,
2018-08-01 05:33:07.875000,0.67212,1.875,0.027196300801560103,0.03394000000000008,1.375,2.5,0.0848500000000002
2018-08-01 05:34:14,0.87771,4.0,0.04721428004180561,0.08582000000000001,,,
2018-08-01 05:34:40.875000,0.8047,4.0,0.06059946011200301,0.07557499999999995,,,
2018-08-01 05:36:08.500000,0.6484300000000001,4.0,0.02762324577192521,0.07942000000000005,,,
2018-08-01 05:36:15.875000,0.65483,1.875,0.012424058129977933,0.037150000000000016,1.625,3.25,0.12073750000000005
2018-08-01 05:36:52.875000,0.65291,4.0,0.019961513674691567,0.03778999999999999,,,
2018-08-01 05:40:05.875000,0.44859499999999997,1.375,0.1680547444689937,0.051234999999999975,,,
