1.5331e+09,1.5331e+09
3603,0.92192
3603.9,0.89067
3607,0.70316
3607.7,0.67191
3608.3,0.62503
3609.1,0.73441
3609.7,0.62503
3610.3,0.64065
3611,0.65628
3611.7,0.75003
3660.6,0.65628
3661.4,0.76566
3662.1,0.67191
3662.8,0.73441
3663.5,0.68753
3664.2,0.71878
3664.9,0.70316
3665.5,0.56253
3682,0.65628
3682.7,0.68753
3683.3,0.64065
3684,0.62503
3684.5,0.56253
3685.3,0.75003
3690.5,0.73441
3691.3,0.71878
3692,0.73441
3692.6,0.56253
3693.2,0.64065
3693.8,0.64065
3710,0.56253
3718.3,0.59378
3719,0.70316
3727.1,0.81254
3734.1,0.65628
3815.7,0.57815
3816.5,0.84379
3817.2,0.65628
3817.9,0.71878
3818.5,0.67191
3819.4,0.81254
3820.1,0.70316
3820.8,0.70316
3821.4,0.65628
3846,0.81254
3846.6,0.64065
3854.6,0.64065
3855.3,0.70316
3856.1,0.73441
3856.6,0.56253
3857.2,0.6094
3858,0.73441
3861.1,0.56253
3861.9,0.79691
3862.4,0.5469
3863.1,0.71878
3863.8,0.65628
3884.1,0.59378
3884.7,0.59378
3885.3,0.59378
3885.9,0.59378
3886.4,0.5469
3887.1,0.67191
3907.3,0.65628
3907.8,0.57815
3908.4,0.56253
3909,0.59378
3909.6,0.64065
3910.3,0.62503
3910.9,0.65628
3911.7,0.79691
3919.9,0.62503
3920.6,0.70316
3921.2,0.62503
3921.9,0.67191
3922.6,0.67191
3923.2,0.62503
3923.9,0.65628
3924.5,0.67191
3925.2,0.68753
3925.9,0.70316
3926.5,0.6094
3927.2,0.64065
3938.4,0.62503
3939,0.6094
3939.6,0.64065
3940.2,0.5469
3940.8,0.6094
3941.4,0.57815
3941.9,0.56253
3942.5,0.57815
3943.1,0.6094
3943.7,0.6094
3944.2,0.51565
3944.8,0.5469
3945.4,0.59378
3946,0.62503
3946.6,0.6094
3947.1,0.5469
3947.8,0.6094
3948.4,0.6094
3963,0.6094
3963.6,0.62503
3964.2,0.6094
3964.8,0.6094
3965.4,0.59378
3966,0.62503
3966.7,0.65628
3967.3,0.6094
3967.9,0.59378
3968.5,0.6094
3969.2,0.65628
3969.8,0.64065
3974.5,0.57815
3975.2,0.65628
3975.8,0.57815
3976.3,0.56253
3976.9,0.62503
3977.5,0.5469
3978.2,0.71878
3978.8,0.56253
3979.4,0.64065
3980,0.59378
3980.7,0.64065
3981.2,0.59378
3981.8,0.57815
3982.4,0.56253
3983,0.6094
3983.6,0.6094
3984.2,0.59378
3989.7,0.51565
3990.4,0.64065
3990.9,0.53127
3991.5,0.57815
3992,0.56253
3992.6,0.56253
3993.2,0.56253
3993.8,0.59378
3994.4,0.64065
3995,0.62503
3995.6,0.59378
3996.2,0.62503
3996.9,0.64065
3997.6,0.68753
3998.2,0.57815
3998.7,0.59378
3999.4,0.62503
4000,0.62503
4000.6,0.62503
4001.2,0.57815
4001.8,0.59378
4002.4,0.57815
4003,0.6094
4003.6,0.57815
4004.2,0.6094
4004.7,0.56253
4005.4,0.64065
4008.4,0.62503
4009,0.59378
4009.6,0.62503
4010.2,0.6094
4010.9,0.64065
4011.5,0.6094
4015.8,0.68753
4016.3,0.5469
4017,0.67191
4017.6,0.57815
4018.2,0.68753
4018.9,0.6094
4019.6,0.70316
4020.2,0.59378
4020.8,0.6094
4021.4,0.64065
4022,0.59378
4022.6,0.57815
4023.2,0.65628
4023.8,0.6094
4024.5,0.67191
4025.2,0.67191
4025.8,0.62503
4026.5,0.67191
4027.1,0.64065
4027.8,0.67191
4028.4,0.62503
4029.1,0.64065
4029.7,0.65628
4030.4,0.65628
4031,0.6094
4031.6,0.64065
4032.3,0.68753
4033,0.71878
4033.7,0.65628
4034.4,0.67191
4035,0.67191
4035.7,0.67191
4036.4,0.68753
4037,0.57815
4037.5,0.56253
4038.2,0.68753
4044.7,0.56253
4045.3,0.59378
4045.9,0.6094
4055.5,0.62503
4056.1,0.62503
4056.7,0.56253
4057.2,0.59378
4057.8,0.56253
4058.4,0.57815
4059,0.6094
4059.6,0.59378
4060.2,0.62503
4060.8,0.59378
4061.4,0.59378
4062,0.59378
4062.6,0.6094
4063.2,0.64065
4063.8,0.57815
4064.4,0.59378
4076.5,0.5469
4077.1,0.57815
4077.7,0.6094
4078.3,0.59378
4078.9,0.62503
4079.5,0.53127
4080,0.57815
4080.6,0.56253
4081.1,0.5469
4081.7,0.6094
4082.3,0.56253
4082.9,0.56253
4094.1,0.65628
4094.8,0.65628
4095.4,0.59378
4104.4,0.67191
4107.2,0.59378
4107.7,0.51565
4108.3,0.57815
4108.9,0.6094
4109.5,0.62503
4114.8,0.57815
4115.3,0.50002
4115.8,0.51565
4116.3,0.4844
4116.9,0.59378
4117.4,0.43752
4117.8,0.46877
4118.3,0.50002
4118.8,0.4844
4119.3,0.46877
4119.8,0.4844
4120.3,0.5469
4121,0.64065
4121.5,0.51565
4122,0.53127
4122.6,0.59378
4123.2,0.59378
4123.8,0.64065
4124.3,0.51565
4124.9,0.53127
4125.4,0.56253
4126,0.53127
4126.5,0.56253
4127,0.51565
4127.6,0.57815
4128.2,0.53127
4128.7,0.53127
4129.2,0.51565
4129.7,0.53127
4130.3,0.51565
4133.5,0.53127
4134.2,0.6094
4134.7,0.56253
4135.2,0.51565
4135.8,0.56253
4136.4,0.57815
4136.9,0.5469
4137.5,0.53127
4138,0.56253
4138.5,0.50002
4139.1,0.5469
4139.6,0.50002
4140.1,0.5469
4140.6,0.53127
4141.2,0.51565
4141.7,0.56253
4142.2,0.51565
4142.8,0.5469
4143.3,0.53127
4143.9,0.5469
4144.4,0.56253
4145,0.53127
4145.5,0.5469
4146,0.5469
4146.6,0.5469
4147.1,0.53127
4147.7,0.56253
4148.2,0.5469
4148.8,0.51565
4149.4,0.6094
4149.8,0.4844
4150.4,0.53127
4150.9,0.5469
4151.5,0.5469
4152,0.56253
4152.6,0.56253
4153.2,0.56253
4153.7,0.56253
4154.3,0.56253
4173.7,0.56253
4181.6,0.59378
4182.2,0.57815
4182.7,0.56253
4183.3,0.57815
4183.8,0.51565
4184.4,0.5469
4184.9,0.56253
4190.4,0.57815
4194.3,0.6094
4194.8,0.53127
4202.9,0.57815
4203.5,0.62503
4204.1,0.57815
4204.6,0.56253
4205.2,0.5469
4205.8,0.56253
4206.3,0.59378
4206.9,0.56253
4207.5,0.56253
4208.1,0.59378
4208.7,0.6094
4209.4,0.70316
4209.9,0.56253
4210.5,0.5469
4220.9,0.64065
4221.5,0.57815
4222.1,0.56253
4222.7,0.6094
4239.6,0.4844
4240.2,0.57815
4240.8,0.56253
4241.4,0.62503
4241.9,0.50002
4242.6,0.65628
4243.1,0.51565
4247.7,0.53127
4248.2,0.53127
4248.8,0.56253
4249.3,0.5469
4249.8,0.50002
4255.3,0.57815
4255.9,0.59378
4256.5,0.53127
4275.4,0.50002
4276,0.56253
4276.5,0.51565
4277,0.51565
4277.5,0.51565
4278.1,0.5469
4278.6,0.59378
4279.1,0.45315
4279.7,0.57815
4280.2,0.53127
4280.7,0.4844
4281.2,0.53127
4281.8,0.57815
4282.3,0.50002
4282.7,0.43752
4283.3,0.59378
4283.9,0.53127
4284.5,0.6094
4285,0.56253
4285.6,0.57815
4286.2,0.59378
4294.8,0.53127
4295.3,0.53127
4299.1,0.51565
4299.7,0.57815
4300.2,0.50002
4300.8,0.56253
4301.4,0.6094
4301.9,0.51565
4302.4,0.4844
