1530520066.000000, IBI
132.927960,1.250057
134.037385,1.109426
135.334320,1.296934
136.600003,1.265683
146.803595,1.125051
154.460195,1.078174
155.569621,1.109426
156.694673,1.125051
157.679093,0.984420
158.663513,0.984420
262.293256,1.125051
263.402682,1.109426
279.715929,1.328186
656.842566,1.000046
658.030121,1.187554
659.155172,1.125051
787.832937,1.046923
788.942363,1.109426
790.020537,1.078174
791.020583,1.000046
792.067506,1.046923
799.880364,1.078174
801.052292,1.171929
827.569131,0.843789
834.444446,1.031297
835.491369,1.046923
836.507040,1.015671
837.491460,0.984420
838.507132,1.015671
839.585306,1.078174
840.569726,0.984420
841.585398,1.015671
842.663572,1.078174
843.647992,0.984420
844.585535,0.937543
845.491827,0.906291
865.164602,0.953169
866.305279,1.140677
887.728135,1.093800
888.712555,0.984420
1025.640698,1.093800
1076.564904,1.250057
1077.564950,1.000046
1092.034362,1.093800
1093.253168,1.218806
1094.471973,1.218806
1095.550148,1.078174
1096.722076,1.171929
1097.956508,1.234432
1099.081559,1.125051
1100.222237,1.140677
1101.331662,1.109426
1102.425462,1.093800
1103.613017,1.187554
1104.675565,1.062549
1105.847494,1.171929
1107.128803,1.281309
1108.191351,1.062549
1109.550789,1.359437
1110.738343,1.187554
1111.925897,1.187554
1113.191580,1.265683
1114.363509,1.171929
1115.691695,1.328186
1126.239053,1.156303
1127.254724,1.015671
1128.411027,1.156303
1129.473576,1.062549
1130.364241,0.890666
1131.520544,1.156303
1132.848730,1.328186
1133.973782,1.125051
1135.130085,1.156303
1136.145756,1.015671
1137.208305,1.062549
1241.744340,0.984420
1242.885017,1.140677
1457.597970,1.328186
1458.801150,1.203180
1460.113710,1.312560
1461.363768,1.250057
1462.551322,1.187554
1527.679303,1.078174
1528.773103,1.093800
1802.316874,1.140677
2055.687847,1.281309
2056.781647,1.093800
2058.000453,1.218806
2059.328639,1.328186
2060.391187,1.062549
2061.500613,1.109426
2062.906927,1.406314
2064.031979,1.125051
2065.297662,1.265683
2100.346141,0.984420
2101.096175,0.750034
2101.846210,0.750034
2102.768127,0.921917
2103.815050,1.046923
2108.190250,0.921917
2109.205922,1.015671
2138.785401,0.859414
2155.645547,0.953169
2243.149553,1.062549
2244.149599,1.000046
2268.385083,0.859414
2269.447632,1.062549
2270.369549,0.921917
2271.400846,1.031297
2272.432143,1.031297
2279.963738,1.031297
2280.995035,1.031297
2534.350382,1.140677
2535.537936,1.187554
2536.569234,1.031297
2537.694285,1.125051
2639.073926,1.203180
2652.465164,1.062549
2653.527712,1.062549
2654.777770,1.250057
2655.746564,0.968794
2656.949744,1.203180
2670.934759,1.156303
2672.028559,1.093800
2673.122359,1.093800
2709.733410,1.046923
2710.795959,1.062549
2711.827256,1.031297
2712.905430,1.078174
2764.689051,1.000046
2765.751599,1.062549
2782.252355,0.859414
2793.721630,1.000046
2794.784178,1.062549
2795.877978,1.093800
2796.987404,1.109426
2798.128081,1.140677
2799.206256,1.078174
2800.221927,1.015671
2801.284476,1.062549
2802.378276,1.093800
2803.503327,1.125051
2804.690882,1.187554
2805.769056,1.078174
2806.878482,1.109426
2808.019159,1.140677
2809.112959,1.093800
2810.191133,1.078174
2822.910466,1.171929
2824.051143,1.140677
2825.176194,1.125051
2853.380610,1.234432
2854.646293,1.265683
2855.896351,1.250057
2917.539797,0.531274
2933.228015,0.703157
2942.056545,1.062549
2943.025339,0.968794
2944.025385,1.000046
2945.009805,0.984420
2945.962973,0.953169
3031.716899,1.140677
3032.841950,1.125051
3034.154510,1.312560
3039.717265,1.250057
3041.029825,1.312560
3042.248631,1.218806
3043.451811,1.203180
3044.514359,1.062549
3045.530031,1.015671
3046.748837,1.218806
3048.014520,1.265683
3049.155197,1.140677
3050.295874,1.140677
3051.452177,1.156303
3052.452223,1.000046
3053.608526,1.156303
3054.827332,1.218806
3055.999260,1.171929
3082.078579,0.968794
3083.078625,1.000046
3083.906788,0.828163
3084.766202,0.859414
3085.641242,0.875040
3086.500656,0.859414
3087.453825,0.953169
3088.438245,0.984420
3089.469542,1.031297
3090.578968,1.109426
3091.547762,0.968794
3092.672814,1.125051
3093.750988,1.078174
3094.876040,1.125051
3095.860460,0.984420
3097.016763,1.156303
3098.188691,1.171929
3099.454374,1.265683
3100.454420,1.000046
3101.579472,1.125051
3102.657646,1.078174
3103.751446,1.093800
3104.798369,1.046923
3106.048426,1.250057
3107.235981,1.187554
3108.251652,1.015671
3109.282949,1.031297
3110.392375,1.109426
3111.376795,0.984420
3112.439344,1.062549
3113.501892,1.062549
3114.517564,1.015671
3195.318137,1.015671
3203.099744,1.109426
3204.256047,1.156303
3205.490478,1.234432
3206.631155,1.140677
3207.834335,1.203180
3209.100018,1.265683
3210.350075,1.250057
3211.662636,1.312560
3212.959570,1.296934
3214.037744,1.078174
3215.334679,1.296934
3216.553484,1.218806
3217.803542,1.250057
3219.209856,1.406314
3220.303656,1.093800
3221.459959,1.156303
3222.756893,1.296934
3223.850693,1.093800
3232.819854,1.078174
3233.960531,1.140677
3235.085583,1.125051
3235.991874,0.906291
3237.007546,1.015671
3238.179474,1.171929
3239.273274,1.093800
3240.507706,1.234432
3241.695260,1.187554
3250.211275,1.171929
3251.336327,1.125051
3252.383250,1.046923
3253.492675,1.109426
3254.586475,1.093800
3255.602147,1.015671
3256.695947,1.093800
3257.852250,1.156303
3258.946050,1.093800
3260.149230,1.203180
3261.430539,1.281309
3262.524339,1.093800
3263.665016,1.140677
3264.805693,1.140677
3265.836990,1.031297
3266.883913,1.046923
3268.087093,1.203180
3269.165268,1.078174
3270.243442,1.078174
3271.305991,1.062549
3272.290411,0.984420
3273.306082,1.015671
3274.431134,1.125051
3275.462431,1.031297
3276.603108,1.140677
3277.837540,1.234432
3279.025094,1.187554
3280.290777,1.265683
3281.415828,1.125051
3282.494003,1.078174
3283.697183,1.203180
3284.931614,1.234432
3285.994163,1.062549
3287.150466,1.156303
3288.384897,1.234432
3289.478698,1.093800
3290.775632,1.296934
3291.994438,1.218806
3293.181992,1.187554
3294.353921,1.171929
3295.510224,1.156303
3296.635275,1.125051
3297.760327,1.125051
3298.869752,1.109426
3299.916675,1.046923
3301.104230,1.187554
3302.291784,1.187554
3303.385584,1.093800
3312.229739,0.875040
3313.198533,0.968794
3314.136076,0.937543
3318.620656,0.875040
3319.511322,0.890666
3320.401988,0.890666
3321.402034,1.000046
3322.417705,1.015671
3323.370874,0.953169
3324.324043,0.953169
3325.355340,1.031297
3326.339760,0.984420
3327.199174,0.859414
3328.058589,0.859414
3329.074260,1.015671
3330.136809,1.062549
3338.324683,1.015671
3339.559115,1.234432
3340.699792,1.140677
3341.762341,1.062549
3342.934269,1.171929
3344.059321,1.125051
3345.121870,1.062549
3346.231295,1.109426
3347.278218,1.046923
3348.325141,1.046923
3349.559573,1.234432
3350.700250,1.140677
3351.762799,1.062549
3352.809721,1.046923
3353.825393,1.015671
3354.903567,1.078174
3356.044245,1.140677
3357.044290,1.000046
3358.075588,1.031297
3359.122510,1.046923
3360.169433,1.046923
3361.481993,1.312560
3362.591419,1.109426
3363.700845,1.109426
3364.857148,1.156303
3365.919697,1.062549
3367.044748,1.125051
3368.122922,1.078174
3369.169845,1.046923
3370.294897,1.125051
3371.263691,0.968794
3372.185608,0.921917
3373.123151,0.937543
3374.154449,1.031297
3375.342003,1.187554
3376.310797,0.968794
3377.373346,1.062549
3378.420269,1.046923
3379.420315,1.000046
3380.451612,1.031297
3381.404780,0.953169
3382.389200,0.984420
3383.404872,1.015671
3384.404918,1.000046
3385.373712,0.968794
3386.389384,1.015671
3387.467558,1.078174
3388.514481,1.046923
3389.483275,0.968794
3390.467695,0.984420
3391.452115,0.984420
3392.420910,0.968794
3393.420955,1.000046
3394.546007,1.125051
3395.592930,1.046923
3396.717981,1.125051
3397.889910,1.171929
3398.905581,1.015671
3399.968130,1.062549
3401.061930,1.093800
3402.124479,1.062549
3403.108899,0.984420
3404.171448,1.062549
3405.218370,1.046923
3406.187165,0.968794
3407.280965,1.093800
3408.327888,1.046923
3409.421688,1.093800
3410.546739,1.125051
3411.546785,1.000046
3412.624959,1.078174
3413.687508,1.062549
3414.640677,0.953169
3415.718851,1.078174
3416.828277,1.109426
3417.797071,0.968794
3418.859620,1.062549
3420.000297,1.140677
3421.078471,1.078174
3434.079067,1.015671
3435.141615,1.062549
3436.188538,1.046923
3437.172958,0.984420
3438.282384,1.109426
3477.893572,0.937543
3478.846741,0.953169
3479.893664,1.046923
3480.956212,1.062549
3481.940632,0.984420
3483.003181,1.062549
3484.081355,1.078174
3485.097027,1.015671
3486.112698,1.015671
3487.206498,1.093800
3774.157133,1.296934
3775.485319,1.328186
3776.766628,1.281309
3778.126065,1.359437
3779.344871,1.218806
3790.298497,1.156303
3791.407923,1.109426
3792.439220,1.031297
3793.501769,1.062549
3794.579943,1.078174
3795.642492,1.062549
3796.892549,1.250057
3798.048852,1.156303
3799.236406,1.187554
3800.486464,1.250057
3805.377312,1.250057
3806.674247,1.296934
3807.861801,1.187554
3853.223253,1.187554
3854.535813,1.312560
3888.302983,1.250057
3889.396783,1.093800
3931.242449,1.109426
3932.242495,1.000046
4010.167937,1.125051
4011.417994,1.250057
4012.746180,1.328186
4013.871231,1.125051
4015.043160,1.171929
4016.277591,1.234432
4025.574892,1.078174
4026.699943,1.125051
4027.699989,1.000046
4028.856292,1.156303
4030.168852,1.312560
4031.278278,1.109426
4032.403329,1.125051
4033.544007,1.140677
4044.919527,1.171929
4046.028953,1.109426
4047.013373,0.984420
4048.122799,1.109426
4049.154096,1.031297
4050.326025,1.171929
4051.497953,1.171929
4052.544876,1.046923
4053.685554,1.140677
4054.873108,1.187554
4055.998159,1.125051
4228.537307,0.875040
4229.365470,0.828163
4230.178007,0.812537
4231.037421,0.859414
