,Binary,Multiclass
2018-07-05 07:58:01,1.0,1.0
2018-07-05 07:58:06,-1.0,-1.0
2018-07-05 07:58:11,1.0,1.0
2018-07-05 07:58:16,1.0,1.0
2018-07-05 07:58:21,1.0,1.0
2018-07-05 07:58:26,1.0,1.0
2018-07-05 07:58:31,1.0,1.0
2018-07-05 07:58:36,-1.0,1.0
2018-07-05 07:58:41,1.0,1.0
2018-07-05 07:58:46,-1.0,1.0
2018-07-05 07:58:51,1.0,1.0
2018-07-05 07:58:56,-1.0,1.0
2018-07-05 07:59:01,1.0,1.0
2018-07-05 07:59:06,1.0,1.0
2018-07-05 07:59:11,1.0,0.0
2018-07-05 07:59:16,1.0,1.0
2018-07-05 07:59:21,1.0,1.0
2018-07-05 07:59:26,1.0,1.0
2018-07-05 07:59:31,1.0,1.0
2018-07-05 07:59:36,1.0,1.0
2018-07-05 07:59:41,1.0,1.0
2018-07-05 07:59:46,1.0,1.0
2018-07-05 07:59:51,1.0,1.0
2018-07-05 07:59:56,-1.0,1.0
2018-07-05 08:00:01,1.0,1.0
2018-07-05 08:00:06,1.0,1.0
2018-07-05 08:00:11,1.0,1.0
2018-07-05 08:00:16,1.0,1.0
2018-07-05 08:00:21,1.0,1.0
2018-07-05 08:00:26,1.0,1.0
2018-07-05 08:00:31,1.0,1.0
2018-07-05 08:00:36,1.0,1.0
2018-07-05 08:00:41,1.0,1.0
2018-07-05 08:00:46,1.0,1.0
2018-07-05 08:00:51,1.0,1.0
2018-07-05 08:00:56,1.0,1.0
2018-07-05 08:01:01,1.0,1.0
2018-07-05 08:01:06,1.0,1.0
2018-07-05 08:01:11,1.0,1.0
2018-07-05 08:01:16,1.0,1.0
2018-07-05 08:01:21,-1.0,1.0
2018-07-05 08:01:26,1.0,1.0
2018-07-05 08:01:31,1.0,1.0
2018-07-05 08:01:36,1.0,1.0
2018-07-05 08:01:41,-1.0,1.0
2018-07-05 08:01:46,1.0,1.0
2018-07-05 08:01:51,-1.0,1.0
2018-07-05 08:01:56,1.0,1.0
2018-07-05 08:02:01,1.0,1.0
2018-07-05 08:02:06,1.0,1.0
2018-07-05 08:02:11,1.0,1.0
2018-07-05 08:02:16,-1.0,1.0
2018-07-05 08:02:21,1.0,1.0
2018-07-05 08:02:26,1.0,1.0
2018-07-05 08:02:31,1.0,1.0
2018-07-05 08:02:36,1.0,1.0
2018-07-05 08:02:41,1.0,1.0
2018-07-05 08:02:46,1.0,1.0
2018-07-05 08:02:51,1.0,1.0
2018-07-05 08:02:56,1.0,1.0
2018-07-05 08:03:01,1.0,1.0
2018-07-05 08:03:06,1.0,1.0
2018-07-05 08:03:11,1.0,1.0
2018-07-05 08:03:16,1.0,1.0
2018-07-05 08:03:21,1.0,1.0
2018-07-05 08:03:26,1.0,1.0
2018-07-05 08:03:31,1.0,0.0
2018-07-05 08:03:36,1.0,1.0
2018-07-05 08:03:41,1.0,1.0
2018-07-05 08:03:46,1.0,1.0
2018-07-05 08:03:51,1.0,1.0
2018-07-05 08:03:56,1.0,1.0
2018-07-05 08:04:01,1.0,1.0
2018-07-05 08:04:06,1.0,1.0
2018-07-05 08:04:11,1.0,1.0
2018-07-05 08:04:16,1.0,1.0
2018-07-05 08:04:21,1.0,1.0
2018-07-05 08:04:26,1.0,1.0
2018-07-05 08:04:31,1.0,1.0
2018-07-05 08:04:36,1.0,1.0
2018-07-05 08:04:41,1.0,1.0
2018-07-05 08:04:46,1.0,1.0
2018-07-05 08:04:51,1.0,1.0
2018-07-05 08:04:56,1.0,1.0
2018-07-05 08:05:01,1.0,1.0
2018-07-05 08:05:06,1.0,1.0
2018-07-05 08:05:11,1.0,1.0
2018-07-05 08:05:16,1.0,1.0
2018-07-05 08:05:21,1.0,1.0
2018-07-05 08:05:26,1.0,1.0
2018-07-05 08:05:31,1.0,1.0
2018-07-05 08:05:36,1.0,1.0
2018-07-05 08:05:41,1.0,1.0
2018-07-05 08:05:46,1.0,1.0
2018-07-05 08:05:51,1.0,1.0
2018-07-05 08:05:56,1.0,1.0
2018-07-05 08:06:01,1.0,1.0
2018-07-05 08:06:06,1.0,1.0
2018-07-05 08:06:11,1.0,1.0
2018-07-05 08:06:16,1.0,1.0
2018-07-05 08:06:21,1.0,1.0
2018-07-05 08:06:26,1.0,1.0
2018-07-05 08:06:31,-1.0,1.0
2018-07-05 08:06:36,1.0,1.0
2018-07-05 08:06:41,1.0,1.0
2018-07-05 08:06:46,1.0,1.0
2018-07-05 08:06:51,-1.0,1.0
2018-07-05 08:06:56,1.0,1.0
2018-07-05 08:07:01,-1.0,1.0
2018-07-05 08:07:06,1.0,1.0
2018-07-05 08:07:11,1.0,1.0
2018-07-05 08:07:16,1.0,1.0
2018-07-05 08:07:21,1.0,1.0
2018-07-05 08:07:26,1.0,1.0
2018-07-05 08:07:31,1.0,1.0
2018-07-05 08:07:36,1.0,1.0
2018-07-05 08:07:41,1.0,1.0
2018-07-05 08:07:46,1.0,1.0
2018-07-05 08:07:51,1.0,1.0
2018-07-05 08:07:56,-1.0,1.0
2018-07-05 08:08:01,1.0,1.0
2018-07-05 08:08:06,1.0,1.0
2018-07-05 08:08:11,1.0,1.0
2018-07-05 08:08:16,1.0,1.0
2018-07-05 08:08:21,1.0,1.0
2018-07-05 08:08:26,1.0,1.0
2018-07-05 08:08:31,-1.0,1.0
2018-07-05 08:08:36,1.0,1.0
2018-07-05 08:08:41,1.0,1.0
2018-07-05 08:08:46,1.0,1.0
2018-07-05 08:08:51,1.0,1.0
2018-07-05 08:08:56,1.0,1.0
2018-07-05 08:09:01,1.0,1.0
2018-07-05 08:09:06,1.0,1.0
2018-07-05 08:09:11,1.0,1.0
2018-07-05 08:09:16,1.0,1.0
2018-07-05 08:09:21,1.0,1.0
2018-07-05 08:09:26,1.0,1.0
2018-07-05 08:09:31,1.0,1.0
2018-07-05 08:09:36,1.0,1.0
2018-07-05 08:09:41,1.0,1.0
2018-07-05 08:09:46,1.0,1.0
2018-07-05 08:09:51,1.0,1.0
2018-07-05 08:09:56,1.0,1.0
2018-07-05 08:10:01,1.0,1.0
2018-07-05 08:10:06,1.0,1.0
2018-07-05 08:10:11,1.0,1.0
2018-07-05 08:10:16,1.0,1.0
2018-07-05 08:10:21,1.0,1.0
2018-07-05 08:10:26,-1.0,-1.0
2018-07-05 08:10:31,1.0,-1.0
2018-07-05 08:10:36,-1.0,-1.0
2018-07-05 08:10:41,1.0,1.0
2018-07-05 08:10:46,1.0,1.0
2018-07-05 08:10:51,1.0,1.0
2018-07-05 08:10:56,1.0,1.0
2018-07-05 08:11:01,1.0,1.0
2018-07-05 08:11:06,1.0,1.0
2018-07-05 08:11:11,1.0,1.0
2018-07-05 08:11:16,1.0,1.0
2018-07-05 08:11:21,1.0,1.0
2018-07-05 08:11:26,1.0,1.0
2018-07-05 08:11:31,1.0,1.0
2018-07-05 08:11:36,1.0,1.0
2018-07-05 08:11:41,1.0,1.0
2018-07-05 08:11:46,1.0,1.0
2018-07-05 08:11:51,1.0,1.0
2018-07-05 08:11:56,1.0,1.0
2018-07-05 08:12:01,1.0,1.0
2018-07-05 08:12:06,1.0,1.0
2018-07-05 08:12:11,1.0,1.0
2018-07-05 08:12:16,1.0,1.0
2018-07-05 08:12:21,1.0,1.0
2018-07-05 08:12:26,1.0,1.0
2018-07-05 08:12:31,-1.0,1.0
2018-07-05 08:12:36,1.0,1.0
2018-07-05 08:12:41,1.0,1.0
2018-07-05 08:12:46,1.0,1.0
2018-07-05 08:12:51,1.0,1.0
2018-07-05 08:12:56,1.0,1.0
2018-07-05 08:13:01,1.0,1.0
2018-07-05 08:13:06,1.0,1.0
2018-07-05 08:13:11,1.0,1.0
2018-07-05 08:13:16,1.0,1.0
2018-07-05 08:13:21,1.0,1.0
2018-07-05 08:13:26,1.0,1.0
2018-07-05 08:13:31,1.0,1.0
2018-07-05 08:13:36,-1.0,0.0
2018-07-05 08:13:41,1.0,1.0
2018-07-05 08:13:46,1.0,1.0
2018-07-05 08:13:51,1.0,1.0
2018-07-05 08:13:56,1.0,1.0
2018-07-05 08:14:01,1.0,1.0
2018-07-05 08:14:06,1.0,1.0
2018-07-05 08:14:11,1.0,1.0
2018-07-05 08:14:16,1.0,1.0
2018-07-05 08:14:21,1.0,1.0
2018-07-05 08:14:26,-1.0,1.0
2018-07-05 08:14:31,1.0,1.0
2018-07-05 08:14:36,1.0,1.0
2018-07-05 08:14:41,1.0,1.0
2018-07-05 08:14:46,1.0,1.0
2018-07-05 08:14:51,1.0,1.0
2018-07-05 08:14:56,1.0,1.0
2018-07-05 08:15:01,1.0,1.0
2018-07-05 08:15:06,1.0,1.0
2018-07-05 08:15:11,1.0,1.0
2018-07-05 08:15:16,1.0,1.0
2018-07-05 08:15:21,1.0,1.0
2018-07-05 08:15:26,1.0,1.0
2018-07-05 08:15:31,1.0,1.0
2018-07-05 08:15:36,-1.0,1.0
2018-07-05 08:15:41,1.0,1.0
2018-07-05 08:15:46,-1.0,1.0
2018-07-05 08:15:51,-1.0,1.0
2018-07-05 08:15:56,1.0,1.0
2018-07-05 08:16:01,-1.0,1.0
2018-07-05 08:16:06,-1.0,1.0
2018-07-05 08:16:11,1.0,1.0
2018-07-05 08:16:16,1.0,1.0
2018-07-05 08:16:21,1.0,1.0
2018-07-05 08:16:26,1.0,1.0
2018-07-05 08:16:31,1.0,1.0
2018-07-05 08:16:36,1.0,1.0
2018-07-05 08:16:41,-1.0,1.0
2018-07-05 08:16:46,1.0,1.0
2018-07-05 08:16:51,1.0,1.0
2018-07-05 08:16:56,1.0,1.0
2018-07-05 08:17:01,1.0,1.0
2018-07-05 08:17:06,1.0,1.0
2018-07-05 08:17:11,1.0,1.0
2018-07-05 08:17:16,1.0,1.0
2018-07-05 08:17:21,1.0,1.0
2018-07-05 08:17:26,1.0,1.0
2018-07-05 08:17:31,1.0,1.0
2018-07-05 08:17:36,1.0,1.0
2018-07-05 08:17:41,1.0,1.0
2018-07-05 08:17:46,1.0,1.0
2018-07-05 08:17:51,1.0,1.0
2018-07-05 08:17:56,1.0,1.0
2018-07-05 08:18:01,1.0,1.0
2018-07-05 08:18:06,1.0,1.0
2018-07-05 08:18:11,1.0,1.0
2018-07-05 08:18:16,1.0,1.0
2018-07-05 08:18:21,1.0,1.0
2018-07-05 08:18:26,1.0,1.0
2018-07-05 08:18:31,1.0,1.0
2018-07-05 08:18:36,1.0,1.0
2018-07-05 08:18:41,1.0,1.0
2018-07-05 08:18:46,1.0,1.0
2018-07-05 08:18:51,1.0,1.0
2018-07-05 08:18:56,1.0,1.0
2018-07-05 08:19:01,1.0,1.0
2018-07-05 08:19:06,1.0,1.0
2018-07-05 08:19:11,1.0,1.0
2018-07-05 08:19:16,1.0,1.0
2018-07-05 08:19:21,1.0,1.0
2018-07-05 08:19:26,1.0,1.0
2018-07-05 08:19:31,1.0,1.0
2018-07-05 08:19:36,1.0,1.0
2018-07-05 08:19:41,1.0,1.0
2018-07-05 08:19:46,1.0,1.0
2018-07-05 08:19:51,1.0,1.0
2018-07-05 08:19:56,1.0,1.0
2018-07-05 08:20:01,1.0,1.0
2018-07-05 08:20:06,1.0,1.0
2018-07-05 08:20:11,1.0,1.0
2018-07-05 08:20:16,1.0,1.0
2018-07-05 08:20:21,1.0,1.0
2018-07-05 08:20:26,1.0,1.0
2018-07-05 08:20:31,1.0,1.0
2018-07-05 08:20:36,1.0,1.0
2018-07-05 08:20:41,1.0,1.0
2018-07-05 08:20:46,1.0,1.0
2018-07-05 08:20:51,1.0,1.0
2018-07-05 08:20:56,1.0,1.0
2018-07-05 08:21:01,1.0,1.0
2018-07-05 08:21:06,1.0,1.0
2018-07-05 08:21:11,1.0,1.0
2018-07-05 08:21:16,1.0,1.0
2018-07-05 08:21:21,1.0,1.0
2018-07-05 08:21:26,1.0,1.0
2018-07-05 08:21:31,1.0,1.0
2018-07-05 08:21:36,1.0,1.0
2018-07-05 08:21:41,1.0,1.0
2018-07-05 08:21:46,1.0,1.0
2018-07-05 08:21:51,1.0,1.0
2018-07-05 08:21:56,1.0,1.0
2018-07-05 08:22:01,1.0,1.0
2018-07-05 08:22:06,1.0,1.0
2018-07-05 08:22:11,1.0,1.0
2018-07-05 08:22:16,1.0,1.0
2018-07-05 08:22:21,1.0,1.0
2018-07-05 08:22:26,1.0,1.0
2018-07-05 08:22:31,1.0,1.0
2018-07-05 08:22:36,1.0,1.0
2018-07-05 08:22:41,1.0,1.0
2018-07-05 08:22:46,1.0,1.0
2018-07-05 08:22:51,1.0,1.0
2018-07-05 08:22:56,1.0,1.0
2018-07-05 08:23:01,1.0,1.0
2018-07-05 08:23:06,1.0,1.0
2018-07-05 08:23:11,1.0,1.0
2018-07-05 08:23:16,1.0,1.0
2018-07-05 08:23:21,1.0,1.0
2018-07-05 08:23:26,1.0,1.0
2018-07-05 08:23:31,1.0,1.0
2018-07-05 08:23:36,1.0,1.0
2018-07-05 08:23:41,1.0,1.0
2018-07-05 08:23:46,1.0,1.0
2018-07-05 08:23:51,1.0,1.0
2018-07-05 08:23:56,1.0,1.0
2018-07-05 08:24:01,1.0,1.0
2018-07-05 08:24:06,1.0,1.0
2018-07-05 08:24:11,1.0,1.0
2018-07-05 08:24:16,1.0,1.0
2018-07-05 08:24:21,1.0,1.0
2018-07-05 08:24:26,1.0,1.0
2018-07-05 08:24:31,1.0,1.0
2018-07-05 08:24:36,1.0,1.0
2018-07-05 08:24:41,-1.0,-1.0
2018-07-05 08:24:46,1.0,1.0
2018-07-05 08:24:51,1.0,1.0
2018-07-05 08:24:56,1.0,1.0
2018-07-05 08:25:01,1.0,1.0
2018-07-05 08:25:06,1.0,1.0
2018-07-05 08:25:11,1.0,1.0
2018-07-05 08:25:16,1.0,1.0
2018-07-05 08:25:21,1.0,1.0
2018-07-05 08:25:26,1.0,1.0
2018-07-05 08:25:31,1.0,1.0
2018-07-05 08:25:36,1.0,1.0
2018-07-05 08:25:41,1.0,1.0
2018-07-05 08:25:46,1.0,1.0
2018-07-05 08:25:51,1.0,1.0
2018-07-05 08:25:56,1.0,1.0
2018-07-05 08:26:01,1.0,1.0
2018-07-05 08:26:06,1.0,1.0
2018-07-05 08:26:11,1.0,1.0
2018-07-05 08:26:16,1.0,1.0
2018-07-05 08:26:21,1.0,1.0
2018-07-05 08:26:26,1.0,1.0
2018-07-05 08:26:31,1.0,1.0
2018-07-05 08:26:36,1.0,1.0
2018-07-05 08:26:41,1.0,1.0
2018-07-05 08:26:46,1.0,1.0
2018-07-05 08:26:51,1.0,1.0
2018-07-05 08:26:56,1.0,1.0
2018-07-05 08:27:01,1.0,1.0
2018-07-05 08:27:06,1.0,1.0
2018-07-05 08:27:11,1.0,1.0
2018-07-05 08:27:16,1.0,1.0
2018-07-05 08:27:21,1.0,1.0
2018-07-05 08:27:26,1.0,1.0
2018-07-05 08:27:31,1.0,1.0
2018-07-05 08:27:36,1.0,1.0
2018-07-05 08:27:41,1.0,1.0
2018-07-05 08:27:46,1.0,1.0
2018-07-05 08:27:51,1.0,1.0
2018-07-05 08:27:56,1.0,1.0
2018-07-05 08:28:01,1.0,1.0
2018-07-05 08:28:06,1.0,1.0
2018-07-05 08:28:11,1.0,1.0
2018-07-05 08:28:16,1.0,1.0
2018-07-05 08:28:21,1.0,1.0
2018-07-05 08:28:26,1.0,1.0
2018-07-05 08:28:31,1.0,1.0
2018-07-05 08:28:36,1.0,1.0
2018-07-05 08:28:41,1.0,1.0
2018-07-05 08:28:46,1.0,1.0
2018-07-05 08:28:51,1.0,1.0
2018-07-05 08:28:56,1.0,1.0
2018-07-05 08:29:01,1.0,1.0
2018-07-05 08:29:06,1.0,1.0
2018-07-05 08:29:11,1.0,1.0
2018-07-05 08:29:16,1.0,1.0
2018-07-05 08:29:21,1.0,1.0
2018-07-05 08:29:26,1.0,1.0
2018-07-05 08:29:31,1.0,1.0
2018-07-05 08:29:36,1.0,1.0
2018-07-05 08:29:41,1.0,1.0
2018-07-05 08:29:46,1.0,1.0
2018-07-05 08:29:51,1.0,1.0
2018-07-05 08:29:56,1.0,1.0
2018-07-05 08:30:01,1.0,1.0
2018-07-05 08:30:06,1.0,1.0
2018-07-05 08:30:11,1.0,1.0
2018-07-05 08:30:16,1.0,1.0
2018-07-05 08:30:21,1.0,1.0
2018-07-05 08:30:26,1.0,1.0
2018-07-05 08:30:31,1.0,1.0
2018-07-05 08:30:36,1.0,1.0
2018-07-05 08:30:41,1.0,1.0
2018-07-05 08:30:46,1.0,1.0
2018-07-05 08:30:51,1.0,1.0
2018-07-05 08:30:56,1.0,1.0
2018-07-05 08:31:01,1.0,1.0
2018-07-05 08:31:06,1.0,1.0
2018-07-05 08:31:11,1.0,1.0
2018-07-05 08:31:16,1.0,1.0
2018-07-05 08:31:21,1.0,1.0
2018-07-05 08:31:26,1.0,1.0
2018-07-05 08:31:31,1.0,1.0
2018-07-05 08:31:36,1.0,1.0
2018-07-05 08:31:41,1.0,1.0
2018-07-05 08:31:46,1.0,1.0
2018-07-05 08:31:51,1.0,1.0
2018-07-05 08:31:56,1.0,1.0
2018-07-05 08:32:01,1.0,1.0
2018-07-05 08:32:06,1.0,1.0
2018-07-05 08:32:11,1.0,1.0
2018-07-05 08:32:16,1.0,1.0
2018-07-05 08:32:21,1.0,1.0
2018-07-05 08:32:26,1.0,1.0
2018-07-05 08:32:31,1.0,1.0
2018-07-05 08:32:36,1.0,1.0
2018-07-05 08:32:41,1.0,1.0
2018-07-05 08:32:46,1.0,1.0
2018-07-05 08:32:51,1.0,1.0
2018-07-05 08:32:56,1.0,1.0
2018-07-05 08:33:01,1.0,1.0
2018-07-05 08:33:06,1.0,1.0
2018-07-05 08:33:11,1.0,1.0
2018-07-05 08:33:16,1.0,1.0
2018-07-05 08:33:21,1.0,1.0
2018-07-05 08:33:26,1.0,1.0
2018-07-05 08:33:31,1.0,1.0
2018-07-05 08:33:36,1.0,1.0
2018-07-05 08:33:41,1.0,1.0
2018-07-05 08:33:46,1.0,1.0
2018-07-05 08:33:51,1.0,1.0
2018-07-05 08:33:56,1.0,1.0
2018-07-05 08:34:01,1.0,1.0
2018-07-05 08:34:06,1.0,1.0
2018-07-05 08:34:11,1.0,1.0
2018-07-05 08:34:16,1.0,1.0
2018-07-05 08:34:21,1.0,1.0
2018-07-05 08:34:26,1.0,1.0
2018-07-05 08:34:31,1.0,1.0
2018-07-05 08:34:36,1.0,1.0
2018-07-05 08:34:41,1.0,1.0
2018-07-05 08:34:46,1.0,1.0
2018-07-05 08:34:51,1.0,1.0
2018-07-05 08:34:56,1.0,1.0
2018-07-05 08:35:01,1.0,1.0
2018-07-05 08:35:06,1.0,1.0
2018-07-05 08:35:11,1.0,1.0
2018-07-05 08:35:16,1.0,1.0
2018-07-05 08:35:21,1.0,1.0
2018-07-05 08:35:26,1.0,1.0
2018-07-05 08:35:31,1.0,1.0
2018-07-05 08:35:36,1.0,1.0
2018-07-05 08:35:41,1.0,1.0
2018-07-05 08:35:46,1.0,1.0
2018-07-05 08:35:51,1.0,1.0
2018-07-05 08:35:56,1.0,1.0
2018-07-05 08:36:01,1.0,1.0
2018-07-05 08:36:06,-1.0,1.0
2018-07-05 08:36:11,1.0,1.0
2018-07-05 08:36:16,1.0,1.0
2018-07-05 08:36:21,1.0,1.0
2018-07-05 08:36:26,1.0,1.0
2018-07-05 08:36:31,1.0,1.0
2018-07-05 08:36:36,1.0,1.0
2018-07-05 08:36:41,1.0,1.0
2018-07-05 08:36:46,1.0,1.0
2018-07-05 08:36:51,1.0,1.0
2018-07-05 08:36:56,1.0,1.0
2018-07-05 08:37:01,1.0,1.0
2018-07-05 08:37:06,1.0,1.0
2018-07-05 08:37:11,1.0,1.0
2018-07-05 08:37:16,1.0,1.0
2018-07-05 08:37:21,1.0,1.0
2018-07-05 08:37:26,1.0,1.0
2018-07-05 08:37:31,1.0,1.0
2018-07-05 08:37:36,1.0,1.0
2018-07-05 08:37:41,1.0,1.0
2018-07-05 08:37:46,1.0,1.0
2018-07-05 08:37:51,1.0,1.0
2018-07-05 08:37:56,1.0,1.0
2018-07-05 08:38:01,1.0,1.0
2018-07-05 08:38:06,1.0,1.0
2018-07-05 08:38:11,1.0,1.0
2018-07-05 08:38:16,1.0,1.0
2018-07-05 08:38:21,1.0,1.0
2018-07-05 08:38:26,1.0,1.0
2018-07-05 08:38:31,1.0,1.0
2018-07-05 08:38:36,1.0,1.0
2018-07-05 08:38:41,1.0,1.0
2018-07-05 08:38:46,1.0,1.0
2018-07-05 08:38:51,1.0,1.0
2018-07-05 08:38:56,1.0,1.0
2018-07-05 08:39:01,1.0,1.0
2018-07-05 08:39:06,1.0,1.0
2018-07-05 08:39:11,1.0,1.0
2018-07-05 08:39:16,1.0,1.0
2018-07-05 08:39:21,1.0,1.0
2018-07-05 08:39:26,1.0,1.0
2018-07-05 08:39:31,1.0,1.0
2018-07-05 08:39:36,1.0,1.0
2018-07-05 08:39:41,1.0,1.0
2018-07-05 08:39:46,1.0,1.0
2018-07-05 08:39:51,1.0,1.0
2018-07-05 08:39:56,1.0,1.0
2018-07-05 08:40:01,1.0,1.0
2018-07-05 08:40:06,1.0,1.0
2018-07-05 08:40:11,1.0,1.0
2018-07-05 08:40:16,1.0,1.0
2018-07-05 08:40:21,1.0,1.0
2018-07-05 08:40:26,1.0,1.0
2018-07-05 08:40:31,1.0,1.0
2018-07-05 08:40:36,1.0,1.0
2018-07-05 08:40:41,1.0,1.0
2018-07-05 08:40:46,1.0,1.0
2018-07-05 08:40:51,1.0,1.0
2018-07-05 08:40:56,1.0,1.0
2018-07-05 08:41:01,1.0,1.0
2018-07-05 08:41:06,1.0,1.0
2018-07-05 08:41:11,1.0,1.0
2018-07-05 08:41:16,1.0,1.0
2018-07-05 08:41:21,1.0,1.0
2018-07-05 08:41:26,1.0,1.0
2018-07-05 08:41:31,1.0,1.0
2018-07-05 08:41:36,1.0,1.0
2018-07-05 08:41:41,1.0,1.0
2018-07-05 08:41:46,1.0,1.0
2018-07-05 08:41:51,1.0,1.0
2018-07-05 08:41:56,1.0,1.0
2018-07-05 08:42:01,1.0,1.0
2018-07-05 08:42:06,1.0,1.0
2018-07-05 08:42:11,1.0,1.0
2018-07-05 08:42:16,1.0,1.0
2018-07-05 08:42:21,1.0,1.0
2018-07-05 08:42:26,1.0,1.0
2018-07-05 08:42:31,1.0,1.0
2018-07-05 08:42:36,1.0,1.0
2018-07-05 08:42:41,1.0,1.0
2018-07-05 08:42:46,1.0,1.0
2018-07-05 08:42:51,1.0,1.0
2018-07-05 08:42:56,1.0,1.0
2018-07-05 08:43:01,1.0,1.0
2018-07-05 08:43:06,1.0,1.0
2018-07-05 08:43:11,1.0,1.0
2018-07-05 08:43:16,1.0,1.0
2018-07-05 08:43:21,1.0,1.0
2018-07-05 08:43:26,1.0,1.0
2018-07-05 08:43:31,1.0,1.0
2018-07-05 08:43:36,1.0,1.0
2018-07-05 08:43:41,1.0,1.0
2018-07-05 08:43:46,1.0,1.0
2018-07-05 08:43:51,1.0,1.0
2018-07-05 08:43:56,1.0,1.0
2018-07-05 08:44:01,1.0,1.0
2018-07-05 08:44:06,1.0,1.0
2018-07-05 08:44:11,1.0,1.0
2018-07-05 08:44:16,1.0,1.0
2018-07-05 08:44:21,1.0,1.0
2018-07-05 08:44:26,1.0,1.0
2018-07-05 08:44:31,1.0,1.0
2018-07-05 08:44:36,1.0,1.0
2018-07-05 08:44:41,1.0,1.0
2018-07-05 08:44:46,1.0,1.0
2018-07-05 08:44:51,1.0,1.0
2018-07-05 08:44:56,1.0,1.0
2018-07-05 08:45:01,1.0,1.0
2018-07-05 08:45:06,1.0,1.0
2018-07-05 08:45:11,-1.0,1.0
2018-07-05 08:45:16,1.0,1.0
2018-07-05 08:45:21,1.0,1.0
2018-07-05 08:45:26,1.0,1.0
2018-07-05 08:45:31,-1.0,-1.0
2018-07-05 08:45:36,-1.0,-1.0
2018-07-05 08:45:41,1.0,1.0
2018-07-05 08:45:46,1.0,1.0
2018-07-05 08:45:51,1.0,1.0
2018-07-05 08:45:56,1.0,1.0
2018-07-05 08:46:01,1.0,1.0
2018-07-05 08:46:06,-1.0,1.0
2018-07-05 08:46:11,1.0,1.0
2018-07-05 08:46:16,1.0,1.0
2018-07-05 08:46:21,-1.0,1.0
2018-07-05 08:46:26,1.0,1.0
2018-07-05 08:46:31,1.0,1.0
2018-07-05 08:46:36,1.0,1.0
2018-07-05 08:46:41,1.0,1.0
2018-07-05 08:46:46,1.0,1.0
2018-07-05 08:46:51,1.0,1.0
2018-07-05 08:46:56,1.0,1.0
2018-07-05 08:47:01,-1.0,1.0
2018-07-05 08:47:06,1.0,-1.0
2018-07-05 08:47:11,1.0,1.0
2018-07-05 08:47:16,1.0,1.0
2018-07-05 08:47:21,1.0,1.0
2018-07-05 08:47:26,1.0,1.0
2018-07-05 08:47:31,1.0,1.0
2018-07-05 08:47:36,1.0,1.0
2018-07-05 08:47:41,1.0,1.0
2018-07-05 08:47:46,1.0,1.0
2018-07-05 08:47:51,1.0,1.0
2018-07-05 08:47:56,1.0,1.0
2018-07-05 08:48:01,1.0,1.0
2018-07-05 08:48:06,1.0,1.0
2018-07-05 08:48:11,1.0,1.0
2018-07-05 08:48:16,1.0,1.0
2018-07-05 08:48:21,1.0,1.0
2018-07-05 08:48:26,1.0,1.0
2018-07-05 08:48:31,1.0,1.0
2018-07-05 08:48:36,1.0,1.0
2018-07-05 08:48:41,1.0,1.0
2018-07-05 08:48:46,1.0,1.0
2018-07-05 08:48:51,1.0,1.0
2018-07-05 08:48:56,1.0,1.0
2018-07-05 08:49:01,1.0,1.0
2018-07-05 08:49:06,1.0,1.0
2018-07-05 08:49:11,1.0,1.0
2018-07-05 08:49:16,1.0,1.0
2018-07-05 08:49:21,1.0,1.0
2018-07-05 08:49:26,1.0,1.0
2018-07-05 08:49:31,1.0,1.0
2018-07-05 08:49:36,1.0,1.0
2018-07-05 08:49:41,-1.0,-1.0
2018-07-05 08:49:46,1.0,-1.0
2018-07-05 08:49:51,1.0,1.0
2018-07-05 08:49:56,-1.0,1.0
2018-07-05 08:50:01,1.0,1.0
2018-07-05 08:50:06,1.0,1.0
2018-07-05 08:50:11,1.0,1.0
2018-07-05 08:50:16,1.0,1.0
2018-07-05 08:50:21,1.0,1.0
2018-07-05 08:50:26,1.0,1.0
2018-07-05 08:50:31,1.0,1.0
2018-07-05 08:50:36,1.0,1.0
2018-07-05 08:50:41,1.0,1.0
2018-07-05 08:50:46,1.0,1.0
2018-07-05 08:50:51,1.0,1.0
2018-07-05 08:50:56,1.0,1.0
2018-07-05 08:51:01,1.0,1.0
2018-07-05 08:51:06,1.0,1.0
2018-07-05 08:51:11,1.0,1.0
2018-07-05 08:51:16,-1.0,-1.0
2018-07-05 08:51:21,1.0,1.0
2018-07-05 08:51:26,1.0,1.0
2018-07-05 08:51:31,1.0,1.0
2018-07-05 08:51:36,1.0,1.0
2018-07-05 08:51:41,1.0,1.0
2018-07-05 08:51:46,1.0,1.0
2018-07-05 08:51:51,1.0,1.0
2018-07-05 08:51:56,1.0,1.0
2018-07-05 08:52:01,1.0,1.0
2018-07-05 08:52:06,1.0,1.0
2018-07-05 08:52:11,1.0,1.0
2018-07-05 08:52:16,1.0,1.0
2018-07-05 08:52:21,1.0,1.0
2018-07-05 08:52:26,1.0,1.0
2018-07-05 08:52:31,1.0,1.0
2018-07-05 08:52:36,1.0,1.0
2018-07-05 08:52:41,1.0,1.0
2018-07-05 08:52:46,1.0,1.0
2018-07-05 08:52:51,1.0,1.0
2018-07-05 08:52:56,-1.0,1.0
2018-07-05 08:53:01,1.0,1.0
2018-07-05 08:53:06,1.0,1.0
2018-07-05 08:53:11,1.0,1.0
2018-07-05 08:53:16,1.0,1.0
2018-07-05 08:53:21,1.0,1.0
2018-07-05 08:53:26,1.0,1.0
2018-07-05 08:53:31,1.0,1.0
2018-07-05 08:53:36,1.0,1.0
2018-07-05 08:53:41,1.0,1.0
2018-07-05 08:53:46,-1.0,-1.0
2018-07-05 08:53:51,1.0,1.0
2018-07-05 08:53:56,1.0,1.0
2018-07-05 08:54:01,1.0,1.0
2018-07-05 08:54:06,1.0,1.0
2018-07-05 08:54:11,1.0,1.0
2018-07-05 08:54:16,1.0,1.0
2018-07-05 08:54:21,1.0,1.0
2018-07-05 08:54:26,1.0,1.0
2018-07-05 08:54:31,1.0,1.0
2018-07-05 08:54:36,1.0,1.0
2018-07-05 08:54:41,1.0,1.0
2018-07-05 08:54:46,1.0,1.0
2018-07-05 08:54:51,1.0,1.0
2018-07-05 08:54:56,1.0,1.0
2018-07-05 08:55:01,1.0,1.0
2018-07-05 08:55:06,1.0,1.0
2018-07-05 08:55:11,1.0,1.0
2018-07-05 08:55:16,1.0,1.0
2018-07-05 08:55:21,1.0,1.0
2018-07-05 08:55:26,1.0,1.0
2018-07-05 08:55:31,1.0,1.0
2018-07-05 08:55:36,1.0,1.0
2018-07-05 08:55:41,1.0,1.0
2018-07-05 08:55:46,1.0,1.0
2018-07-05 08:55:51,1.0,1.0
2018-07-05 08:55:56,1.0,1.0
2018-07-05 08:56:01,1.0,1.0
2018-07-05 08:56:06,1.0,1.0
2018-07-05 08:56:11,-1.0,-1.0
2018-07-05 08:56:16,1.0,1.0
2018-07-05 08:56:21,1.0,1.0
2018-07-05 08:56:26,1.0,1.0
2018-07-05 08:56:31,1.0,1.0
2018-07-05 08:56:36,1.0,1.0
2018-07-05 08:56:41,1.0,1.0
2018-07-05 08:56:46,1.0,1.0
2018-07-05 08:56:51,1.0,1.0
2018-07-05 08:56:56,1.0,1.0
2018-07-05 08:57:01,1.0,1.0
2018-07-05 08:57:06,1.0,1.0
2018-07-05 08:57:11,1.0,1.0
2018-07-05 08:57:16,1.0,1.0
2018-07-05 08:57:21,1.0,1.0
2018-07-05 08:57:26,1.0,1.0
2018-07-05 08:57:31,-1.0,1.0
2018-07-05 08:57:36,1.0,1.0
2018-07-05 08:57:41,1.0,1.0
2018-07-05 08:57:46,1.0,1.0
2018-07-05 08:57:51,1.0,1.0
2018-07-05 08:57:56,-1.0,1.0
2018-07-05 08:58:01,1.0,1.0
2018-07-05 08:58:06,1.0,1.0
2018-07-05 08:58:11,1.0,1.0
2018-07-05 08:58:16,1.0,1.0
2018-07-05 08:58:21,1.0,1.0
2018-07-05 08:58:26,1.0,1.0
2018-07-05 08:58:31,-1.0,1.0
2018-07-05 08:58:36,1.0,1.0
2018-07-05 08:58:41,1.0,1.0
2018-07-05 08:58:46,1.0,1.0
2018-07-05 08:58:51,1.0,1.0
2018-07-05 08:58:56,1.0,1.0
2018-07-05 08:59:01,1.0,1.0
2018-07-05 08:59:06,1.0,0.0
2018-07-05 08:59:11,1.0,1.0
2018-07-05 08:59:16,1.0,1.0
2018-07-05 08:59:21,1.0,1.0
2018-07-05 08:59:26,1.0,1.0
2018-07-05 08:59:31,1.0,1.0
2018-07-05 08:59:36,1.0,1.0
2018-07-05 08:59:41,1.0,1.0
2018-07-05 08:59:46,-1.0,1.0
2018-07-05 08:59:51,-1.0,1.0
2018-07-05 08:59:56,1.0,1.0
2018-07-05 09:00:01,1.0,1.0
2018-07-05 09:00:06,1.0,1.0
2018-07-05 09:00:11,1.0,1.0
2018-07-05 09:00:16,1.0,1.0
2018-07-05 09:00:21,-1.0,0.0
2018-07-05 09:00:26,1.0,1.0
2018-07-05 09:00:31,1.0,1.0
2018-07-05 09:00:36,1.0,1.0
2018-07-05 09:00:41,1.0,1.0
2018-07-05 09:00:46,1.0,1.0
2018-07-05 09:00:51,1.0,1.0
2018-07-05 09:00:56,1.0,1.0
2018-07-05 09:01:01,-1.0,1.0
2018-07-05 09:01:06,1.0,1.0
2018-07-05 09:01:11,1.0,1.0
2018-07-05 09:01:16,1.0,1.0
2018-07-05 09:01:21,1.0,1.0
2018-07-05 09:01:26,-1.0,0.0
2018-07-05 09:01:31,-1.0,-1.0
2018-07-05 09:01:36,-1.0,-1.0
2018-07-05 09:01:41,-1.0,-1.0
2018-07-05 09:01:46,-1.0,1.0
2018-07-05 09:01:51,1.0,0.0
2018-07-05 09:01:56,-1.0,-1.0
2018-07-05 09:02:01,1.0,1.0
2018-07-05 09:02:06,1.0,1.0
2018-07-05 09:02:11,1.0,1.0
2018-07-05 09:02:16,-1.0,0.0
2018-07-05 09:02:21,-1.0,-1.0
2018-07-05 09:02:26,-1.0,-1.0
2018-07-05 09:02:31,1.0,1.0
2018-07-05 09:02:36,1.0,1.0
2018-07-05 09:02:41,1.0,1.0
2018-07-05 09:02:46,1.0,1.0
2018-07-05 09:02:51,-1.0,0.0
2018-07-05 09:02:56,1.0,1.0
2018-07-05 09:03:01,1.0,1.0
2018-07-05 09:03:06,1.0,1.0
2018-07-05 09:03:11,1.0,1.0
2018-07-05 09:03:16,1.0,1.0
2018-07-05 09:03:21,1.0,1.0
2018-07-05 09:03:26,1.0,1.0
2018-07-05 09:03:31,-1.0,1.0
2018-07-05 09:03:36,-1.0,-1.0
2018-07-05 09:03:41,1.0,1.0
2018-07-05 09:03:46,-1.0,0.0
2018-07-05 09:03:51,1.0,1.0
2018-07-05 09:03:56,1.0,1.0
2018-07-05 09:04:01,1.0,1.0
2018-07-05 09:04:06,1.0,1.0
2018-07-05 09:04:11,1.0,1.0
2018-07-05 09:04:16,1.0,1.0
2018-07-05 09:04:21,1.0,1.0
2018-07-05 09:04:26,1.0,1.0
2018-07-05 09:04:31,1.0,1.0
2018-07-05 09:04:36,1.0,1.0
2018-07-05 09:04:41,1.0,1.0
2018-07-05 09:04:46,1.0,1.0
2018-07-05 09:04:51,1.0,1.0
2018-07-05 09:04:56,-1.0,1.0
2018-07-05 09:05:01,1.0,1.0
2018-07-05 09:05:06,-1.0,-1.0
2018-07-05 09:05:11,1.0,1.0
2018-07-05 09:05:16,1.0,1.0
2018-07-05 09:05:21,1.0,1.0
2018-07-05 09:05:26,1.0,1.0
2018-07-05 09:05:31,1.0,1.0
2018-07-05 09:05:36,1.0,1.0
2018-07-05 09:05:41,1.0,1.0
2018-07-05 09:05:46,1.0,1.0
2018-07-05 09:05:51,1.0,1.0
2018-07-05 09:05:56,1.0,1.0
2018-07-05 09:06:01,1.0,1.0
2018-07-05 09:06:06,1.0,1.0
2018-07-05 09:06:11,1.0,1.0
2018-07-05 09:06:16,1.0,1.0
2018-07-05 09:06:21,1.0,1.0
2018-07-05 09:06:26,1.0,1.0
2018-07-05 09:06:31,1.0,1.0
2018-07-05 09:06:36,1.0,1.0
2018-07-05 09:06:41,1.0,1.0
2018-07-05 09:06:46,1.0,1.0
2018-07-05 09:06:51,1.0,1.0
2018-07-05 09:06:56,1.0,1.0
2018-07-05 09:07:01,1.0,1.0
2018-07-05 09:07:06,1.0,1.0
2018-07-05 09:07:11,1.0,1.0
2018-07-05 09:07:16,1.0,1.0
2018-07-05 09:07:21,1.0,1.0
2018-07-05 09:07:26,1.0,1.0
2018-07-05 09:07:31,1.0,1.0
2018-07-05 09:07:36,1.0,1.0
2018-07-05 09:07:41,-1.0,1.0
2018-07-05 09:07:46,1.0,1.0
2018-07-05 09:07:51,1.0,1.0
2018-07-05 09:07:56,1.0,1.0
2018-07-05 09:08:01,1.0,1.0
2018-07-05 09:08:06,1.0,1.0
2018-07-05 09:08:11,1.0,1.0
2018-07-05 09:08:16,1.0,1.0
2018-07-05 09:08:21,-1.0,1.0
2018-07-05 09:08:26,1.0,1.0
2018-07-05 09:08:31,1.0,1.0
2018-07-05 09:08:36,1.0,1.0
2018-07-05 09:08:41,1.0,1.0
2018-07-05 09:08:46,1.0,1.0
2018-07-05 09:08:51,1.0,1.0
2018-07-05 09:08:56,-1.0,1.0
2018-07-05 09:09:01,1.0,1.0
2018-07-05 09:09:06,1.0,1.0
2018-07-05 09:09:11,1.0,1.0
2018-07-05 09:09:16,1.0,1.0
2018-07-05 09:09:21,1.0,1.0
2018-07-05 09:09:26,1.0,1.0
2018-07-05 09:09:31,1.0,1.0
2018-07-05 09:09:36,1.0,1.0
2018-07-05 09:09:41,1.0,1.0
2018-07-05 09:09:46,1.0,1.0
2018-07-05 09:09:51,1.0,1.0
2018-07-05 09:09:56,-1.0,1.0
2018-07-05 09:10:01,-1.0,1.0
2018-07-05 09:10:06,1.0,1.0
2018-07-05 09:10:11,1.0,1.0
2018-07-05 09:10:16,-1.0,1.0
2018-07-05 09:10:21,1.0,1.0
2018-07-05 09:10:26,1.0,1.0
2018-07-05 09:10:31,1.0,1.0
2018-07-05 09:10:36,1.0,1.0
2018-07-05 09:10:41,-1.0,1.0
2018-07-05 09:10:46,1.0,1.0
2018-07-05 09:10:51,1.0,1.0
2018-07-05 09:10:56,1.0,1.0
2018-07-05 09:11:01,1.0,1.0
2018-07-05 09:11:06,1.0,1.0
2018-07-05 09:11:11,1.0,1.0
2018-07-05 09:11:16,1.0,1.0
2018-07-05 09:11:21,-1.0,1.0
2018-07-05 09:11:26,1.0,1.0
2018-07-05 09:11:31,1.0,1.0
2018-07-05 09:11:36,1.0,1.0
2018-07-05 09:11:41,1.0,1.0
2018-07-05 09:11:46,1.0,1.0
2018-07-05 09:11:51,1.0,1.0
2018-07-05 09:11:56,1.0,1.0
2018-07-05 09:12:01,-1.0,1.0
2018-07-05 09:12:06,1.0,1.0
2018-07-05 09:12:11,1.0,1.0
2018-07-05 09:12:16,1.0,1.0
2018-07-05 09:12:21,1.0,1.0
2018-07-05 09:12:26,-1.0,1.0
2018-07-05 09:12:31,1.0,1.0
2018-07-05 09:12:36,1.0,1.0
2018-07-05 09:12:41,-1.0,1.0
2018-07-05 09:12:46,1.0,1.0
2018-07-05 09:12:51,1.0,1.0
2018-07-05 09:12:56,1.0,1.0
2018-07-05 09:13:01,1.0,1.0
2018-07-05 09:13:06,1.0,1.0
2018-07-05 09:13:11,1.0,1.0
2018-07-05 09:13:16,1.0,1.0
2018-07-05 09:13:21,-1.0,-1.0
2018-07-05 09:13:26,1.0,1.0
2018-07-05 09:13:31,1.0,1.0
2018-07-05 09:13:36,1.0,1.0
2018-07-05 09:13:41,1.0,1.0
2018-07-05 09:13:46,1.0,1.0
2018-07-05 09:13:51,1.0,1.0
2018-07-05 09:13:56,1.0,1.0
2018-07-05 09:14:01,1.0,1.0
2018-07-05 09:14:06,1.0,1.0
2018-07-05 09:14:11,1.0,1.0
2018-07-05 09:14:16,1.0,1.0
2018-07-05 09:14:21,1.0,1.0
2018-07-05 09:14:26,1.0,1.0
2018-07-05 09:14:31,1.0,1.0
2018-07-05 09:14:36,1.0,1.0
2018-07-05 09:14:41,1.0,1.0
2018-07-05 09:14:46,1.0,1.0
2018-07-05 09:14:51,1.0,1.0
2018-07-05 09:14:56,1.0,1.0
2018-07-05 09:15:01,1.0,1.0
2018-07-05 09:15:06,1.0,1.0
2018-07-05 09:15:11,1.0,1.0
2018-07-05 09:15:16,1.0,1.0
2018-07-05 09:15:21,1.0,1.0
2018-07-05 09:15:26,1.0,1.0
2018-07-05 09:15:31,1.0,1.0
2018-07-05 09:15:36,1.0,1.0
2018-07-05 09:15:41,1.0,1.0
2018-07-05 09:15:46,1.0,1.0
2018-07-05 09:15:51,1.0,1.0
2018-07-05 09:15:56,1.0,1.0
2018-07-05 09:16:01,1.0,1.0
2018-07-05 09:16:06,1.0,1.0
2018-07-05 09:16:11,1.0,1.0
2018-07-05 09:16:16,1.0,1.0
2018-07-05 09:16:21,1.0,1.0
2018-07-05 09:16:26,1.0,1.0
2018-07-05 09:16:31,1.0,1.0
2018-07-05 09:16:36,1.0,1.0
2018-07-05 09:16:41,1.0,1.0
2018-07-05 09:16:46,1.0,1.0
2018-07-05 09:16:51,1.0,1.0
2018-07-05 09:16:56,1.0,1.0
2018-07-05 09:17:01,-1.0,1.0
2018-07-05 09:17:06,1.0,1.0
2018-07-05 09:17:11,-1.0,1.0
2018-07-05 09:17:16,1.0,1.0
2018-07-05 09:17:21,1.0,1.0
2018-07-05 09:17:26,1.0,1.0
2018-07-05 09:17:31,1.0,1.0
2018-07-05 09:17:36,1.0,1.0
2018-07-05 09:17:41,1.0,1.0
2018-07-05 09:17:46,1.0,1.0
2018-07-05 09:17:51,1.0,1.0
2018-07-05 09:17:56,1.0,1.0
2018-07-05 09:18:01,1.0,1.0
2018-07-05 09:18:06,1.0,1.0
2018-07-05 09:18:11,1.0,1.0
2018-07-05 09:18:16,1.0,1.0
2018-07-05 09:18:21,1.0,1.0
2018-07-05 09:18:26,1.0,1.0
2018-07-05 09:18:31,1.0,1.0
2018-07-05 09:18:36,1.0,1.0
2018-07-05 09:18:41,1.0,1.0
2018-07-05 09:18:46,1.0,1.0
2018-07-05 09:18:51,1.0,1.0
2018-07-05 09:18:56,1.0,1.0
2018-07-05 09:19:01,1.0,1.0
2018-07-05 09:19:06,1.0,1.0
2018-07-05 09:19:11,1.0,1.0
2018-07-05 09:19:16,1.0,1.0
2018-07-05 09:19:21,1.0,1.0
2018-07-05 09:19:26,1.0,1.0
2018-07-05 09:19:31,1.0,1.0
2018-07-05 09:19:36,1.0,1.0
2018-07-05 09:19:41,1.0,1.0
2018-07-05 09:19:46,1.0,1.0
2018-07-05 09:19:51,1.0,1.0
2018-07-05 09:19:56,1.0,1.0
2018-07-05 09:20:01,1.0,1.0
2018-07-05 09:20:06,1.0,1.0
2018-07-05 09:20:11,1.0,1.0
2018-07-05 09:20:16,1.0,1.0
2018-07-05 09:20:21,1.0,1.0
2018-07-05 09:20:26,1.0,1.0
2018-07-05 09:20:31,1.0,1.0
2018-07-05 09:20:36,1.0,1.0
2018-07-05 09:20:41,1.0,1.0
2018-07-05 09:20:46,1.0,1.0
2018-07-05 09:20:51,1.0,1.0
2018-07-05 09:20:56,1.0,1.0
2018-07-05 09:21:01,1.0,1.0
2018-07-05 09:21:06,1.0,1.0
2018-07-05 09:21:11,1.0,1.0
2018-07-05 09:21:16,1.0,1.0
2018-07-05 09:21:21,1.0,1.0
2018-07-05 09:21:26,1.0,1.0
2018-07-05 09:21:31,1.0,1.0
2018-07-05 09:21:36,1.0,1.0
2018-07-05 09:21:41,1.0,1.0
2018-07-05 09:21:46,1.0,1.0
2018-07-05 09:21:51,-1.0,1.0
2018-07-05 09:21:56,1.0,1.0
2018-07-05 09:22:01,1.0,1.0
2018-07-05 09:22:06,1.0,1.0
2018-07-05 09:22:11,1.0,1.0
2018-07-05 09:22:16,1.0,1.0
2018-07-05 09:22:21,1.0,1.0
2018-07-05 09:22:26,1.0,1.0
2018-07-05 09:22:31,1.0,1.0
2018-07-05 09:22:36,1.0,1.0
2018-07-05 09:22:41,1.0,1.0
2018-07-05 09:22:46,1.0,1.0
2018-07-05 09:22:51,1.0,1.0
2018-07-05 09:22:56,1.0,1.0
2018-07-05 09:23:01,1.0,1.0
2018-07-05 09:23:06,1.0,1.0
2018-07-05 09:23:11,1.0,1.0
2018-07-05 09:23:16,1.0,1.0
2018-07-05 09:23:21,1.0,1.0
2018-07-05 09:23:26,1.0,1.0
2018-07-05 09:23:31,1.0,1.0
2018-07-05 09:23:36,1.0,1.0
2018-07-05 09:23:41,1.0,1.0
2018-07-05 09:23:46,1.0,1.0
2018-07-05 09:23:51,1.0,1.0
2018-07-05 09:23:56,1.0,1.0
2018-07-05 09:24:01,1.0,1.0
2018-07-05 09:24:06,1.0,1.0
2018-07-05 09:24:11,1.0,1.0
2018-07-05 09:24:16,1.0,1.0
2018-07-05 09:24:21,1.0,1.0
2018-07-05 09:24:26,1.0,1.0
2018-07-05 09:24:31,1.0,1.0
2018-07-05 09:24:36,1.0,1.0
2018-07-05 09:24:41,1.0,1.0
2018-07-05 09:24:46,1.0,1.0
2018-07-05 09:24:51,1.0,1.0
2018-07-05 09:24:56,1.0,1.0
2018-07-05 09:25:01,1.0,1.0
2018-07-05 09:25:06,1.0,1.0
2018-07-05 09:25:11,1.0,1.0
2018-07-05 09:25:16,1.0,1.0
2018-07-05 09:25:21,1.0,1.0
2018-07-05 09:25:26,1.0,1.0
2018-07-05 09:25:31,1.0,1.0
2018-07-05 09:25:36,1.0,1.0
2018-07-05 09:25:41,1.0,1.0
2018-07-05 09:25:46,1.0,1.0
2018-07-05 09:25:51,1.0,1.0
2018-07-05 09:25:56,1.0,1.0
2018-07-05 09:26:01,1.0,1.0
2018-07-05 09:26:06,1.0,1.0
2018-07-05 09:26:11,1.0,1.0
2018-07-05 09:26:16,1.0,1.0
2018-07-05 09:26:21,1.0,1.0
2018-07-05 09:26:26,1.0,1.0
2018-07-05 09:26:31,1.0,1.0
2018-07-05 09:26:36,1.0,1.0
2018-07-05 09:26:41,1.0,1.0
2018-07-05 09:26:46,1.0,1.0
2018-07-05 09:26:51,1.0,1.0
2018-07-05 09:26:56,1.0,1.0
2018-07-05 09:27:01,1.0,1.0
2018-07-05 09:27:06,1.0,1.0
2018-07-05 09:27:11,1.0,1.0
2018-07-05 09:27:16,1.0,1.0
2018-07-05 09:27:21,1.0,1.0
2018-07-05 09:27:26,1.0,1.0
2018-07-05 09:27:31,1.0,1.0
2018-07-05 09:27:36,1.0,1.0
2018-07-05 09:27:41,1.0,1.0
2018-07-05 09:27:46,1.0,1.0
2018-07-05 09:27:51,1.0,1.0
2018-07-05 09:27:56,1.0,1.0
2018-07-05 09:28:01,1.0,1.0
2018-07-05 09:28:06,1.0,1.0
2018-07-05 09:28:11,1.0,1.0
2018-07-05 09:28:16,1.0,1.0
2018-07-05 09:28:21,1.0,1.0
2018-07-05 09:28:26,1.0,1.0
2018-07-05 09:28:31,1.0,1.0
2018-07-05 09:28:36,1.0,1.0
2018-07-05 09:28:41,1.0,1.0
2018-07-05 09:28:46,1.0,1.0
2018-07-05 09:28:51,1.0,1.0
2018-07-05 09:28:56,1.0,1.0
2018-07-05 09:29:01,1.0,1.0
2018-07-05 09:29:06,1.0,1.0
2018-07-05 09:29:11,1.0,1.0
2018-07-05 09:29:16,1.0,1.0
2018-07-05 09:29:21,1.0,1.0
2018-07-05 09:29:26,1.0,1.0
2018-07-05 09:29:31,1.0,1.0
2018-07-05 09:29:36,1.0,1.0
2018-07-05 09:29:41,1.0,1.0
2018-07-05 09:29:46,1.0,1.0
2018-07-05 09:29:51,1.0,1.0
2018-07-05 09:29:56,1.0,1.0
2018-07-05 09:30:01,1.0,1.0
2018-07-05 09:30:06,1.0,1.0
2018-07-05 09:30:11,1.0,1.0
2018-07-05 09:30:16,1.0,1.0
2018-07-05 09:30:21,1.0,1.0
2018-07-05 09:30:26,1.0,1.0
2018-07-05 09:30:31,1.0,1.0
2018-07-05 09:30:36,1.0,1.0
2018-07-05 09:30:41,1.0,1.0
2018-07-05 09:30:46,1.0,1.0
2018-07-05 09:30:51,1.0,1.0
2018-07-05 09:30:56,1.0,1.0
2018-07-05 09:31:01,1.0,1.0
2018-07-05 09:31:06,1.0,1.0
2018-07-05 09:31:11,1.0,1.0
2018-07-05 09:31:16,1.0,1.0
2018-07-05 09:31:21,1.0,1.0
2018-07-05 09:31:26,1.0,1.0
2018-07-05 09:31:31,1.0,1.0
2018-07-05 09:31:36,1.0,1.0
2018-07-05 09:31:41,1.0,1.0
2018-07-05 09:31:46,1.0,1.0
2018-07-05 09:31:51,1.0,1.0
2018-07-05 09:31:56,1.0,1.0
2018-07-05 09:32:01,1.0,1.0
2018-07-05 09:32:06,1.0,1.0
2018-07-05 09:32:11,1.0,1.0
2018-07-05 09:32:16,1.0,1.0
2018-07-05 09:32:21,1.0,1.0
2018-07-05 09:32:26,1.0,1.0
2018-07-05 09:32:31,1.0,1.0
2018-07-05 09:32:36,1.0,1.0
2018-07-05 09:32:41,1.0,1.0
2018-07-05 09:32:46,1.0,1.0
2018-07-05 09:32:51,1.0,1.0
2018-07-05 09:32:56,1.0,1.0
2018-07-05 09:33:01,1.0,1.0
2018-07-05 09:33:06,1.0,1.0
2018-07-05 09:33:11,1.0,1.0
2018-07-05 09:33:16,1.0,1.0
2018-07-05 09:33:21,1.0,1.0
2018-07-05 09:33:26,1.0,1.0
2018-07-05 09:33:31,1.0,1.0
2018-07-05 09:33:36,1.0,1.0
2018-07-05 09:33:41,1.0,1.0
2018-07-05 09:33:46,1.0,1.0
2018-07-05 09:33:51,1.0,1.0
2018-07-05 09:33:56,1.0,1.0
2018-07-05 09:34:01,1.0,1.0
2018-07-05 09:34:06,1.0,1.0
2018-07-05 09:34:11,1.0,1.0
2018-07-05 09:34:16,1.0,1.0
2018-07-05 09:34:21,1.0,1.0
2018-07-05 09:34:26,1.0,1.0
2018-07-05 09:34:31,1.0,1.0
2018-07-05 09:34:36,1.0,1.0
2018-07-05 09:34:41,1.0,1.0
2018-07-05 09:34:46,1.0,1.0
2018-07-05 09:34:51,1.0,1.0
2018-07-05 09:34:56,1.0,1.0
2018-07-05 09:35:01,1.0,1.0
2018-07-05 09:35:06,1.0,1.0
2018-07-05 09:35:11,1.0,1.0
2018-07-05 09:35:16,1.0,1.0
2018-07-05 09:35:21,1.0,1.0
2018-07-05 09:35:26,1.0,1.0
2018-07-05 09:35:31,-1.0,1.0
2018-07-05 09:35:36,-1.0,1.0
2018-07-05 09:35:41,1.0,1.0
2018-07-05 09:35:46,1.0,1.0
2018-07-05 09:35:51,1.0,1.0
2018-07-05 09:35:56,1.0,1.0
2018-07-05 09:36:01,1.0,1.0
2018-07-05 09:36:06,1.0,1.0
2018-07-05 09:36:11,-1.0,1.0
2018-07-05 09:36:16,1.0,1.0
2018-07-05 09:36:21,1.0,1.0
2018-07-05 09:36:26,1.0,1.0
2018-07-05 09:36:31,1.0,1.0
2018-07-05 09:36:36,1.0,1.0
2018-07-05 09:36:41,1.0,1.0
2018-07-05 09:36:46,1.0,1.0
2018-07-05 09:36:51,1.0,1.0
2018-07-05 09:36:56,1.0,1.0
2018-07-05 09:37:01,1.0,1.0
2018-07-05 09:37:06,1.0,1.0
2018-07-05 09:37:11,1.0,1.0
2018-07-05 09:37:16,-1.0,1.0
2018-07-05 09:37:21,-1.0,1.0
2018-07-05 09:37:26,1.0,1.0
2018-07-05 09:37:31,1.0,1.0
2018-07-05 09:37:36,1.0,1.0
2018-07-05 09:37:41,1.0,1.0
2018-07-05 09:37:46,1.0,1.0
2018-07-05 09:37:51,1.0,1.0
2018-07-05 09:37:56,1.0,1.0
2018-07-05 09:38:01,1.0,1.0
2018-07-05 09:38:06,1.0,1.0
2018-07-05 09:38:11,1.0,1.0
2018-07-05 09:38:16,1.0,1.0
2018-07-05 09:38:21,1.0,1.0
2018-07-05 09:38:26,1.0,1.0
2018-07-05 09:38:31,1.0,1.0
2018-07-05 09:38:36,1.0,1.0
2018-07-05 09:38:41,1.0,1.0
2018-07-05 09:38:46,1.0,1.0
2018-07-05 09:38:51,1.0,1.0
2018-07-05 09:38:56,1.0,1.0
2018-07-05 09:39:01,1.0,1.0
2018-07-05 09:39:06,1.0,1.0
2018-07-05 09:39:11,1.0,1.0
2018-07-05 09:39:16,1.0,1.0
2018-07-05 09:39:21,1.0,1.0
2018-07-05 09:39:26,1.0,1.0
2018-07-05 09:39:31,1.0,1.0
2018-07-05 09:39:36,1.0,1.0
2018-07-05 09:39:41,1.0,1.0
2018-07-05 09:39:46,1.0,1.0
2018-07-05 09:39:51,1.0,1.0
2018-07-05 09:39:56,1.0,1.0
2018-07-05 09:40:01,1.0,1.0
2018-07-05 09:40:06,1.0,1.0
2018-07-05 09:40:11,1.0,1.0
2018-07-05 09:40:16,1.0,1.0
2018-07-05 09:40:21,1.0,1.0
2018-07-05 09:40:26,1.0,1.0
2018-07-05 09:40:31,1.0,1.0
2018-07-05 09:40:36,1.0,1.0
2018-07-05 09:40:41,1.0,1.0
2018-07-05 09:40:46,1.0,1.0
2018-07-05 09:40:51,1.0,1.0
2018-07-05 09:40:56,1.0,1.0
2018-07-05 09:41:01,1.0,1.0
2018-07-05 09:41:06,1.0,1.0
2018-07-05 09:41:11,1.0,1.0
2018-07-05 09:41:16,1.0,1.0
2018-07-05 09:41:21,1.0,1.0
2018-07-05 09:41:26,1.0,1.0
2018-07-05 09:41:31,1.0,1.0
2018-07-05 09:41:36,1.0,1.0
2018-07-05 09:41:41,1.0,1.0
2018-07-05 09:41:46,1.0,1.0
2018-07-05 09:41:51,1.0,1.0
2018-07-05 09:41:56,1.0,1.0
2018-07-05 09:42:01,1.0,1.0
2018-07-05 09:42:06,1.0,1.0
2018-07-05 09:42:11,1.0,1.0
2018-07-05 09:42:16,1.0,1.0
2018-07-05 09:42:21,1.0,1.0
2018-07-05 09:42:26,1.0,1.0
2018-07-05 09:42:31,1.0,1.0
2018-07-05 09:42:36,1.0,1.0
2018-07-05 09:42:41,1.0,1.0
2018-07-05 09:42:46,1.0,1.0
2018-07-05 09:42:51,1.0,1.0
2018-07-05 09:42:56,1.0,1.0
2018-07-05 09:43:01,1.0,1.0
2018-07-05 09:43:06,1.0,1.0
2018-07-05 09:43:11,1.0,1.0
2018-07-05 09:43:16,1.0,1.0
2018-07-05 09:43:21,1.0,1.0
2018-07-05 09:43:26,1.0,1.0
2018-07-05 09:43:31,1.0,1.0
2018-07-05 09:43:36,1.0,1.0
2018-07-05 09:43:41,1.0,1.0
2018-07-05 09:43:46,1.0,1.0
2018-07-05 09:43:51,1.0,1.0
2018-07-05 09:43:56,1.0,1.0
2018-07-05 09:44:01,1.0,1.0
2018-07-05 09:44:06,-1.0,1.0
2018-07-05 09:44:11,1.0,1.0
2018-07-05 09:44:16,1.0,1.0
2018-07-05 09:44:21,1.0,1.0
2018-07-05 09:44:26,1.0,1.0
2018-07-05 09:44:31,1.0,1.0
2018-07-05 09:44:36,1.0,1.0
2018-07-05 09:44:41,-1.0,1.0
2018-07-05 09:44:46,1.0,1.0
2018-07-05 09:44:51,1.0,1.0
2018-07-05 09:44:56,1.0,1.0
2018-07-05 09:45:01,-1.0,1.0
2018-07-05 09:45:06,1.0,1.0
2018-07-05 09:45:11,1.0,1.0
2018-07-05 09:45:16,1.0,1.0
2018-07-05 09:45:21,1.0,1.0
2018-07-05 09:45:26,1.0,1.0
2018-07-05 09:45:31,1.0,1.0
2018-07-05 09:45:36,1.0,1.0
2018-07-05 09:45:41,1.0,1.0
2018-07-05 09:45:46,1.0,1.0
2018-07-05 09:45:51,1.0,1.0
2018-07-05 09:45:56,1.0,1.0
2018-07-05 09:46:01,1.0,1.0
2018-07-05 09:46:06,1.0,1.0
2018-07-05 09:46:11,1.0,1.0
2018-07-05 09:46:16,1.0,1.0
2018-07-05 09:46:21,1.0,1.0
2018-07-05 09:46:26,1.0,1.0
2018-07-05 09:46:31,1.0,1.0
2018-07-05 09:46:36,1.0,1.0
2018-07-05 09:46:41,1.0,1.0
2018-07-05 09:46:46,1.0,1.0
2018-07-05 09:46:51,1.0,1.0
2018-07-05 09:46:56,1.0,1.0
2018-07-05 09:47:01,1.0,1.0
2018-07-05 09:47:06,1.0,1.0
2018-07-05 09:47:11,-1.0,1.0
2018-07-05 09:47:16,1.0,1.0
2018-07-05 09:47:21,1.0,1.0
2018-07-05 09:47:26,1.0,1.0
2018-07-05 09:47:31,1.0,1.0
2018-07-05 09:47:36,-1.0,1.0
2018-07-05 09:47:41,1.0,1.0
2018-07-05 09:47:46,-1.0,1.0
2018-07-05 09:47:51,1.0,1.0
2018-07-05 09:47:56,1.0,0.0
2018-07-05 09:48:01,1.0,1.0
2018-07-05 09:48:06,1.0,1.0
2018-07-05 09:48:11,1.0,1.0
2018-07-05 09:48:16,1.0,1.0
2018-07-05 09:48:21,1.0,1.0
2018-07-05 09:48:26,1.0,1.0
2018-07-05 09:48:31,1.0,1.0
2018-07-05 09:48:36,-1.0,1.0
2018-07-05 09:48:41,-1.0,0.0
2018-07-05 09:48:46,-1.0,-1.0
2018-07-05 09:48:51,1.0,1.0
2018-07-05 09:48:56,1.0,1.0
2018-07-05 09:49:01,1.0,1.0
2018-07-05 09:49:06,1.0,1.0
2018-07-05 09:49:11,1.0,1.0
2018-07-05 09:49:16,1.0,1.0
2018-07-05 09:49:21,1.0,1.0
2018-07-05 09:49:26,1.0,1.0
2018-07-05 09:49:31,1.0,1.0
2018-07-05 09:49:36,1.0,1.0
2018-07-05 09:49:41,1.0,1.0
2018-07-05 09:49:46,1.0,1.0
2018-07-05 09:49:51,1.0,1.0
2018-07-05 09:49:56,1.0,1.0
2018-07-05 09:50:01,1.0,1.0
2018-07-05 09:50:06,1.0,1.0
2018-07-05 09:50:11,1.0,1.0
2018-07-05 09:50:16,1.0,1.0
2018-07-05 09:50:21,1.0,1.0
2018-07-05 09:50:26,1.0,1.0
2018-07-05 09:50:31,1.0,1.0
2018-07-05 09:50:36,1.0,1.0
2018-07-05 09:50:41,1.0,1.0
2018-07-05 09:50:46,1.0,1.0
2018-07-05 09:50:51,1.0,1.0
2018-07-05 09:50:56,1.0,1.0
2018-07-05 09:51:01,1.0,1.0
2018-07-05 09:51:06,1.0,1.0
2018-07-05 09:51:11,1.0,1.0
2018-07-05 09:51:16,1.0,1.0
2018-07-05 09:51:21,1.0,1.0
2018-07-05 09:51:26,1.0,1.0
2018-07-05 09:51:31,1.0,1.0
2018-07-05 09:51:36,1.0,1.0
2018-07-05 09:51:41,1.0,1.0
2018-07-05 09:51:46,1.0,1.0
2018-07-05 09:51:51,1.0,1.0
2018-07-05 09:51:56,1.0,1.0
2018-07-05 09:52:01,1.0,1.0
2018-07-05 09:52:06,1.0,1.0
2018-07-05 09:52:11,1.0,1.0
2018-07-05 09:52:16,1.0,1.0
2018-07-05 09:52:21,1.0,1.0
2018-07-05 09:52:26,1.0,1.0
2018-07-05 09:52:31,1.0,1.0
2018-07-05 09:52:36,1.0,1.0
2018-07-05 09:52:41,1.0,1.0
2018-07-05 09:52:46,1.0,1.0
2018-07-05 09:52:51,1.0,1.0
2018-07-05 09:52:56,1.0,1.0
2018-07-05 09:53:01,1.0,1.0
2018-07-05 09:53:06,1.0,1.0
2018-07-05 09:53:11,1.0,1.0
2018-07-05 09:53:16,1.0,1.0
2018-07-05 09:53:21,1.0,1.0
2018-07-05 09:53:26,1.0,1.0
2018-07-05 09:53:31,1.0,1.0
2018-07-05 09:53:36,1.0,1.0
2018-07-05 09:53:41,1.0,1.0
2018-07-05 09:53:46,-1.0,1.0
2018-07-05 09:53:51,1.0,1.0
2018-07-05 09:53:56,1.0,1.0
2018-07-05 09:54:01,1.0,1.0
2018-07-05 09:54:06,1.0,1.0
2018-07-05 09:54:11,1.0,1.0
2018-07-05 09:54:16,1.0,1.0
2018-07-05 09:54:21,1.0,1.0
2018-07-05 09:54:26,1.0,1.0
2018-07-05 09:54:31,1.0,1.0
2018-07-05 09:54:36,1.0,1.0
2018-07-05 09:54:41,1.0,1.0
2018-07-05 09:54:46,1.0,1.0
2018-07-05 09:54:51,1.0,1.0
2018-07-05 09:54:56,1.0,1.0
2018-07-05 09:55:01,1.0,1.0
2018-07-05 09:55:06,1.0,1.0
2018-07-05 09:55:11,1.0,1.0
2018-07-05 09:55:16,1.0,1.0
2018-07-05 09:55:21,1.0,1.0
2018-07-05 09:55:26,1.0,1.0
2018-07-05 09:55:31,1.0,1.0
2018-07-05 09:55:36,1.0,1.0
2018-07-05 09:55:41,1.0,1.0
2018-07-05 09:55:46,1.0,1.0
2018-07-05 09:55:51,1.0,1.0
2018-07-05 09:55:56,1.0,1.0
2018-07-05 09:56:01,1.0,1.0
2018-07-05 09:56:06,-1.0,1.0
2018-07-05 09:56:11,1.0,1.0
2018-07-05 09:56:16,1.0,1.0
2018-07-05 09:56:21,1.0,1.0
2018-07-05 09:56:26,1.0,1.0
2018-07-05 09:56:31,1.0,1.0
2018-07-05 09:56:36,1.0,1.0
2018-07-05 09:56:41,1.0,1.0
2018-07-05 09:56:46,-1.0,1.0
2018-07-05 09:56:51,1.0,1.0
2018-07-05 09:56:56,1.0,1.0
2018-07-05 09:57:01,1.0,1.0
2018-07-05 09:57:06,1.0,1.0
2018-07-05 09:57:11,1.0,1.0
2018-07-05 09:57:16,1.0,1.0
2018-07-05 09:57:21,1.0,1.0
2018-07-05 09:57:26,1.0,1.0
2018-07-05 09:57:31,-1.0,1.0
2018-07-05 09:57:36,-1.0,1.0
